<?xml version="1.0" encoding="utf-8"?>
<!-- Generator: Adobe Illustrator 24.0.2, SVG Export Plug-In . SVG Version: 6.00 Build 0)  -->
<svg version="1.1" id="레이어_1" xmlns="http://www.w3.org/2000/svg" xmlns:xlink="http://www.w3.org/1999/xlink" x="0px"
	 y="0px" viewBox="0 0 60 60" style="enable-background:new 0 0 60 60;" xml:space="preserve">
<style type="text/css">
	.st0{fill:#202020;}
</style>
<path class="st0" d="M45.4,22.7h-31c-0.6,0-1.1,0.4-1.4,0.9c-0.2,0.6-0.1,1.2,0.3,1.6l15.5,15.5c0.3,0.3,0.7,0.4,1.1,0.4
	s0.8-0.2,1.1-0.4l15.5-15.5c0.4-0.4,0.6-1.1,0.3-1.6C46.6,23.1,46,22.7,45.4,22.7z"/>
</svg>
