<?xml version="1.0" encoding="utf-8"?>
<!-- Generator: Adobe Illustrator 24.0.2, SVG Export Plug-In . SVG Version: 6.00 Build 0)  -->
<svg version="1.1" id="레이어_1" xmlns="http://www.w3.org/2000/svg" xmlns:xlink="http://www.w3.org/1999/xlink" x="0px"
	 y="0px" viewBox="0 0 42 42" style="enable-background:new 0 0 42 42;" xml:space="preserve">
<style type="text/css">
	.st0{fill:#202020;}
</style>
<g id="그룹_15811" transform="translate(27.989 -243.974)">
	<path id="패스_12050" class="st0" d="M2.79,251.26v-0.53l-0.03-0.66l-0.05-0.74v-0.01v-0.04l0,0v-0.02l-0.01-0.06l-0.01-0.06
		l-0.02-0.05l-0.02-0.05l-0.02-0.05l-0.03-0.04l-0.03-0.04l-0.03-0.04l-0.03-0.03l-0.03-0.03l-0.07-0.05l-0.08-0.04l-0.08-0.04
		l-0.08-0.03l-0.08-0.02l-0.08-0.01l-0.15-0.01H1.41l-0.3-0.01l-0.55-0.03l-1.03-0.08c-0.34-0.02-0.72-0.03-1.16-0.02
		c-0.83,0.01-2.52,0.15-3.34,0.13c-0.57-0.01-1.15-0.09-1.72-0.11l-0.23-0.01c-1.35-0.07-2.7,0.11-4.05,0.13
		c-1.09,0.01-1.74-0.07-2.58-0.12l-0.47-0.02h-0.53l-0.66,0.03l-0.74,0.05h-0.01h-0.04l0,0h-0.02l-0.06,0.01l-0.06,0.01l-0.05,0.02
		l-0.05,0.02l-0.05,0.02l-0.04,0.03l-0.04,0.03l-0.04,0.03l-0.03,0.03l-0.03,0.03l-0.05,0.07l-0.04,0.08l-0.03,0.08l-0.03,0.08
		l-0.02,0.08l-0.01,0.08l-0.01,0.15v0.12v0.33l-0.01,0.31l-0.03,0.55l-0.08,1.03c-0.02,0.35-0.03,0.73-0.03,1.18
		c0.01,0.84,0.16,2.55,0.14,3.38c-0.01,0.58-0.09,1.16-0.11,1.74c0,0.08-0.01,0.16-0.01,0.23c-0.07,1.36,0.11,2.73,0.13,4.1
		c0.01,1.1-0.07,1.77-0.12,2.61c-0.02,0.35-0.03,0.73-0.03,1.18c0.01,0.84,0.16,2.55,0.14,3.39c-0.01,0.58-0.09,1.16-0.11,1.74
		c0,0.08-0.01,0.16-0.01,0.23c-0.07,1.36,0.11,2.73,0.13,4.1c0.01,1.1-0.07,1.77-0.12,2.61l-0.02,0.47v0.53l0.03,0.66l0.05,0.74
		v0.01v0.04l0,0v0.02l0.01,0.06l0.01,0.06l0.02,0.05l0.02,0.05l0.02,0.05l0.03,0.04l0.03,0.04l0.03,0.04l0.03,0.03l0.03,0.03
		l0.07,0.05l0.08,0.04l0.08,0.04l0.08,0.03l0.08,0.02l0.08,0.01l0.15,0.01h0.45l0.3,0.01l0.55,0.03l1.03,0.08l0,0
		c0.34,0.02,0.72,0.03,1.16,0.02c0.83-0.01,2.52-0.15,3.34-0.14c0.57,0.01,1.15,0.09,1.72,0.11l0.23,0.01
		c1.35,0.07,2.7-0.11,4.05-0.13c1.09-0.01,1.74,0.07,2.58,0.12l0,0l0.47,0.02h0.53l0.66-0.03l0.74-0.05h0.02h0.04l0,0H2l0.06-0.01
		l0.06-0.01l0.05-0.02l0.05-0.02l0.05-0.02l0.04-0.03l0.04-0.03l0.04-0.03l0.03-0.03l0.03-0.03l0.05-0.07l0.04-0.08l0.04-0.08
		l0.03-0.08l0.02-0.08l0.01-0.08l0.01-0.15v-0.12v-0.33l0.01-0.31l0.03-0.55l0.08-1.03c0.02-0.35,0.03-0.73,0.03-1.18
		c-0.01-0.84-0.15-2.55-0.14-3.39c0.01-0.58,0.09-1.16,0.11-1.74c0-0.08,0.01-0.16,0.01-0.23c0.07-1.36-0.11-2.73-0.13-4.1
		c-0.02-1.1,0.07-1.77,0.12-2.61c0.02-0.35,0.03-0.73,0.03-1.18c-0.01-0.84-0.15-2.55-0.14-3.39c0.01-0.58,0.09-1.16,0.11-1.74
		c0-0.08,0.01-0.16,0.01-0.23c0.07-1.36-0.11-2.73-0.13-4.1c-0.02-1.1,0.07-1.76,0.12-2.61L2.79,251.26z M-6.78,261.09
		c0.04,0.35,0.05,0.7,0.04,1.05v0.33c0.02,0.03-0.04,0.05,0.06,0.09c0.31,0.15,0.68,0.12,0.97-0.07c0.07-0.05,0.13-0.1,0.19-0.16
		l0.02-0.02l0.02-0.03l0.19-0.22l0.78-0.87c0.43-0.46,0.94-0.86,1.35-1.34l0.6-0.75c0.61-0.71,1.1-1.43,1.79-2.13
		c0.6-0.61,1.12-1.18,1.62-1.75c0,0.35,0.01,0.7,0,1.06c-0.01,0.3-0.03,0.6-0.06,0.89c-0.2,0.15-0.37,0.35-0.49,0.57
		c-0.06,0.09-0.12,0.17-0.19,0.25c-0.2,0.22-0.4,0.44-0.62,0.68s-0.44,0.51-0.7,0.85c-0.48,0.62-1.35,1.96-1.85,2.56
		c-0.35,0.42-0.74,0.8-1.09,1.21l-0.14,0.16c-0.62,0.75-1.2,1.53-1.72,2.34c-0.07-0.34-0.14-0.64-0.23-0.97l-0.13-0.44
		c-0.06-0.16-0.05-0.31-0.27-0.43c-0.18-0.1-0.4-0.13-0.6-0.07c-0.18,0.09-0.34,0.2-0.5,0.33c-0.41,0.3-0.79,0.64-1.11,1.04
		l-0.64,0.79c-0.47,0.55-1.09,1.17-1.39,1.5l-0.15,0.16c-0.87,0.93-1.54,2.03-2.34,3.02c-0.56,0.69-0.98,1.1-1.43,1.57
		c0.02-0.23,0.04-0.46,0.03-0.7c0-0.25-0.02-0.57-0.04-0.88c0.24-0.14,0.43-0.35,0.55-0.59c0.11-0.19,0.24-0.37,0.38-0.54
		c0.12-0.14,0.24-0.29,0.35-0.43l1.19-1.48c0.49-0.6,0.97-1.21,1.48-1.8c0.42-0.48,0.91-0.89,1.3-1.39
		c0.16-0.21,0.38-0.51,0.58-0.77l0.42-0.55l0.2-0.27l0.12-0.17c0.16-0.23,0.33-0.45,0.53-0.65l0.12-0.12
		C-7.28,261.67-7.06,261.35-6.78,261.09z M0.84,267.03c0.01,0.84,0.03,1.68,0.01,2.51c-0.02,0.68-0.13,1.37-0.11,2.05
		c0,0.29,0.03,0.68,0.05,1.03c0.02,1,0.13,1.94,0.08,3c-0.05,0.94-0.05,1.78-0.04,2.61l0.02,1v0.04l-0.01,0.04l-0.01,0.04
		l-0.01,0.03l-0.02,0.03l-0.02,0.02l-0.03,0.02l-0.03,0.02l-0.03,0.02l-0.04,0.01l-0.04,0.01l-0.04,0.01H0.49h-0.96
		c-0.67,0.01-1.33,0.02-2.03,0.03c-0.83,0.01-1.65,0.03-2.48,0.01c-0.67-0.02-1.35-0.13-2.02-0.11c-0.28,0.01-0.68,0.03-1.02,0.05
		c-0.99,0.02-1.91,0.13-2.96,0.08c-0.92-0.05-1.76-0.05-2.58-0.04l0,0l-1,0.02h-0.04l-0.04-0.01l-0.04-0.01l-0.03-0.02l-0.03-0.02
		l-0.02-0.02l-0.02-0.03l-0.02-0.03l-0.02-0.03l-0.01-0.04l-0.01-0.04l-0.01-0.04v-0.06v-0.14l0,0v-0.82
		c-0.01-0.68-0.02-1.35-0.03-2.05c0-0.26,0-0.52,0-0.78h0.01c0.26-0.07,0.49-0.4,0.62-0.63c0.11-0.19,0.24-0.37,0.38-0.55
		c0.12-0.14,0.24-0.29,0.36-0.43l1.2-1.49c0.49-0.61,0.98-1.22,1.49-1.81c0.42-0.48,0.91-0.9,1.31-1.39l0.56-0.74
		c0.2-0.25,0.37-0.54,0.59-0.83c0.13-0.18,0.26-0.34,0.42-0.5c0.16-0.12,0.29-0.44,0.54-0.29c0.11,0.07,0.11,0.2,0.11,0.31v0.33
		l0.01,0.53c0,0.09-0.01,0.18,0.1,0.26c0.42,0.32,1,0.37,1.46,0.11c0.14-0.08,0.27-0.18,0.37-0.31l0.11-0.14l0.18-0.23l0.36-0.46
		l0.73-0.92c0.41-0.49,0.89-0.92,1.27-1.43l0.56-0.79c0.56-0.75,1.02-1.5,1.67-2.24c0.49-0.56,0.91-1.08,1.32-1.6
		c0.05,0.73,0.07,1.46,0.05,2.19c-0.05,0.94-0.05,1.78-0.04,2.61C0.82,265.65,0.84,266.33,0.84,267.03L0.84,267.03z M0.83,252.46
		c-0.23,0.14-0.41,0.33-0.55,0.56c-0.06,0.08-0.13,0.17-0.2,0.24c-0.22,0.21-0.43,0.41-0.66,0.64s-0.47,0.48-0.75,0.8
		c-0.51,0.59-1.46,1.87-1.99,2.44c-0.37,0.39-0.79,0.75-1.16,1.14l-0.16,0.15c-0.4,0.41-0.77,0.84-1.11,1.28
		c-0.09-0.53-0.24-1.05-0.44-1.55c-0.3,0.09-0.59,0.23-0.84,0.42c-0.35,0.23-0.66,0.51-0.92,0.84c-0.63,0.83-1.42,1.88-1.85,2.37
		c-0.35,0.41-0.76,0.77-1.12,1.18l-0.15,0.16c-0.87,0.93-1.54,2.02-2.33,3.01c-0.59,0.73-1.03,1.15-1.51,1.65c0-0.07,0-0.13,0-0.2
		c0.05-0.94,0.05-1.78,0.04-2.61c-0.01-0.68-0.02-1.35-0.03-2.05c-0.01-0.84-0.03-1.68-0.01-2.51c0.02-0.68,0.13-1.37,0.11-2.05
		c-0.01-0.29-0.03-0.68-0.05-1.03c-0.02-1-0.13-1.94-0.07-3c0.05-0.94,0.05-1.78,0.04-2.61l-0.02-1v-0.04l0.01-0.04l0.01-0.04
		l0.02-0.03l0.02-0.03l0.02-0.02l0.03-0.02l0.03-0.02l0.03-0.02l0.04-0.01l0.04-0.01l0.04-0.01h0.06h0.96
		c0.67,0,1.33-0.02,2.03-0.03c0.83-0.01,1.65-0.03,2.48-0.01c0.67,0.01,1.35,0.13,2.02,0.11c0.28,0,0.68-0.03,1.02-0.05
		c0.99-0.02,1.91-0.13,2.96-0.07c0.92,0.05,1.76,0.05,2.58,0.04l1-0.01h0.04l0.04,0.01l0.04,0.01l0.03,0.01l0.03,0.02l0.02,0.02
		l0.02,0.03l0.02,0.03l0.01,0.03l0.01,0.04l0.01,0.04l0.01,0.04v0.06v0.14l0,0v0.82C0.82,251.97,0.82,252.21,0.83,252.46
		L0.83,252.46z"/>
	<path id="패스_12051" class="st0" d="M8.51,257.17c-0.13-0.1-0.27-0.18-0.43-0.23c-0.04-0.01-0.09-0.02-0.13-0.03
		c-0.13-0.02-0.16,0.08-0.2,0.16c-0.02,0.03-0.04,0.06-0.07,0.08c-0.08,0.05-0.17,0.1-0.25,0.16c-0.05,0.03-0.09,0.06-0.13,0.1
		c-0.06,0.04-0.12,0.08-0.17,0.12c-0.12,0.19-0.1,0.44,0.04,0.61c0.16,0.26,0.36,0.5,0.6,0.7c0.18,0.12,0.37,0.21,0.57,0.29
		c0.16,0.06,0.22-0.06,0.25-0.15c0.02-0.07,0.06-0.14,0.11-0.19c0.04-0.04,0.08-0.09,0.12-0.13s0.08-0.08,0.11-0.13
		c0.04-0.04,0.14-0.08,0.19-0.14c0.07-0.09,0.15-0.13,0.07-0.36C9.05,257.7,8.81,257.4,8.51,257.17z"/>
	<path id="패스_12052" class="st0" d="M11.49,255.05c0.18,0.12,0.37,0.22,0.57,0.29c0.16,0.06,0.22-0.06,0.25-0.15
		c0.02-0.07,0.06-0.14,0.11-0.19c0.04-0.04,0.08-0.09,0.12-0.13s0.08-0.08,0.11-0.13s0.14-0.09,0.19-0.14
		c0.08-0.09,0.15-0.13,0.07-0.36c-0.15-0.35-0.39-0.66-0.69-0.89c-0.13-0.1-0.28-0.18-0.43-0.23c-0.04-0.01-0.09-0.02-0.13-0.03
		c-0.13-0.02-0.16,0.08-0.21,0.16c-0.02,0.03-0.04,0.06-0.06,0.08c-0.08,0.05-0.17,0.1-0.25,0.16c-0.05,0.03-0.09,0.06-0.13,0.1
		c-0.06,0.04-0.12,0.08-0.17,0.12c-0.12,0.19-0.1,0.44,0.04,0.62C11.05,254.61,11.25,254.85,11.49,255.05z"/>
	<path id="패스_12053" class="st0" d="M12.87,257.59c-0.07-0.02-0.13-0.06-0.19-0.11c-0.04-0.04-0.09-0.09-0.13-0.13l-0.12-0.12
		c-0.05-0.05-0.08-0.14-0.14-0.19c-0.09-0.08-0.12-0.15-0.35-0.08c-0.35,0.14-0.66,0.37-0.9,0.67c-0.1,0.13-0.18,0.27-0.24,0.42
		c-0.01,0.04-0.03,0.09-0.03,0.13c-0.02,0.13,0.08,0.17,0.15,0.21c0.03,0.02,0.06,0.04,0.08,0.07c0.05,0.08,0.1,0.17,0.16,0.26
		c0.03,0.05,0.06,0.09,0.1,0.13c0.04,0.06,0.08,0.12,0.12,0.18c0.19,0.12,0.44,0.11,0.62-0.03c0.27-0.16,0.51-0.35,0.72-0.59
		c0.12-0.18,0.22-0.37,0.3-0.57C13.07,257.69,12.95,257.62,12.87,257.59z"/>
	<path id="패스_12054" class="st0" d="M9.14,253.77c-0.07-0.02-0.14-0.06-0.19-0.12c-0.04-0.04-0.09-0.09-0.13-0.13l-0.12-0.12
		c-0.05-0.05-0.08-0.15-0.14-0.19c-0.09-0.08-0.12-0.15-0.35-0.08c-0.35,0.14-0.66,0.38-0.9,0.67c-0.1,0.13-0.18,0.27-0.24,0.42
		c-0.01,0.04-0.03,0.09-0.03,0.13c-0.02,0.13,0.08,0.16,0.15,0.21c0.03,0.02,0.06,0.04,0.08,0.07c0.05,0.09,0.1,0.17,0.16,0.26
		c0.03,0.05,0.06,0.09,0.1,0.13c0.04,0.06,0.08,0.12,0.12,0.18c0.19,0.12,0.44,0.11,0.61-0.03c0.27-0.16,0.51-0.36,0.72-0.59
		c0.12-0.18,0.22-0.37,0.3-0.57C9.34,253.87,9.23,253.8,9.14,253.77z"/>
	<path id="패스_12055" class="st0" d="M-25.53,270.16c-0.13-0.1-0.27-0.18-0.43-0.23c-0.04-0.01-0.09-0.02-0.13-0.03
		c-0.13-0.02-0.16,0.08-0.21,0.16c-0.02,0.03-0.04,0.06-0.07,0.08c-0.08,0.05-0.17,0.1-0.25,0.16c-0.04,0.03-0.09,0.06-0.13,0.1
		c-0.06,0.04-0.12,0.08-0.17,0.12c-0.12,0.19-0.1,0.44,0.04,0.61c0.16,0.27,0.36,0.5,0.6,0.7c0.18,0.12,0.37,0.21,0.57,0.29
		c0.16,0.06,0.22-0.06,0.25-0.15c0.02-0.07,0.06-0.14,0.11-0.19c0.04-0.04,0.08-0.09,0.12-0.13l0.11-0.13
		c0.05-0.05,0.14-0.08,0.19-0.14c0.08-0.09,0.15-0.13,0.08-0.36C-24.99,270.69-25.23,270.39-25.53,270.16z"/>
	<path id="패스_12056" class="st0" d="M-22.55,268.03c0.18,0.12,0.37,0.22,0.57,0.29c0.16,0.06,0.22-0.06,0.25-0.15
		c0.02-0.07,0.06-0.14,0.11-0.19c0.04-0.04,0.08-0.09,0.12-0.13l0.11-0.13c0.05-0.05,0.14-0.08,0.19-0.14
		c0.08-0.09,0.15-0.13,0.08-0.36c-0.15-0.35-0.39-0.66-0.7-0.89c-0.13-0.1-0.27-0.18-0.43-0.23c-0.04-0.01-0.09-0.02-0.13-0.03
		c-0.13-0.02-0.16,0.08-0.21,0.16c-0.02,0.03-0.04,0.06-0.07,0.08c-0.08,0.05-0.17,0.1-0.25,0.16c-0.04,0.03-0.09,0.06-0.13,0.1
		c-0.06,0.04-0.12,0.08-0.17,0.12c-0.12,0.19-0.1,0.44,0.04,0.61C-23,267.59-22.79,267.83-22.55,268.03z"/>
	<path id="패스_12057" class="st0" d="M-21.18,270.57c-0.07-0.02-0.14-0.06-0.19-0.11c-0.04-0.04-0.08-0.09-0.13-0.13l-0.12-0.12
		c-0.05-0.05-0.08-0.14-0.14-0.19c-0.09-0.08-0.12-0.15-0.35-0.08c-0.35,0.14-0.66,0.37-0.9,0.67c-0.1,0.13-0.18,0.27-0.24,0.42
		c-0.01,0.04-0.02,0.08-0.03,0.13c-0.02,0.13,0.08,0.17,0.15,0.21c0.03,0.02,0.06,0.04,0.08,0.07c0.05,0.08,0.1,0.17,0.16,0.26
		c0.03,0.04,0.06,0.09,0.1,0.13c0.04,0.06,0.08,0.12,0.12,0.18c0.19,0.12,0.44,0.11,0.61-0.03c0.27-0.16,0.51-0.35,0.72-0.59
		c0.12-0.18,0.22-0.37,0.3-0.57C-20.97,270.67-21.09,270.6-21.18,270.57z"/>
	<path id="패스_12058" class="st0" d="M-24.9,266.75c-0.07-0.02-0.13-0.06-0.19-0.11c-0.04-0.04-0.08-0.09-0.13-0.13
		s-0.08-0.08-0.12-0.12s-0.08-0.14-0.14-0.19c-0.09-0.08-0.12-0.15-0.35-0.08c-0.35,0.14-0.66,0.37-0.9,0.67
		c-0.1,0.13-0.18,0.27-0.24,0.42c-0.01,0.04-0.03,0.09-0.03,0.13c-0.02,0.13,0.08,0.17,0.15,0.21c0.03,0.02,0.06,0.04,0.08,0.07
		c0.05,0.08,0.1,0.17,0.16,0.26c0.03,0.05,0.06,0.09,0.1,0.13c0.04,0.06,0.08,0.12,0.12,0.18c0.19,0.12,0.44,0.11,0.62-0.03
		c0.27-0.16,0.51-0.35,0.72-0.59c0.12-0.18,0.22-0.37,0.3-0.57C-24.7,266.85-24.82,266.79-24.9,266.75z"/>
	<path id="패스_12059" class="st0" d="M5.97,248.22L6,247.76v-0.53l-0.03-0.66l-0.05-0.74v-0.01v-0.04l0,0v-0.02l-0.01-0.06
		l-0.01-0.06l-0.02-0.05l-0.02-0.05l-0.02-0.05l-0.03-0.04l-0.03-0.04l-0.03-0.04l-0.03-0.03l-0.03-0.03l-0.07-0.05l-0.08-0.04
		l-0.08-0.04l-0.08-0.03l-0.08-0.02l-0.08-0.01l-0.15-0.01H4.61l-0.31-0.01l-0.55-0.03l-1.03-0.08c-0.25-0.02-0.53-0.03-0.87-0.02
		c-0.62,0.01-1.87,0.15-2.49,0.13c-0.43-0.01-0.86-0.09-1.28-0.11l-0.17-0.01c-1-0.07-2.01,0.11-3.01,0.13
		c-0.64,0-1.28-0.04-1.92-0.12c-0.26-0.02-0.53-0.03-0.87-0.02c-0.62,0.01-1.88,0.15-2.49,0.13c-0.43-0.01-0.86-0.09-1.28-0.11
		l-0.17-0.01c-1-0.07-2.01,0.11-3.01,0.13c-0.64,0-1.28-0.04-1.92-0.12l-0.47-0.02h-0.53l-0.66,0.03l-0.75,0.05h-0.01h-0.04l0,0
		h-0.02l-0.06,0.01l-0.06,0.01l-0.05,0.02l-0.05,0.02l-0.05,0.02l-0.04,0.03l-0.04,0.03l-0.04,0.03l-0.03,0.03l-0.03,0.03
		l-0.05,0.07l-0.04,0.08l-0.03,0.08l-0.03,0.08l-0.02,0.08l-0.01,0.08l-0.01,0.15V246v0.33l-0.01,0.31l-0.03,0.55l-0.08,1.03l0,0
		c-0.02,0.29-0.03,0.61-0.03,0.99c0.01,0.71,0.16,2.15,0.14,2.85c-0.01,0.49-0.09,0.98-0.11,1.47c0,0.07-0.01,0.13-0.01,0.2
		c-0.07,1.15,0.11,2.3,0.13,3.45c0.01,0.93-0.07,1.49-0.12,2.2c-0.02,0.29-0.03,0.61-0.03,0.99c0.01,0.71,0.16,2.15,0.14,2.85
		c-0.01,0.49-0.09,0.98-0.11,1.47c0,0.07-0.01,0.13-0.01,0.2c-0.07,1.15,0.11,2.3,0.13,3.45c0.01,0.93-0.07,1.49-0.12,2.2
		c-0.02,0.29-0.03,0.61-0.03,0.99c0.01,0.71,0.16,2.15,0.14,2.85c-0.01,0.49-0.09,0.98-0.11,1.47c0,0.07-0.01,0.13-0.01,0.2
		c-0.07,1.15,0.11,2.3,0.13,3.45c0.01,0.93-0.07,1.49-0.12,2.2l0,0l-0.02,0.47v0.53l0.03,0.66l0.05,0.74v0.01v0.04l0,0v0.02
		l0.01,0.06l0.01,0.06l0.02,0.05l0.02,0.05l0.02,0.05l0.02,0.04l0.03,0.04l0.03,0.04l0.03,0.03l0.03,0.03l0.07,0.05l0.08,0.04
		l0.08,0.04l0.08,0.03l0.08,0.02l0.08,0.01l0.15,0.01h0.45l0.31,0.01l0.55,0.03l1.03,0.08l0,0c0.25,0.02,0.53,0.03,0.87,0.02
		c0.62-0.01,1.87-0.15,2.49-0.14c0.43,0.01,0.86,0.09,1.28,0.11l0.17,0.01c1,0.07,2.01-0.11,3.01-0.13c0.64,0,1.28,0.04,1.92,0.12
		c0.26,0.02,0.53,0.03,0.87,0.02c0.62-0.01,1.88-0.15,2.49-0.14c0.43,0.01,0.86,0.09,1.28,0.11l0.17,0.01
		c1,0.07,2.01-0.11,3.01-0.13c0.64,0,1.28,0.04,1.92,0.12l0,0L3.19,285h0.53l0.66-0.03l0.74-0.05h0.01h0.04l0,0H5.2l0.06-0.01
		l0.06-0.01l0.05-0.02l0.05-0.02l0.05-0.02l0.04-0.03l0.04-0.03l0.04-0.03l0.03-0.03l0.03-0.03l0.05-0.07l0.04-0.08l0.03-0.08
		l0.03-0.08l0.02-0.08l0.01-0.08l0.01-0.15v-0.12v-0.33l0.01-0.31l0.03-0.55l0.08-1.03l0,0c0.02-0.29,0.03-0.61,0.03-0.99
		c-0.01-0.7-0.16-2.15-0.14-2.85c0.01-0.49,0.09-0.98,0.11-1.47c0.01-0.07,0.01-0.13,0.01-0.2c0.07-1.15-0.11-2.3-0.13-3.45
		c-0.01-0.93,0.07-1.49,0.12-2.2c0.02-0.29,0.03-0.61,0.03-0.99c-0.01-0.71-0.16-2.15-0.14-2.85c0.01-0.49,0.09-0.98,0.11-1.47
		c0.01-0.07,0.01-0.13,0.01-0.2c0.07-1.15-0.11-2.3-0.13-3.45c-0.01-0.93,0.07-1.49,0.12-2.2C5.99,259.1,6,258.78,6,258.4
		c-0.01-0.71-0.16-2.15-0.14-2.85c0.01-0.49,0.09-0.98,0.11-1.47c0.01-0.07,0.01-0.13,0.01-0.2c0.07-1.15-0.11-2.3-0.13-3.46
		C5.84,249.49,5.93,248.93,5.97,248.22L5.97,248.22z M4.05,249.95c0.01,0.71,0.03,1.41,0.01,2.12c-0.02,0.57-0.13,1.15-0.12,1.72
		c0.01,0.24,0.03,0.58,0.05,0.87c0.02,0.85,0.13,1.63,0.08,2.53c-0.05,0.79-0.05,1.5-0.04,2.2c0.01,0.57,0.02,1.14,0.03,1.73
		c0.01,0.71,0.03,1.41,0.01,2.12c-0.02,0.58-0.13,1.15-0.12,1.72c0.01,0.24,0.03,0.58,0.05,0.87c0.02,0.85,0.13,1.64,0.08,2.53
		c-0.05,0.79-0.05,1.5-0.04,2.2c0.01,0.57,0.02,1.14,0.03,1.73c0.01,0.7,0.03,1.41,0.01,2.12c-0.02,0.58-0.13,1.15-0.12,1.72
		c0.01,0.24,0.03,0.58,0.05,0.87c0.02,0.85,0.13,1.64,0.08,2.52c-0.05,0.79-0.05,1.5-0.04,2.2l0,0l0.02,1v0.04l-0.01,0.04
		l-0.01,0.04L4,282.87l-0.02,0.03l-0.02,0.02l-0.03,0.02l-0.03,0.02l-0.03,0.02L3.83,283l-0.04,0.01l-0.04,0.01H3.69H2.73
		c-0.5,0.01-0.99,0.02-1.51,0.03c-0.62,0.01-1.23,0.03-1.85,0.01c-0.5-0.02-1-0.13-1.5-0.11c-0.21,0.01-0.5,0.03-0.76,0.05
		c-0.74,0.02-1.43,0.13-2.2,0.08c-0.69-0.05-1.31-0.05-1.92-0.04c-0.5,0.01-0.99,0.02-1.51,0.03c-0.62,0.01-1.23,0.03-1.85,0.01
		c-0.5-0.02-1-0.13-1.5-0.11c-0.21,0.01-0.5,0.03-0.76,0.05c-0.74,0.02-1.43,0.13-2.2,0.08c-0.69-0.05-1.31-0.05-1.92-0.04l0,0
		l-1,0.02h-0.04l-0.04-0.01l-0.04-0.01L-17.9,283l-0.03-0.02l-0.02-0.02l-0.02-0.03l-0.02-0.03l-0.01-0.03l-0.01-0.04l-0.01-0.04
		l-0.01-0.04v-0.06v-0.14l0,0c0-0.28,0-0.55,0-0.82l0,0c-0.01-0.57-0.02-1.14-0.03-1.73c-0.01-0.71-0.03-1.41-0.01-2.12
		c0.02-0.58,0.13-1.15,0.11-1.72c-0.01-0.24-0.03-0.58-0.05-0.87c-0.02-0.85-0.13-1.63-0.08-2.52c0.05-0.79,0.05-1.5,0.04-2.2
		c-0.01-0.57-0.02-1.14-0.03-1.73c-0.01-0.71-0.03-1.41-0.01-2.12c0.02-0.58,0.13-1.15,0.11-1.72c-0.01-0.24-0.03-0.58-0.05-0.87
		c-0.02-0.85-0.13-1.64-0.08-2.53c0.05-0.79,0.05-1.5,0.04-2.2c-0.01-0.57-0.02-1.14-0.03-1.73c-0.01-0.7-0.03-1.41-0.01-2.12
		c0.02-0.58,0.13-1.15,0.11-1.72c-0.01-0.24-0.03-0.58-0.05-0.87c-0.02-0.85-0.13-1.63-0.08-2.53c0.05-0.79,0.05-1.5,0.04-2.2l0,0
		l-0.02-1v-0.04l0.01-0.04l0.01-0.04l0.01-0.03l0.02-0.03l0.02-0.02l0.03-0.02l0.03-0.02l0.03-0.02l0.04-0.01l0.04-0.01l0.04-0.01
		h0.06h0.96c0.5,0,0.99-0.02,1.51-0.03c0.62-0.01,1.23-0.03,1.85-0.01c0.5,0.01,1.01,0.13,1.5,0.11c0.21,0,0.5-0.03,0.76-0.05
		c0.74-0.02,1.43-0.13,2.2-0.07c0.69,0.05,1.31,0.05,1.92,0.04c0.5,0,0.99-0.02,1.51-0.03c0.62-0.01,1.23-0.03,1.85-0.01
		c0.5,0.01,1,0.13,1.5,0.11c0.21,0,0.5-0.03,0.76-0.05c0.74-0.02,1.43-0.13,2.2-0.07c0.69,0.05,1.31,0.05,1.92,0.04l1-0.01h0.04
		l0.04,0.01l0.04,0.01l0.03,0.01l0.03,0.02l0.03,0.02l0.02,0.03l0.02,0.03l0.02,0.03L4,247.12l0.01,0.04l0.01,0.04v0.06v0.14l0,0
		c0,0.28,0,0.55,0,0.82l0,0C4.02,248.8,4.04,249.36,4.05,249.95z"/>
</g>
</svg>
