<?xml version="1.0" encoding="utf-8"?>
<!-- Generator: Adobe Illustrator 25.0.0, SVG Export Plug-In . SVG Version: 6.00 Build 0)  -->
<svg version="1.1" id="레이어_1" xmlns="http://www.w3.org/2000/svg" xmlns:xlink="http://www.w3.org/1999/xlink" x="0px"
	 y="0px" viewBox="0 0 42 42" style="enable-background:new 0 0 42 42;" xml:space="preserve">
<style type="text/css">
	.st0{fill:none;}
	.st1{fill:#202020;}
</style>
<g>
	<path class="st0" d="M22.75,27.98c-0.13-0.08-0.28-0.17-0.39-0.22c-0.2-0.1-0.39-0.24-0.61-0.33c0,0.01,0,0.03,0,0.04
		c0.01,0.1,0.03,0.22,0.04,0.3c0.01,0.2-0.08,0.4-0.09,0.6c-0.01,0.25,0,0.49,0.01,0.74c0.01,0.21,0.02,0.4,0.02,0.6
		c0,0.06,0,0.12,0,0.18c0,0.07,0.01,0.14,0.04,0.21c0.03,0.08,0.06,0.21-0.06,0.28c-0.08,0.05-0.34,0.18-0.47,0.19
		c-0.28,0.03-0.45-0.01-0.71-0.08c-0.24-0.06-0.35-0.29-0.35-0.4c0-0.07,0.03-0.15,0.03-0.21c0-0.06,0.01-0.11,0.02-0.16
		c0.03-0.25,0.1-0.44,0.09-0.77c-0.01-0.4-0.15-0.8-0.1-1.21c0-0.02,0.01-0.05,0.01-0.07c0.01-0.09,0.02-0.17,0.04-0.26
		c-0.24,0.07-0.47,0.17-0.68,0.29c-0.31,0.19-0.6,0.43-0.88,0.74c-0.32,0.36-0.4,0.8-0.46,1.23c-0.02,0.15,0,0.33,0,0.45
		c0.01,0.29-0.02,0.6,0.06,0.9c0.11,0.36,0.31,0.68,0.56,0.96c0.21,0.23,0.45,0.42,0.71,0.56c0.32,0.18,0.67,0.31,1.08,0.39
		c0.47,0.09,0.9-0.06,1.3-0.22c0.14-0.06,0.29-0.16,0.39-0.22c0.25-0.15,0.53-0.28,0.75-0.5c0.26-0.27,0.44-0.61,0.55-0.97
		c0.09-0.3,0.13-0.6,0.13-0.9c-0.01-0.37-0.07-0.74-0.2-1.13C23.43,28.54,23.09,28.24,22.75,27.98z"/>
	<path class="st0" d="M23.34,10.79c-0.14-0.06-0.27,0.04-0.32,0.14c-0.01,0.04-0.02,0.09-0.01,0.12c0,0.07,0.01,0.17,0.09,0.23
		c0.09,0.07,0.22,0.06,0.31,0c0.07-0.05,0.11-0.14,0.11-0.23C23.52,10.95,23.46,10.84,23.34,10.79z"/>
	<path class="st0" d="M20.09,11.85c-0.09-0.04-0.19-0.04-0.26-0.04c-0.18,0.01-0.34,0.03-0.51,0.2c-0.21,0.21-0.35,0.52-0.43,0.85
		c-0.07,0.27-0.1,0.55-0.1,0.83c0.01,0.34,0.05,0.69,0.16,1.05c0.11,0.4,0.42,0.7,0.63,0.79c0.09,0.04,0.19,0.04,0.26,0.04
		c0.18-0.01,0.34-0.03,0.51-0.2c0.21-0.21,0.35-0.52,0.43-0.85c0.07-0.27,0.1-0.55,0.1-0.83c-0.01-0.34-0.05-0.69-0.16-1.05
		C20.62,12.24,20.31,11.94,20.09,11.85z"/>
	<path class="st0" d="M17.62,38.89c-0.04,0-0.08,0-0.12-0.01c-0.52-0.03-0.98-0.08-1.51-0.11c0,0.17,0,0.33,0,0.5h0
		c0,0,0,0.01,0,0.01c0,0.02,0,0.05,0,0.07c0,0.01,0,0.03,0,0.04l0,0.02L16,39.46l0.01,0.03l0.01,0.03l0.01,0.03l0.01,0.02l0.02,0.02
		l0.02,0.02l0.01,0.01l0.01,0.01l0.01,0.01l0.01,0.01l0.03,0.01l0.03,0l0.03,0c0.14,0,0.28,0,0.42-0.01v-0.01c0.1,0,0.2,0,0.31,0
		c0.01,0,0.03,0,0.04,0v0c0.09,0,0.19,0,0.28,0v0c0,0,0.01,0,0.01,0c0.04,0,0.07,0,0.11,0l0.03,0l0.03-0.01l0.03-0.01l0.03-0.01
		l0.03-0.01l0.02-0.01l0.02-0.02l0.02-0.02l0.01-0.01l0.01-0.01l0.01-0.01l0.01-0.01l0.01-0.03l0-0.02h-0.01
		C17.62,39.27,17.62,39.08,17.62,38.89z"/>
	<path class="st0" d="M34.13,7.6c-0.02-0.36-0.05-0.76-0.05-1.05l0-0.25c0-0.06,0-0.13,0-0.19c0.01-0.13-0.01-0.25-0.01-0.38
		c-0.02-0.25-0.06-0.52-0.17-0.76c-0.25-0.59-0.72-1.09-1.27-1.41c-0.46-0.27-0.96-0.41-1.48-0.43l-0.25-0.01l-0.32,0
		c-0.21,0-0.43,0-0.65-0.01c-0.44-0.01-0.89-0.02-1.37-0.05c-1.07-0.06-2.02,0.07-3.04,0.09c-0.36,0.02-0.76,0.05-1.05,0.05
		C23.8,3.23,23.1,3.1,22.41,3.08c-0.85-0.02-1.7,0-2.55,0.01c-0.71,0.01-1.39,0.02-2.08,0.03c-0.84,0.01-1.7,0-2.65-0.05
		c-1.07-0.06-2.02,0.07-3.04,0.09c-0.35,0.02-0.76,0.05-1.05,0.05c-0.49,0.02-1.02,0.02-1.51,0.25C9.24,3.6,8.98,3.79,8.75,4.02
		C8.53,4.25,8.34,4.52,8.19,4.8C7.95,5.28,7.84,5.79,7.83,6.3c0,0.82,0,1.69-0.05,2.64c-0.06,1.07,0.07,2.02,0.09,3.04
		c0.02,0.36,0.05,0.76,0.05,1.05c0.01,0.69-0.11,1.38-0.13,2.08c-0.02,0.85,0,1.7,0.01,2.55c0.01,0.71,0.02,1.39,0.03,2.08
		c0.01,0.84,0,1.7-0.05,2.65c-0.06,1.07,0.07,2.02,0.09,3.04c0.02,0.36,0.05,0.76,0.05,1.05c0.01,0.69-0.11,1.38-0.13,2.08
		c-0.02,0.85,0,1.7,0.01,2.55c0.01,0.71,0.03,1.39,0.03,2.08c0,0.23,0.01,0.37,0.02,0.53c0.03,0.16,0.03,0.32,0.08,0.48
		c0.07,0.32,0.18,0.64,0.36,0.96c0.4,0.73,1.11,1.1,1.81,1.3c0.26,0.05,0.55,0.08,0.76,0.08c0.06,0,0.13,0.01,0.19,0.01l0.26,0.01
		l0.52,0.04c0.35,0.03,0.69,0.07,1.04,0.08c0.85,0.02,1.7,0,2.55-0.01c0.71-0.01,1.39-0.02,2.08-0.03c0.84-0.01,1.7,0,2.65,0.05
		c1.07,0.06,2.02-0.07,3.04-0.09c0.36-0.02,0.76-0.05,1.05-0.05c0.69-0.01,1.38,0.11,2.08,0.13c0.85,0.02,1.7,0,2.55-0.01
		c0.71-0.01,1.39-0.03,2.08-0.03c0.32-0.01,0.63-0.05,0.95-0.14c0.31-0.09,0.63-0.23,0.94-0.41c0.71-0.43,1.04-1.16,1.2-1.88
		c0.06-0.26,0.05-0.56,0.05-0.77c-0.01-0.67,0.11-1.38,0.13-2.07c0.02-0.85,0-1.7-0.01-2.55c-0.01-0.71-0.02-1.39-0.03-2.08
		c-0.01-0.84,0-1.7,0.05-2.65c0.06-1.07-0.07-2.02-0.09-3.04c-0.02-0.36-0.05-0.76-0.05-1.05c-0.01-0.69,0.11-1.38,0.13-2.08
		c0.02-0.85,0-1.7-0.01-2.55c-0.01-0.71-0.03-1.39-0.03-2.08c-0.01-0.84,0-1.7,0.05-2.65C34.28,9.57,34.15,8.62,34.13,7.6z
		 M17.99,5.01c0.07-0.24,0.32-0.35,0.45-0.35c0.07,0,0.17,0.03,0.23,0.03c0.06,0,0.12,0.01,0.18,0.02c0.28,0.03,0.49,0.1,0.85,0.09
		c0.45-0.01,0.89-0.15,1.34-0.1c0.02,0,0.05,0.01,0.08,0.01c0.19,0.01,0.38,0.07,0.57,0.08c0.27,0.01,0.83-0.1,1.1-0.1
		c0.15,0,0.27,0.01,0.38,0.02c0.11,0.01,0.21,0.03,0.32,0.05c0.04,0.01,0.07,0,0.11-0.01c0.09-0.02,0.19-0.06,0.28,0.03
		c0.03,0.03,0.05,0.05,0.07,0.09c0.07,0.09,0.12,0.21,0.15,0.36c0.06,0.3-0.03,0.67-0.16,0.85c-0.12,0.16-0.21,0.14-0.33,0.15
		c-0.08,0-0.18-0.03-0.25-0.03c-0.06,0-0.12,0-0.18,0c-0.27,0.01-0.55,0-0.85-0.03c-0.34-0.04-0.65,0.04-0.98,0.06
		c-0.11,0.01-0.24,0.03-0.34,0.04c-0.22,0.01-0.44-0.08-0.67-0.09c-0.27-0.01-0.55,0-0.82,0.01c-0.23,0.01-0.45,0.02-0.67,0.02
		c-0.06,0-0.13,0-0.2,0c-0.08,0-0.15,0.01-0.23,0.04c-0.09,0.03-0.23,0.06-0.31-0.06c-0.05-0.08-0.2-0.34-0.21-0.47
		C17.86,5.44,17.91,5.27,17.99,5.01z M24.85,31.81c-0.34,0.83-0.9,1.65-1.75,2.06c-0.05,0.03-0.1,0.04-0.14,0.06
		c-0.35,0.18-0.75,0.23-1.13,0.31c-0.27,0.04-0.69,0.13-1.12,0.11c-0.43,0-0.86-0.07-1.13-0.17c-0.29-0.1-0.52-0.22-0.72-0.35
		c-0.47-0.33-0.78-0.65-1.24-1.22c-0.27-0.36-0.52-0.75-0.69-1.18c-0.17-0.43-0.26-0.9-0.23-1.36c0.01-0.05,0.01-0.11,0.02-0.16
		c0.03-0.39,0.17-0.77,0.3-1.13c0.09-0.26,0.25-0.66,0.46-1.03c0.22-0.37,0.5-0.7,0.72-0.89c0.23-0.2,0.45-0.34,0.66-0.45
		c0.44-0.21,0.82-0.32,1.37-0.41c0-0.07,0.01-0.13,0.02-0.19c0.01-0.1,0.03-0.19,0.05-0.29c0.01-0.03,0-0.07-0.01-0.1
		c-0.02-0.08-0.06-0.18,0.03-0.25c0.03-0.02,0.05-0.05,0.09-0.07c0.09-0.06,0.21-0.11,0.36-0.14c0.3-0.05,0.67,0.02,0.85,0.15
		c0.16,0.11,0.14,0.19,0.15,0.3c0,0.07-0.03,0.16-0.03,0.23c0,0.06,0,0.11,0,0.17c0,0.04,0,0.08,0,0.11
		c0.06,0.01,0.12,0.01,0.17,0.02c0.46,0.07,0.91,0.23,1.29,0.49c0.04,0.03,0.09,0.06,0.13,0.09c0.32,0.23,0.59,0.52,0.83,0.82
		c0.18,0.21,0.45,0.54,0.66,0.91c0.22,0.37,0.36,0.79,0.42,1.06c0.06,0.3,0.06,0.56,0.06,0.8C25.24,30.7,25.12,31.13,24.85,31.81z
		 M31.88,13.48c0,0.03-0.01,0.07-0.01,0.11c-0.01,0.26-0.07,0.52-0.08,0.79c-0.01,0.38,0.1,1.15,0.1,1.53c0,0.2-0.01,0.37-0.02,0.53
		c-0.02,0.27-0.04,0.52-0.06,0.78c0,0.07-0.01,0.13-0.01,0.2c0,0.07-0.01,0.14-0.01,0.22c0,0.07,0,0.15-0.01,0.23
		c0,0.08,0,0.17,0,0.26c0,0.03,0,0.06,0,0.09c0,0.02,0,0.04,0,0.05c0,0.02,0,0.04-0.01,0.06l-0.01,0.06l-0.02,0.06l-0.02,0.06
		l-0.01,0.03l-0.01,0.03l-0.02,0.03l-0.02,0.03l-0.02,0.03l-0.02,0.03l-0.02,0.03l-0.03,0.02l-0.03,0.02l-0.03,0.02l-0.03,0.02
		l-0.04,0.02l-0.04,0.02l-0.04,0.01l-0.04,0.01l-0.05,0.01l-0.01,0c0,0,0,0,0,0c-0.01,0-0.02,0-0.03,0l0,0l-0.01,0
		c-0.19,0.01-0.39,0.02-0.57,0.04c-0.1,0.01-0.19,0.01-0.27,0.01c-0.08,0-0.16,0.01-0.23,0.01c-0.07,0-0.14,0-0.21,0
		c-0.07,0-0.13,0-0.2,0c-0.13-0.01-0.24-0.01-0.36-0.02c-0.54-0.03-0.96-0.1-1.65-0.09c-0.87,0.01-1.73,0.15-2.6,0.1
		c-0.05,0-0.1-0.01-0.15-0.01c-0.37-0.01-0.74-0.07-1.1-0.08c-0.53-0.01-1.61,0.1-2.15,0.1c-0.29,0-0.53-0.01-0.75-0.02
		c-0.54-0.03-0.96-0.1-1.65-0.09c-0.87,0.01-1.73,0.15-2.6,0.1c-0.05,0-0.1-0.01-0.15-0.01c-0.37-0.01-0.74-0.07-1.1-0.08
		c-0.53-0.01-1.61,0.1-2.15,0.1c-0.29,0-0.53-0.01-0.75-0.02c-0.27-0.02-0.52-0.04-0.78-0.06c-0.07,0-0.13-0.01-0.2-0.01
		c-0.07,0-0.14-0.01-0.22-0.01c-0.07,0-0.15,0-0.23-0.01c-0.08,0-0.17,0-0.26,0c-0.03,0-0.06,0-0.09,0c-0.02,0-0.04,0-0.05,0
		c-0.02,0-0.04,0-0.06-0.01l-0.06-0.01l-0.06-0.02l-0.06-0.02l-0.03-0.01l-0.03-0.01l-0.03-0.02L10.4,18.7l-0.03-0.02l-0.03-0.02
		l-0.03-0.02l-0.02-0.03l-0.02-0.03l-0.02-0.03l-0.02-0.03l-0.02-0.04l-0.02-0.04l-0.01-0.04l-0.01-0.04l-0.01-0.05l0-0.01
		c0,0,0,0,0,0c0-0.01,0-0.02,0-0.03l0,0l0-0.01c-0.01-0.19-0.02-0.39-0.04-0.57c-0.01-0.1-0.01-0.19-0.01-0.27
		c0-0.08-0.01-0.16-0.01-0.23c0-0.07,0-0.14,0-0.21c0-0.07,0-0.13,0-0.2c0.01-0.13,0.01-0.24,0.02-0.36
		c0.03-0.38,0.1-0.68,0.09-1.18c-0.01-0.62-0.15-1.23-0.1-1.85c0-0.03,0.01-0.07,0.01-0.11c0.01-0.26,0.07-0.52,0.08-0.79
		c0.01-0.38-0.1-1.15-0.1-1.53c0-0.2,0.01-0.37,0.02-0.53c0.02-0.27,0.04-0.52,0.06-0.78c0-0.07,0.01-0.13,0.01-0.2
		c0-0.07,0.01-0.14,0.01-0.22c0-0.07,0-0.15,0.01-0.23c0-0.08,0-0.17,0-0.26c0-0.03,0-0.06,0-0.09c0-0.02,0-0.04,0-0.05
		c0-0.02,0-0.04,0.01-0.06l0.01-0.06l0.02-0.06l0.02-0.06l0.01-0.03l0.01-0.03l0.02-0.03l0.02-0.03l0.02-0.03l0.02-0.03l0.02-0.03
		l0.03-0.02l0.03-0.02l0.03-0.02l0.03-0.02l0.04-0.02l0.04-0.02l0.04-0.01l0.04-0.01l0.05-0.01l0.01,0c0,0,0,0,0,0
		c0.01,0,0.02,0,0.03,0l0,0l0.01,0c0.19-0.01,0.39-0.02,0.57-0.04c0.1-0.01,0.19-0.01,0.27-0.01c0.08,0,0.16-0.01,0.23-0.01
		c0.07,0,0.14,0,0.21,0c0.07,0,0.13,0,0.2,0c0.13,0.01,0.24,0.01,0.36,0.02v0c0.54,0.03,0.96,0.1,1.65,0.09
		c0.87-0.01,1.73-0.15,2.6-0.1c0.05,0,0.1,0.01,0.15,0.01c0.37,0.01,0.74,0.07,1.1,0.08c0.53,0.01,1.61-0.1,2.15-0.1
		c0.29,0,0.53,0.01,0.75,0.02c0.54,0.03,0.96,0.1,1.65,0.09c0.87-0.01,1.73-0.15,2.6-0.1c0.05,0,0.1,0.01,0.15,0.01
		c0.37,0.01,0.74,0.07,1.1,0.08c0.53,0.01,1.61-0.1,2.15-0.1c0.29,0,0.53,0.01,0.75,0.02v0c0.27,0.02,0.52,0.04,0.78,0.06
		c0.07,0,0.13,0.01,0.2,0.01c0.07,0,0.14,0.01,0.22,0.01c0.07,0,0.15,0,0.23,0.01c0.08,0,0.17,0,0.26,0c0.03,0,0.06,0,0.09,0
		c0.02,0,0.04,0,0.05,0c0.02,0,0.04,0,0.06,0.01l0.06,0.01l0.06,0.02l0.06,0.02l0.03,0.01l0.03,0.01l0.03,0.02l0.03,0.02l0.03,0.02
		l0.03,0.02l0.03,0.02l0.02,0.03l0.02,0.03l0.02,0.03l0.02,0.03l0.02,0.04l0.02,0.04l0.01,0.04l0.01,0.04l0.01,0.05l0,0.01
		c0,0,0,0,0,0c0,0.01,0,0.02,0,0.03l0,0l0,0.01c0.01,0.19,0.02,0.39,0.04,0.57c0.01,0.1,0.01,0.19,0.01,0.27
		c0,0.08,0.01,0.16,0.01,0.23c0,0.07,0,0.14,0,0.21c0,0.07,0,0.13,0,0.2c-0.01,0.13-0.01,0.24-0.02,0.36
		c-0.03,0.38-0.1,0.68-0.09,1.18C31.8,12.25,31.94,12.86,31.88,13.48z"/>
	<path class="st0" d="M26.01,38.87c-0.54,0.03-1.08,0.05-1.63,0.03c0,0.12,0,0.25,0,0.37h0c0,0,0,0.01,0,0.01c0,0.02,0,0.05,0,0.07
		c0,0.01,0,0.03,0,0.04l0,0.02l0.01,0.03l0.01,0.03l0.01,0.03l0.01,0.03l0.01,0.02l0.02,0.02l0.02,0.02l0.01,0.01l0.01,0.01
		l0.01,0.01l0.01,0.01l0.03,0.01l0.03,0l0.03,0c0.14,0,0.28,0,0.42-0.01v-0.01c0.1,0,0.2,0,0.31,0c0.01,0,0.03,0,0.04,0v0
		c0.09,0,0.19,0,0.28,0v0c0,0,0.01,0,0.01,0c0.04,0,0.07,0,0.11,0l0.03,0l0.03-0.01l0.03-0.01l0.03-0.01l0.03-0.01l0.02-0.01
		l0.02-0.02l0.02-0.02l0.01-0.01L26,39.53L26,39.52l0.01-0.01l0.01-0.03l0-0.02h-0.01C26.01,39.27,26.01,39.07,26.01,38.87z"/>
	<path class="st0" d="M30.36,13.9c-0.01-0.16-0.03-0.34-0.04-0.47c-0.01-0.31,0.08-0.61,0.09-0.92c0.01-0.38,0-0.75-0.01-1.13
		c-0.01-0.32-0.02-0.62-0.02-0.92c0-0.21,0-0.42,0-0.63h0c0,0,0-0.01,0-0.01c0-0.04,0-0.07,0-0.11l0-0.03l-0.01-0.03l-0.01-0.03
		l-0.01-0.03l-0.01-0.03l-0.01-0.02l-0.02-0.02L30.3,9.5l-0.01-0.01l-0.01-0.01l-0.01-0.01l-0.01-0.01l-0.03-0.01l-0.03,0l-0.03,0
		c-0.26,0-0.51,0.01-0.76,0.01c-0.53,0.01-1.06,0-1.65-0.03c-0.67-0.04-1.26,0.04-1.9,0.06c-0.22,0.01-0.47,0.03-0.66,0.04
		c-0.43,0.01-0.86-0.08-1.3-0.09c-0.53-0.01-1.06,0-1.59,0.01c-0.44,0.01-0.87,0.02-1.3,0.02c-0.53,0.01-1.06,0-1.65-0.03
		c-0.67-0.04-1.26,0.04-1.9,0.06c-0.22,0.01-0.47,0.03-0.66,0.04c-0.43,0.01-0.86-0.08-1.3-0.09c-0.53-0.01-1.06,0-1.59,0.01
		c-0.44,0.01-0.87,0.02-1.3,0.02c-0.21,0-0.42,0-0.63,0l0,0c0,0-0.01,0-0.01,0c-0.04,0-0.07,0-0.11,0l-0.03,0l-0.03,0.01l-0.03,0.01
		l-0.03,0.01l-0.03,0.01l-0.02,0.01l-0.02,0.02l-0.02,0.02l-0.01,0.01l-0.01,0.01l-0.01,0.01L11.62,9.6l-0.01,0.03l0,0.03l0,0.03
		c0,0.26,0.01,0.51,0.01,0.76c0.01,0.37,0,0.75-0.03,1.18c-0.04,0.48,0.04,0.9,0.06,1.35c0.01,0.16,0.03,0.34,0.04,0.47
		c0.01,0.31-0.08,0.61-0.09,0.92c-0.01,0.38,0,0.75,0.01,1.13c0.01,0.32,0.02,0.62,0.02,0.92c0,0.21,0,0.42,0,0.63h0
		c0,0,0,0.01,0,0.01c0,0.04,0,0.07,0,0.11l0,0.03l0.01,0.03l0.01,0.03l0.01,0.03l0.01,0.03l0.01,0.02l0.02,0.02l0.02,0.02l0.01,0.01
		l0.01,0.01l0.01,0.01l0.01,0.01l0.03,0.01l0.03,0l0.03,0c0.26,0,0.51-0.01,0.76-0.01c0.53-0.01,1.06,0,1.65,0.03
		c0.67,0.04,1.26-0.04,1.9-0.06c0.22-0.01,0.47-0.03,0.66-0.04c0.43-0.01,0.86,0.08,1.3,0.09c0.53,0.01,1.06,0,1.59-0.01
		c0.44-0.01,0.87-0.02,1.3-0.02c0.53-0.01,1.06,0,1.65,0.03c0.67,0.04,1.26-0.04,1.9-0.06c0.22-0.01,0.47-0.03,0.66-0.04
		c0.43-0.01,0.86,0.08,1.3,0.09c0.53,0.01,1.06,0,1.59-0.01c0.44-0.01,0.87-0.02,1.3-0.02c0.21,0,0.42,0,0.63,0v0c0,0,0.01,0,0.01,0
		c0.04,0,0.07,0,0.11,0l0.03,0l0.03-0.01l0.03-0.01l0.03-0.01l0.03-0.01l0.02-0.01l0.02-0.02l0.02-0.02l0.01-0.01l0.01-0.01
		l0.01-0.01l0.01-0.01l0.01-0.03l0-0.03l0-0.03c0-0.26-0.01-0.51-0.01-0.76c-0.01-0.37,0-0.75,0.03-1.18
		C30.46,14.77,30.37,14.35,30.36,13.9z M17.4,15.25c-0.01,0.15-0.09,0.3-0.16,0.44c-0.02,0.03-0.03,0.06-0.06,0.09
		c-0.15,0.23-0.37,0.41-0.59,0.54c-0.16,0.1-0.41,0.24-0.67,0.3c-0.26,0.08-0.53,0.09-0.71,0.07c-0.19-0.02-0.35-0.05-0.49-0.12
		c-0.14-0.05-0.26-0.13-0.38-0.21c-0.04-0.02-0.09-0.06-0.13-0.09c-0.06-0.04-0.12-0.07-0.17-0.12c-0.05-0.06-0.1-0.12-0.12-0.19
		c-0.01-0.04-0.02-0.08-0.02-0.13c0-0.12,0.04-0.23,0.12-0.29c0.16-0.12,0.44-0.09,0.56-0.11c0.13-0.01,0.13,0.02,0.2,0.06
		c0.03,0.03,0.08,0.07,0.13,0.1c0.03,0.02,0.08,0.03,0.13,0.04c0.19,0.06,0.41,0.09,0.65,0.08c0.27-0.02,0.46-0.17,0.58-0.33
		c0.02-0.07,0.08-0.12,0.09-0.19c0.02-0.06,0.07-0.12,0.09-0.2l0.04-0.11c0-0.04,0.01-0.09,0.01-0.13c0.02-0.22-0.05-0.44-0.12-0.59
		c-0.07-0.12-0.19-0.2-0.31-0.26L16,13.9l-0.07-0.02l-0.16-0.03l-0.18-0.01l-0.19,0.01l-0.2,0.02l-0.1,0.02l-0.05,0.01l-0.05,0.01
		l-0.11,0.02l-0.11,0.03l-0.11,0.03l-0.1,0.03c-0.03,0.01-0.09,0.03-0.15,0.05c-0.03,0.01-0.07,0.02-0.11,0.03
		c-0.02,0-0.04,0.01-0.06,0.01l-0.01,0l0,0l-0.07,0.01l-0.08,0.01c-0.02,0-0.05,0-0.08,0l-0.02,0l-0.01,0l0-0.01l-0.01-0.04
		c0-0.02-0.01-0.03-0.01-0.05c0-0.02,0-0.03-0.01-0.05c0-0.02,0-0.04,0-0.06l0-0.06c0-0.04,0-0.09,0-0.14c0-0.05,0-0.1,0.01-0.15
		l0.01-0.16c0.01-0.1,0.02-0.21,0.04-0.31c0.04-0.29,0.08-0.57,0.11-0.85l-0.01,0c0.02-0.15,0.04-0.3,0.07-0.46c0,0,0-0.01,0-0.01
		c0.01-0.05,0.01-0.11,0.02-0.16l0.01,0c0-0.02,0.01-0.04,0.01-0.06c0.02-0.08,0.03-0.16,0.05-0.25c0-0.01,0.01-0.02,0.01-0.04
		c0-0.01,0.01-0.03,0.02-0.05l0.01-0.03l0.01-0.03l0.02-0.03l0-0.01l0,0l0.01-0.02l0.01-0.02l0.01-0.02l0.01-0.02l0.02-0.02
		l0.02-0.02l0.01-0.01l0.01,0l0,0L14.44,11l0.02-0.02l0.03-0.01l0.03-0.01l0.03-0.01l0.03-0.01l0.04-0.01
		c0.02,0,0.05-0.01,0.07-0.01l0.08-0.01l0.08-0.01c0.03,0,0.05,0,0.08,0c0.26,0,0.5-0.01,0.75-0.01c0.08,0,0.15,0,0.24,0.02
		c0.1,0.03,0.18-0.03,0.27-0.04c0.03-0.01,0.07-0.02,0.09-0.02c0.06-0.01,0.12,0.05,0.19,0.06c0.08,0.01,0.15,0,0.23,0
		c0.06,0,0.12-0.01,0.19-0.01c0.02,0,0.04,0,0.05,0c0.02,0,0.04-0.01,0.06-0.03c0.03-0.02,0.06-0.04,0.09,0.04
		c0.01,0.05,0.05,0.22,0.06,0.3c0.01,0.18,0,0.29-0.02,0.46c-0.02,0.16-0.09,0.23-0.12,0.23c-0.02,0-0.05-0.02-0.06-0.02
		c-0.02,0-0.03-0.01-0.05-0.01c-0.08-0.02-0.14-0.07-0.24-0.06c-0.12,0.01-0.25,0.1-0.37,0.06c-0.01,0-0.01,0-0.02-0.01
		c-0.05-0.01-0.11-0.05-0.16-0.05c-0.08-0.01-0.23,0.06-0.31,0.07c-0.04,0-0.08,0-0.11-0.01c-0.14-0.01-0.26-0.02-0.39-0.04l-0.03,0
		l-0.01,0l-0.01,0l-0.01,0l-0.01,0.01l-0.01,0.01l-0.01,0.01l-0.01,0.01l-0.01,0.01c0,0.01-0.01,0.02-0.02,0.03l-0.01,0.01l0,0
		c0,0.02,0,0.03-0.01,0.05c0,0,0,0,0,0l0,0h0c-0.01,0.08-0.02,0.15-0.03,0.22c-0.01,0.07-0.03,0.13-0.04,0.2l-0.03,0
		c-0.01,0.05-0.02,0.1-0.03,0.14l-0.01,0.05l0,0.05l0,0.03l0,0.02l0,0.02L15,12.73l0.01,0.02l0.01,0.02l0.01,0.01l0,0l0,0l0.17,0.09
		l0,0l0,0l0,0l0.03,0l0.04,0c0,0,0.01,0,0.01,0c0.02,0,0.03,0,0.05-0.01c0.02,0,0.05,0,0.07,0c0,0,0,0,0.01,0c0,0,0,0,0,0v0
		c0.05,0,0.09,0,0.14-0.01l0.07,0l0.07,0c0.05,0,0.09,0.01,0.14,0.01l0.07,0.01l0.07,0.01c0.05,0.01,0.09,0.02,0.13,0.03l0.07,0.01
		l0.02,0l0.02,0l0.03,0.01l0.13,0.05l0.12,0.05l0,0c0,0,0,0,0.01,0l0.02,0.01l0,0c0.34,0.2,0.56,0.47,0.74,0.91
		c0.07,0.14,0.09,0.28,0.13,0.42c0.04,0.14,0.05,0.28,0.06,0.42C17.45,14.95,17.43,15.1,17.4,15.25z M21.56,15.05
		c-0.13,0.35-0.28,0.7-0.56,1.01c-0.28,0.32-0.76,0.58-1.22,0.53c-0.05-0.01-0.1-0.01-0.16-0.02c-0.38-0.06-0.74-0.33-0.96-0.59
		c-0.17-0.18-0.39-0.47-0.53-0.79c-0.15-0.32-0.25-0.65-0.28-0.87c-0.04-0.24-0.04-0.44-0.04-0.63c0.03-0.45,0.11-0.8,0.29-1.36
		c0.13-0.35,0.28-0.7,0.56-1.01c0.28-0.32,0.76-0.58,1.22-0.53c0.05,0.01,0.1,0.01,0.16,0.02c0.39,0.06,0.74,0.33,0.96,0.59
		c0.17,0.18,0.39,0.47,0.53,0.79c0.15,0.32,0.25,0.65,0.28,0.87c0.04,0.24,0.04,0.44,0.04,0.63C21.82,14.14,21.75,14.49,21.56,15.05
		z M23.96,11.51c-0.1,0.13-0.23,0.25-0.43,0.33c-0.25,0.09-0.55,0.07-0.78-0.09c-0.23-0.15-0.38-0.44-0.35-0.72
		c0-0.03,0.01-0.06,0.01-0.09c0.04-0.24,0.2-0.44,0.39-0.56c0.13-0.09,0.38-0.19,0.64-0.14c0.26,0.04,0.47,0.22,0.56,0.37
		c0.1,0.16,0.13,0.32,0.12,0.46C24.11,11.22,24.05,11.37,23.96,11.51z M27.93,12.29c-0.09,0.19-0.35,0.25-0.54,0.25
		c-0.17,0-0.23-0.06-0.35-0.12c-0.07-0.03-0.16-0.09-0.24-0.11c-0.06-0.02-0.13-0.02-0.19-0.03c-0.29-0.02-0.58,0.02-0.87,0.17
		c-0.33,0.18-0.5,0.5-0.58,0.82c-0.03,0.12-0.02,0.25-0.03,0.35c0.01,0.22,0.01,0.47,0.12,0.68c0.14,0.26,0.37,0.47,0.63,0.58
		c0.22,0.1,0.46,0.12,0.69,0.11c0.07-0.01,0.14-0.02,0.2-0.03c0.08-0.02,0.15-0.05,0.22-0.1c0.08-0.06,0.18-0.14,0.29-0.13
		c0.07,0.01,0.31,0.02,0.39,0.06c0.16,0.09,0.21,0.21,0.23,0.42c0.04,0.2-0.31,0.53-0.53,0.61c-0.12,0.06-0.29,0.09-0.4,0.11
		c-0.11,0.02-0.22,0.04-0.32,0.04c-0.49,0-0.89-0.09-1.43-0.41c-0.33-0.21-0.62-0.49-0.83-0.83c-0.2-0.34-0.32-0.76-0.28-1.16
		c0-0.04,0.01-0.09,0.01-0.14c0.04-0.34,0.18-0.66,0.36-0.94c0.12-0.21,0.34-0.5,0.64-0.73c0.29-0.23,0.65-0.37,0.89-0.42
		c0.26-0.05,0.49-0.04,0.69-0.01c0.2,0.03,0.38,0.09,0.55,0.17c0.06,0.02,0.12,0.05,0.18,0.07c0.15,0.06,0.33,0.14,0.41,0.28
		c0.03,0.04,0.05,0.08,0.06,0.13C27.97,12.07,27.98,12.19,27.93,12.29z"/>
	<path class="st1" d="M24.82,28.26c-0.21-0.38-0.48-0.7-0.66-0.91c-0.24-0.3-0.51-0.59-0.83-0.82c-0.04-0.03-0.09-0.06-0.13-0.09
		c-0.38-0.26-0.84-0.42-1.29-0.49c-0.06-0.01-0.12-0.01-0.17-0.02c0-0.04,0-0.08,0-0.11c0-0.06,0-0.11,0-0.17
		c0-0.07,0.03-0.16,0.03-0.23c-0.01-0.11,0.02-0.19-0.15-0.3c-0.18-0.12-0.55-0.2-0.85-0.15c-0.15,0.03-0.27,0.08-0.36,0.14
		c-0.03,0.02-0.06,0.04-0.09,0.07c-0.08,0.08-0.04,0.17-0.03,0.25c0.01,0.03,0.01,0.07,0.01,0.1c-0.02,0.1-0.04,0.19-0.05,0.29
		c-0.01,0.06-0.01,0.12-0.02,0.19c-0.54,0.09-0.93,0.2-1.37,0.41c-0.21,0.11-0.43,0.24-0.66,0.45c-0.22,0.19-0.5,0.52-0.72,0.89
		c-0.21,0.37-0.37,0.77-0.46,1.03c-0.13,0.36-0.27,0.74-0.3,1.13c-0.01,0.05-0.01,0.11-0.02,0.16c-0.03,0.46,0.06,0.93,0.23,1.36
		c0.17,0.43,0.42,0.82,0.69,1.18c0.45,0.57,0.76,0.9,1.24,1.22c0.2,0.13,0.42,0.25,0.72,0.35c0.27,0.1,0.7,0.17,1.13,0.17
		c0.43,0.01,0.85-0.07,1.12-0.11c0.38-0.07,0.77-0.13,1.13-0.31c0.05-0.02,0.1-0.04,0.14-0.06c0.85-0.41,1.4-1.24,1.75-2.06
		c0.27-0.68,0.39-1.11,0.44-1.68c0.01-0.23,0-0.49-0.06-0.8C25.18,29.05,25.04,28.63,24.82,28.26z M23.67,31.02
		c-0.11,0.35-0.29,0.69-0.55,0.97c-0.21,0.23-0.5,0.35-0.75,0.5c-0.1,0.07-0.25,0.16-0.39,0.22c-0.4,0.16-0.82,0.31-1.3,0.22
		c-0.41-0.08-0.76-0.21-1.08-0.39c-0.26-0.14-0.5-0.33-0.71-0.56c-0.25-0.27-0.46-0.6-0.56-0.96c-0.08-0.3-0.05-0.6-0.06-0.9
		c0-0.12-0.02-0.3,0-0.45c0.05-0.43,0.14-0.87,0.46-1.23c0.28-0.31,0.57-0.56,0.88-0.74c0.21-0.12,0.44-0.22,0.68-0.29
		c-0.02,0.09-0.04,0.17-0.04,0.26c0,0.02-0.01,0.05-0.01,0.07c-0.06,0.4,0.08,0.8,0.1,1.21c0.01,0.32-0.05,0.52-0.09,0.77
		c-0.01,0.05-0.01,0.1-0.02,0.16c0,0.06-0.03,0.14-0.03,0.21c0,0.11,0.11,0.34,0.35,0.4c0.26,0.07,0.43,0.11,0.71,0.08
		c0.12-0.01,0.39-0.14,0.47-0.19c0.12-0.07,0.09-0.19,0.06-0.28c-0.03-0.07-0.04-0.14-0.04-0.21c0-0.06,0-0.12,0-0.18
		c0-0.2-0.02-0.4-0.02-0.6c-0.01-0.25-0.02-0.49-0.01-0.74c0.01-0.2,0.1-0.4,0.09-0.6c0-0.08-0.02-0.2-0.04-0.3
		c0-0.01,0-0.03,0-0.04c0.22,0.09,0.41,0.22,0.61,0.33c0.11,0.06,0.26,0.14,0.39,0.22c0.34,0.27,0.68,0.56,0.84,1.01
		c0.14,0.4,0.2,0.77,0.2,1.13C23.8,30.43,23.76,30.72,23.67,31.02z"/>
	<path class="st1" d="M36.44,32.52c-0.01-0.35-0.03-0.69-0.05-1.04c-0.04-0.69-0.1-1.39-0.11-2.08c-0.02-1.12,0.08-1.79,0.13-2.65
		c0.02-0.35,0.04-0.74,0.03-1.2c-0.01-0.85-0.18-2.59-0.16-3.44c0.02-0.59,0.11-1.18,0.12-1.77c0.01-0.08,0.01-0.16,0.02-0.24
		c0.08-1.39-0.13-2.77-0.15-4.16c-0.02-1.12,0.08-1.79,0.13-2.65c0.02-0.35,0.04-0.74,0.03-1.2c-0.01-0.85-0.18-2.59-0.16-3.44
		c0.02-0.59,0.11-1.18,0.12-1.77c0.01-0.08,0.01-0.16,0.02-0.24l0.01-0.26c0-0.08,0-0.21-0.01-0.31c0-0.22-0.03-0.44-0.07-0.66
		c-0.08-0.43-0.23-0.85-0.42-1.25c-0.4-0.78-0.97-1.45-1.64-1.98c-0.54-0.43-1.03-0.69-1.51-0.9c-0.47-0.21-0.94-0.34-1.48-0.4
		c-0.11-0.01-0.22-0.02-0.34-0.03c-0.09,0-0.19-0.01-0.29-0.01c-0.2-0.01-0.41-0.01-0.64,0c-0.85,0.01-2.59,0.18-3.44,0.16
		C26,0.99,25.41,0.9,24.83,0.89c-0.08-0.01-0.16-0.01-0.24-0.02C23.2,0.79,21.81,1,20.43,1.02c-1.12,0.02-1.79-0.08-2.65-0.13
		c-0.35-0.02-0.74-0.03-1.2-0.03c-0.85,0.01-2.59,0.18-3.44,0.16c-0.59-0.02-1.18-0.11-1.77-0.12c-0.08-0.01-0.16-0.01-0.24-0.02
		c-0.17-0.01-0.43,0-0.64,0.01c-0.22,0.03-0.44,0.06-0.65,0.11C9.42,1.1,9,1.26,8.63,1.48C7.86,1.91,7.23,2.53,6.74,3.22
		C5.98,4.36,5.69,5.2,5.59,6.28C5.57,6.66,5.56,7.02,5.56,7.49c0.01,0.85,0.18,2.59,0.16,3.44c-0.02,0.59-0.11,1.18-0.12,1.77
		c-0.01,0.08-0.01,0.16-0.02,0.24c-0.08,1.39,0.13,2.77,0.15,4.16c0.02,1.12-0.08,1.79-0.13,2.65c-0.02,0.35-0.04,0.74-0.03,1.2
		c0.01,0.85,0.18,2.59,0.16,3.44c-0.02,0.59-0.11,1.18-0.12,1.77c-0.01,0.08-0.01,0.16-0.02,0.24c-0.08,1.39,0.13,2.77,0.15,4.16
		c0.02,1.12-0.08,1.79-0.13,2.65c0,0.09-0.01,0.17-0.01,0.28c0,0.12,0,0.24,0.01,0.36c0.01,0.25,0.05,0.52,0.12,0.8
		c0.11,0.53,0.45,1.3,0.97,1.93c0.5,0.64,1.15,1.12,1.6,1.4c0.61,0.39,1.29,0.74,2.03,0.86c0.1,0.02,0.2,0.04,0.3,0.05
		c0.48,0.05,0.78,0.04,1.14,0.04c0.35-0.01,0.69-0.03,1.04-0.05c0.58-0.04,1.15-0.08,1.73-0.1c0,0.08-0.01,0.16-0.01,0.24
		c0,0.06,0,0.13,0,0.2c0,0.07,0,0.14,0,0.21c0,0.07,0,0.15,0.01,0.23c0,0.08,0.01,0.18,0.01,0.27c0.01,0.18,0.02,0.37,0.04,0.57
		l0,0.01l0,0c0,0.01,0,0.02,0,0.03c0,0,0,0,0,0l0,0.01l0.01,0.05l0.01,0.04l0.01,0.04l0.02,0.04l0.02,0.04l0.02,0.03l0.02,0.03
		l0.02,0.03l0.02,0.03l0.03,0.02l0.03,0.02l0.03,0.02l0.03,0.02l0.03,0.02l0.03,0.01l0.03,0.01L14.96,41l0.06,0.02l0.06,0.01
		c0.02,0,0.04,0,0.06,0.01c0.02,0,0.04,0,0.05,0c0.03,0,0.06,0,0.09,0c0.09,0,0.17,0,0.26,0c0.08,0,0.16,0,0.23,0.01
		c0.07,0,0.15,0.01,0.22,0.01c0.07,0,0.14,0.01,0.2,0.01c0.15,0.01,0.29,0.02,0.44,0.03v0.03c0.11,0.01,0.23,0.01,0.36,0.02
		c0.06,0,0.13,0,0.2,0c0.07,0,0.14,0,0.21,0c0.07,0,0.15,0,0.23-0.01c0.08,0,0.18-0.01,0.27-0.01c0.18-0.01,0.37-0.02,0.57-0.04
		l0.01,0l0,0c0.01,0,0.02,0,0.03,0c0,0,0,0,0,0l0.01,0l0.05-0.01l0.04-0.01l0.04-0.01l0.04-0.02l0.04-0.02L18.75,41l0.03-0.02
		l0.03-0.02l0.03-0.02l0.02-0.03l0.02-0.03l0.02-0.03l0.02-0.03l0.02-0.03l0.01-0.03l0.01-0.03l0.02-0.06L19,40.61l0.01-0.06
		c0-0.02,0-0.04,0.01-0.06c0-0.02,0-0.04,0-0.05c0-0.03,0-0.06,0-0.09c0-0.09,0-0.17,0-0.26c0-0.08,0-0.16,0.01-0.23
		c0-0.07,0.01-0.15,0.01-0.22c0-0.06,0.01-0.12,0.01-0.18h0.06c0.01-0.11,0.01-0.23,0.02-0.36c0-0.06,0-0.13,0-0.2
		c0,0,0-0.01,0-0.01c0.92-0.04,2.28-0.16,3-0.14c0.25,0.01,0.5,0.03,0.75,0.05c0,0.07-0.01,0.13-0.01,0.2c0,0.06,0,0.13,0,0.2
		c0,0.07,0,0.14,0,0.21c0,0.07,0,0.15,0.01,0.23c0,0.08,0.01,0.18,0.01,0.27c0.01,0.18,0.02,0.37,0.04,0.57l0,0.01l0,0
		c0,0.01,0,0.02,0,0.03c0,0,0,0,0,0l0,0.01l0.01,0.05l0.01,0.04l0.01,0.04l0.02,0.04L23,40.74l0.02,0.03l0.02,0.03l0.02,0.03
		l0.02,0.03l0.03,0.02l0.03,0.02l0.03,0.02l0.03,0.02l0.03,0.02l0.03,0.01l0.03,0.01L23.35,41l0.06,0.02l0.06,0.01
		c0.02,0,0.04,0,0.06,0.01c0.02,0,0.04,0,0.05,0c0.03,0,0.06,0,0.09,0c0.09,0,0.17,0,0.26,0c0.08,0,0.16,0,0.23,0.01
		c0.07,0,0.15,0.01,0.22,0.01c0.07,0,0.14,0.01,0.2,0.01c0.15,0.01,0.29,0.02,0.44,0.03v0.03c0.11,0.01,0.23,0.01,0.36,0.02
		c0.06,0,0.13,0,0.2,0c0.07,0,0.14,0,0.21,0c0.07,0,0.15,0,0.23-0.01c0.08,0,0.18-0.01,0.27-0.01c0.18-0.01,0.37-0.02,0.57-0.04
		l0.01,0l0,0c0.01,0,0.02,0,0.03,0c0,0,0,0,0,0l0.01,0l0.05-0.01L27,41.07l0.04-0.01l0.04-0.02l0.04-0.02L27.15,41l0.03-0.02
		l0.03-0.02l0.03-0.02l0.02-0.03l0.02-0.03l0.02-0.03l0.02-0.03l0.02-0.03l0.01-0.03l0.01-0.03l0.02-0.06l0.02-0.06l0.01-0.06
		c0-0.02,0-0.04,0.01-0.06c0-0.02,0-0.04,0-0.05c0-0.03,0-0.06,0-0.09c0-0.09,0-0.17,0-0.26c0-0.08,0-0.16,0.01-0.23
		c0-0.07,0.01-0.15,0.01-0.22c0-0.06,0.01-0.12,0.01-0.18h0.06c0.01-0.11,0.01-0.23,0.02-0.36c0-0.06,0-0.13,0-0.2
		c0-0.04,0-0.08,0-0.13c0.26-0.01,0.52-0.03,0.78-0.03c1.12-0.02,1.79,0.08,2.65,0.13c0.44,0,0.94-0.01,1.5-0.18
		c0.52-0.15,1.27-0.52,1.87-1.07c0.62-0.53,1.05-1.21,1.31-1.67c0.36-0.63,0.66-1.33,0.74-2.07c0.01-0.1,0.02-0.2,0.03-0.3
		l0.01-0.16l0.01-0.13l0.01-0.26C36.44,32.87,36.44,32.7,36.44,32.52z M17.62,39.48l-0.01,0.03l-0.01,0.01l-0.01,0.01l-0.01,0.01
		l-0.01,0.01l-0.02,0.02l-0.02,0.02l-0.02,0.01l-0.03,0.01l-0.03,0.01l-0.03,0.01l-0.03,0.01l-0.03,0c-0.04,0-0.07,0-0.11,0
		c0,0-0.01,0-0.01,0v0c-0.09,0-0.19,0-0.28,0v0c-0.01,0-0.03,0-0.04,0c-0.1,0-0.21,0-0.31,0v0.01c-0.14,0-0.28,0-0.42,0.01l-0.03,0
		l-0.03,0l-0.03-0.01l-0.01-0.01l-0.01-0.01l-0.01-0.01l-0.01-0.01l-0.02-0.02l-0.02-0.02l-0.01-0.02l-0.01-0.03l-0.01-0.03
		L16,39.46l-0.01-0.03l0-0.02c0-0.01,0-0.03,0-0.04c0-0.02,0-0.05,0-0.07c0,0,0-0.01,0-0.01h0c0-0.17,0-0.34,0-0.5
		c0.53,0.03,0.98,0.08,1.51,0.11c0.04,0,0.08,0,0.12,0.01c0,0.19,0,0.38,0,0.57h0.01L17.62,39.48z M26.01,39.48l-0.01,0.03L26,39.52
		L26,39.53l-0.01,0.01l-0.01,0.01l-0.02,0.02l-0.02,0.02l-0.02,0.01l-0.03,0.01l-0.03,0.01l-0.03,0.01l-0.03,0.01l-0.03,0
		c-0.04,0-0.07,0-0.11,0c0,0-0.01,0-0.01,0v0c-0.09,0-0.19,0-0.28,0v0c-0.01,0-0.03,0-0.04,0c-0.1,0-0.21,0-0.31,0v0.01
		c-0.14,0-0.28,0-0.42,0.01l-0.03,0l-0.03,0l-0.03-0.01l-0.01-0.01l-0.01-0.01l-0.01-0.01l-0.01-0.01l-0.02-0.02l-0.02-0.02
		l-0.01-0.02l-0.01-0.03l-0.01-0.03l-0.01-0.03l-0.01-0.03l0-0.02c0-0.01,0-0.03,0-0.04c0-0.02,0-0.05,0-0.07c0,0,0-0.01,0-0.01h0
		c0-0.12,0-0.25,0-0.37c0.54,0.02,1.08,0,1.63-0.03c0,0.2,0,0.39,0,0.58h0.01L26.01,39.48z M34.2,15.38
		c0.01,0.85,0.03,1.7,0.01,2.55c-0.02,0.69-0.15,1.39-0.13,2.08c0.01,0.29,0.03,0.69,0.05,1.05c0.02,1.02,0.15,1.97,0.09,3.04
		c-0.05,0.95-0.06,1.81-0.05,2.65c0.01,0.69,0.02,1.37,0.03,2.08c0.01,0.85,0.03,1.7,0.01,2.55c-0.02,0.69-0.14,1.4-0.13,2.07
		c0,0.21,0.01,0.51-0.05,0.77c-0.16,0.71-0.49,1.45-1.2,1.88c-0.31,0.18-0.62,0.32-0.94,0.41c-0.32,0.09-0.63,0.13-0.95,0.14
		c-0.69,0.01-1.37,0.02-2.08,0.03c-0.85,0.01-1.7,0.03-2.55,0.01c-0.69-0.02-1.39-0.15-2.08-0.13c-0.29,0.01-0.69,0.03-1.05,0.05
		c-1.02,0.02-1.97,0.15-3.04,0.09c-0.95-0.05-1.81-0.06-2.65-0.05c-0.69,0.01-1.37,0.02-2.08,0.03c-0.85,0.01-1.7,0.03-2.55,0.01
		c-0.35-0.01-0.69-0.05-1.04-0.08l-0.52-0.04l-0.26-0.01c-0.06-0.01-0.13-0.01-0.19-0.01c-0.21,0-0.5-0.03-0.76-0.08
		c-0.7-0.2-1.41-0.57-1.81-1.3C8.11,34.85,8,34.53,7.93,34.21c-0.05-0.16-0.05-0.32-0.08-0.48c0-0.16-0.02-0.3-0.02-0.53
		c-0.01-0.69-0.02-1.37-0.03-2.08c-0.01-0.85-0.03-1.7-0.01-2.55c0.02-0.69,0.15-1.39,0.13-2.08c-0.01-0.29-0.03-0.69-0.05-1.05
		c-0.02-1.02-0.15-1.97-0.09-3.04c0.05-0.95,0.06-1.81,0.05-2.65c-0.01-0.69-0.02-1.37-0.03-2.08c-0.01-0.85-0.03-1.7-0.01-2.55
		c0.02-0.69,0.15-1.39,0.13-2.08c-0.01-0.29-0.03-0.69-0.05-1.05c-0.02-1.02-0.15-1.97-0.09-3.04C7.83,8,7.84,7.12,7.83,6.3
		c0-0.52,0.11-1.02,0.35-1.5c0.15-0.28,0.34-0.55,0.56-0.78C8.98,3.79,9.24,3.6,9.53,3.46c0.48-0.23,1.01-0.23,1.51-0.25
		c0.28-0.01,0.69-0.03,1.05-0.05c1.02-0.02,1.97-0.15,3.04-0.09c0.95,0.05,1.81,0.06,2.65,0.05c0.69-0.01,1.37-0.02,2.08-0.03
		c0.85-0.01,1.7-0.03,2.55-0.01c0.69,0.02,1.39,0.15,2.08,0.13c0.29-0.01,0.69-0.03,1.05-0.05c1.02-0.02,1.97-0.15,3.04-0.09
		c0.48,0.03,0.93,0.04,1.37,0.05c0.22,0,0.44,0,0.65,0.01l0.32,0l0.25,0.01c0.52,0.02,1.02,0.16,1.48,0.43
		c0.55,0.32,1.02,0.82,1.27,1.41c0.11,0.24,0.14,0.5,0.17,0.76c0,0.13,0.02,0.25,0.01,0.38c0,0.06,0,0.13,0,0.19l0,0.25
		c0.01,0.29,0.03,0.69,0.05,1.05c0.02,1.02,0.15,1.97,0.09,3.04c-0.05,0.95-0.06,1.81-0.05,2.65C34.18,13.99,34.19,14.67,34.2,15.38
		z"/>
	<path class="st1" d="M17.25,13.97c-0.18-0.44-0.4-0.71-0.74-0.91l0,0l-0.02-0.01c0,0,0,0-0.01,0l0,0l-0.12-0.05l-0.13-0.05
		l-0.03-0.01l-0.02,0l-0.02,0l-0.07-0.01c-0.04-0.01-0.09-0.02-0.13-0.03l-0.07-0.01l-0.07-0.01c-0.05,0-0.09-0.01-0.14-0.01
		l-0.07,0l-0.07,0c-0.04,0-0.09,0-0.14,0.01v0c0,0,0,0,0,0c0,0,0,0-0.01,0c-0.02,0-0.05,0-0.07,0c-0.02,0-0.03,0-0.05,0.01
		c0,0-0.01,0-0.01,0l-0.04,0l-0.03,0l0,0l0,0l0,0l-0.17-0.09l0,0l0,0l-0.01-0.01l-0.01-0.02L15,12.73l-0.01-0.02l0-0.02l0-0.02
		l0-0.03l0-0.05L15,12.52c0.01-0.05,0.02-0.1,0.03-0.14l0.03,0c0.01-0.06,0.03-0.13,0.04-0.2c0.01-0.07,0.02-0.14,0.03-0.22h0l0,0
		c0,0,0,0,0,0c0-0.02,0-0.03,0.01-0.05l0,0l0.01-0.01c0.01-0.01,0.01-0.02,0.02-0.03l0.01-0.01l0.01-0.01l0.01-0.01l0.01-0.01
		l0.01-0.01l0.01,0l0.01,0l0.01,0l0.03,0c0.13,0.01,0.26,0.02,0.39,0.04c0.03,0.01,0.07,0.02,0.11,0.01c0.08,0,0.23-0.08,0.31-0.07
		c0.05,0.01,0.11,0.05,0.16,0.05c0.01,0,0.01,0,0.02,0.01c0.12,0.04,0.25-0.06,0.37-0.06c0.1-0.01,0.16,0.04,0.24,0.06
		c0.02,0,0.03,0.01,0.05,0.01c0.02,0,0.04,0.02,0.06,0.02c0.03,0,0.11-0.07,0.12-0.23c0.02-0.17,0.03-0.28,0.02-0.46
		c0-0.08-0.04-0.25-0.06-0.3c-0.02-0.08-0.06-0.06-0.09-0.04c-0.02,0.02-0.04,0.03-0.06,0.03c-0.02,0-0.04,0-0.05,0
		c-0.06,0-0.12,0.01-0.19,0.01c-0.08,0-0.15,0.01-0.23,0c-0.06-0.01-0.12-0.06-0.19-0.06c-0.03,0-0.06,0.01-0.09,0.02
		c-0.09,0.01-0.18,0.06-0.27,0.04c-0.08-0.02-0.16-0.03-0.24-0.02c-0.25,0-0.49,0.01-0.75,0.01c-0.02,0-0.05,0-0.08,0l-0.08,0.01
		l-0.08,0.01c-0.03,0-0.05,0.01-0.07,0.01l-0.04,0.01l-0.03,0.01l-0.03,0.01l-0.03,0.01l-0.03,0.01L14.44,11l-0.02,0.02l0,0l-0.01,0
		l-0.01,0.01l-0.02,0.02l-0.02,0.02l-0.01,0.02l-0.01,0.02l-0.01,0.02l-0.01,0.02l0,0l0,0.01l-0.02,0.03l-0.01,0.03l-0.01,0.03
		c-0.01,0.02-0.01,0.03-0.02,0.05c0,0.01-0.01,0.03-0.01,0.04c-0.02,0.08-0.03,0.17-0.05,0.25c0,0.02-0.01,0.04-0.01,0.06l-0.01,0
		c-0.01,0.05-0.01,0.11-0.02,0.16c0,0,0,0.01,0,0.01c-0.02,0.16-0.05,0.31-0.07,0.46l0.01,0c-0.04,0.28-0.08,0.56-0.11,0.85
		c-0.01,0.1-0.02,0.2-0.04,0.31l-0.01,0.16c0,0.05,0,0.1-0.01,0.15c0,0.05,0,0.09,0,0.14l0,0.06c0,0.02,0,0.04,0,0.06
		c0,0.02,0,0.04,0.01,0.05c0,0.02,0.01,0.03,0.01,0.05l0.01,0.04l0,0.01l0.01,0l0.02,0c0.03,0,0.05,0,0.08,0l0.08-0.01l0.07-0.01
		l0,0l0.01,0c0.02,0,0.04-0.01,0.06-0.01c0.04-0.01,0.08-0.02,0.11-0.03c0.06-0.02,0.12-0.04,0.15-0.05l0.1-0.03l0.11-0.03
		l0.11-0.03l0.11-0.02l0.05-0.01l0.05-0.01l0.1-0.02l0.2-0.02l0.19-0.01l0.18,0.01l0.16,0.03L16,13.9l0.06,0.02
		c0.12,0.06,0.23,0.14,0.31,0.26c0.07,0.15,0.15,0.37,0.12,0.59c0,0.04-0.01,0.09-0.01,0.13l-0.04,0.11
		c-0.02,0.08-0.06,0.14-0.09,0.2c-0.01,0.06-0.06,0.12-0.09,0.19c-0.12,0.15-0.31,0.31-0.58,0.33c-0.24,0.01-0.46-0.02-0.65-0.08
		c-0.04-0.02-0.09-0.02-0.13-0.04c-0.05-0.03-0.1-0.07-0.13-0.1c-0.07-0.04-0.06-0.07-0.2-0.06c-0.12,0.02-0.4-0.01-0.56,0.11
		c-0.08,0.06-0.12,0.17-0.12,0.29c0,0.05,0.01,0.08,0.02,0.13c0.02,0.07,0.06,0.13,0.12,0.19c0.05,0.05,0.12,0.08,0.17,0.12
		c0.05,0.03,0.09,0.06,0.13,0.09c0.12,0.08,0.24,0.16,0.38,0.21c0.14,0.06,0.3,0.09,0.49,0.12c0.18,0.01,0.45,0,0.71-0.07
		c0.26-0.06,0.51-0.2,0.67-0.3c0.22-0.13,0.44-0.31,0.59-0.54c0.02-0.03,0.04-0.06,0.06-0.09c0.07-0.14,0.14-0.29,0.16-0.44
		c0.03-0.15,0.05-0.3,0.03-0.44c-0.01-0.14-0.02-0.28-0.06-0.42C17.34,14.25,17.32,14.12,17.25,13.97z"/>
	<path class="st1" d="M21.54,12.19c-0.15-0.32-0.36-0.61-0.53-0.79c-0.22-0.25-0.57-0.52-0.96-0.59c-0.05-0.01-0.11-0.01-0.16-0.02
		c-0.46-0.05-0.94,0.21-1.22,0.53c-0.28,0.31-0.44,0.66-0.56,1.01c-0.19,0.56-0.26,0.91-0.29,1.36c-0.01,0.18,0,0.39,0.04,0.63
		c0.03,0.22,0.13,0.56,0.28,0.87c0.15,0.32,0.36,0.61,0.53,0.79c0.22,0.25,0.57,0.52,0.96,0.59c0.05,0.01,0.11,0.01,0.16,0.02
		c0.46,0.05,0.94-0.21,1.22-0.53c0.28-0.31,0.44-0.66,0.56-1.01c0.19-0.56,0.26-0.91,0.29-1.36c0.01-0.18,0-0.39-0.04-0.63
		C21.79,12.84,21.69,12.5,21.54,12.19z M20.79,14.52c-0.08,0.33-0.23,0.64-0.43,0.85c-0.17,0.17-0.34,0.19-0.51,0.2
		c-0.07,0-0.18,0-0.26-0.04c-0.21-0.09-0.52-0.39-0.63-0.79c-0.11-0.36-0.15-0.71-0.16-1.05c0-0.28,0.02-0.56,0.1-0.83
		c0.08-0.33,0.23-0.64,0.43-0.85c0.17-0.17,0.34-0.19,0.51-0.2c0.07,0,0.18,0,0.26,0.04c0.21,0.09,0.52,0.39,0.63,0.79
		c0.11,0.36,0.15,0.71,0.16,1.05C20.89,13.97,20.86,14.25,20.79,14.52z"/>
	<path class="st1" d="M23.43,10.23c-0.26-0.05-0.51,0.05-0.64,0.14c-0.19,0.12-0.35,0.32-0.39,0.56c-0.01,0.03-0.01,0.06-0.01,0.09
		c-0.03,0.28,0.12,0.57,0.35,0.72c0.23,0.16,0.53,0.19,0.78,0.09c0.2-0.07,0.34-0.2,0.43-0.33c0.09-0.13,0.15-0.28,0.16-0.45
		c0-0.14-0.02-0.3-0.12-0.46C23.9,10.44,23.69,10.26,23.43,10.23z M23.41,11.28c-0.09,0.07-0.22,0.07-0.31,0
		c-0.08-0.06-0.08-0.15-0.09-0.23c0-0.03,0-0.08,0.01-0.12c0.04-0.11,0.18-0.21,0.32-0.14c0.11,0.05,0.17,0.16,0.17,0.26
		C23.52,11.14,23.48,11.22,23.41,11.28z"/>
	<path class="st1" d="M27.86,11.82c-0.09-0.14-0.26-0.22-0.41-0.28c-0.06-0.02-0.12-0.05-0.18-0.07c-0.17-0.08-0.35-0.13-0.55-0.17
		c-0.2-0.03-0.43-0.04-0.69,0.01c-0.24,0.05-0.6,0.18-0.89,0.42c-0.3,0.23-0.52,0.53-0.64,0.73c-0.17,0.28-0.32,0.6-0.36,0.94
		c0,0.05-0.01,0.09-0.01,0.14c-0.04,0.4,0.08,0.81,0.28,1.16c0.21,0.34,0.5,0.63,0.83,0.83c0.54,0.32,0.94,0.41,1.43,0.41
		c0.1,0,0.21-0.02,0.32-0.04c0.11-0.02,0.28-0.06,0.4-0.11c0.22-0.08,0.56-0.42,0.53-0.61c-0.03-0.2-0.07-0.33-0.23-0.42
		c-0.07-0.03-0.32-0.04-0.39-0.06c-0.11-0.01-0.21,0.08-0.29,0.13c-0.07,0.05-0.14,0.08-0.22,0.1c-0.07,0.02-0.13,0.03-0.2,0.03
		c-0.23,0.02-0.47,0-0.69-0.11c-0.27-0.11-0.5-0.32-0.63-0.58c-0.11-0.22-0.11-0.46-0.12-0.68c0-0.1,0-0.23,0.03-0.35
		c0.08-0.32,0.25-0.65,0.58-0.82c0.29-0.15,0.59-0.2,0.87-0.17c0.06,0.01,0.13,0.02,0.19,0.03c0.08,0.02,0.17,0.08,0.24,0.11
		c0.12,0.06,0.18,0.11,0.35,0.12c0.19,0,0.45-0.05,0.54-0.25c0.04-0.1,0.03-0.22-0.01-0.34C27.91,11.91,27.88,11.87,27.86,11.82z"/>
	<path class="st1" d="M31.89,10.1c0-0.06,0-0.13,0-0.2c0-0.07,0-0.14,0-0.21c0-0.07,0-0.15-0.01-0.23c0-0.08-0.01-0.18-0.01-0.27
		c-0.01-0.18-0.02-0.37-0.04-0.57l0-0.01l0,0c0-0.01,0-0.02,0-0.03c0,0,0,0,0,0l0-0.01l-0.01-0.05l-0.01-0.04L31.8,8.44L31.78,8.4
		l-0.02-0.04l-0.02-0.03L31.73,8.3L31.7,8.28l-0.02-0.03l-0.03-0.02l-0.03-0.02L31.6,8.19l-0.03-0.02l-0.03-0.02l-0.03-0.01
		l-0.03-0.01l-0.06-0.02l-0.06-0.02l-0.06-0.01c-0.02,0-0.04,0-0.06-0.01c-0.02,0-0.04,0-0.05,0c-0.03,0-0.06,0-0.09,0
		c-0.09,0-0.17,0-0.26,0c-0.08,0-0.16,0-0.23-0.01c-0.07,0-0.15-0.01-0.22-0.01c-0.07,0-0.14-0.01-0.2-0.01
		C29.92,8.02,29.67,8,29.4,7.98v0c-0.22-0.01-0.46-0.02-0.75-0.02c-0.53,0.01-1.62,0.12-2.15,0.1c-0.37-0.01-0.74-0.07-1.1-0.08
		c-0.05,0-0.1-0.01-0.15-0.01c-0.87-0.06-1.73,0.08-2.6,0.1c-0.7,0.01-1.12-0.05-1.65-0.09c-0.22-0.01-0.46-0.02-0.75-0.02
		c-0.53,0.01-1.62,0.12-2.15,0.1c-0.37-0.01-0.74-0.07-1.1-0.08c-0.05,0-0.1-0.01-0.15-0.01c-0.87-0.06-1.73,0.08-2.6,0.1
		c-0.7,0.01-1.12-0.05-1.65-0.09v0c-0.11-0.01-0.23-0.01-0.36-0.02c-0.06,0-0.13,0-0.2,0c-0.07,0-0.14,0-0.21,0
		c-0.07,0-0.15,0-0.23,0.01c-0.08,0-0.18,0.01-0.27,0.01C11.16,7.99,10.97,8,10.77,8.02l-0.01,0l0,0c-0.01,0-0.02,0-0.03,0
		c0,0,0,0,0,0l-0.01,0l-0.05,0.01l-0.04,0.01l-0.04,0.01l-0.04,0.02l-0.04,0.02l-0.03,0.02l-0.03,0.02l-0.03,0.02L10.4,8.17
		L10.37,8.2l-0.02,0.03l-0.02,0.03l-0.02,0.03L10.3,8.32l-0.01,0.03l-0.01,0.03l-0.02,0.06L10.24,8.5l-0.01,0.06
		c0,0.02,0,0.04-0.01,0.06c0,0.02,0,0.04,0,0.05c0,0.03,0,0.06,0,0.09c0,0.09,0,0.17,0,0.26c0,0.08,0,0.16-0.01,0.23
		c0,0.07-0.01,0.15-0.01,0.22c0,0.07-0.01,0.14-0.01,0.2c-0.02,0.27-0.04,0.51-0.06,0.78c-0.01,0.16-0.02,0.33-0.02,0.53
		c0.01,0.38,0.12,1.15,0.1,1.53c-0.01,0.26-0.07,0.52-0.08,0.79c0,0.04-0.01,0.07-0.01,0.11c-0.06,0.61,0.08,1.23,0.1,1.85
		c0.01,0.5-0.05,0.8-0.09,1.18c-0.01,0.11-0.01,0.23-0.02,0.36c0,0.06,0,0.13,0,0.2c0,0.07,0,0.14,0,0.21c0,0.07,0,0.15,0.01,0.23
		c0,0.08,0.01,0.18,0.01,0.27c0.01,0.18,0.02,0.37,0.04,0.57l0,0.01l0,0c0,0.01,0,0.02,0,0.03c0,0,0,0,0,0l0,0.01l0.01,0.05
		l0.01,0.04l0.01,0.04l0.02,0.04l0.02,0.04l0.02,0.03l0.02,0.03l0.02,0.03l0.02,0.03l0.03,0.02l0.03,0.02l0.03,0.02l0.03,0.02
		l0.03,0.02l0.03,0.01l0.03,0.01l0.06,0.02l0.06,0.02l0.06,0.01c0.02,0,0.04,0,0.06,0.01c0.02,0,0.04,0,0.05,0c0.03,0,0.06,0,0.09,0
		c0.09,0,0.17,0,0.26,0c0.08,0,0.16,0,0.23,0.01c0.07,0,0.15,0.01,0.22,0.01c0.07,0,0.14,0.01,0.2,0.01
		c0.27,0.02,0.51,0.04,0.78,0.06c0.22,0.01,0.46,0.02,0.75,0.02c0.53-0.01,1.62-0.12,2.15-0.1c0.37,0.01,0.74,0.07,1.1,0.08
		c0.05,0,0.1,0.01,0.15,0.01c0.86,0.06,1.73-0.08,2.6-0.1c0.7-0.01,1.12,0.05,1.65,0.09c0.22,0.01,0.46,0.02,0.75,0.02
		c0.53-0.01,1.62-0.12,2.15-0.1c0.37,0.01,0.74,0.07,1.1,0.08c0.05,0,0.1,0.01,0.15,0.01c0.87,0.06,1.73-0.08,2.6-0.1
		c0.7-0.01,1.12,0.05,1.65,0.09c0.11,0.01,0.23,0.01,0.36,0.02c0.06,0,0.13,0,0.2,0c0.07,0,0.14,0,0.21,0c0.07,0,0.15,0,0.23-0.01
		c0.08,0,0.18-0.01,0.27-0.01c0.18-0.01,0.37-0.02,0.57-0.04l0.01,0l0,0c0.01,0,0.02,0,0.03,0c0,0,0,0,0,0l0.01,0l0.05-0.01
		l0.04-0.01l0.04-0.01l0.04-0.02l0.04-0.02l0.03-0.02l0.03-0.02l0.03-0.02l0.03-0.02l0.02-0.03l0.02-0.03l0.02-0.03l0.02-0.03
		l0.02-0.03l0.01-0.03l0.01-0.03l0.02-0.06l0.02-0.06l0.01-0.06c0-0.02,0-0.04,0.01-0.06c0-0.02,0-0.04,0-0.05c0-0.03,0-0.06,0-0.09
		c0-0.09,0-0.17,0-0.26c0-0.08,0-0.16,0.01-0.23c0-0.07,0.01-0.15,0.01-0.22c0-0.07,0.01-0.14,0.01-0.2
		c0.02-0.27,0.04-0.51,0.06-0.78c0.01-0.16,0.02-0.33,0.02-0.53c-0.01-0.38-0.12-1.15-0.1-1.53c0.01-0.26,0.07-0.52,0.08-0.79
		c0-0.04,0.01-0.07,0.01-0.11c0.06-0.62-0.08-1.23-0.1-1.85c-0.01-0.5,0.05-0.8,0.09-1.18C31.88,10.34,31.89,10.23,31.89,10.1z
		 M30.39,17.19l0,0.03l0,0.03l-0.01,0.03l-0.01,0.01l-0.01,0.01l-0.01,0.01l-0.01,0.01l-0.02,0.02l-0.02,0.02l-0.02,0.01l-0.03,0.01
		l-0.03,0.01l-0.03,0.01l-0.03,0.01l-0.03,0c-0.04,0-0.07,0-0.11,0c0,0-0.01,0-0.01,0v0c-0.21,0-0.42,0-0.63,0
		c-0.43,0-0.86,0.02-1.3,0.02c-0.53,0.01-1.06,0.02-1.59,0.01c-0.43-0.01-0.87-0.1-1.3-0.09c-0.18,0-0.43,0.02-0.66,0.04
		c-0.64,0.01-1.23,0.1-1.9,0.06c-0.59-0.03-1.13-0.04-1.65-0.03c-0.43,0-0.86,0.02-1.3,0.02c-0.53,0.01-1.06,0.02-1.59,0.01
		c-0.43-0.01-0.87-0.1-1.3-0.09c-0.18,0-0.43,0.02-0.66,0.04c-0.64,0.01-1.23,0.1-1.9,0.06c-0.59-0.03-1.13-0.04-1.65-0.03
		c-0.25,0-0.51,0.01-0.76,0.01l-0.03,0l-0.03,0l-0.03-0.01l-0.01-0.01l-0.01-0.01l-0.01-0.01l-0.01-0.01l-0.02-0.02l-0.02-0.02
		l-0.01-0.02l-0.01-0.03l-0.01-0.03l-0.01-0.03l-0.01-0.03l0-0.03c0-0.04,0-0.07,0-0.11c0,0,0-0.01,0-0.01h0c0-0.21,0-0.42,0-0.63
		c0-0.31-0.02-0.61-0.02-0.92c-0.01-0.38-0.02-0.76-0.01-1.13c0.01-0.31,0.1-0.62,0.09-0.92c0-0.13-0.02-0.31-0.04-0.47
		c-0.01-0.45-0.1-0.87-0.06-1.35c0.03-0.42,0.04-0.8,0.03-1.18c0-0.25-0.01-0.51-0.01-0.76l0-0.03l0-0.03l0.01-0.03l0.01-0.01
		l0.01-0.01l0.01-0.01l0.01-0.01l0.02-0.02l0.02-0.02l0.02-0.01l0.03-0.01l0.03-0.01l0.03-0.01l0.03-0.01l0.03,0
		c0.04,0,0.07,0,0.11,0c0,0,0.01,0,0.01,0l0,0c0.21,0,0.42,0,0.63,0c0.43,0,0.86-0.02,1.3-0.02c0.53-0.01,1.06-0.02,1.59-0.01
		c0.43,0.01,0.87,0.1,1.3,0.09c0.18,0,0.43-0.02,0.66-0.04c0.64-0.01,1.23-0.1,1.9-0.06c0.59,0.03,1.13,0.04,1.65,0.03
		c0.43,0,0.86-0.02,1.3-0.02c0.53-0.01,1.06-0.02,1.59-0.01c0.43,0.01,0.87,0.1,1.3,0.09c0.18,0,0.43-0.02,0.66-0.04
		c0.64-0.01,1.23-0.1,1.9-0.06c0.59,0.03,1.13,0.04,1.65,0.03c0.25,0,0.51-0.01,0.76-0.01l0.03,0l0.03,0l0.03,0.01l0.01,0.01
		l0.01,0.01l0.01,0.01L30.3,9.5l0.02,0.02l0.02,0.02l0.01,0.02l0.01,0.03l0.01,0.03l0.01,0.03l0.01,0.03l0,0.03
		c0,0.04,0,0.07,0,0.11c0,0,0,0.01,0,0.01h0c0,0.21,0,0.42,0,0.63c0,0.31,0.02,0.61,0.02,0.92c0.01,0.38,0.02,0.76,0.01,1.13
		c-0.01,0.31-0.1,0.62-0.09,0.92c0,0.13,0.02,0.31,0.04,0.47c0.01,0.45,0.1,0.87,0.06,1.35c-0.03,0.42-0.04,0.8-0.03,1.18
		C30.39,16.68,30.39,16.93,30.39,17.19z"/>
	<path class="st1" d="M18.41,6.25c0.08-0.03,0.15-0.04,0.23-0.04c0.07,0,0.13,0,0.2,0c0.22,0,0.44-0.02,0.67-0.02
		c0.27-0.01,0.55-0.02,0.82-0.01c0.22,0.01,0.44,0.1,0.67,0.09c0.09,0,0.22-0.02,0.34-0.04c0.33-0.01,0.63-0.1,0.98-0.06
		c0.3,0.03,0.58,0.04,0.85,0.03c0.06,0,0.12,0,0.18,0c0.08,0,0.18,0.03,0.25,0.03c0.13-0.01,0.21,0.02,0.33-0.15
		c0.13-0.18,0.22-0.55,0.16-0.85c-0.03-0.15-0.08-0.27-0.15-0.36c-0.02-0.03-0.05-0.06-0.07-0.09c-0.09-0.08-0.19-0.04-0.28-0.03
		c-0.04,0.01-0.07,0.01-0.11,0.01c-0.11-0.02-0.21-0.04-0.32-0.05c-0.11-0.01-0.24-0.02-0.38-0.02c-0.27,0.01-0.83,0.12-1.1,0.1
		c-0.19-0.01-0.38-0.07-0.57-0.08c-0.03,0-0.05-0.01-0.08-0.01c-0.44-0.06-0.89,0.08-1.34,0.1c-0.36,0.01-0.57-0.05-0.85-0.09
		c-0.06-0.01-0.12-0.01-0.18-0.02c-0.06,0-0.15-0.03-0.23-0.03c-0.12,0-0.38,0.11-0.45,0.35c-0.07,0.26-0.12,0.43-0.09,0.71
		c0.01,0.12,0.16,0.39,0.21,0.47C18.18,6.3,18.32,6.28,18.41,6.25z"/>
</g>
</svg>
