<?xml version="1.0" encoding="utf-8"?>
<!-- Generator: Adobe Illustrator 24.0.2, SVG Export Plug-In . SVG Version: 6.00 Build 0)  -->
<svg version="1.1" id="레이어_1" xmlns="http://www.w3.org/2000/svg" xmlns:xlink="http://www.w3.org/1999/xlink" x="0px"
	 y="0px" viewBox="0 0 42 42" style="enable-background:new 0 0 42 42;" xml:space="preserve">
<style type="text/css">
	.st0{fill:#202020;}
</style>
<g id="그룹_15794" transform="translate(-88.419 -85.974)">
	<path id="패스_12021" class="st0" d="M103.65,104.66c0.72,0.44,1.59,0.54,2.39,0.26c0.54-0.18,1.02-0.52,1.37-0.97
		c0.32-0.41,0.5-0.91,0.53-1.43c0.02-0.52-0.13-1.03-0.42-1.45c-0.42-0.59-1.05-0.98-1.76-1.08c-0.68-0.09-1.37,0.05-1.95,0.41
		c-0.65,0.36-1.1,0.99-1.26,1.71c-0.02,0.1-0.04,0.2-0.04,0.3C102.43,103.32,102.87,104.18,103.65,104.66z M104.56,102.23
		c0.15-0.36,0.56-0.54,0.92-0.4c0.28,0.12,0.47,0.38,0.49,0.69c0,0.23-0.11,0.45-0.31,0.58c-0.27,0.19-0.63,0.19-0.9,0.01
		C104.56,102.87,104.49,102.54,104.56,102.23L104.56,102.23z"/>
	<path id="패스_12022" class="st0" d="M120.52,95.27c-1.65-1.02-3.8-0.63-4.98,0.92c-0.41,0.54-0.64,1.2-0.67,1.88
		c-0.02,0.67,0.17,1.34,0.55,1.89c0.54,0.77,1.38,1.29,2.31,1.44c0.9,0.14,1.82-0.05,2.6-0.53c0.84-0.49,1.44-1.31,1.64-2.27
		c0.03-0.13,0.05-0.26,0.05-0.39C122.09,97.03,121.52,95.9,120.52,95.27z M119.85,98.75c-0.36,0.71-1.2,1.05-1.95,0.78
		c-0.62-0.22-1.05-0.8-1.07-1.46c0-0.51,0.26-0.99,0.69-1.27c0.56-0.37,1.29-0.38,1.85-0.01c0.4,0.3,0.63,0.77,0.61,1.27
		C119.99,98.29,119.95,98.53,119.85,98.75z"/>
	<path id="패스_12023" class="st0" d="M117.44,107.17c-0.72-0.44-1.59-0.54-2.39-0.26c-0.54,0.18-1.02,0.52-1.37,0.97
		c-0.32,0.41-0.5,0.91-0.53,1.43c-0.02,0.52,0.13,1.03,0.42,1.45c0.42,0.59,1.05,0.98,1.76,1.08c0.68,0.09,1.37-0.05,1.95-0.41
		c0.65-0.36,1.1-0.99,1.26-1.71c0.02-0.1,0.04-0.2,0.04-0.3C118.65,108.51,118.21,107.65,117.44,107.17z"/>
	<path id="패스_12024" class="st0" d="M109.45,116.9c-0.11-0.3-0.21-0.48-0.28-0.67c-0.2-0.49-0.45-0.96-0.74-1.4l-0.12-0.18
		c-0.83-1.07-1.99-1.82-3.31-2.13c-0.9-0.3-1.89-0.17-2.68,0.35c-0.34,0.26-0.59,0.61-0.75,1.01c-0.21,0.59-0.25,1.23-0.12,1.85
		c0.07,0.34,0.16,0.68,0.28,1c0.11,0.3,0.21,0.48,0.28,0.67c0.2,0.49,0.45,0.96,0.74,1.4l0.12,0.18c0.83,1.07,1.99,1.82,3.31,2.13
		c0.9,0.3,1.89,0.17,2.68-0.35c0.34-0.26,0.59-0.61,0.75-1.01c0.21-0.59,0.25-1.23,0.12-1.85
		C109.66,117.56,109.57,117.23,109.45,116.9z M106.58,119.3c-0.19-0.03-0.38-0.08-0.56-0.16c-0.09-0.04-0.18-0.09-0.26-0.14
		c-0.12-0.07-0.23-0.15-0.34-0.23c-0.34-0.31-0.65-0.66-0.92-1.03c-0.13-0.15-0.31-0.35-0.45-0.54c-0.19-0.27-0.36-0.55-0.51-0.84
		c-0.12-0.22-0.19-0.47-0.2-0.72c-0.04-0.4,0.1-0.8,0.38-1.08c0.25-0.2,0.57-0.28,0.88-0.22c0.19,0.03,0.38,0.08,0.56,0.16
		c0.09,0.04,0.18,0.09,0.26,0.14c0.12,0.07,0.23,0.15,0.34,0.23c0.34,0.31,0.65,0.66,0.93,1.03c0.13,0.15,0.31,0.35,0.45,0.54
		c0.19,0.27,0.36,0.55,0.51,0.84c0.12,0.22,0.19,0.47,0.2,0.72c0.04,0.4-0.1,0.8-0.38,1.08
		C107.21,119.28,106.89,119.35,106.58,119.3L106.58,119.3z"/>
	<path id="패스_12025" class="st0" d="M98.14,107.82c-0.72-0.44-1.59-0.54-2.39-0.26c-0.54,0.18-1.02,0.52-1.37,0.97
		c-0.32,0.41-0.5,0.91-0.53,1.43c-0.02,0.52,0.13,1.03,0.42,1.45c0.42,0.59,1.05,0.98,1.76,1.08c0.68,0.09,1.37-0.05,1.95-0.41
		c0.65-0.36,1.11-0.99,1.26-1.71c0.02-0.1,0.04-0.2,0.04-0.3C99.36,109.16,98.92,108.29,98.14,107.82z"/>
	<path id="패스_12026" class="st0" d="M129.44,100.4c-0.01-0.71-0.15-2.15-0.14-2.85c0.01-0.49,0.09-0.98,0.11-1.47
		c0.01-0.07,0.01-0.13,0.01-0.2c0.07-1.15-0.11-2.3-0.13-3.46c-0.01-0.93,0.07-1.49,0.12-2.2c0.01-0.15,0.01-0.3,0.02-0.47
		s0-0.34,0-0.53s-0.02-0.41-0.03-0.66c-0.01-0.23-0.03-0.49-0.05-0.74v-0.01v-0.04l0,0v-0.02l-0.01-0.06l-0.01-0.06l-0.02-0.05
		l-0.02-0.05l-0.02-0.05l-0.02-0.04l-0.03-0.04l-0.03-0.04l-0.03-0.03l-0.03-0.03l-0.07-0.05l-0.08-0.04l-0.08-0.04l-0.08-0.03
		l-0.08-0.02l-0.08-0.01l-0.15-0.01h-0.45l-0.31-0.01l-0.55-0.03l-1.02-0.08c-0.29-0.02-0.61-0.03-0.99-0.03
		c-0.71,0.01-2.15,0.15-2.85,0.14c-0.49-0.01-0.98-0.09-1.47-0.11l-0.2-0.01c-1.15-0.07-2.3,0.11-3.46,0.13
		c-0.93,0.01-1.49-0.07-2.2-0.12c-0.29-0.02-0.61-0.03-0.99-0.03c-0.71,0.01-2.15,0.15-2.85,0.14c-0.49-0.01-0.98-0.09-1.47-0.11
		l-0.2-0.01c-1.15-0.07-2.3,0.11-3.45,0.13c-0.93,0.01-1.49-0.07-2.2-0.12c-0.29-0.02-0.61-0.03-0.99-0.03
		c-0.71,0.01-2.15,0.15-2.85,0.14c-0.49-0.01-0.98-0.09-1.47-0.11l-0.2-0.01c-1.15-0.07-2.3,0.11-3.45,0.13
		c-0.93,0.01-1.49-0.07-2.2-0.12l-0.47-0.02h-0.53l-0.65,0.02l-0.74,0.05h-0.01h-0.04l0,0h-0.02l-0.06,0.01l-0.06,0.01l-0.05,0.02
		l-0.05,0.02l-0.05,0.02l-0.04,0.03l-0.04,0.03l-0.04,0.03l-0.03,0.03l-0.03,0.03l-0.05,0.07l-0.04,0.08l-0.04,0.08l-0.03,0.08
		l-0.02,0.08l-0.01,0.08c0,0.05-0.01,0.1-0.01,0.15v0.12c0,0.12,0,0.23,0,0.33l-0.01,0.31c-0.01,0.19-0.02,0.38-0.03,0.55
		c-0.03,0.35-0.05,0.67-0.08,1.03c-0.02,0.29-0.03,0.61-0.03,0.99c0.01,0.71,0.15,2.15,0.14,2.85c-0.01,0.49-0.09,0.98-0.11,1.47
		c0,0.07-0.01,0.13-0.01,0.2c-0.07,1.15,0.11,2.3,0.13,3.45c0.01,0.93-0.07,1.49-0.12,2.2c-0.02,0.29-0.03,0.61-0.03,0.99
		c0.01,0.71,0.15,2.15,0.14,2.85c-0.01,0.49-0.09,0.98-0.11,1.47c0,0.07-0.01,0.13-0.01,0.2c-0.07,1.15,0.11,2.3,0.13,3.45
		c0.01,0.93-0.07,1.49-0.12,2.2c-0.02,0.29-0.03,0.61-0.03,0.99c0.01,0.71,0.15,2.15,0.14,2.85c-0.01,0.49-0.09,0.98-0.11,1.47
		c0,0.07-0.01,0.13-0.01,0.2c-0.07,1.15,0.11,2.3,0.13,3.45c0.01,0.93-0.07,1.49-0.12,2.2c-0.01,0.15-0.01,0.3-0.02,0.47
		s0,0.34,0,0.53s0.02,0.41,0.03,0.66c0.01,0.23,0.03,0.49,0.05,0.74v0.01v0.04l0,0v0.02l0.01,0.06l0.01,0.06l0.02,0.05l0.02,0.05
		l0.02,0.05l0.03,0.04l0.03,0.04l0.03,0.04l0.03,0.03l0.03,0.03l0.07,0.05l0.08,0.04l0.08,0.04l0.08,0.03l0.08,0.02l0.08,0.01
		l0.15,0.01h0.45l0.3,0.01l0.55,0.03l1.04,0.09c0.29,0.02,0.61,0.03,0.99,0.03c0.71-0.01,2.15-0.15,2.85-0.14
		c0.49,0.01,0.98,0.09,1.47,0.11l0.2,0.01c1.15,0.07,2.3-0.11,3.45-0.13c0.93-0.01,1.49,0.07,2.2,0.12
		c0.29,0.02,0.61,0.03,0.99,0.03c0.71-0.01,2.15-0.15,2.85-0.14c0.49,0.01,0.98,0.09,1.47,0.11l0.2,0.01
		c1.15,0.07,2.3-0.11,3.45-0.13c0.93-0.01,1.49,0.07,2.2,0.12c0.29,0.02,0.61,0.03,0.99,0.03c0.71-0.01,2.15-0.15,2.85-0.14
		c0.49,0.01,0.98,0.09,1.47,0.11l0.2,0.01c1.15,0.07,2.3-0.11,3.45-0.13c0.93-0.01,1.49,0.07,2.2,0.12l0.47,0.02h0.53l0.66-0.03
		l0.74-0.05h0.01h0.04l0,0h0.02l0.06-0.01l0.06-0.01l0.05-0.02l0.05-0.02l0.05-0.02l0.04-0.03l0.04-0.03l0.04-0.03l0.03-0.03
		l0.03-0.03l0.05-0.07l0.04-0.08l0.04-0.08l0.03-0.08l0.02-0.08l0.01-0.08c0.01-0.05,0.01-0.1,0.01-0.15v-0.12c0-0.12,0-0.23,0-0.33
		l0.01-0.31c0.01-0.19,0.02-0.38,0.03-0.55c0.03-0.35,0.05-0.67,0.08-1.03c0.02-0.29,0.03-0.61,0.03-0.99
		c-0.01-0.71-0.15-2.15-0.14-2.85c0.01-0.49,0.09-0.98,0.11-1.47c0.01-0.07,0.01-0.13,0.01-0.2c0.07-1.15-0.11-2.3-0.13-3.45
		c-0.01-0.93,0.07-1.49,0.12-2.2c0.02-0.29,0.03-0.61,0.03-0.99c-0.01-0.71-0.15-2.15-0.14-2.85c0.01-0.49,0.09-0.98,0.11-1.47
		c0.01-0.07,0.01-0.13,0.01-0.2c0.07-1.15-0.11-2.3-0.13-3.45c-0.01-0.93,0.07-1.49,0.12-2.2
		C129.43,101.1,129.44,100.78,129.44,100.4z M127.1,92.2c0.12-0.1,0.25-0.19,0.38-0.28v0.04c0.01,0.71,0.03,1.41,0.01,2.12
		c0,0.09-0.01,0.18-0.02,0.28c-0.09-0.05-0.18-0.1-0.26-0.17c-0.17-0.14-0.29-0.33-0.36-0.53c-0.05-0.17,0.03-0.35,0.02-0.5
		c0-0.07-0.02-0.16-0.02-0.25C126.83,92.64,126.92,92.38,127.1,92.2L127.1,92.2z M112.37,90.45c-0.01,0.19-0.05,0.39-0.11,0.57
		c-0.03,0.09-0.07,0.18-0.11,0.27c-0.06,0.12-0.13,0.25-0.2,0.36c-0.28,0.37-0.59,0.71-0.94,1.01c-0.14,0.14-0.32,0.34-0.49,0.5
		c-0.25,0.21-0.52,0.41-0.79,0.59c-0.21,0.14-0.45,0.23-0.7,0.27c-0.39,0.07-0.8-0.03-1.11-0.28c-0.22-0.23-0.33-0.54-0.3-0.86
		c0.01-0.19,0.05-0.39,0.11-0.57c0.03-0.09,0.07-0.19,0.11-0.27c0.06-0.12,0.13-0.25,0.2-0.36c0.28-0.37,0.59-0.71,0.94-1.01
		c0.14-0.14,0.32-0.34,0.49-0.5c0.25-0.21,0.52-0.41,0.79-0.59c0.21-0.14,0.45-0.23,0.7-0.27c0.39-0.07,0.8,0.03,1.11,0.28
		C112.29,89.82,112.4,90.14,112.37,90.45z M91.73,123.34c-0.11,0.1-0.23,0.18-0.36,0.26c-0.01-0.53-0.02-1.06-0.03-1.61
		c0-0.27,0-0.54,0-0.82c0.1,0.05,0.19,0.11,0.28,0.18c0.17,0.14,0.29,0.33,0.36,0.53c0.05,0.17-0.03,0.35-0.02,0.5
		c0,0.07,0.02,0.16,0.02,0.25C92,122.9,91.91,123.15,91.73,123.34z M119.85,123.89c-0.36,0.71-1.2,1.05-1.95,0.78
		c-0.62-0.22-1.05-0.8-1.07-1.46c0-0.51,0.26-0.99,0.69-1.27c0.56-0.37,1.29-0.38,1.85-0.01c0.4,0.3,0.63,0.77,0.61,1.27
		C119.99,123.43,119.95,123.67,119.85,123.89z M127.48,103.12c0.01,0.71,0.03,1.41,0.01,2.12c-0.02,0.58-0.13,1.15-0.11,1.72
		c0,0.24,0.03,0.58,0.05,0.87c0.02,0.85,0.13,1.64,0.07,2.53c-0.04,0.79-0.05,1.5-0.04,2.2c0.01,0.57,0.02,1.14,0.03,1.73
		c0.01,0.57,0.01,1.14,0.01,1.71c-0.05,0.02-0.1,0.04-0.15,0.05c-0.18,0.03-0.36,0.08-0.54,0.14c-0.21,0.08-0.41,0.19-0.59,0.33
		c-0.48,0.44-0.84,0.99-1.05,1.61c-0.15,0.3-0.26,0.63-0.31,0.96c-0.01,0.05-0.01,0.09-0.02,0.14c-0.01,0.81,0.31,1.58,0.89,2.14
		c0.31,0.38,0.67,0.72,1.08,1c0.09,0.05,0.18,0.1,0.28,0.15c0.12,0.06,0.24,0.12,0.37,0.16h0.01c-0.01,0.36-0.01,0.71,0,1.05l0.02,1
		v0.04l-0.01,0.04l-0.01,0.04l-0.01,0.03l-0.02,0.03l-0.02,0.03l-0.03,0.02l-0.03,0.02l-0.03,0.02l-0.04,0.01l-0.04,0.01l-0.04,0.01
		h-0.06h-0.96c-0.57,0-1.14,0.02-1.73,0.03c-0.71,0.01-1.41,0.03-2.12,0.01c-0.29-0.01-0.59-0.04-0.89-0.07
		c0.27-0.37,0.45-0.79,0.53-1.24c0.03-0.13,0.05-0.26,0.05-0.39c0.07-1.18-0.5-2.31-1.5-2.94c-1.65-1.03-3.8-0.63-4.98,0.91
		c-0.41,0.54-0.64,1.2-0.67,1.88c-0.02,0.64,0.16,1.27,0.51,1.81c-0.13,0-0.25,0-0.38,0c-0.57,0-1.14,0.02-1.73,0.03
		c-0.71,0.01-1.41,0.03-2.12,0.01c-0.58-0.01-1.15-0.13-1.72-0.11c-0.24,0-0.58,0.03-0.87,0.05c-0.85,0.02-1.63,0.13-2.53,0.07
		c-0.79-0.05-1.5-0.05-2.2-0.04c-0.57,0-1.14,0.02-1.73,0.03c-0.71,0.01-1.41,0.03-2.12,0.01c-0.58-0.01-1.15-0.13-1.72-0.11
		c-0.24,0-0.58,0.03-0.87,0.05c-0.85,0.02-1.64,0.13-2.53,0.07c-0.75-0.04-1.43-0.05-2.1-0.04c0.4-0.42,0.71-0.92,0.9-1.47
		c0.15-0.3,0.26-0.63,0.31-0.96c0.01-0.05,0.01-0.09,0.02-0.14c0.01-0.81-0.31-1.58-0.89-2.14c-0.31-0.38-0.67-0.72-1.08-1
		c-0.09-0.05-0.18-0.1-0.28-0.15c-0.11-0.06-0.23-0.11-0.35-0.15c0.03-0.28,0.05-0.57,0.05-0.86c0-0.24-0.03-0.58-0.05-0.87
		c-0.02-0.85-0.13-1.63-0.07-2.53c0.05-0.79,0.05-1.5,0.04-2.2c-0.01-0.57-0.02-1.14-0.03-1.73c-0.01-0.71-0.03-1.41-0.01-2.12
		c0.02-0.58,0.13-1.15,0.11-1.72c0-0.24-0.03-0.58-0.05-0.87c-0.02-0.85-0.13-1.64-0.07-2.53c0.05-0.79,0.05-1.5,0.04-2.2
		c-0.01-0.57-0.02-1.14-0.03-1.73c0-0.04,0-0.08,0-0.13c0.05-0.02,0.1-0.03,0.15-0.05c0.18-0.03,0.36-0.08,0.54-0.14
		c0.21-0.08,0.41-0.19,0.59-0.33c0.48-0.44,0.84-0.99,1.04-1.61c0.15-0.3,0.26-0.63,0.31-0.96c0.01-0.04,0.01-0.09,0.02-0.14
		c0.01-0.81-0.31-1.58-0.89-2.14c-0.31-0.38-0.67-0.72-1.08-1c-0.09-0.05-0.18-0.1-0.28-0.15c-0.12-0.06-0.24-0.12-0.37-0.16
		c-0.02,0-0.04,0-0.06,0c0-0.14,0-0.29,0.01-0.44c0.05-0.79,0.05-1.5,0.04-2.2l-0.02-1v-0.04l0.01-0.04l0.01-0.04l0.01-0.03
		l0.02-0.03l0.02-0.03L91.46,89l0.03-0.02l0.03-0.02l0.04-0.01l0.04-0.01l0.04-0.01h0.06h0.97c0.57,0,1.14-0.02,1.73-0.03
		c0.71-0.01,1.41-0.03,2.12-0.01c0.58,0.01,1.15,0.13,1.72,0.11c0.24,0,0.58-0.03,0.87-0.05c0.85-0.02,1.64-0.13,2.53-0.07
		c0.79,0.05,1.5,0.05,2.2,0.04c0.57,0,1.14-0.02,1.73-0.03c0.7-0.01,1.41-0.03,2.12-0.01c0.08,0,0.15,0.01,0.23,0.02
		c-0.05,0.04-0.11,0.07-0.16,0.12l-0.16,0.14c-0.99,0.92-1.63,2.15-1.81,3.49c-0.21,0.93,0.01,1.9,0.59,2.64
		c0.29,0.31,0.67,0.53,1.07,0.65c0.61,0.15,1.25,0.14,1.85-0.05c0.33-0.1,0.66-0.22,0.97-0.37c0.29-0.14,0.46-0.25,0.64-0.35
		c0.47-0.24,0.91-0.53,1.33-0.87l0.16-0.14c0.99-0.92,1.63-2.15,1.81-3.49c0.1-0.59,0.06-1.19-0.12-1.76c0.31,0,0.62,0,0.92,0
		c0.57,0,1.14-0.02,1.73-0.03c0.71-0.01,1.41-0.03,2.12-0.01c0.57,0.01,1.15,0.13,1.72,0.11c0.24,0,0.58-0.03,0.87-0.05
		c0.85-0.02,1.64-0.13,2.53-0.07c0.79,0.05,1.5,0.05,2.2,0.04l1-0.01h0.04l0.04,0.01l0.04,0.01l0.03,0.01l0.03,0.02l0.03,0.02
		l0.02,0.03l0.02,0.03l0.01,0.03l0.01,0.04l0.01,0.04l0.01,0.04v0.06v0.14l0,0c0,0.16,0,0.31,0,0.47c-0.04,0.01-0.08,0.03-0.12,0.04
		c-0.18,0.03-0.36,0.08-0.54,0.14c-0.21,0.08-0.41,0.19-0.59,0.33c-0.48,0.44-0.84,0.99-1.05,1.61c-0.15,0.3-0.26,0.63-0.31,0.96
		c-0.01,0.05-0.01,0.09-0.02,0.14c-0.01,0.81,0.31,1.58,0.89,2.14c0.31,0.38,0.67,0.72,1.08,1c0.09,0.05,0.18,0.1,0.28,0.15
		c0.11,0.05,0.22,0.1,0.34,0.15c0,0.05,0.01,0.1,0.01,0.14c0.02,0.85,0.13,1.63,0.07,2.53c-0.04,0.79-0.05,1.5-0.04,2.2
		C127.46,101.96,127.48,102.53,127.48,103.12z"/>
</g>
</svg>
