<?xml version="1.0" encoding="utf-8"?>
<!-- Generator: Adobe Illustrator 24.0.2, SVG Export Plug-In . SVG Version: 6.00 Build 0)  -->
<svg version="1.1" id="레이어_1" xmlns="http://www.w3.org/2000/svg" xmlns:xlink="http://www.w3.org/1999/xlink" x="0px"
	 y="0px" viewBox="0 0 42 42" style="enable-background:new 0 0 42 42;" xml:space="preserve">
<style type="text/css">
	.st0{fill:#202020;}
</style>
<g id="그룹_15836" transform="translate(227.026 -528.974)">
	<path id="패스_12123" class="st0" d="M-186.01,552.64c-0.01-0.7-0.15-2.14-0.13-2.85c0.01-0.49,0.09-0.98,0.11-1.47
		c0-0.07,0.01-0.13,0.01-0.2c0.07-1.15-0.11-2.3-0.13-3.45c-0.01-0.93,0.07-1.48,0.12-2.2c0.02-0.29,0.03-0.61,0.02-0.99
		c-0.01-0.36-0.04-0.87-0.08-1.44c-0.05-0.61-0.22-1.21-0.49-1.75c-0.26-0.58-0.64-1.1-1.14-1.51c-0.06-0.06-0.13-0.11-0.2-0.16
		c-0.63-0.44-1.38-0.67-2.15-0.64c-0.63,0.03-1.16,0.09-1.75,0.09c-0.93,0.01-1.49-0.07-2.2-0.12c-0.29-0.02-0.61-0.03-0.99-0.03
		c-0.7,0.01-2.14,0.15-2.85,0.14c-0.49-0.01-0.98-0.09-1.47-0.11l-0.2-0.01c-1.15-0.07-2.3,0.11-3.45,0.13
		c-0.93,0.01-1.49-0.07-2.2-0.12c-0.29-0.02-0.61-0.03-0.99-0.03c-0.7,0.01-2.14,0.15-2.85,0.14c-0.49-0.01-0.98-0.09-1.47-0.11
		l-0.2-0.01c-1.15-0.07-2.3,0.11-3.45,0.13c-0.93,0.01-1.49-0.07-2.2-0.12c-0.29-0.02-0.61-0.03-0.99-0.03
		c-0.7,0.01-2.14,0.15-2.85,0.14c-0.49-0.01-0.98-0.09-1.47-0.11l-0.2-0.01c-0.76-0.04-1.51,0.17-2.14,0.59
		c-0.62,0.41-1.13,0.98-1.47,1.64c-0.4,0.8-0.6,1.67-0.6,2.56c-0.02,0.29-0.03,0.61-0.02,0.99c0.01,0.71,0.15,2.14,0.13,2.85
		c-0.01,0.49-0.09,0.98-0.11,1.47c0,0.07-0.01,0.13-0.01,0.2c-0.07,1.15,0.11,2.3,0.13,3.45c0.01,0.93-0.07,1.48-0.12,2.2
		c-0.02,0.29-0.03,0.61-0.02,0.99c0.01,0.7,0.15,2.14,0.13,2.85c-0.01,0.49-0.09,0.98-0.11,1.47l-0.01,0.2
		c-0.03,0.57-0.02,1.15,0.03,1.72l0.07,0.91c0.04,0.37,0.12,0.73,0.24,1.08c0.3,0.91,0.87,1.7,1.65,2.26
		c0.36,0.25,0.76,0.43,1.19,0.53c0.28,0.06,0.56,0.09,0.84,0.09c0.32,0,0.53-0.03,0.82-0.04c0.54-0.03,1.07-0.07,1.42-0.06
		c0.49,0.01,0.98,0.09,1.47,0.11l0.2,0.01c1.15,0.07,2.3-0.11,3.45-0.13c0.93-0.01,1.48,0.07,2.2,0.12
		c0.29,0.02,0.61,0.03,0.99,0.03c0.7-0.01,2.14-0.15,2.85-0.14c0.49,0.01,0.98,0.09,1.47,0.11l0.2,0.01
		c1.15,0.07,2.3-0.11,3.45-0.13c0.93-0.01,1.48,0.07,2.2,0.12c0.29,0.02,0.61,0.03,0.99,0.03c0.7-0.01,2.14-0.15,2.85-0.14
		c0.49,0.01,0.98,0.09,1.47,0.11l0.2,0.01c1.15,0.07,2.3-0.11,3.45-0.13c0.93-0.01,1.48,0.07,2.2,0.12
		c0.44,0.02,0.87-0.04,1.29-0.18c0.59-0.21,1.12-0.56,1.55-1.02c0.42-0.45,0.74-0.98,0.95-1.55c0.12-0.29,0.21-0.6,0.28-0.91
		c0.03-0.16,0.05-0.31,0.07-0.47l0.02-0.37l0.01-0.2c0.07-1.15-0.11-2.3-0.13-3.45c-0.01-0.93,0.07-1.48,0.12-2.2
		C-186.02,553.34-186.01,553.02-186.01,552.64z M-224.04,545.48v-0.02c-0.02-0.84-0.13-1.63-0.07-2.52c0-0.04,0-0.08,0.01-0.12
		c0.15,0.01,0.29,0,0.44-0.03c0.2-0.04,0.39-0.05,0.59-0.05h0.5c0.57-0.01,1.12-0.02,1.71-0.03c0.7-0.01,1.4-0.03,2.09-0.01
		c0.57,0.02,1.14,0.13,1.7,0.11c0.24-0.01,0.57-0.03,0.86-0.05c0.84-0.02,1.62-0.13,2.49-0.08c0.78,0.04,1.48,0.05,2.17,0.04
		c0.57-0.01,1.12-0.02,1.71-0.03c0.7-0.01,1.4-0.03,2.09-0.01c0.57,0.02,1.14,0.13,1.7,0.11c0.24-0.01,0.57-0.03,0.86-0.05
		c0.84-0.02,1.62-0.13,2.49-0.08c0.78,0.04,1.48,0.05,2.17,0.04c0.57-0.01,1.13-0.02,1.71-0.03c0.7-0.01,1.4-0.03,2.09-0.01
		c0.57,0.02,1.14,0.13,1.7,0.11c0.24-0.01,0.57-0.03,0.86-0.05c0.84-0.02,1.62-0.13,2.49-0.08c0.78,0.04,1.48,0.05,2.17,0.04
		l0.47-0.01c0.2,0,0.45,0.04,0.65,0.04c0.14,0,0.26,0,0.38-0.02c0.01,0.48,0.02,0.97,0.02,1.47c0.01,0.43,0,0.87,0.01,1.3
		c-0.14,0-0.29,0.01-0.43,0.03c-0.09,0.01-0.19,0.01-0.28,0.01c-0.27-0.02-0.53-0.05-0.82-0.07s-0.6-0.03-0.98-0.03
		c-0.7,0.01-2.12,0.16-2.82,0.14c-0.49-0.01-0.97-0.09-1.45-0.11l-0.19-0.01c-1.14-0.07-2.27,0.11-3.41,0.13
		c-0.92,0.01-1.47-0.07-2.17-0.12c-0.29-0.02-0.6-0.03-0.98-0.03c-0.7,0.01-2.12,0.16-2.82,0.14c-0.49-0.01-0.97-0.09-1.45-0.11
		l-0.19-0.01c-1.14-0.07-2.27,0.11-3.41,0.13c-0.92,0.01-1.47-0.07-2.17-0.12c-0.29-0.02-0.6-0.03-0.98-0.03
		c-0.7,0.01-2.12,0.16-2.82,0.14c-0.49-0.01-0.97-0.09-1.45-0.11l-0.2-0.01c-1.14-0.07-2.27,0.11-3.41,0.13
		c-0.92,0.01-1.47-0.07-2.17-0.12c-0.15-0.01-0.3-0.02-0.46-0.02s-0.4-0.04-0.58-0.04C-223.77,545.43-223.91,545.45-224.04,545.48
		L-224.04,545.48z M-223.96,539.36c0.16-0.48,0.49-0.89,0.92-1.14c0.36-0.16,0.76-0.24,1.16-0.22l0.87-0.05
		c0.84-0.02,1.63-0.13,2.52-0.08c0.79,0.05,1.5,0.05,2.2,0.04c0.57-0.01,1.14-0.02,1.73-0.03c0.7-0.01,1.41-0.03,2.11-0.01
		c0.57,0.02,1.15,0.13,1.72,0.11c0.24-0.01,0.57-0.03,0.87-0.05c0.84-0.02,1.63-0.13,2.52-0.08c0.79,0.05,1.5,0.05,2.2,0.04
		c0.57-0.01,1.14-0.02,1.73-0.03c0.7-0.01,1.41-0.03,2.11-0.01c0.57,0.02,1.15,0.13,1.72,0.11c0.24-0.01,0.57-0.03,0.87-0.05
		c0.84-0.02,1.63-0.13,2.52-0.08c0.79,0.05,1.5,0.05,2.2,0.04l1.72-0.03c0.7-0.01,1.41-0.03,2.11-0.01c0.4,0.05,0.77,0.2,1.1,0.43
		c0.18,0.09,0.34,0.21,0.49,0.34c0.46,0.41,0.71,1.02,0.65,1.63c-0.01,0.18-0.01,0.34-0.02,0.52c-0.14,0-0.28,0.01-0.42,0.03
		c-0.09,0.01-0.19,0.01-0.28,0.01c-0.27-0.02-0.53-0.05-0.82-0.07s-0.6-0.03-0.98-0.03c-0.7,0.01-2.12,0.16-2.82,0.14
		c-0.49-0.01-0.97-0.09-1.45-0.11l-0.19-0.01c-1.14-0.07-2.27,0.11-3.41,0.13c-0.92,0.02-1.47-0.07-2.17-0.12
		c-0.29-0.02-0.6-0.03-0.98-0.03c-0.7,0.01-2.12,0.16-2.82,0.14c-0.49-0.01-0.97-0.09-1.45-0.11l-0.19-0.01
		c-1.14-0.07-2.27,0.11-3.41,0.13c-0.92,0.02-1.47-0.07-2.17-0.12c-0.29-0.02-0.6-0.03-0.98-0.03c-0.7,0.01-2.12,0.16-2.82,0.14
		c-0.49-0.01-0.97-0.09-1.45-0.11l-0.2-0.01c-1.14-0.07-2.27,0.11-3.41,0.13c-0.92,0.02-1.47-0.07-2.17-0.12
		c-0.15-0.01-0.3-0.02-0.46-0.02s-0.4-0.04-0.58-0.04c-0.15,0.01-0.3,0.03-0.45,0.07v-0.04
		C-224.12,540.28-224.09,539.81-223.96,539.36L-223.96,539.36z M-187.96,555.36c0.01,0.7,0.03,1.41,0.01,2.11
		c-0.01,0.58-0.13,1.15-0.11,1.72l0.04,0.79c0.01,0.6-0.25,1.18-0.72,1.55c-0.42,0.3-0.92,0.46-1.44,0.48
		c-0.57,0.01-1.14,0.02-1.73,0.03c-0.7,0.01-1.41,0.03-2.11,0.01c-0.57-0.02-1.15-0.13-1.72-0.11c-0.24,0.01-0.57,0.03-0.87,0.05
		c-0.84,0.02-1.63,0.13-2.52,0.08c-0.79-0.05-1.5-0.05-2.2-0.04c-0.57,0.01-1.14,0.02-1.73,0.03c-0.7,0.01-1.41,0.03-2.11,0.01
		c-0.57-0.02-1.15-0.13-1.72-0.11c-0.24,0.01-0.57,0.03-0.87,0.05c-0.84,0.02-1.63,0.13-2.52,0.08c-0.79-0.05-1.5-0.05-2.2-0.04
		l-1.73,0.03c-0.7,0.01-1.41,0.03-2.11,0.01c-0.57-0.02-1.15-0.13-1.72-0.11l-0.87,0.05c-0.84,0.02-1.63,0.13-2.52,0.08
		c-0.31,0-0.62-0.03-0.92-0.09c-0.24-0.06-0.47-0.15-0.68-0.28c-0.35-0.21-0.64-0.5-0.83-0.86c-0.12-0.22-0.2-0.45-0.24-0.7
		c-0.02-0.13-0.03-0.27-0.03-0.4l0.01-0.53c0.01-0.57,0.13-1.15,0.11-1.72l-0.05-0.87c-0.02-0.84-0.13-1.63-0.07-2.52
		c0.05-0.79,0.05-1.5,0.04-2.2c0-0.57-0.02-1.14-0.03-1.72c-0.01-0.7-0.03-1.41-0.01-2.11c0-0.17,0.02-0.35,0.04-0.52
		c0.13,0,0.27-0.01,0.4-0.03c0.2-0.04,0.39-0.05,0.59-0.05h0.5c0.57-0.01,1.12-0.02,1.71-0.03c0.7-0.01,1.4-0.03,2.09-0.01
		c0.57,0.02,1.14,0.13,1.7,0.11c0.24-0.01,0.57-0.03,0.86-0.05c0.84-0.02,1.62-0.13,2.49-0.08c0.78,0.05,1.48,0.05,2.17,0.04
		c0.57-0.01,1.12-0.02,1.71-0.03c0.7-0.01,1.4-0.03,2.09-0.01c0.57,0.02,1.14,0.13,1.7,0.11c0.24-0.01,0.57-0.03,0.86-0.05
		c0.84-0.02,1.62-0.13,2.49-0.08c0.78,0.05,1.48,0.05,2.17,0.04c0.57-0.01,1.13-0.02,1.71-0.03c0.7-0.01,1.4-0.03,2.09-0.01
		c0.57,0.02,1.14,0.13,1.7,0.11c0.24-0.01,0.57-0.03,0.86-0.05c0.84-0.02,1.62-0.13,2.49-0.08c0.78,0.05,1.48,0.05,2.17,0.04
		l0.47-0.01c0.2,0,0.45,0.04,0.65,0.04c0.12,0,0.23,0,0.33-0.01c-0.02,0.2-0.03,0.39-0.03,0.59c0,0.24,0.03,0.58,0.05,0.87
		c0.02,0.84,0.13,1.63,0.07,2.52c-0.05,0.79-0.05,1.5-0.04,2.2C-187.98,554.2-187.97,554.77-187.96,555.36L-187.96,555.36z"/>
	<path id="패스_12124" class="st0" d="M-206.46,552.14c-0.06-0.04-0.12-0.08-0.18-0.11c-0.22-0.08-0.46-0.09-0.68-0.04
		c-0.09,0.01-0.18,0.01-0.27,0.01c-0.26-0.02-0.51-0.05-0.78-0.07s-0.58-0.03-0.94-0.03c-0.67,0.01-2.04,0.15-2.71,0.14
		c-0.47-0.01-0.93-0.09-1.4-0.11l-0.19-0.01c-1.09-0.07-2.18,0.11-3.28,0.13c-0.7,0-1.39-0.04-2.09-0.12
		c-0.14-0.01-0.28-0.02-0.44-0.02s-0.38-0.04-0.56-0.04c-0.3,0-0.93,0.15-1.1,0.46c-0.2,0.26-0.28,0.6-0.22,0.92
		c0.13,0.24,0.31,0.44,0.52,0.61c0.23,0.12,0.5,0.15,0.75,0.08c0.19-0.04,0.38-0.05,0.57-0.05c0.16,0,0.32,0,0.48,0
		c0.54-0.01,1.08-0.02,1.64-0.03c0.67-0.01,1.34-0.03,2.01-0.01c0.55,0.02,1.09,0.13,1.63,0.11c0.23-0.01,0.55-0.03,0.83-0.05
		c0.8-0.02,1.55-0.13,2.4-0.08c0.75,0.05,1.42,0.05,2.09,0.04c0.15,0,0.3,0,0.45-0.01c0.19,0,0.43,0.04,0.62,0.04
		c0.29,0.03,0.58-0.04,0.82-0.2c0.35-0.25,0.51-0.7,0.4-1.12C-206.17,552.42-206.3,552.25-206.46,552.14z"/>
	<path id="패스_12125" class="st0" d="M-206.46,555.63c-0.06-0.04-0.12-0.08-0.18-0.11c-0.22-0.08-0.46-0.09-0.68-0.04
		c-0.09,0.01-0.18,0.01-0.27,0.01c-0.26-0.02-0.51-0.05-0.78-0.07s-0.58-0.03-0.94-0.03c-0.67,0.01-2.04,0.15-2.71,0.14
		c-0.47-0.01-0.93-0.09-1.4-0.11l-0.19-0.01c-1.09-0.07-2.18,0.11-3.28,0.13c-0.7,0-1.39-0.04-2.09-0.12
		c-0.14-0.01-0.28-0.02-0.44-0.02s-0.38-0.04-0.56-0.04c-0.3,0-0.93,0.15-1.1,0.46c-0.2,0.27-0.28,0.6-0.22,0.92
		c0.13,0.24,0.31,0.44,0.52,0.61c0.23,0.12,0.5,0.15,0.75,0.08c0.19-0.04,0.38-0.05,0.57-0.05c0.16,0,0.32,0,0.48,0
		c0.54-0.01,1.08-0.02,1.64-0.03c0.67-0.01,1.34-0.03,2.01-0.01c0.55,0.02,1.09,0.13,1.63,0.11c0.23,0,0.55-0.03,0.83-0.05
		c0.8-0.02,1.55-0.13,2.4-0.08c0.75,0.05,1.42,0.05,2.09,0.04l0.45-0.01c0.19,0,0.43,0.04,0.62,0.04c0.29,0.04,0.58-0.04,0.82-0.2
		c0.35-0.25,0.51-0.7,0.4-1.12C-206.17,555.91-206.3,555.74-206.46,555.63z"/>
</g>
</svg>
