<?xml version="1.0" encoding="utf-8"?>
<!-- Generator: Adobe Illustrator 24.0.2, SVG Export Plug-In . SVG Version: 6.00 Build 0)  -->
<svg version="1.1" id="레이어_1" xmlns="http://www.w3.org/2000/svg" xmlns:xlink="http://www.w3.org/1999/xlink" x="0px"
	 y="0px" viewBox="0 0 60 60" style="enable-background:new 0 0 60 60;" xml:space="preserve">
<style type="text/css">
	.st0{fill:#202020;}
</style>
<g>
	<path class="st0" d="M25.4,8.7H10.2c-0.8,0-1.5,0.7-1.5,1.5v15.3c0,0.8,0.7,1.5,1.5,1.5s1.5-0.7,1.5-1.5V11.7h13.7
		c0.8,0,1.5-0.7,1.5-1.5S26.3,8.7,25.4,8.7z"/>
	<path class="st0" d="M49.8,8.7H34.6c-0.8,0-1.5,0.7-1.5,1.5s0.7,1.5,1.5,1.5h13.8v13.8c0,0.8,0.7,1.5,1.5,1.5s1.5-0.7,1.5-1.5V10.2
		C51.3,9.3,50.7,8.7,49.8,8.7z"/>
	<path class="st0" d="M49.8,33.1c-0.8,0-1.5,0.7-1.5,1.5v13.8H34.6c-0.8,0-1.5,0.7-1.5,1.5s0.7,1.5,1.5,1.5h15.3
		c0.8,0,1.5-0.7,1.5-1.5V34.6C51.3,33.7,50.7,33.1,49.8,33.1z"/>
	<path class="st0" d="M25.4,48.3H11.7V34.6c0-0.8-0.7-1.5-1.5-1.5s-1.5,0.7-1.5,1.5v15.3c0,0.8,0.7,1.5,1.5,1.5h15.2
		c0.8,0,1.5-0.7,1.5-1.5S26.3,48.3,25.4,48.3z"/>
</g>
</svg>
