<?xml version="1.0" encoding="utf-8"?>
<!-- Generator: Adobe Illustrator 24.3.0, SVG Export Plug-In . SVG Version: 6.00 Build 0)  -->
<!DOCTYPE svg PUBLIC "-//W3C//DTD SVG 1.1//EN" "http://www.w3.org/Graphics/SVG/1.1/DTD/svg11.dtd" [
	<!ENTITY ns_extend "http://ns.adobe.com/Extensibility/1.0/">
	<!ENTITY ns_ai "http://ns.adobe.com/AdobeIllustrator/10.0/">
	<!ENTITY ns_graphs "http://ns.adobe.com/Graphs/1.0/">
	<!ENTITY ns_vars "http://ns.adobe.com/Variables/1.0/">
	<!ENTITY ns_imrep "http://ns.adobe.com/ImageReplacement/1.0/">
	<!ENTITY ns_sfw "http://ns.adobe.com/SaveForWeb/1.0/">
	<!ENTITY ns_custom "http://ns.adobe.com/GenericCustomNamespace/1.0/">
	<!ENTITY ns_adobe_xpath "http://ns.adobe.com/XPath/1.0/">
]>
<svg version="1.1" id="레이어_1" xmlns:x="&ns_extend;" xmlns:i="&ns_ai;" xmlns:graph="&ns_graphs;"
	 xmlns="http://www.w3.org/2000/svg" xmlns:xlink="http://www.w3.org/1999/xlink" x="0px" y="0px" viewBox="0 0 263.87 283.74"
	 style="enable-background:new 0 0 263.87 283.74;" xml:space="preserve">
<style type="text/css">
	.st0{fill:#FF7D00;}
	.st1{fill:#595757;}
	.st2{fill:none;stroke:#DDDDDD;stroke-width:0.5;}
	.st3{fill:#E8E8E8;}
	.st4{fill:#DCDDDD;}
	.st5{fill:#CCCCCC;}
	.st6{fill:url(#SVGID_1_);}
	.st7{fill:url(#SVGID_2_);}
	.st8{fill:url(#SVGID_3_);}
	.st9{fill:url(#SVGID_4_);}
	.st10{fill:none;stroke:#9FA0A0;stroke-width:0.5;}
	.st11{fill:#FF5B00;}
</style>
<metadata>
	<sfw  xmlns="&ns_sfw;">
		<slices></slices>
		<sliceSourceBounds  bottomLeftOrigin="true" height="283.74" width="263.87" x="549.71" y="-525.53"></sliceSourceBounds>
	</sfw>
</metadata>
<g>
	<g>
		<path d="M3.21,31.24c-1.06,0-1.98-0.39-2.77-1.18l0.82-0.98c0.65,0.62,1.29,0.92,1.94,0.92c0.45,0,0.82-0.12,1.09-0.36
			c0.27-0.24,0.41-0.56,0.41-0.97v-0.02c0-0.39-0.15-0.7-0.44-0.93s-0.67-0.35-1.13-0.35c-0.45,0-0.92,0.11-1.39,0.34l-0.8-0.54
			l0.21-3.77h4.52v1.2H2.3l-0.12,1.8c0.4-0.15,0.79-0.22,1.2-0.22c0.77,0,1.4,0.21,1.89,0.62c0.49,0.41,0.74,1.01,0.74,1.8v0.02
			c0,0.78-0.26,1.42-0.77,1.89C4.72,31,4.05,31.24,3.21,31.24z"/>
		<path d="M12.91,30.09c-0.61,0.77-1.41,1.15-2.38,1.15c-0.97,0-1.76-0.38-2.37-1.14c-0.61-0.76-0.91-1.7-0.91-2.82v-0.02
			c0-1.12,0.31-2.07,0.92-2.83c0.61-0.77,1.41-1.15,2.38-1.15c0.97,0,1.76,0.38,2.37,1.14s0.91,1.7,0.91,2.82v0.02
			C13.84,28.38,13.53,29.33,12.91,30.09z M9.16,29.22c0.36,0.53,0.82,0.8,1.4,0.8s1.04-0.26,1.39-0.79
			c0.35-0.52,0.52-1.18,0.52-1.95v-0.02c0-0.78-0.18-1.43-0.54-1.96c-0.36-0.53-0.82-0.8-1.39-0.8s-1.03,0.26-1.38,0.78
			c-0.35,0.52-0.53,1.17-0.53,1.96v0.02C8.63,28.04,8.81,28.69,9.16,29.22z"/>
		<path d="M20.72,30.09c-0.61,0.77-1.41,1.15-2.38,1.15c-0.97,0-1.76-0.38-2.37-1.14c-0.61-0.76-0.91-1.7-0.91-2.82v-0.02
			c0-1.12,0.31-2.07,0.92-2.83c0.61-0.77,1.41-1.15,2.38-1.15c0.97,0,1.76,0.38,2.37,1.14s0.91,1.7,0.91,2.82v0.02
			C21.64,28.38,21.33,29.33,20.72,30.09z M16.97,29.22c0.36,0.53,0.82,0.8,1.4,0.8s1.04-0.26,1.39-0.79
			c0.35-0.52,0.52-1.18,0.52-1.95v-0.02c0-0.78-0.18-1.43-0.54-1.96c-0.36-0.53-0.82-0.8-1.39-0.8s-1.03,0.26-1.38,0.78
			c-0.35,0.52-0.53,1.17-0.53,1.96v0.02C16.43,28.04,16.61,28.69,16.97,29.22z"/>
		<path d="M28.52,30.09c-0.61,0.77-1.41,1.15-2.38,1.15c-0.97,0-1.76-0.38-2.37-1.14c-0.61-0.76-0.91-1.7-0.91-2.82v-0.02
			c0-1.12,0.31-2.07,0.92-2.83c0.61-0.77,1.41-1.15,2.38-1.15c0.97,0,1.76,0.38,2.37,1.14s0.91,1.7,0.91,2.82v0.02
			C29.45,28.38,29.14,29.33,28.52,30.09z M24.77,29.22c0.36,0.53,0.82,0.8,1.4,0.8s1.04-0.26,1.39-0.79
			c0.35-0.52,0.52-1.18,0.52-1.95v-0.02c0-0.78-0.18-1.43-0.54-1.96c-0.36-0.53-0.82-0.8-1.39-0.8s-1.03,0.26-1.38,0.78
			c-0.35,0.52-0.53,1.17-0.53,1.96v0.02C24.24,28.04,24.42,28.69,24.77,29.22z"/>
		<path d="M36.33,30.09c-0.61,0.77-1.41,1.15-2.38,1.15c-0.97,0-1.76-0.38-2.37-1.14c-0.61-0.76-0.91-1.7-0.91-2.82v-0.02
			c0-1.12,0.31-2.07,0.92-2.83c0.61-0.77,1.41-1.15,2.38-1.15c0.97,0,1.76,0.38,2.37,1.14s0.91,1.7,0.91,2.82v0.02
			C37.25,28.38,36.94,29.33,36.33,30.09z M32.58,29.22c0.36,0.53,0.82,0.8,1.4,0.8s1.04-0.26,1.39-0.79
			c0.35-0.52,0.52-1.18,0.52-1.95v-0.02c0-0.78-0.18-1.43-0.54-1.96c-0.36-0.53-0.82-0.8-1.39-0.8s-1.03,0.26-1.38,0.78
			c-0.35,0.52-0.53,1.17-0.53,1.96v0.02C32.04,28.04,32.22,28.69,32.58,29.22z"/>
	</g>
</g>
<g>
	<path class="st0" d="M213.49,10.91c-0.84,0-1.57-0.14-2.19-0.42c-0.62-0.28-1.18-0.67-1.68-1.16l1.37-1.67
		c0.39,0.36,0.79,0.64,1.18,0.84c0.39,0.2,0.82,0.3,1.29,0.3c0.53,0,0.95-0.13,1.26-0.38c0.31-0.25,0.46-0.61,0.46-1.08V7.31
		c0-0.45-0.17-0.8-0.51-1.06c-0.34-0.25-0.78-0.38-1.32-0.38c-0.33,0-0.63,0.04-0.92,0.11c-0.29,0.08-0.56,0.17-0.81,0.28
		l-1.31-0.89l0.29-5.2h6.37v2.04h-4.42l-0.12,1.82c0.21-0.05,0.41-0.09,0.62-0.13c0.21-0.04,0.45-0.05,0.74-0.05
		c0.5,0,0.97,0.07,1.41,0.2s0.83,0.33,1.16,0.6c0.33,0.27,0.59,0.62,0.78,1.05s0.28,0.94,0.28,1.53v0.03c0,0.56-0.09,1.07-0.28,1.52
		s-0.45,0.83-0.79,1.15c-0.34,0.32-0.76,0.56-1.25,0.73S214.08,10.91,213.49,10.91z"/>
	<path class="st0" d="M223.3,10.91c-0.69,0-1.32-0.14-1.88-0.41s-1.05-0.66-1.45-1.15c-0.4-0.49-0.71-1.06-0.92-1.73
		s-0.33-1.38-0.33-2.14V5.46c0-0.76,0.11-1.48,0.33-2.14s0.53-1.24,0.94-1.73c0.4-0.49,0.89-0.88,1.46-1.16S222.64,0,223.33,0
		c0.68,0,1.3,0.14,1.87,0.41c0.57,0.28,1.05,0.66,1.45,1.15c0.4,0.49,0.71,1.06,0.93,1.73s0.33,1.38,0.33,2.14v0.03
		c0,0.76-0.11,1.48-0.33,2.14c-0.22,0.66-0.54,1.24-0.94,1.73c-0.4,0.49-0.89,0.88-1.46,1.16S223.99,10.91,223.3,10.91z M223.33,8.8
		c0.34,0,0.66-0.08,0.93-0.25c0.28-0.17,0.51-0.4,0.71-0.69c0.2-0.3,0.35-0.65,0.45-1.05s0.16-0.85,0.16-1.33V5.46
		c0-0.48-0.05-0.92-0.16-1.33s-0.26-0.76-0.46-1.06c-0.2-0.3-0.44-0.54-0.72-0.71c-0.28-0.17-0.59-0.25-0.92-0.25
		c-0.34,0-0.66,0.08-0.93,0.25c-0.28,0.17-0.51,0.4-0.7,0.69c-0.19,0.29-0.34,0.65-0.45,1.05c-0.11,0.41-0.16,0.85-0.16,1.33v0.03
		c0,0.48,0.05,0.93,0.16,1.34s0.26,0.76,0.46,1.06c0.2,0.3,0.44,0.53,0.72,0.7C222.67,8.72,222.98,8.8,223.33,8.8z"/>
	<path class="st0" d="M233.72,10.91c-0.69,0-1.32-0.14-1.88-0.41s-1.05-0.66-1.45-1.15c-0.4-0.49-0.71-1.06-0.92-1.73
		s-0.33-1.38-0.33-2.14V5.46c0-0.76,0.11-1.48,0.33-2.14s0.53-1.24,0.94-1.73c0.4-0.49,0.89-0.88,1.46-1.16S233.06,0,233.74,0
		c0.68,0,1.3,0.14,1.87,0.41c0.57,0.28,1.05,0.66,1.45,1.15c0.4,0.49,0.71,1.06,0.93,1.73s0.33,1.38,0.33,2.14v0.03
		c0,0.76-0.11,1.48-0.33,2.14c-0.22,0.66-0.54,1.24-0.94,1.73c-0.4,0.49-0.89,0.88-1.46,1.16S234.4,10.91,233.72,10.91z M233.74,8.8
		c0.34,0,0.66-0.08,0.93-0.25c0.28-0.17,0.51-0.4,0.71-0.69c0.2-0.3,0.35-0.65,0.45-1.05s0.16-0.85,0.16-1.33V5.46
		c0-0.48-0.05-0.92-0.16-1.33s-0.26-0.76-0.46-1.06c-0.2-0.3-0.44-0.54-0.72-0.71c-0.28-0.17-0.59-0.25-0.92-0.25
		c-0.34,0-0.66,0.08-0.93,0.25c-0.28,0.17-0.51,0.4-0.7,0.69c-0.19,0.29-0.34,0.65-0.45,1.05c-0.11,0.41-0.16,0.85-0.16,1.33v0.03
		c0,0.48,0.05,0.93,0.16,1.34s0.26,0.76,0.46,1.06c0.2,0.3,0.44,0.53,0.72,0.7C233.09,8.72,233.4,8.8,233.74,8.8z"/>
	<path class="st0" d="M244.13,10.91c-0.69,0-1.32-0.14-1.88-0.41s-1.05-0.66-1.45-1.15c-0.4-0.49-0.71-1.06-0.92-1.73
		s-0.33-1.38-0.33-2.14V5.46c0-0.76,0.11-1.48,0.33-2.14s0.53-1.24,0.94-1.73c0.4-0.49,0.89-0.88,1.46-1.16S243.47,0,244.16,0
		c0.68,0,1.3,0.14,1.87,0.41c0.57,0.28,1.05,0.66,1.45,1.15c0.4,0.49,0.71,1.06,0.93,1.73s0.33,1.38,0.33,2.14v0.03
		c0,0.76-0.11,1.48-0.33,2.14c-0.22,0.66-0.54,1.24-0.94,1.73c-0.4,0.49-0.89,0.88-1.46,1.16S244.82,10.91,244.13,10.91z
		 M244.16,8.8c0.34,0,0.66-0.08,0.93-0.25c0.28-0.17,0.51-0.4,0.71-0.69c0.2-0.3,0.35-0.65,0.45-1.05s0.16-0.85,0.16-1.33V5.46
		c0-0.48-0.05-0.92-0.16-1.33s-0.26-0.76-0.46-1.06c-0.2-0.3-0.44-0.54-0.72-0.71c-0.28-0.17-0.59-0.25-0.92-0.25
		c-0.34,0-0.66,0.08-0.93,0.25c-0.28,0.17-0.51,0.4-0.7,0.69c-0.19,0.29-0.34,0.65-0.45,1.05c-0.11,0.41-0.16,0.85-0.16,1.33v0.03
		c0,0.48,0.05,0.93,0.16,1.34s0.26,0.76,0.46,1.06c0.2,0.3,0.44,0.53,0.72,0.7C243.5,8.72,243.81,8.8,244.16,8.8z"/>
	<path class="st0" d="M254.55,10.91c-0.69,0-1.32-0.14-1.88-0.41s-1.05-0.66-1.45-1.15c-0.4-0.49-0.71-1.06-0.92-1.73
		s-0.33-1.38-0.33-2.14V5.46c0-0.76,0.11-1.48,0.33-2.14s0.53-1.24,0.94-1.73c0.4-0.49,0.89-0.88,1.46-1.16S253.89,0,254.58,0
		c0.68,0,1.3,0.14,1.87,0.41c0.57,0.28,1.05,0.66,1.45,1.15c0.4,0.49,0.71,1.06,0.93,1.73s0.33,1.38,0.33,2.14v0.03
		c0,0.76-0.11,1.48-0.33,2.14c-0.22,0.66-0.54,1.24-0.94,1.73c-0.4,0.49-0.89,0.88-1.46,1.16S255.24,10.91,254.55,10.91z
		 M254.58,8.8c0.34,0,0.66-0.08,0.93-0.25c0.28-0.17,0.51-0.4,0.71-0.69c0.2-0.3,0.35-0.65,0.45-1.05s0.16-0.85,0.16-1.33V5.46
		c0-0.48-0.05-0.92-0.16-1.33s-0.26-0.76-0.46-1.06c-0.2-0.3-0.44-0.54-0.72-0.71c-0.28-0.17-0.59-0.25-0.92-0.25
		c-0.34,0-0.66,0.08-0.93,0.25c-0.28,0.17-0.51,0.4-0.7,0.69c-0.19,0.29-0.34,0.65-0.45,1.05c-0.11,0.41-0.16,0.85-0.16,1.33v0.03
		c0,0.48,0.05,0.93,0.16,1.34s0.26,0.76,0.46,1.06c0.2,0.3,0.44,0.53,0.72,0.7C253.92,8.72,254.23,8.8,254.58,8.8z"/>
</g>
<g>
	<path class="st1" d="M61.59,203.89v-6.38l-1.36,0.38l-0.28-1.1l2.04-0.66h0.92v7.75H61.59z"/>
	<path class="st1" d="M64.47,203.89v-1.07l2.6-2.25c0.53-0.46,0.9-0.84,1.11-1.13c0.2-0.29,0.31-0.61,0.31-0.95
		c0-0.37-0.12-0.66-0.34-0.87c-0.23-0.22-0.52-0.33-0.87-0.33c-0.33,0-0.63,0.09-0.89,0.28c-0.26,0.18-0.54,0.48-0.85,0.88
		l-0.95-0.76c0.39-0.55,0.79-0.96,1.2-1.22c0.41-0.26,0.94-0.39,1.58-0.39c0.74,0,1.34,0.21,1.8,0.63s0.69,0.98,0.69,1.67v0.02
		c0,0.57-0.14,1.06-0.43,1.46c-0.29,0.4-0.8,0.91-1.53,1.52l-1.55,1.32h3.59v1.19H64.47z"/>
	<path class="st1" d="M76.82,202.87c-0.61,0.77-1.41,1.15-2.38,1.15c-0.97,0-1.76-0.38-2.37-1.14s-0.91-1.7-0.91-2.82v-0.02
		c0-1.12,0.31-2.07,0.92-2.83s1.41-1.15,2.38-1.15c0.97,0,1.76,0.38,2.37,1.14c0.61,0.76,0.91,1.7,0.91,2.82v0.02
		C77.74,201.16,77.43,202.1,76.82,202.87z M73.06,202c0.36,0.53,0.82,0.8,1.4,0.8s1.04-0.26,1.39-0.79
		c0.35-0.52,0.52-1.17,0.52-1.95v-0.02c0-0.78-0.18-1.43-0.54-1.96c-0.36-0.53-0.82-0.8-1.39-0.8s-1.03,0.26-1.38,0.78
		s-0.53,1.17-0.53,1.96v0.02C72.53,200.81,72.71,201.47,73.06,202z"/>
	<path class="st1" d="M84.62,202.87c-0.61,0.77-1.41,1.15-2.38,1.15c-0.97,0-1.76-0.38-2.37-1.14s-0.91-1.7-0.91-2.82v-0.02
		c0-1.12,0.31-2.07,0.92-2.83s1.41-1.15,2.38-1.15c0.97,0,1.76,0.38,2.37,1.14c0.61,0.76,0.91,1.7,0.91,2.82v0.02
		C85.54,201.16,85.23,202.1,84.62,202.87z M80.87,202c0.36,0.53,0.82,0.8,1.4,0.8s1.04-0.26,1.39-0.79
		c0.35-0.52,0.52-1.17,0.52-1.95v-0.02c0-0.78-0.18-1.43-0.54-1.96c-0.36-0.53-0.82-0.8-1.39-0.8s-1.03,0.26-1.38,0.78
		s-0.53,1.17-0.53,1.96v0.02C80.34,200.81,80.51,201.47,80.87,202z"/>
	<path class="st1" d="M92.43,202.87c-0.61,0.77-1.41,1.15-2.38,1.15c-0.97,0-1.76-0.38-2.37-1.14s-0.91-1.7-0.91-2.82v-0.02
		c0-1.12,0.31-2.07,0.92-2.83s1.41-1.15,2.38-1.15c0.97,0,1.76,0.38,2.37,1.14c0.61,0.76,0.91,1.7,0.91,2.82v0.02
		C93.35,201.16,93.04,202.1,92.43,202.87z M88.67,202c0.36,0.53,0.82,0.8,1.4,0.8s1.04-0.26,1.39-0.79
		c0.35-0.52,0.52-1.17,0.52-1.95v-0.02c0-0.78-0.18-1.43-0.54-1.96c-0.36-0.53-0.82-0.8-1.39-0.8s-1.03,0.26-1.38,0.78
		s-0.53,1.17-0.53,1.96v0.02C88.14,200.81,88.32,201.47,88.67,202z"/>
</g>
<g>
	<path d="M4.05,80.44v-1.73H0.25L0,77.74l4.19-5.06h1.13v4.92H6.4v1.11H5.33v1.73H4.05z M1.57,77.6h2.48v-3.05L1.57,77.6z"/>
	<path d="M13.23,79.42c-0.61,0.77-1.41,1.15-2.38,1.15c-0.97,0-1.76-0.38-2.37-1.14s-0.91-1.7-0.91-2.82v-0.02
		c0-1.12,0.31-2.07,0.92-2.83s1.41-1.15,2.38-1.15c0.97,0,1.76,0.38,2.37,1.14c0.61,0.76,0.91,1.7,0.91,2.82v0.02
		C14.15,77.71,13.85,78.65,13.23,79.42z M9.48,78.55c0.36,0.53,0.82,0.8,1.4,0.8s1.04-0.26,1.39-0.79c0.35-0.52,0.52-1.17,0.52-1.95
		v-0.02c0-0.78-0.18-1.43-0.54-1.96c-0.36-0.53-0.82-0.8-1.39-0.8s-1.03,0.26-1.38,0.78s-0.53,1.17-0.53,1.96v0.02
		C8.95,77.36,9.13,78.02,9.48,78.55z"/>
	<path d="M21.04,79.42c-0.61,0.77-1.41,1.15-2.38,1.15c-0.97,0-1.76-0.38-2.37-1.14s-0.91-1.7-0.91-2.82v-0.02
		c0-1.12,0.31-2.07,0.92-2.83s1.41-1.15,2.38-1.15c0.97,0,1.76,0.38,2.37,1.14c0.61,0.76,0.91,1.7,0.91,2.82v0.02
		C21.96,77.71,21.65,78.65,21.04,79.42z M17.29,78.55c0.36,0.53,0.82,0.8,1.4,0.8s1.04-0.26,1.39-0.79
		c0.35-0.52,0.52-1.17,0.52-1.95v-0.02c0-0.78-0.18-1.43-0.54-1.96c-0.36-0.53-0.82-0.8-1.39-0.8s-1.03,0.26-1.38,0.78
		s-0.53,1.17-0.53,1.96v0.02C16.75,77.36,16.93,78.02,17.29,78.55z"/>
	<path d="M28.84,79.42c-0.61,0.77-1.41,1.15-2.38,1.15c-0.97,0-1.76-0.38-2.37-1.14s-0.91-1.7-0.91-2.82v-0.02
		c0-1.12,0.31-2.07,0.92-2.83s1.41-1.15,2.38-1.15c0.97,0,1.76,0.38,2.37,1.14c0.61,0.76,0.91,1.7,0.91,2.82v0.02
		C29.76,77.71,29.46,78.65,28.84,79.42z M25.09,78.55c0.36,0.53,0.82,0.8,1.4,0.8s1.04-0.26,1.39-0.79
		c0.35-0.52,0.52-1.17,0.52-1.95v-0.02c0-0.78-0.18-1.43-0.54-1.96c-0.36-0.53-0.82-0.8-1.39-0.8s-1.03,0.26-1.38,0.78
		s-0.53,1.17-0.53,1.96v0.02C24.56,77.36,24.73,78.02,25.09,78.55z"/>
	<path d="M36.65,79.42c-0.61,0.77-1.41,1.15-2.38,1.15c-0.97,0-1.76-0.38-2.37-1.14s-0.91-1.7-0.91-2.82v-0.02
		c0-1.12,0.31-2.07,0.92-2.83s1.41-1.15,2.38-1.15c0.97,0,1.76,0.38,2.37,1.14c0.61,0.76,0.91,1.7,0.91,2.82v0.02
		C37.57,77.71,37.26,78.65,36.65,79.42z M32.9,78.55c0.36,0.53,0.82,0.8,1.4,0.8s1.04-0.26,1.39-0.79c0.35-0.52,0.52-1.17,0.52-1.95
		v-0.02c0-0.78-0.18-1.43-0.54-1.96c-0.36-0.53-0.82-0.8-1.39-0.8s-1.03,0.26-1.38,0.78s-0.53,1.17-0.53,1.96v0.02
		C32.36,77.36,32.54,78.02,32.9,78.55z"/>
</g>
<g>
	<path d="M3.31,128.58c-1.2,0-2.16-0.45-2.89-1.35l0.93-0.88c0.56,0.67,1.22,1.01,1.98,1.01c0.37,0,0.68-0.11,0.93-0.32
		s0.37-0.5,0.37-0.84v-0.02c0-0.37-0.16-0.67-0.47-0.87c-0.31-0.21-0.74-0.31-1.27-0.31H2.29l-0.21-0.85l2.04-2.21H0.84v-1.18h4.99
		v1.01l-2.1,2.2c0.64,0.08,1.17,0.3,1.59,0.64c0.42,0.35,0.63,0.85,0.63,1.51v0.02c0,0.71-0.25,1.3-0.73,1.75
		C4.73,128.35,4.09,128.58,3.31,128.58z"/>
	<path d="M12.89,127.43c-0.61,0.77-1.41,1.15-2.38,1.15c-0.97,0-1.76-0.38-2.37-1.14c-0.61-0.76-0.91-1.7-0.91-2.82v-0.02
		c0-1.12,0.31-2.07,0.92-2.83c0.61-0.77,1.41-1.15,2.38-1.15c0.97,0,1.76,0.38,2.37,1.14s0.91,1.7,0.91,2.82v0.02
		C13.81,125.72,13.5,126.67,12.89,127.43z M9.14,126.56c0.36,0.53,0.82,0.8,1.4,0.8s1.04-0.26,1.39-0.79
		c0.35-0.52,0.52-1.18,0.52-1.95v-0.02c0-0.78-0.18-1.43-0.54-1.96c-0.36-0.53-0.82-0.8-1.39-0.8s-1.03,0.26-1.38,0.78
		c-0.35,0.52-0.53,1.17-0.53,1.96v0.02C8.6,125.38,8.78,126.03,9.14,126.56z"/>
	<path d="M20.69,127.43c-0.61,0.77-1.41,1.15-2.38,1.15c-0.97,0-1.76-0.38-2.37-1.14c-0.61-0.76-0.91-1.7-0.91-2.82v-0.02
		c0-1.12,0.31-2.07,0.92-2.83c0.61-0.77,1.41-1.15,2.38-1.15c0.97,0,1.76,0.38,2.37,1.14s0.91,1.7,0.91,2.82v0.02
		C21.61,125.72,21.31,126.67,20.69,127.43z M16.94,126.56c0.36,0.53,0.82,0.8,1.4,0.8s1.04-0.26,1.39-0.79
		c0.35-0.52,0.52-1.18,0.52-1.95v-0.02c0-0.78-0.18-1.43-0.54-1.96c-0.36-0.53-0.82-0.8-1.39-0.8s-1.03,0.26-1.38,0.78
		c-0.35,0.52-0.53,1.17-0.53,1.96v0.02C16.41,125.38,16.58,126.03,16.94,126.56z"/>
	<path d="M28.5,127.43c-0.61,0.77-1.41,1.15-2.38,1.15c-0.97,0-1.76-0.38-2.37-1.14c-0.61-0.76-0.91-1.7-0.91-2.82v-0.02
		c0-1.12,0.31-2.07,0.92-2.83c0.61-0.77,1.41-1.15,2.38-1.15c0.97,0,1.76,0.38,2.37,1.14s0.91,1.7,0.91,2.82v0.02
		C29.42,125.72,29.11,126.67,28.5,127.43z M24.75,126.56c0.36,0.53,0.82,0.8,1.4,0.8s1.04-0.26,1.39-0.79
		c0.35-0.52,0.52-1.18,0.52-1.95v-0.02c0-0.78-0.18-1.43-0.54-1.96c-0.36-0.53-0.82-0.8-1.39-0.8s-1.03,0.26-1.38,0.78
		c-0.35,0.52-0.53,1.17-0.53,1.96v0.02C24.21,125.38,24.39,126.03,24.75,126.56z"/>
	<path d="M36.3,127.43c-0.61,0.77-1.41,1.15-2.38,1.15c-0.97,0-1.76-0.38-2.37-1.14c-0.61-0.76-0.91-1.7-0.91-2.82v-0.02
		c0-1.12,0.31-2.07,0.92-2.83c0.61-0.77,1.41-1.15,2.38-1.15c0.97,0,1.76,0.38,2.37,1.14s0.91,1.7,0.91,2.82v0.02
		C37.22,125.72,36.92,126.67,36.3,127.43z M32.55,126.56c0.36,0.53,0.82,0.8,1.4,0.8s1.04-0.26,1.39-0.79
		c0.35-0.52,0.52-1.18,0.52-1.95v-0.02c0-0.78-0.18-1.43-0.54-1.96c-0.36-0.53-0.82-0.8-1.39-0.8s-1.03,0.26-1.38,0.78
		c-0.35,0.52-0.53,1.17-0.53,1.96v0.02C32.02,125.38,32.19,126.03,32.55,126.56z"/>
</g>
<g>
	<path d="M0.51,176.46v-1.07l2.6-2.25c0.53-0.46,0.9-0.84,1.11-1.13c0.2-0.29,0.31-0.61,0.31-0.95c0-0.37-0.12-0.66-0.34-0.87
		c-0.23-0.22-0.52-0.33-0.87-0.33c-0.33,0-0.63,0.09-0.89,0.28c-0.26,0.18-0.54,0.48-0.85,0.88l-0.95-0.76
		c0.39-0.55,0.79-0.96,1.2-1.22c0.41-0.26,0.94-0.39,1.58-0.39c0.74,0,1.34,0.21,1.8,0.63s0.69,0.98,0.69,1.67v0.02
		c0,0.57-0.14,1.06-0.43,1.46c-0.29,0.4-0.8,0.91-1.53,1.52l-1.55,1.32h3.59v1.19H0.51z"/>
	<path d="M12.86,175.45c-0.61,0.77-1.41,1.15-2.38,1.15c-0.97,0-1.76-0.38-2.37-1.14s-0.91-1.7-0.91-2.82v-0.02
		c0-1.12,0.31-2.07,0.92-2.83s1.41-1.15,2.38-1.15c0.97,0,1.76,0.38,2.37,1.14c0.61,0.76,0.91,1.7,0.91,2.82v0.02
		C13.78,173.74,13.48,174.68,12.86,175.45z M9.11,174.58c0.36,0.53,0.82,0.8,1.4,0.8s1.04-0.26,1.39-0.79
		c0.35-0.52,0.52-1.17,0.52-1.95v-0.02c0-0.78-0.18-1.43-0.54-1.96c-0.36-0.53-0.82-0.8-1.39-0.8s-1.03,0.26-1.38,0.78
		s-0.53,1.17-0.53,1.96v0.02C8.58,173.39,8.75,174.05,9.11,174.58z"/>
	<path d="M20.67,175.45c-0.61,0.77-1.41,1.15-2.38,1.15c-0.97,0-1.76-0.38-2.37-1.14s-0.91-1.7-0.91-2.82v-0.02
		c0-1.12,0.31-2.07,0.92-2.83s1.41-1.15,2.38-1.15c0.97,0,1.76,0.38,2.37,1.14c0.61,0.76,0.91,1.7,0.91,2.82v0.02
		C21.59,173.74,21.28,174.68,20.67,175.45z M16.92,174.58c0.36,0.53,0.82,0.8,1.4,0.8s1.04-0.26,1.39-0.79
		c0.35-0.52,0.52-1.17,0.52-1.95v-0.02c0-0.78-0.18-1.43-0.54-1.96c-0.36-0.53-0.82-0.8-1.39-0.8s-1.03,0.26-1.38,0.78
		s-0.53,1.17-0.53,1.96v0.02C16.38,173.39,16.56,174.05,16.92,174.58z"/>
	<path d="M28.47,175.45c-0.61,0.77-1.41,1.15-2.38,1.15c-0.97,0-1.76-0.38-2.37-1.14s-0.91-1.7-0.91-2.82v-0.02
		c0-1.12,0.31-2.07,0.92-2.83s1.41-1.15,2.38-1.15c0.97,0,1.76,0.38,2.37,1.14c0.61,0.76,0.91,1.7,0.91,2.82v0.02
		C29.39,173.74,29.08,174.68,28.47,175.45z M24.72,174.58c0.36,0.53,0.82,0.8,1.4,0.8s1.04-0.26,1.39-0.79
		c0.35-0.52,0.52-1.17,0.52-1.95v-0.02c0-0.78-0.18-1.43-0.54-1.96c-0.36-0.53-0.82-0.8-1.39-0.8s-1.03,0.26-1.38,0.78
		s-0.53,1.17-0.53,1.96v0.02C24.19,173.39,24.36,174.05,24.72,174.58z"/>
	<path d="M36.28,175.45c-0.61,0.77-1.41,1.15-2.38,1.15c-0.97,0-1.76-0.38-2.37-1.14s-0.91-1.7-0.91-2.82v-0.02
		c0-1.12,0.31-2.07,0.92-2.83s1.41-1.15,2.38-1.15c0.97,0,1.76,0.38,2.37,1.14c0.61,0.76,0.91,1.7,0.91,2.82v0.02
		C37.2,173.74,36.89,174.68,36.28,175.45z M32.52,174.58c0.36,0.53,0.82,0.8,1.4,0.8s1.04-0.26,1.39-0.79
		c0.35-0.52,0.52-1.17,0.52-1.95v-0.02c0-0.78-0.18-1.43-0.54-1.96c-0.36-0.53-0.82-0.8-1.39-0.8s-1.03,0.26-1.38,0.78
		s-0.53,1.17-0.53,1.96v0.02C31.99,173.39,32.17,174.05,32.52,174.58z"/>
</g>
<g>
	<path d="M3.07,224.48v-6.38l-1.36,0.38l-0.28-1.1l2.04-0.66h0.92v7.75H3.07z"/>
	<path d="M11.69,223.46c-0.61,0.77-1.41,1.15-2.38,1.15c-0.97,0-1.76-0.38-2.37-1.14c-0.61-0.76-0.91-1.7-0.91-2.82v-0.02
		c0-1.12,0.31-2.07,0.92-2.83c0.61-0.77,1.41-1.15,2.38-1.15c0.97,0,1.76,0.38,2.37,1.14s0.91,1.7,0.91,2.82v0.02
		C12.61,221.75,12.3,222.7,11.69,223.46z M7.94,222.59c0.36,0.53,0.82,0.8,1.4,0.8s1.04-0.26,1.39-0.79
		c0.35-0.52,0.52-1.18,0.52-1.95v-0.02c0-0.78-0.18-1.43-0.54-1.96c-0.36-0.53-0.82-0.8-1.39-0.8s-1.03,0.26-1.38,0.78
		c-0.35,0.52-0.53,1.17-0.53,1.96v0.02C7.41,221.41,7.58,222.06,7.94,222.59z"/>
	<path d="M19.5,223.46c-0.61,0.77-1.41,1.15-2.38,1.15c-0.97,0-1.76-0.38-2.37-1.14c-0.61-0.76-0.91-1.7-0.91-2.82v-0.02
		c0-1.12,0.31-2.07,0.92-2.83c0.61-0.77,1.41-1.15,2.38-1.15c0.97,0,1.76,0.38,2.37,1.14s0.91,1.7,0.91,2.82v0.02
		C20.42,221.75,20.11,222.7,19.5,223.46z M15.74,222.59c0.36,0.53,0.82,0.8,1.4,0.8s1.04-0.26,1.39-0.79
		c0.35-0.52,0.52-1.18,0.52-1.95v-0.02c0-0.78-0.18-1.43-0.54-1.96c-0.36-0.53-0.82-0.8-1.39-0.8s-1.03,0.26-1.38,0.78
		c-0.35,0.52-0.53,1.17-0.53,1.96v0.02C15.21,221.41,15.39,222.06,15.74,222.59z"/>
	<path d="M27.3,223.46c-0.61,0.77-1.41,1.15-2.38,1.15c-0.97,0-1.76-0.38-2.37-1.14c-0.61-0.76-0.91-1.7-0.91-2.82v-0.02
		c0-1.12,0.31-2.07,0.92-2.83c0.61-0.77,1.41-1.15,2.38-1.15c0.97,0,1.76,0.38,2.37,1.14s0.91,1.7,0.91,2.82v0.02
		C28.22,221.75,27.91,222.7,27.3,223.46z M23.55,222.59c0.36,0.53,0.82,0.8,1.4,0.8s1.04-0.26,1.39-0.79
		c0.35-0.52,0.52-1.18,0.52-1.95v-0.02c0-0.78-0.18-1.43-0.54-1.96c-0.36-0.53-0.82-0.8-1.39-0.8s-1.03,0.26-1.38,0.78
		c-0.35,0.52-0.53,1.17-0.53,1.96v0.02C23.01,221.41,23.19,222.06,23.55,222.59z"/>
	<path d="M35.1,223.46c-0.61,0.77-1.41,1.15-2.38,1.15c-0.97,0-1.76-0.38-2.37-1.14c-0.61-0.76-0.91-1.7-0.91-2.82v-0.02
		c0-1.12,0.31-2.07,0.92-2.83c0.61-0.77,1.41-1.15,2.38-1.15c0.97,0,1.76,0.38,2.37,1.14s0.91,1.7,0.91,2.82v0.02
		C36.03,221.75,35.72,222.7,35.1,223.46z M31.35,222.59c0.36,0.53,0.82,0.8,1.4,0.8s1.04-0.26,1.39-0.79
		c0.35-0.52,0.52-1.18,0.52-1.95v-0.02c0-0.78-0.18-1.43-0.54-1.96c-0.36-0.53-0.82-0.8-1.39-0.8s-1.03,0.26-1.38,0.78
		c-0.35,0.52-0.53,1.17-0.53,1.96v0.02C30.82,221.41,31,222.06,31.35,222.59z"/>
</g>
<g>
	<path d="M63,283.61v-1.07l2.6-2.25c0.53-0.46,0.9-0.84,1.11-1.13c0.2-0.29,0.31-0.61,0.31-0.95c0-0.37-0.12-0.66-0.34-0.87
		c-0.23-0.22-0.52-0.33-0.87-0.33c-0.33,0-0.63,0.09-0.89,0.28c-0.26,0.18-0.54,0.48-0.85,0.88l-0.95-0.76
		c0.39-0.55,0.79-0.96,1.2-1.22c0.41-0.26,0.94-0.39,1.58-0.39c0.74,0,1.34,0.21,1.8,0.63s0.69,0.98,0.69,1.67v0.02
		c0,0.57-0.14,1.06-0.43,1.46c-0.29,0.4-0.8,0.91-1.53,1.52l-1.55,1.32h3.59v1.19H63z"/>
	<path d="M75.35,282.59c-0.61,0.77-1.41,1.15-2.38,1.15c-0.97,0-1.76-0.38-2.37-1.14s-0.91-1.7-0.91-2.82v-0.02
		c0-1.12,0.31-2.07,0.92-2.83s1.41-1.15,2.38-1.15c0.97,0,1.76,0.38,2.37,1.14c0.61,0.76,0.91,1.7,0.91,2.82v0.02
		C76.27,280.88,75.96,281.82,75.35,282.59z M71.6,281.72c0.36,0.53,0.82,0.8,1.4,0.8s1.04-0.26,1.39-0.79
		c0.35-0.52,0.52-1.17,0.52-1.95v-0.02c0-0.78-0.18-1.43-0.54-1.96c-0.36-0.53-0.82-0.8-1.39-0.8s-1.03,0.26-1.38,0.78
		s-0.53,1.17-0.53,1.96v0.02C71.06,280.53,71.24,281.19,71.6,281.72z"/>
	<path d="M78.8,283.61v-6.38l-1.36,0.38l-0.28-1.1l2.04-0.66h0.92v7.75H78.8z"/>
	<path d="M84.43,283.74c-1.06,0-1.98-0.39-2.77-1.18l0.82-0.98c0.65,0.62,1.29,0.92,1.94,0.92c0.45,0,0.82-0.12,1.09-0.36
		c0.27-0.24,0.41-0.57,0.41-0.97v-0.02c0-0.39-0.15-0.7-0.44-0.93s-0.67-0.35-1.13-0.35c-0.45,0-0.92,0.11-1.39,0.34l-0.8-0.54
		l0.21-3.77h4.52v1.2h-3.37l-0.12,1.8c0.4-0.15,0.79-0.22,1.2-0.22c0.77,0,1.4,0.21,1.89,0.62s0.74,1.01,0.74,1.8v0.02
		c0,0.79-0.26,1.42-0.77,1.89C85.95,283.5,85.27,283.74,84.43,283.74z"/>
</g>
<g>
	<path d="M116.3,283.61v-1.07l2.6-2.25c0.53-0.46,0.9-0.84,1.11-1.13c0.2-0.29,0.31-0.61,0.31-0.95c0-0.37-0.12-0.66-0.34-0.87
		c-0.23-0.22-0.52-0.33-0.87-0.33c-0.33,0-0.63,0.09-0.89,0.28c-0.26,0.18-0.54,0.48-0.85,0.88l-0.95-0.76
		c0.39-0.55,0.79-0.96,1.2-1.22c0.41-0.26,0.94-0.39,1.58-0.39c0.74,0,1.34,0.21,1.8,0.63s0.69,0.98,0.69,1.67v0.02
		c0,0.57-0.14,1.06-0.43,1.46c-0.29,0.4-0.8,0.91-1.53,1.52l-1.55,1.32h3.59v1.19H116.3z"/>
	<path d="M128.65,282.59c-0.61,0.77-1.41,1.15-2.38,1.15c-0.97,0-1.76-0.38-2.37-1.14s-0.91-1.7-0.91-2.82v-0.02
		c0-1.12,0.31-2.07,0.92-2.83s1.41-1.15,2.38-1.15c0.97,0,1.76,0.38,2.37,1.14c0.61,0.76,0.91,1.7,0.91,2.82v0.02
		C129.57,280.88,129.27,281.82,128.65,282.59z M124.9,281.72c0.36,0.53,0.82,0.8,1.4,0.8s1.04-0.26,1.39-0.79
		c0.35-0.52,0.52-1.17,0.52-1.95v-0.02c0-0.78-0.18-1.43-0.54-1.96c-0.36-0.53-0.82-0.8-1.39-0.8s-1.03,0.26-1.38,0.78
		s-0.53,1.17-0.53,1.96v0.02C124.37,280.53,124.55,281.19,124.9,281.72z"/>
	<path d="M132.11,283.61v-6.38l-1.36,0.38l-0.28-1.1l2.04-0.66h0.92v7.75H132.11z"/>
	<path d="M138.09,283.74c-0.87,0-1.57-0.27-2.1-0.81c-0.3-0.31-0.53-0.69-0.68-1.14c-0.16-0.45-0.23-1.05-0.23-1.79v-0.02
		c0-1.22,0.28-2.23,0.85-3.01c0.56-0.79,1.36-1.18,2.39-1.18c0.84,0,1.61,0.29,2.31,0.86l-0.71,1.05c-0.29-0.23-0.56-0.4-0.8-0.51
		c-0.24-0.11-0.52-0.17-0.83-0.17c-0.41,0-0.76,0.14-1.04,0.41c-0.28,0.27-0.48,0.58-0.59,0.93c-0.11,0.35-0.17,0.72-0.18,1.11
		c0.49-0.52,1.09-0.78,1.81-0.78c0.75,0,1.38,0.22,1.88,0.65c0.5,0.43,0.75,1.02,0.75,1.77v0.02c0,0.75-0.27,1.38-0.8,1.88
		C139.55,283.49,138.89,283.74,138.09,283.74z M136.93,282.17c0.29,0.26,0.67,0.39,1.13,0.39s0.83-0.13,1.1-0.39
		c0.27-0.26,0.41-0.59,0.41-1v-0.02c0-0.39-0.14-0.71-0.43-0.96c-0.28-0.25-0.66-0.38-1.12-0.38s-0.83,0.13-1.11,0.39
		c-0.28,0.26-0.42,0.58-0.42,0.96v0.02C136.49,281.58,136.64,281.91,136.93,282.17z"/>
</g>
<g>
	<path d="M169.47,283.61v-1.07l2.6-2.25c0.53-0.46,0.9-0.84,1.11-1.13c0.2-0.29,0.31-0.61,0.31-0.95c0-0.37-0.12-0.66-0.34-0.87
		c-0.23-0.22-0.52-0.33-0.87-0.33c-0.33,0-0.63,0.09-0.89,0.28c-0.26,0.18-0.54,0.48-0.85,0.88l-0.95-0.76
		c0.39-0.55,0.79-0.96,1.2-1.22c0.41-0.26,0.94-0.39,1.58-0.39c0.74,0,1.34,0.21,1.8,0.63s0.69,0.98,0.69,1.67v0.02
		c0,0.57-0.14,1.06-0.43,1.46c-0.29,0.4-0.8,0.91-1.53,1.52l-1.55,1.32h3.59v1.19H169.47z"/>
	<path d="M181.81,282.59c-0.61,0.77-1.41,1.15-2.38,1.15c-0.97,0-1.76-0.38-2.37-1.14s-0.91-1.7-0.91-2.82v-0.02
		c0-1.12,0.31-2.07,0.92-2.83s1.41-1.15,2.38-1.15c0.97,0,1.76,0.38,2.37,1.14c0.61,0.76,0.91,1.7,0.91,2.82v0.02
		C182.74,280.88,182.43,281.82,181.81,282.59z M178.06,281.72c0.36,0.53,0.82,0.8,1.4,0.8s1.04-0.26,1.39-0.79
		c0.35-0.52,0.52-1.17,0.52-1.95v-0.02c0-0.78-0.18-1.43-0.54-1.96c-0.36-0.53-0.82-0.8-1.39-0.8s-1.03,0.26-1.38,0.78
		s-0.53,1.17-0.53,1.96v0.02C177.53,280.53,177.71,281.19,178.06,281.72z"/>
	<path d="M185.27,283.61v-6.38l-1.36,0.38l-0.28-1.1l2.04-0.66h0.92v7.75H185.27z"/>
	<path d="M188.76,283.61l3.38-6.51h-3.79v-1.19h5.3v1.02l-3.4,6.68H188.76z"/>
</g>
<g>
	<path d="M222.26,283.61v-1.07l2.6-2.25c0.53-0.46,0.9-0.84,1.11-1.13c0.2-0.29,0.31-0.61,0.31-0.95c0-0.37-0.12-0.66-0.34-0.87
		c-0.23-0.22-0.52-0.33-0.87-0.33c-0.33,0-0.63,0.09-0.89,0.28c-0.26,0.18-0.54,0.48-0.85,0.88l-0.95-0.76
		c0.39-0.55,0.79-0.96,1.2-1.22c0.41-0.26,0.94-0.39,1.58-0.39c0.74,0,1.34,0.21,1.8,0.63s0.69,0.98,0.69,1.67v0.02
		c0,0.57-0.14,1.06-0.43,1.46c-0.29,0.4-0.8,0.91-1.53,1.52l-1.55,1.32h3.59v1.19H222.26z"/>
	<path d="M234.61,282.59c-0.61,0.77-1.41,1.15-2.38,1.15c-0.97,0-1.76-0.38-2.37-1.14s-0.91-1.7-0.91-2.82v-0.02
		c0-1.12,0.31-2.07,0.92-2.83s1.41-1.15,2.38-1.15c0.97,0,1.76,0.38,2.37,1.14c0.61,0.76,0.91,1.7,0.91,2.82v0.02
		C235.53,280.88,235.22,281.82,234.61,282.59z M230.86,281.72c0.36,0.53,0.82,0.8,1.4,0.8s1.04-0.26,1.39-0.79
		c0.35-0.52,0.52-1.17,0.52-1.95v-0.02c0-0.78-0.18-1.43-0.54-1.96c-0.36-0.53-0.82-0.8-1.39-0.8s-1.03,0.26-1.38,0.78
		s-0.53,1.17-0.53,1.96v0.02C230.32,280.53,230.5,281.19,230.86,281.72z"/>
	<path d="M238.06,283.61v-6.38l-1.36,0.38l-0.28-1.1l2.04-0.66h0.92v7.75H238.06z"/>
	<path d="M243.81,283.72c-0.83,0-1.52-0.2-2.06-0.61c-0.54-0.41-0.81-0.94-0.81-1.6v-0.02c0-0.86,0.45-1.48,1.36-1.87
		c-0.73-0.4-1.1-0.97-1.1-1.72v-0.02c0-0.59,0.25-1.09,0.74-1.48c0.5-0.4,1.12-0.59,1.88-0.59s1.38,0.2,1.88,0.59
		c0.5,0.4,0.74,0.89,0.74,1.48v0.02c0,0.75-0.37,1.32-1.1,1.72c0.91,0.42,1.36,1.03,1.36,1.85v0.02c0,0.67-0.27,1.22-0.81,1.62
		C245.34,283.51,244.65,283.72,243.81,283.72z M242.66,282.25c0.28,0.22,0.67,0.33,1.15,0.33s0.87-0.11,1.15-0.33
		c0.29-0.22,0.43-0.5,0.43-0.83v-0.02c0-0.34-0.15-0.63-0.45-0.84c-0.3-0.22-0.68-0.32-1.13-0.32c-0.45,0-0.83,0.11-1.13,0.32
		c-0.3,0.22-0.45,0.5-0.45,0.84v0.02C242.24,281.75,242.38,282.02,242.66,282.25z M242.85,278.84c0.25,0.21,0.58,0.32,0.96,0.32
		c0.39,0,0.71-0.11,0.96-0.32c0.25-0.21,0.38-0.48,0.38-0.81v-0.02c0-0.3-0.13-0.56-0.38-0.76c-0.25-0.21-0.58-0.31-0.97-0.31
		s-0.72,0.1-0.97,0.31c-0.25,0.21-0.38,0.46-0.38,0.76v0.02C242.46,278.36,242.59,278.63,242.85,278.84z"/>
</g>
<line class="st2" x1="52.72" y1="26.25" x2="263.87" y2="26.25"/>
<line class="st2" x1="52.72" y1="74.73" x2="263.87" y2="74.73"/>
<line class="st2" x1="52.72" y1="123.22" x2="263.87" y2="123.22"/>
<line class="st2" x1="52.72" y1="220.19" x2="263.87" y2="220.19"/>
<line class="st2" x1="52.72" y1="171.71" x2="263.87" y2="171.71"/>
<rect x="64.16" y="214.23" class="st3" width="23.17" height="43.17"/>
<rect x="117.07" y="179.12" class="st4" width="23.17" height="78.28"/>
<rect x="169.98" y="123.22" class="st5" width="23.17" height="134.18"/>
<rect x="222.89" y="26.25" class="st0" width="23.17" height="231.15"/>
<g>
	<linearGradient id="SVGID_1_" gradientUnits="userSpaceOnUse" x1="75.7446" y1="251.288" x2="75.7446" y2="266.794">
		<stop  offset="0" style="stop-color:#FFFFFF;stop-opacity:0"/>
		<stop  offset="0.4395" style="stop-color:#D5D5D6"/>
	</linearGradient>
	<rect x="64.16" y="214.23" class="st6" width="23.17" height="43.17"/>
	<linearGradient id="SVGID_2_" gradientUnits="userSpaceOnUse" x1="128.6528" y1="251.288" x2="128.6528" y2="266.794">
		<stop  offset="0" style="stop-color:#FFFFFF;stop-opacity:0"/>
		<stop  offset="0.4395" style="stop-color:#D5D5D6"/>
	</linearGradient>
	<rect x="117.07" y="179.12" class="st7" width="23.17" height="78.28"/>
	<linearGradient id="SVGID_3_" gradientUnits="userSpaceOnUse" x1="181.5608" y1="251.288" x2="181.5608" y2="266.794">
		<stop  offset="0" style="stop-color:#FFFFFF;stop-opacity:0"/>
		<stop  offset="0.4395" style="stop-color:#D5D5D6"/>
	</linearGradient>
	<rect x="169.98" y="123.22" class="st8" width="23.17" height="134.18"/>
	<linearGradient id="SVGID_4_" gradientUnits="userSpaceOnUse" x1="234.4689" y1="251.288" x2="234.4689" y2="266.794">
		<stop  offset="0" style="stop-color:#FFFFFF;stop-opacity:0"/>
		<stop  offset="0.4395" style="stop-color:#D5D5D6"/>
	</linearGradient>
	<rect x="222.89" y="26.25" class="st9" width="23.17" height="231.15"/>
</g>
<line class="st10" x1="52.72" y1="257.4" x2="263.87" y2="257.4"/>
<path class="st11" d="M205.7,18.77c0,0-0.02-0.15-0.02-0.15l0,0l-0.01,0.01l-35.85,36.62l14.35-2.65c-0.23,0.7-0.47,1.41-0.71,2.1
	c-0.61,1.77-1.23,3.53-1.87,5.29c-1.29,3.52-2.64,7.03-4.05,10.51c-2.83,6.97-5.88,13.86-9.16,20.64
	c-6.58,13.55-14.06,26.7-22.79,39.01c-8.73,12.28-18.72,23.79-30.54,33.27c-5.92,4.71-12.27,8.94-19.11,12.27
	c-6.81,3.39-14.11,5.85-21.65,7.3c7.63-0.8,15.2-2.65,22.38-5.5c7.21-2.79,14.04-6.54,20.49-10.83
	c12.89-8.64,24.12-19.55,34.12-31.34c10-11.82,18.8-24.6,26.72-37.88c3.95-6.64,7.68-13.42,11.19-20.32
	c1.75-3.45,3.45-6.93,5.09-10.45c0.82-1.76,1.62-3.53,2.41-5.31c0.59-1.33,1.49-3.5,2.23-5.32l9.23,12.28L205.7,18.77z"/>
</svg>
