<?xml version="1.0" encoding="utf-8"?>
<!-- Generator: Adobe Illustrator 24.3.0, SVG Export Plug-In . SVG Version: 6.00 Build 0)  -->
<!DOCTYPE svg PUBLIC "-//W3C//DTD SVG 1.1//EN" "http://www.w3.org/Graphics/SVG/1.1/DTD/svg11.dtd" [
	<!ENTITY ns_extend "http://ns.adobe.com/Extensibility/1.0/">
	<!ENTITY ns_ai "http://ns.adobe.com/AdobeIllustrator/10.0/">
	<!ENTITY ns_graphs "http://ns.adobe.com/Graphs/1.0/">
	<!ENTITY ns_vars "http://ns.adobe.com/Variables/1.0/">
	<!ENTITY ns_imrep "http://ns.adobe.com/ImageReplacement/1.0/">
	<!ENTITY ns_sfw "http://ns.adobe.com/SaveForWeb/1.0/">
	<!ENTITY ns_custom "http://ns.adobe.com/GenericCustomNamespace/1.0/">
	<!ENTITY ns_adobe_xpath "http://ns.adobe.com/XPath/1.0/">
]>
<svg version="1.1" xmlns:x="&ns_extend;" xmlns:i="&ns_ai;" xmlns:graph="&ns_graphs;"
	 xmlns="http://www.w3.org/2000/svg" xmlns:xlink="http://www.w3.org/1999/xlink" x="0px" y="0px" viewBox="0 0 65.09 60.93"
	 style="enable-background:new 0 0 65.09 60.93;" xml:space="preserve">
<style type="text/css">
	.st0{display:none;}
	.st1{display:inline;}
	.st2{fill:#424242;}
</style>
<metadata>
	<sfw  xmlns="&ns_sfw;">
		<slices></slices>
		<sliceSourceBounds  bottomLeftOrigin="true" height="60.93" width="65.09" x="671.62" y="-371.02"></sliceSourceBounds>
	</sfw>
</metadata>
<g id="레이어_1" class="st0">
	<g class="st1">
		<g>
			<path class="st2" d="M18.17,0.22c-0.3-0.3-0.78-0.3-1.08,0L2.28,15.03c-0.14,0.14-0.22,0.34-0.22,0.54s0.08,0.4,0.22,0.54
				l13.36,13.36c0.15,0.15,0.34,0.22,0.54,0.22c0.19,0,0.39-0.07,0.54-0.22l4.63-4.63L26,24.67c0.4-0.01,0.72-0.33,0.73-0.73
				l0.16-4.65l4.62-4.62c0.14-0.14,0.22-0.34,0.22-0.54c0-0.2-0.08-0.4-0.22-0.54L18.17,0.22z M25.61,18.41
				c-0.14,0.14-0.22,0.32-0.22,0.51l-0.15,4.24L21,23.32c-0.19,0.01-0.38,0.09-0.51,0.22l-4.31,4.31L3.9,15.57L17.63,1.84
				l12.28,12.28L25.61,18.41z"/>
			<path class="st2" d="M48,0.22c-0.3-0.3-0.78-0.3-1.08,0L33.57,13.58c-0.14,0.14-0.22,0.34-0.22,0.54c0,0.2,0.08,0.4,0.22,0.54
				l4.63,4.63l0.16,4.65c0.01,0.4,0.33,0.72,0.73,0.73l4.65,0.16l4.62,4.62c0.15,0.15,0.34,0.22,0.54,0.22
				c0.19,0,0.39-0.07,0.54-0.22l13.36-13.36c0.14-0.14,0.22-0.34,0.22-0.54s-0.08-0.4-0.22-0.54L48,0.22z M48.91,27.85l-4.29-4.29
				c-0.14-0.14-0.32-0.22-0.51-0.22l-4.24-0.15l-0.15-4.24c-0.01-0.19-0.09-0.38-0.22-0.51l-4.31-4.31L47.46,1.84l13.73,13.73
				L48.91,27.85z"/>
			<path class="st2" d="M49.45,31.47c-0.29-0.29-0.79-0.29-1.08,0l-4.63,4.63l-4.65,0.16c-0.4,0.01-0.72,0.33-0.73,0.73l-0.16,4.65
				l-4.62,4.62c-0.14,0.14-0.22,0.34-0.22,0.54s0.08,0.4,0.22,0.54l13.36,13.36c0.15,0.15,0.34,0.22,0.54,0.22
				c0.19,0,0.39-0.07,0.54-0.22L62.81,45.9c0.3-0.3,0.3-0.78,0-1.08L49.45,31.47z M47.46,59.09L35.19,46.81l4.29-4.29
				c0.14-0.14,0.22-0.32,0.22-0.51l0.15-4.24l4.24-0.15c0.19-0.01,0.38-0.09,0.51-0.22l4.31-4.31l12.28,12.28L47.46,59.09z"/>
			<path class="st2" d="M26.89,41.64l-0.16-4.65c-0.01-0.4-0.33-0.72-0.73-0.73l-4.65-0.16l-4.62-4.62c-0.3-0.3-0.78-0.3-1.08,0
				L2.28,44.83c-0.3,0.3-0.3,0.78,0,1.08l14.81,14.81c0.15,0.15,0.34,0.22,0.54,0.22c0.19,0,0.39-0.07,0.54-0.22l13.36-13.36
				c0.14-0.14,0.22-0.34,0.22-0.54s-0.08-0.4-0.22-0.54L26.89,41.64z M17.63,59.09L3.9,45.36l12.28-12.28l4.29,4.29
				c0.14,0.14,0.32,0.22,0.51,0.22l4.24,0.15l0.15,4.24c0.01,0.19,0.09,0.38,0.22,0.51l4.31,4.31L17.63,59.09z"/>
		</g>
	</g>
</g>
<g id="레이어_2">
	<g>
		<g>
			<path class="st2" d="M63.73,2.34H41.61c-0.43,0-0.78,0.35-0.78,0.78v29.1h-7.51v-1.43h0.63c0.43,0,0.78-0.35,0.78-0.78
				s-0.35-0.78-0.78-0.78h-0.63v-0.58c0-1.04,0.84-1.87,1.88-1.87c1.04,0,1.88,0.84,1.88,1.87c0,0.43,0.35,0.78,0.78,0.78
				c0.43,0,0.78-0.35,0.78-0.78c0-1.89-1.55-3.43-3.44-3.43s-3.44,1.53-3.44,3.43v0.58h-0.93c-0.43,0-0.78,0.35-0.78,0.78
				s0.35,0.78,0.78,0.78h0.93v1.43H1.36c-0.43,0-0.78,0.35-0.78,0.78v19.85v4.97c0,0.43,0.35,0.78,0.78,0.78h62.37
				c0.43,0,0.78-0.35,0.78-0.78v-4.97V3.12C64.51,2.68,64.17,2.34,63.73,2.34z M42.39,33.78h20.56v18.29H42.39V33.78z M62.95,3.9
				v28.32H42.39V3.9H62.95z M40.83,52.06H23.7V33.78h17.13V52.06z M2.14,52.06V39.92h19.99v12.15H2.14z M22.14,33.78v4.59h-20v-4.59
				H22.14z M62.95,57.04H2.14v-3.43h60.8L62.95,57.04L62.95,57.04z"/>
			<path class="st2" d="M2.65,17.79h18.98c0.83,0,1.56-0.47,1.89-1.23c0.33-0.75,0.2-1.61-0.36-2.22l-7.42-8.13V3.12
				c0-0.43-0.35-0.78-0.78-0.78H9.31c-0.43,0-0.78,0.35-0.78,0.78v3.11l-7.42,8.13c-0.56,0.61-0.69,1.46-0.36,2.21
				C1.09,17.32,1.82,17.79,2.65,17.79z M14.19,3.9v1.85h-4.09V3.9H14.19z M2.28,15.4L9.66,7.3h4.95l7.38,8.11
				c0.2,0.22,0.13,0.45,0.09,0.54c-0.04,0.09-0.17,0.29-0.46,0.29H2.65c-0.29,0-0.42-0.2-0.46-0.29C2.15,15.85,2.08,15.62,2.28,15.4
				z"/>
			<path class="st2" d="M45.01,30.16c0.43,0,0.78-0.35,0.78-0.78v-8.09c0-0.43-0.35-0.78-0.78-0.78s-0.78,0.35-0.78,0.78v8.09
				C44.22,29.81,44.58,30.16,45.01,30.16z"/>
			<path class="st2" d="M45.01,35.67c-0.43,0-0.78,0.35-0.78,0.78v8.08c0,0.43,0.35,0.78,0.78,0.78s0.78-0.35,0.78-0.78v-8.09
				C45.79,36.02,45.44,35.67,45.01,35.67z"/>
			<path class="st2" d="M4.62,36.81h2.4c0.43,0,0.78-0.35,0.78-0.78s-0.35-0.78-0.78-0.78h-2.4c-0.43,0-0.78,0.35-0.78,0.78
				S4.19,36.81,4.62,36.81z"/>
			<path class="st2" d="M10.94,36.81h2.4c0.43,0,0.78-0.35,0.78-0.78s-0.35-0.78-0.78-0.78h-2.4c-0.43,0-0.78,0.35-0.78,0.78
				S10.5,36.81,10.94,36.81z"/>
			<path class="st2" d="M17.25,36.81h2.4c0.43,0,0.78-0.35,0.78-0.78s-0.35-0.78-0.78-0.78h-2.4c-0.43,0-0.78,0.35-0.78,0.78
				S16.82,36.81,17.25,36.81z"/>
			<path class="st2" d="M9.2,41.8c-0.31-0.29-0.81-0.29-1.1,0.01l-3.67,3.75c-0.31,0.31-0.29,0.81,0.01,1.1
				c0.15,0.15,0.35,0.22,0.55,0.22c0.2,0,0.41-0.08,0.56-0.23l3.66-3.73C9.51,42.59,9.51,42.1,9.2,41.8z"/>
			<path class="st2" d="M15.17,41.88c-0.31-0.29-0.81-0.29-1.1,0.01l-7.15,7.3C6.62,49.51,6.63,50,6.93,50.3
				c0.15,0.15,0.35,0.22,0.55,0.22s0.41-0.08,0.56-0.23l7.15-7.3C15.49,42.68,15.48,42.19,15.17,41.88z"/>
		</g>
	</g>
</g>
<g id="레이어_3" class="st0">
	<g class="st1">
		<g>
			<path class="st2" d="M13.65,22.36h23.52c0.39,0,0.71-0.32,0.71-0.71c0-0.39-0.32-0.71-0.71-0.71H13.65
				c-0.39,0-0.71,0.32-0.71,0.71C12.94,22.04,13.26,22.36,13.65,22.36z"/>
			<path class="st2" d="M14.31,19.58h22.21c0.39,0,0.71-0.32,0.71-0.71c0-6.27-4.92-11.41-11.1-11.78V5.56
				c0-0.39-0.32-0.71-0.71-0.71c-0.39,0-0.71,0.32-0.71,0.71v1.53c-6.18,0.37-11.1,5.5-11.1,11.78
				C13.6,19.26,13.91,19.58,14.31,19.58z M25.41,8.48c5.49,0,10,4.28,10.37,9.68H15.04C15.41,12.76,19.92,8.48,25.41,8.48z"/>
			<path class="st2" d="M63.53,42.03c-0.04-14.2-4.72-19.43-7.88-21.97h1.48c1.91,0,3.46-1.55,3.46-3.46c0-1.91-1.55-3.46-3.46-3.46
				h-6.44l-1.03-1.55c-0.13-0.2-0.35-0.32-0.59-0.32h-5.58c-0.39,0-0.71,0.32-0.71,0.71s0.32,0.71,0.71,0.71h5.2l0.3,0.44h-0.69
				c-0.39,0-0.71,0.32-0.71,0.71v5.5c0,0.06,0.01,0.12,0.02,0.18c0.02,0.09,2.3,8.84,2.3,11.2c0,2.82-0.31,5-1.82,6.47
				c-1.67,1.62-4.85,2.38-9.68,2.3v-0.49c0-3.08-1.12-6.06-3.1-8.39c1.47-0.11,2.63-1.33,2.63-2.83v-0.55
				c0-1.57-1.28-2.85-2.85-2.85H15.75c-1.57,0-2.85,1.28-2.85,2.85v0.55c0,1.54,1.23,2.79,2.76,2.84c-1.98,2.32-3.09,5.3-3.09,8.37
				v5.71c0,0.39,0.32,0.71,0.71,0.71h2.19c-0.15,0.72-0.23,1.47-0.23,2.24c0,0.39,0.32,0.71,0.71,0.71h1.62
				c0.24,4.28,3.66,7.69,7.83,7.69s7.58-3.41,7.83-7.69h1.62c0.39,0,0.71-0.32,0.71-0.71c0-0.77-0.08-1.52-0.23-2.24H45
				c-0.15,0.71-0.23,1.45-0.23,2.21c0,0.39,0.32,0.71,0.71,0.71h1.62c0.24,4.28,3.66,7.69,7.83,7.69s7.58-3.41,7.83-7.69h1.62
				c0.39,0,0.71-0.32,0.71-0.71C65.09,45.58,64.52,43.66,63.53,42.03z M14.33,27.8v-0.55c0-0.79,0.64-1.42,1.42-1.42h19.32
				c0.79,0,1.42,0.64,1.42,1.42v0.55c0,0.79-0.64,1.42-1.42,1.42H15.75C14.97,29.22,14.33,28.58,14.33,27.8z M25.41,54.66
				c-3.39,0-6.17-2.77-6.4-6.27h2.07c0.23,2.27,2.09,4.05,4.34,4.05s4.1-1.77,4.34-4.05h2.06C31.58,51.89,28.8,54.66,25.41,54.66z
				 M22.52,48.39h5.79c-0.22,1.48-1.43,2.62-2.9,2.62C23.95,51.01,22.74,49.87,22.52,48.39z M16.7,46.97
				c0.35-4.73,4.12-8.46,8.71-8.46s8.36,3.73,8.71,8.46H16.7z M34.93,44.01c-1.44-4.04-5.16-6.93-9.52-6.93s-8.09,2.89-9.52,6.93H14
				v-5c0-3.2,1.28-6.17,3.62-8.36h15.73c2.33,2.19,3.61,5.16,3.61,8.36v1.19c0,0.38,0.31,0.7,0.69,0.71
				c5.71,0.17,9.34-0.68,11.41-2.69c2.08-2.02,2.26-4.93,2.26-7.49c0-2.44-2.06-10.48-2.32-11.47v-4.7h0.93l0.68,1.03
				c0.14,0.21,0.36,0.32,0.59,0.32c0.14,0,0.27-0.04,0.39-0.12c0.33-0.22,0.42-0.66,0.2-0.99l-0.16-0.24h5.49
				c1.12,0,2.04,0.92,2.04,2.04s-0.91,2.04-2.04,2.04h-3.62c-0.31,0-0.58,0.2-0.68,0.49c-0.1,0.29,0,0.61,0.25,0.79l0.44,0.32
				c2.66,1.93,8.05,5.87,8.54,19.87c-1.84-1.89-4.36-3.07-7.14-3.07c-4.38,0-8.11,2.91-9.53,6.96L34.93,44.01L34.93,44.01z
				 M54.93,54.63c-3.39,0-6.17-2.77-6.4-6.27h2.06c0.23,2.27,2.09,4.05,4.34,4.05c2.25,0,4.11-1.78,4.34-4.05h2.06
				C61.1,51.85,58.32,54.63,54.93,54.63z M52.03,48.36h5.79c-0.22,1.48-1.43,2.62-2.9,2.62C53.47,50.98,52.26,49.84,52.03,48.36z
				 M46.22,46.93c0.35-4.73,4.12-8.46,8.71-8.46s8.36,3.73,8.71,8.46H46.22z"/>
			<path class="st2" d="M10.13,17.52H2.91c-0.39,0-0.71,0.32-0.71,0.71c0,0.39,0.32,0.71,0.71,0.71h7.22c0.39,0,0.71-0.32,0.71-0.71
				C10.84,17.84,10.52,17.52,10.13,17.52z"/>
			<path class="st2" d="M5.96,24.46c0-0.39-0.32-0.71-0.71-0.71H0.71C0.32,23.75,0,24.07,0,24.46s0.32,0.71,0.71,0.71h4.53
				C5.64,25.18,5.96,24.86,5.96,24.46z"/>
			<path class="st2" d="M10.13,30.07H2.91c-0.39,0-0.71,0.32-0.71,0.71c0,0.39,0.32,0.71,0.71,0.71h7.22c0.39,0,0.71-0.32,0.71-0.71
				C10.84,30.39,10.52,30.07,10.13,30.07z"/>
			<path class="st2" d="M9.35,25.22c0.39,0,0.71-0.32,0.71-0.71s-0.32-0.71-0.71-0.71H7.76c-0.39,0-0.71,0.32-0.71,0.71
				s0.32,0.71,0.71,0.71H9.35z"/>
		</g>
	</g>
</g>
</svg>
