<?xml version="1.0" encoding="utf-8"?>
<!-- Generator: Adobe Illustrator 24.1.1, SVG Export Plug-In . SVG Version: 6.00 Build 0)  -->
<!DOCTYPE svg PUBLIC "-//W3C//DTD SVG 1.1//EN" "http://www.w3.org/Graphics/SVG/1.1/DTD/svg11.dtd" [
	<!ENTITY ns_extend "http://ns.adobe.com/Extensibility/1.0/">
	<!ENTITY ns_ai "http://ns.adobe.com/AdobeIllustrator/10.0/">
	<!ENTITY ns_graphs "http://ns.adobe.com/Graphs/1.0/">
	<!ENTITY ns_vars "http://ns.adobe.com/Variables/1.0/">
	<!ENTITY ns_imrep "http://ns.adobe.com/ImageReplacement/1.0/">
	<!ENTITY ns_sfw "http://ns.adobe.com/SaveForWeb/1.0/">
	<!ENTITY ns_custom "http://ns.adobe.com/GenericCustomNamespace/1.0/">
	<!ENTITY ns_adobe_xpath "http://ns.adobe.com/XPath/1.0/">
]>
<svg version="1.1" id="레이어_1" xmlns:x="&ns_extend;" xmlns:i="&ns_ai;" xmlns:graph="&ns_graphs;"
	 xmlns="http://www.w3.org/2000/svg" xmlns:xlink="http://www.w3.org/1999/xlink" x="0px" y="0px" viewBox="0 0 27.28 30.07"
	 style="enable-background:new 0 0 27.28 30.07;" xml:space="preserve">
<style type="text/css">
	.st0{fill:#FFFFFF;}
	.st1{fill:#202020;}
	.st2{fill:#4B80FF;}
</style>
<metadata>
	<sfw  xmlns="&ns_sfw;">
		<slices></slices>
		<sliceSourceBounds  bottomLeftOrigin="true" height="30.07" width="27.28" x="761.63" y="-398.4"></sliceSourceBounds>
	</sfw>
</metadata>
<g id="그룹_20283_1_" transform="translate(2.45 6.02)">
	<path id="패스_16405_1_" class="st0" d="M22.07,16.74c-0.3,0.63-0.65,1.23-1.06,1.79c-3.13,4.3-8.87,5.77-13.68,3.51
		c-3.25-1.53-5.56-4.54-6.18-8.08C0.74,11.7,1.05,9.37,2.03,7.3C4.64,1.76,11.24-0.61,16.78,2C22.31,4.6,24.68,11.2,22.07,16.74
		C22.07,16.74,22.07,16.74,22.07,16.74z"/>
	<path id="패스_16406_1_" class="st1" d="M24.1,11.09c-0.09-1.3-0.45-2.57-1.04-3.73c-0.31-0.76-0.68-1.51-1.09-2.22
		c-0.19-0.32-0.41-0.63-0.66-0.91c-0.36-0.4-0.75-0.77-1.17-1.11c-0.49-0.36-0.96-0.73-1.3-0.94c-0.43-0.35-0.89-0.66-1.37-0.94
		l-0.19-0.12c-1.18-0.55-2.45-0.88-3.76-0.97C12.7,0.05,11.88,0,11.05,0C10.68,0,10.3,0.04,9.93,0.12c-1.04,0.26-2.05,0.63-3.02,1.1
		C6.41,1.43,5.91,1.67,5.43,1.94L5.23,2.06c-1.08,0.74-2,1.67-2.72,2.76C2.22,5.25,1.97,5.58,1.75,5.9L1.13,6.88
		C0.96,7.21,0.8,7.55,0.68,7.9C0.37,8.93,0.19,10,0.13,11.07c-0.08,0.55-0.12,1.1-0.13,1.65v0.22c0.1,1.3,0.45,2.57,1.04,3.73
		c0.32,0.76,0.68,1.51,1.09,2.22c0.19,0.32,0.42,0.63,0.66,0.91c0.74,0.78,1.57,1.47,2.47,2.06c0.43,0.34,0.89,0.65,1.37,0.93
		l0.19,0.11c1.18,0.56,2.45,0.89,3.76,0.96c0.82,0.11,1.65,0.16,2.47,0.17c0.38-0.02,0.75-0.06,1.12-0.12
		c1.04-0.26,2.05-0.63,3.01-1.11c0.51-0.2,1.01-0.44,1.5-0.71c0.06-0.04,0.13-0.07,0.2-0.11c1.08-0.73,2-1.68,2.71-2.77
		c0.51-0.65,0.97-1.34,1.38-2.05c0.14-0.3,0.29-0.63,0.45-1.03c0.3-1.03,0.49-2.09,0.54-3.17c0.08-0.55,0.13-1.1,0.14-1.65
		C24.11,11.24,24.1,11.17,24.1,11.09z M20.42,17.77c-0.38,0.56-0.81,1.07-1.29,1.54c-0.42,0.36-0.9,0.63-1.33,0.94
		c-0.18,0.14-0.44,0.31-0.67,0.48c-0.66,0.46-1.39,0.8-2.17,1.01c-0.68,0.16-1.37,0.28-2.06,0.35l-0.81,0.05l-0.83-0.02
		c-0.67-0.04-1.34-0.16-1.98-0.35c-0.53-0.16-0.99-0.47-1.49-0.67c-0.2-0.1-0.5-0.21-0.75-0.34c-0.73-0.34-1.39-0.8-1.96-1.36
		c-0.48-0.51-0.92-1.04-1.33-1.61c-0.32-0.44-0.6-0.91-0.85-1.4c-0.31-0.6-0.54-1.23-0.69-1.89c-0.08-0.54-0.14-1.08-0.16-1.63
		c-0.03-0.23-0.07-0.54-0.08-0.82c-0.07-0.8,0-1.61,0.2-2.38C2.37,9,2.62,8.35,2.9,7.71c0.23-0.49,0.5-0.97,0.8-1.43
		C3.88,6,4.08,5.73,4.3,5.47c0.21-0.27,0.44-0.51,0.69-0.73c0.2-0.19,0.42-0.36,0.65-0.49l0.67-0.45c0.19-0.13,0.43-0.33,0.67-0.48
		c0.66-0.45,1.4-0.79,2.17-1.01c0.68-0.17,1.37-0.28,2.06-0.35c0.27-0.03,0.54-0.05,0.81-0.05c0.28-0.02,0.55-0.01,0.83,0.02
		c0.34,0.01,0.67,0.05,1,0.11c0.33,0.05,0.66,0.13,0.98,0.23c0.53,0.15,0.99,0.48,1.49,0.67l0.75,0.35c0.36,0.18,0.68,0.4,1.03,0.59
		c0.34,0.23,0.65,0.49,0.94,0.78c0.48,0.51,0.92,1.05,1.32,1.61c0.32,0.45,0.6,0.91,0.85,1.4l0.4,0.93c0.1,0.32,0.2,0.64,0.29,0.97
		c0.1,0.54,0.1,1.09,0.15,1.63c0.04,0.27,0.07,0.54,0.08,0.82c0.06,0.8,0,1.6-0.19,2.38c-0.12,0.36-0.24,0.69-0.35,1.02l-0.39,0.94
		C20.98,16.83,20.72,17.31,20.42,17.77z"/>
</g>
<path id="패스_16407_1_" class="st1" d="M18.15,22.17c-0.09-0.17-0.25-0.3-0.43-0.35c-0.14-0.01-0.29-0.01-0.43,0
	c-0.12,0.01-0.15,0.13-0.2,0.2c-0.03,0.06-0.07,0.12-0.12,0.18c-0.04,0.05-0.09,0.09-0.14,0.12c-0.17,0.14-0.35,0.26-0.54,0.36
	c-0.25,0.12-0.52,0.21-0.8,0.25c-0.23,0.01-0.46,0.01-0.69,0c-0.1,0-0.23,0.03-0.35,0.02c-0.34,0.02-0.67-0.03-0.99-0.15
	c-0.24-0.11-0.47-0.24-0.68-0.4c-0.04-0.03-0.06-0.07-0.1-0.11c-0.04-0.05-0.08-0.1-0.09-0.16c-0.04-0.08-0.11-0.15-0.2-0.18
	c-0.22-0.09-0.47-0.11-0.7-0.05c-0.11,0.05-0.19,0.15-0.23,0.26c-0.02,0.04-0.03,0.09-0.04,0.14c-0.04,0.17,0.1,0.3,0.17,0.43
	l0.1,0.15c0.1,0.14,0.2,0.27,0.31,0.4c0.14,0.13,0.3,0.24,0.46,0.34c0.46,0.21,0.96,0.34,1.46,0.4c0.25,0.05,0.5,0.09,0.75,0.12
	l0.1,0.01c0.6,0,1.19-0.13,1.73-0.4c0.37-0.13,0.73-0.31,1.06-0.52c0.07-0.04,0.14-0.1,0.21-0.16c0.07-0.06,0.17-0.15,0.25-0.23
	C18.17,22.66,18.23,22.4,18.15,22.17z"/>
<path id="패스_16408_1_" class="st1" d="M22.13,16.57c-0.09-0.07-0.2-0.11-0.32-0.11c-0.04,0-0.08,0-0.12,0
	c-0.12,0.03-0.22,0.1-0.3,0.19c-0.03,0.03-0.07,0.06-0.11,0.09c-0.12,0.07-0.23,0.13-0.35,0.21c-0.06,0.04-0.12,0.08-0.19,0.13
	h-0.01c-0.18-0.42-0.42-0.8-0.72-1.14c-0.19-0.25-0.41-0.47-0.66-0.66l-0.1-0.07c-0.64-0.38-1.39-0.52-2.12-0.39
	c-0.46,0.05-0.92,0.17-1.34,0.37c-0.19,0.09-0.37,0.21-0.53,0.35c-0.22,0.21-0.42,0.45-0.57,0.71c-0.07,0.13-0.14,0.27-0.2,0.41
	c-0.14-0.26-0.32-0.5-0.52-0.72c-0.19-0.25-0.41-0.47-0.66-0.66l-0.1-0.07c-0.64-0.38-1.39-0.52-2.12-0.39
	c-0.46,0.05-0.92,0.17-1.34,0.37c-0.19,0.09-0.37,0.21-0.53,0.35C9,15.75,8.81,15.99,8.65,16.25c-0.15,0.26-0.27,0.54-0.37,0.82
	c-0.01,0.03-0.02,0.06-0.03,0.09c-0.01-0.01-0.02-0.01-0.03-0.02c-0.12-0.08-0.24-0.16-0.38-0.25c-0.07-0.04-0.14-0.09-0.21-0.13
	s-0.18-0.13-0.27-0.17c-0.21-0.12-0.46-0.14-0.69-0.06c-0.18,0.09-0.31,0.24-0.37,0.43c0,0.16,0.03,0.32,0.08,0.46
	c0.05,0.13,0.23,0.21,0.36,0.25c0.1,0.03,0.2,0.07,0.3,0.13l0.24,0.13l0.23,0.12c0.1,0.05,0.2,0.14,0.3,0.19
	c0.07,0.04,0.15,0.07,0.23,0.1c0.05,0.66,0.3,1.28,0.72,1.79c0.27,0.38,0.61,0.71,0.99,0.97c0.18,0.12,0.37,0.21,0.57,0.28
	c0.59,0.16,1.2,0.18,1.79,0.05c0.31-0.04,0.61-0.13,0.9-0.25c0.04-0.02,0.08-0.03,0.12-0.05c0.61-0.34,1.08-0.88,1.33-1.53
	c0.1,0.18,0.22,0.36,0.34,0.52c0.27,0.38,0.61,0.71,0.99,0.97c0.18,0.12,0.37,0.21,0.57,0.28c0.59,0.16,1.2,0.18,1.79,0.05
	c0.31-0.04,0.61-0.13,0.9-0.25c0.04-0.02,0.08-0.03,0.12-0.05c0.65-0.36,1.14-0.95,1.39-1.65c0.15-0.34,0.25-0.7,0.32-1.06l0,0
	c0.13,0.02,0.26-0.11,0.34-0.19c0.06-0.07,0.14-0.14,0.22-0.2l0.2-0.15l0.19-0.14c0.08-0.06,0.19-0.11,0.27-0.17
	c0.13-0.07,0.23-0.2,0.27-0.35C22.41,16.97,22.32,16.72,22.13,16.57z M13.6,18.87c-0.09,0.29-0.24,0.55-0.44,0.78
	c-0.18,0.16-0.38,0.3-0.6,0.41c-0.1,0.07-0.2,0.13-0.31,0.18c-0.32,0.16-0.68,0.22-1.04,0.18c-0.3-0.06-0.6-0.16-0.87-0.31
	c-0.21-0.12-0.41-0.27-0.57-0.45c-0.21-0.22-0.36-0.48-0.45-0.77c-0.05-0.24-0.06-0.48-0.05-0.72c0-0.1-0.01-0.24,0-0.36
	c0.02-0.36,0.15-0.7,0.37-0.99c0.2-0.24,0.44-0.44,0.71-0.6c0.21-0.13,0.44-0.22,0.67-0.27c0.29-0.07,0.6-0.07,0.89-0.01
	c0.23,0.08,0.44,0.19,0.65,0.32c0.11,0.05,0.21,0.11,0.31,0.18c0.3,0.2,0.53,0.48,0.67,0.81c0.1,0.29,0.16,0.6,0.17,0.91
	C13.7,18.39,13.67,18.64,13.6,18.87z M19.64,18.87c-0.09,0.29-0.24,0.55-0.44,0.78c-0.18,0.16-0.38,0.3-0.6,0.41
	c-0.1,0.07-0.2,0.13-0.31,0.18c-0.32,0.16-0.68,0.22-1.04,0.18c-0.3-0.06-0.6-0.16-0.87-0.31c-0.21-0.12-0.41-0.27-0.57-0.45
	c-0.21-0.22-0.36-0.48-0.45-0.77c-0.05-0.24-0.06-0.48-0.05-0.72c0-0.1-0.01-0.24,0-0.36c0.02-0.36,0.15-0.7,0.37-0.99
	c0.2-0.24,0.44-0.44,0.71-0.6c0.21-0.13,0.44-0.22,0.67-0.27c0.29-0.07,0.6-0.07,0.89-0.01c0.23,0.08,0.45,0.19,0.65,0.32
	c0.11,0.05,0.21,0.11,0.31,0.18c0.3,0.2,0.53,0.48,0.67,0.81c0.1,0.29,0.16,0.6,0.17,0.91C19.74,18.4,19.71,18.64,19.64,18.87
	L19.64,18.87z"/>
<path id="패스_16409" class="st2" d="M26.23,7.35c0.76,3.95-5.21,6.55-13.06,7.01C6.3,14.76,1.57,12.92,1,9.41
	c-0.64-3.9,5.4-8.46,12.28-8.43S25.16,1.77,26.23,7.35z"/>
<path id="패스_16410_1_" class="st1" d="M27.26,7.19c-0.05-0.3-0.12-0.63-0.23-1.01c-0.17-0.48-0.38-0.94-0.64-1.38
	c-0.27-0.44-0.56-0.86-0.88-1.26c-0.31-0.43-0.67-0.82-1.07-1.18l-0.16-0.14c-0.99-0.69-2.11-1.16-3.3-1.36l-1.14-0.3
	c-0.33-0.09-0.63-0.18-0.98-0.24c-0.32-0.07-0.64-0.12-0.96-0.14c-0.69-0.07-2.08,0-2.75-0.03c-0.47-0.03-0.93-0.11-1.4-0.14
	L13.57,0c-1.15-0.01-2.29,0.13-3.4,0.43C9.27,0.6,8.72,0.69,8.02,0.85C7.74,0.93,7.44,1.02,7.08,1.16C6.75,1.29,6.28,1.55,5.81,1.8
	L4.59,2.55C4.15,2.78,3.72,3.03,3.31,3.31L3.15,3.42C2.19,4.17,1.42,5.12,0.88,6.2C0.67,6.57,0.49,6.97,0.34,7.37
	C0.19,7.73,0.08,8.11,0.03,8.5C-0.02,8.9-0.01,9.3,0.06,9.69c0.05,0.2,0.12,0.45,0.21,0.72c0.12,0.28,0.26,0.55,0.41,0.81
	c0.29,0.45,0.63,0.86,1,1.24c0.36,0.39,0.75,0.75,1.18,1.07l0.17,0.12c1.03,0.59,2.16,0.98,3.33,1.15l2.12,0.48
	c0.28,0.05,0.6,0.09,0.97,0.12c0.69,0.04,2.1-0.07,2.78-0.08c0.47-0.01,0.95,0.07,1.42,0.04h0.19c1.11-0.07,2.21-0.24,3.29-0.51
	c0.88-0.16,1.43-0.18,2.12-0.3c0.28-0.05,0.59-0.11,0.95-0.21c0.89-0.31,1.76-0.67,2.61-1.08c0.47-0.17,0.93-0.36,1.37-0.59
	l0.18-0.09c1.11-0.64,1.98-1.62,2.48-2.8C27.2,8.96,27.34,8.07,27.26,7.19z M25.3,8.72c-0.15,0.5-0.42,0.94-0.79,1.3
	c-0.18,0.15-0.38,0.28-0.56,0.41c-0.21,0.11-0.42,0.23-0.61,0.37c-0.16,0.12-0.41,0.27-0.62,0.41c-0.63,0.39-1.3,0.71-2.01,0.94
	l-1.92,0.5c-0.5,0.14-1.01,0.23-1.53,0.35c-0.63,0.1-1.27,0.24-1.91,0.28c-0.53,0.05-1.06-0.01-1.58,0.04l-0.79,0.1
	c-0.76,0.1-1.53,0.14-2.29,0.11l-1.98-0.18c-0.51-0.07-1.01-0.11-1.52-0.22c-0.61-0.1-1.21-0.26-1.78-0.49
	c-0.44-0.21-0.86-0.44-1.26-0.71c-0.21-0.1-0.41-0.22-0.61-0.34c-0.56-0.33-1.01-0.81-1.3-1.39C2.04,9.7,1.95,9.18,1.98,8.66
	c0.03-0.43,0.14-0.85,0.32-1.24C2.4,7.16,2.54,6.91,2.7,6.68C2.85,6.43,3.04,6.2,3.24,5.99C3.6,5.66,3.98,5.35,4.37,5.06
	c0.16-0.13,0.37-0.33,0.56-0.5C5.51,4.1,6.13,3.7,6.8,3.39c0.65-0.26,1.24-0.47,1.82-0.68c0.48-0.14,0.96-0.31,1.47-0.42
	c0.61-0.15,1.23-0.25,1.85-0.3c0.51-0.03,1.01,0.07,1.53,0.05l0.81-0.04c0.77-0.05,1.55-0.05,2.33,0.01l1.98,0.24
	c0.52,0.06,1.01,0.15,1.52,0.25c0.6,0.12,1.18,0.3,1.74,0.55c0.41,0.23,0.81,0.49,1.18,0.78c0.15,0.12,0.39,0.25,0.56,0.4
	c0.53,0.42,0.95,0.96,1.23,1.57c0.11,0.31,0.2,0.6,0.3,0.88c0.07,0.3,0.14,0.59,0.21,0.87c0.01,0.19,0.05,0.39,0.05,0.58
	C25.38,8.34,25.35,8.53,25.3,8.72z"/>
</svg>
