<?xml version="1.0" encoding="utf-8"?>
<!-- Generator: Adobe Illustrator 24.0.2, SVG Export Plug-In . SVG Version: 6.00 Build 0)  -->
<svg version="1.1" id="레이어_1" xmlns="http://www.w3.org/2000/svg" xmlns:xlink="http://www.w3.org/1999/xlink" x="0px"
	 y="0px" viewBox="0 0 160.65 149.55" style="enable-background:new 0 0 160.65 149.55;" xml:space="preserve">
<style type="text/css">
	.st0{fill:#FFFFFF;}
	.st1{fill:#202020;}
	.st2{fill:#FF7D00;}
	.st3{fill:#4B80FF;}
</style>
<g id="그룹_16359" transform="translate(-2241.823 -337.825)">
	<g>
		<path class="st0" d="M2380.06,383.3l-0.06-0.26c-0.05-0.17-0.09-0.34-0.14-0.51c-0.1-0.34-0.19-0.67-0.32-0.99l-0.43-0.93
			c-0.13-0.32-0.28-0.63-0.45-0.93c-0.25-0.42-0.53-0.89-0.72-1.24c-0.26-0.4-0.49-0.81-0.69-1.23l-0.16-0.32l-0.19-0.3
			c-0.13-0.2-0.26-0.4-0.41-0.59c-0.17-0.24-0.35-0.47-0.54-0.68l-0.61-0.63c-0.2-0.21-0.41-0.42-0.63-0.61l-0.68-0.55
			c-0.19-0.16-0.37-0.31-0.56-0.46l-0.6-0.39c-0.38-0.27-0.78-0.52-1.2-0.75c-0.52-0.26-1-0.59-1.56-0.81
			c-0.55-0.25-1.1-0.54-1.72-0.75c-0.33-0.14-0.68-0.25-1.02-0.35c-0.35-0.07-0.69-0.13-1.03-0.18l-0.51-0.08
			c-0.17-0.02-0.34-0.02-0.51-0.03c-0.34-0.02-0.68-0.05-1.03-0.08c-0.49-0.02-1.03,0.04-1.43,0.03c-0.47-0.03-0.94,0-1.41-0.03
			l-0.72-0.03c-0.24,0.01-0.47,0.04-0.71,0.07l-0.87,0.13c-0.29,0.06-0.57,0.13-0.85,0.22l-0.84,0.24
			c-0.28,0.08-0.55,0.21-0.82,0.31c-0.88,0.35-1.74,0.76-2.57,1.23c-1.04,0.62-2.04,1.3-3,2.05c-1.06,0.91-1.96,1.99-2.67,3.19
			c-0.26,0.41-0.51,0.9-0.7,1.25c-0.51,0.8-0.98,1.62-1.41,2.47c-0.44,1.09-0.75,2.22-0.91,3.38c-0.09,0.48-0.11,0.96-0.17,1.43
			c-0.01,0.47-0.06,0.94-0.04,1.42c0,1.21,0.09,2.42,0.27,3.62c0.26,1.37,0.74,2.69,1.44,3.9c0.22,0.43,0.54,0.89,0.73,1.23
			c0.26,0.4,0.48,0.81,0.68,1.24c0.23,0.42,0.48,0.82,0.76,1.21c0.17,0.24,0.36,0.46,0.56,0.67l0.59,0.65
			c0.43,0.4,0.86,0.79,1.31,1.16l1.16,0.85l1.21,0.74c0.51,0.26,1.02,0.55,1.56,0.81c0.55,0.23,1.1,0.53,1.72,0.75
			c1.32,0.47,2.7,0.71,4.1,0.72c0.49-0.02,1.03,0.01,1.43-0.02c0.47-0.03,0.94,0.02,1.41,0.04c0.47-0.01,0.95,0,1.43-0.04
			c0.57-0.11,1.15-0.19,1.71-0.36c0.55-0.18,1.12-0.32,1.67-0.55c0.89-0.35,1.74-0.77,2.56-1.25c0.49-0.32,0.97-0.63,1.49-0.95
			c0.48-0.36,0.98-0.72,1.51-1.11c1.05-0.92,1.95-2,2.65-3.2c0.25-0.4,0.49-0.82,0.7-1.25c0.21-0.42,0.51-0.79,0.74-1.2
			s0.47-0.83,0.68-1.26c0.2-0.55,0.38-1.11,0.56-1.66c0.12-0.57,0.24-1.15,0.35-1.72c0.05-0.48,0.1-0.96,0.15-1.43v0
			c0.04-0.47,0.02-0.94,0.03-1.42c-0.01-1.21-0.1-2.42-0.27-3.62L2380.06,383.3z"/>
		<path class="st1" d="M2383.8,385.25c-0.02-0.17-0.04-0.37-0.06-0.58s-0.09-0.44-0.14-0.68c-0.11-0.47-0.22-0.99-0.36-1.5
			c-0.34-1.01-0.64-2.01-0.91-2.65c-0.17-0.45-0.28-0.92-0.45-1.38c-0.17-0.45-0.36-0.9-0.56-1.33c-0.05-0.12-0.1-0.24-0.16-0.36
			c-1.13-1.98-2.62-3.72-4.4-5.15c-0.71-0.57-1.21-1.1-1.76-1.5l-0.78-0.63c-0.13-0.1-0.26-0.21-0.39-0.31l-0.43-0.28
			c-0.25-0.16-0.5-0.31-0.78-0.48l-0.44-0.25c-0.16-0.08-0.32-0.15-0.5-0.22c-0.32-0.14-0.73-0.3-1.19-0.46
			c-0.46-0.17-0.98-0.27-1.49-0.42c-0.26-0.07-0.51-0.14-0.76-0.19l-0.74-0.13c-0.47-0.08-0.9-0.18-1.24-0.25
			c-0.94-0.21-1.89-0.37-2.85-0.46l-0.39-0.03c-2.28-0.03-4.54,0.38-6.66,1.21c-0.85,0.33-1.54,0.55-2.18,0.78
			c-0.62,0.26-1.21,0.49-1.85,0.77c-0.59,0.29-1.15,0.63-1.68,1.01c-0.76,0.56-1.46,1.19-2.11,1.87c-0.74,0.76-1.4,1.58-1.85,2.1
			c-0.66,0.7-1.28,1.45-1.84,2.23c-0.08,0.1-0.15,0.22-0.22,0.32c-0.62,0.96-1.11,1.99-1.45,3.08c-0.33,1.08-0.6,2.18-0.81,3.29
			c-0.31,1.41-0.54,2.83-0.68,4.27c-0.01,0.29-0.03,0.59-0.03,0.92s0.03,0.67,0.06,1.05c0.03,0.35,0.11,0.78,0.2,1.26
			c0.11,0.47,0.23,0.99,0.37,1.5c0.3,1.02,0.66,2,0.9,2.65c0.08,0.23,0.15,0.45,0.22,0.69l0.24,0.68c0.08,0.23,0.16,0.46,0.25,0.68
			c0.09,0.22,0.2,0.44,0.3,0.66l0.16,0.35c1.12,1.98,2.61,3.73,4.4,5.14c0.66,0.63,1.25,1.05,1.75,1.51c0.52,0.44,1.03,0.8,1.6,1.22
			c0.56,0.35,1.13,0.66,1.72,0.95c0.87,0.36,1.76,0.65,2.68,0.87c0.26,0.06,0.51,0.14,0.76,0.19l0.74,0.14
			c0.47,0.09,0.9,0.19,1.24,0.23c0.47,0.08,0.94,0.19,1.42,0.3c0.48,0.07,0.96,0.14,1.44,0.19c0.13,0.01,0.26,0.04,0.39,0.04
			c2.28,0.04,4.54-0.38,6.66-1.24c0.87-0.27,1.55-0.53,2.19-0.76c0.63-0.23,1.25-0.49,1.85-0.78c0.5-0.28,1.05-0.6,1.68-1.02
			c0.34-0.25,0.67-0.52,0.98-0.81c0.4-0.33,0.77-0.69,1.12-1.06l1.05-1.13c0.3-0.38,0.57-0.72,0.8-0.97
			c0.16-0.18,0.32-0.36,0.49-0.53c0.17-0.17,0.31-0.37,0.47-0.55c0.31-0.37,0.62-0.74,0.9-1.14l0.21-0.33
			c1.18-1.95,1.94-4.12,2.25-6.38c0.22-0.88,0.29-1.61,0.43-2.27l0.1-0.49c0.02-0.16,0.04-0.33,0.06-0.49
			c0.03-0.33,0.06-0.66,0.1-1.01C2383.89,386.57,2383.87,385.91,2383.8,385.25z M2380.33,388.61L2380.33,388.61
			c-0.05,0.47-0.1,0.95-0.15,1.43c-0.11,0.57-0.23,1.15-0.35,1.72c-0.18,0.56-0.35,1.12-0.56,1.66c-0.21,0.43-0.45,0.85-0.68,1.26
			s-0.53,0.78-0.74,1.2c-0.21,0.43-0.45,0.84-0.7,1.25c-0.71,1.2-1.6,2.28-2.65,3.2c-0.53,0.38-1.04,0.74-1.51,1.11
			c-0.51,0.31-1,0.63-1.49,0.95c-0.82,0.48-1.68,0.9-2.56,1.25c-0.54,0.22-1.11,0.36-1.67,0.55c-0.56,0.17-1.14,0.25-1.71,0.36
			c-0.48,0.04-0.96,0.04-1.43,0.04c-0.48-0.02-0.95-0.07-1.41-0.04c-0.4,0.02-0.94,0-1.43,0.02c-1.4-0.01-2.78-0.26-4.1-0.72
			c-0.62-0.22-1.17-0.52-1.72-0.75c-0.54-0.26-1.05-0.55-1.56-0.81l-1.21-0.74l-1.16-0.85c-0.45-0.38-0.88-0.76-1.31-1.16
			l-0.59-0.65c-0.2-0.21-0.39-0.43-0.56-0.67c-0.28-0.39-0.53-0.79-0.76-1.21c-0.2-0.43-0.43-0.84-0.68-1.24
			c-0.19-0.35-0.51-0.8-0.73-1.23c-0.69-1.21-1.18-2.53-1.44-3.9c-0.18-1.2-0.27-2.41-0.27-3.62c-0.02-0.47,0.03-0.94,0.04-1.42
			c0.05-0.47,0.07-0.95,0.17-1.43c0.16-1.16,0.46-2.3,0.91-3.38c0.42-0.85,0.89-1.67,1.41-2.47c0.19-0.35,0.44-0.84,0.7-1.25
			c0.71-1.2,1.61-2.28,2.67-3.19c0.96-0.75,1.96-1.43,3-2.05c0.83-0.47,1.69-0.88,2.57-1.23c0.27-0.1,0.54-0.23,0.82-0.31l0.84-0.24
			c0.28-0.09,0.56-0.16,0.85-0.22l0.87-0.13c0.24-0.03,0.47-0.06,0.71-0.07l0.72,0.03c0.48,0.03,0.94,0,1.41,0.03
			c0.4,0.01,0.95-0.05,1.43-0.03c0.34,0.04,0.69,0.06,1.03,0.08c0.17,0.01,0.34,0.02,0.51,0.03l0.51,0.08
			c0.34,0.05,0.68,0.11,1.03,0.18c0.35,0.1,0.69,0.21,1.02,0.35c0.62,0.22,1.17,0.51,1.72,0.75c0.56,0.22,1.05,0.55,1.56,0.81
			c0.42,0.22,0.82,0.47,1.2,0.75l0.6,0.39c0.19,0.14,0.37,0.3,0.56,0.46l0.68,0.55c0.22,0.19,0.43,0.4,0.63,0.61l0.61,0.63
			c0.2,0.22,0.38,0.45,0.54,0.68c0.14,0.19,0.28,0.39,0.41,0.59l0.19,0.3l0.16,0.32c0.2,0.43,0.43,0.84,0.69,1.23
			c0.19,0.35,0.47,0.82,0.72,1.24c0.17,0.3,0.32,0.61,0.45,0.93l0.43,0.93c0.13,0.32,0.22,0.65,0.32,0.99
			c0.05,0.17,0.09,0.34,0.14,0.51l0.06,0.26l0.03,0.27c0.17,1.2,0.26,2.41,0.27,3.62C2380.34,387.66,2380.37,388.14,2380.33,388.61z
			"/>
	</g>
	<circle id="타원_196" cx="2353.01" cy="385.94" r="1.69"/>
	<circle id="타원_197" cx="2348.03" cy="384.03" r="1.69"/>
	<path id="패스_12703" class="st1" d="M2357.16,390.57c-0.19-0.21-0.46-0.34-0.75-0.36c-0.15-0.01-0.48,0.05-0.59,0.05
		c-0.15,0.01-0.18,0.12-0.2,0.21c-0.02,0.08-0.06,0.15-0.11,0.21c-0.05,0.05-0.1,0.1-0.15,0.15c-0.2,0.18-0.42,0.33-0.66,0.44
		c-0.31,0.16-0.65,0.27-1,0.33c-0.29,0.01-0.58,0.01-0.88-0.01c-0.12,0.01-0.29,0.03-0.44,0.03c-0.42,0.03-0.84-0.04-1.23-0.19
		c-0.3-0.15-0.58-0.33-0.84-0.55c-0.05-0.05-0.11-0.09-0.15-0.14c-0.06-0.08-0.11-0.15-0.15-0.24c-0.09-0.11-0.11-0.2-0.35-0.23
		c-0.35-0.06-0.7,0.01-1,0.2c-0.13,0.1-0.23,0.25-0.27,0.41c-0.02,0.06-0.02,0.11-0.02,0.17c0.02,0.19,0.12,0.36,0.26,0.47
		c0.05,0.05,0.09,0.11,0.14,0.17c0.12,0.17,0.25,0.34,0.39,0.49c0.17,0.18,0.37,0.33,0.58,0.46c0.3,0.17,0.62,0.3,0.96,0.38
		c0.37,0.1,0.73,0.15,0.97,0.2c0.33,0.08,0.66,0.14,0.99,0.18c0.04,0.01,0.09,0.01,0.14,0.01c0.79-0.01,1.57-0.2,2.28-0.56
		c0.5-0.18,0.97-0.42,1.41-0.71c0.1-0.07,0.19-0.15,0.27-0.23c0.12-0.1,0.23-0.22,0.33-0.34c0.1-0.15,0.17-0.32,0.19-0.5
		C2357.32,390.89,2357.28,390.71,2357.16,390.57z"/>
	<g>
		<path d="M2390.75,377.18c-0.05-0.21-0.13-0.4-0.18-0.57c-0.19-0.83-0.45-1.64-0.77-2.43c-0.51-0.98-1.13-1.89-1.85-2.73
			c-0.6-0.72-1.22-1.39-1.88-2.04l-2.56-2.54c-1.04-0.94-2.15-1.81-3.31-2.6c-0.4-0.29-0.88-0.6-1.2-0.84
			c-0.37-0.28-0.72-0.58-1.05-0.89c-0.34-0.31-0.7-0.6-1.08-0.86c-0.94-0.62-1.94-1.16-2.98-1.61c-0.84-0.37-1.7-0.71-2.58-0.99
			c-1.06-0.36-2.15-0.67-3.37-1c-1.31-0.29-2.65-0.39-3.98-0.32c-0.46,0.02-0.98,0.07-1.35,0.1c-0.88,0.07-1.78-0.03-2.65,0.12
			c-1.03,0.19-2.02,0.55-2.94,1.06c-0.69,0.38-1.31,0.87-1.84,1.46c-0.15,0.17-0.29,0.35-0.42,0.53c-0.12,0.2-0.25,0.37-0.36,0.59
			c-0.25,0.44-0.45,0.91-0.59,1.4c-0.27,1.15-0.2,2.35,0.22,3.45c0.12,0.4,0.33,0.85,0.46,1.18c0.28,0.83,0.6,1.64,0.98,2.42
			c0.57,0.96,1.23,1.86,1.98,2.69c0.62,0.71,1.26,1.36,1.93,2c0.82,0.79,1.67,1.57,2.62,2.45c1.06,0.89,2.2,1.69,3.4,2.38
			c0.41,0.25,0.91,0.52,1.24,0.73c0.8,0.5,1.5,1.17,2.31,1.68c0.99,0.61,2.01,1.17,3.06,1.68c0.87,0.42,1.72,0.81,2.58,1.18
			c1.05,0.45,2.12,0.89,3.31,1.36c1.27,0.44,2.58,0.72,3.92,0.83c0.23,0.03,0.47,0.03,0.7,0.04s0.45,0.02,0.63,0.02
			c0.84,0.11,1.68,0.15,2.53,0.11c0.94-0.11,1.83-0.47,2.58-1.04l0,0c0.57-0.45,1.04-1.02,1.35-1.67c0.5-0.99,0.91-2.03,1.25-3.09
			c0.31-1.19,0.33-2.44,0.05-3.64C2390.87,377.6,2390.81,377.39,2390.75,377.18z"/>
		<path class="st1" d="M2394.18,376.17c-0.02-0.13-0.05-0.26-0.07-0.38c-0.24-1.09-0.67-2.12-1.26-3.07
			c-0.57-0.9-1.19-1.77-1.86-2.6c-1.03-1.33-1.6-2.16-2.42-3.13c-0.38-0.45-0.79-0.87-1.22-1.27c-0.91-0.86-2.97-2.31-3.9-3.1
			c-0.64-0.55-1.21-1.19-1.85-1.73l-0.25-0.23c-0.39-0.34-0.79-0.66-1.22-0.95c-0.44-0.29-0.88-0.56-1.34-0.81
			c-0.91-0.5-1.86-0.93-2.79-1.38c-1.5-0.71-2.38-1.22-3.56-1.73c-0.25-0.1-0.5-0.2-0.78-0.3s-0.58-0.18-0.92-0.28
			c-0.84-0.2-1.69-0.35-2.54-0.45c-0.97-0.11-1.93-0.18-2.57-0.24c-0.89-0.14-1.78-0.24-2.67-0.28l-0.36-0.01
			c-2.18,0.05-4.32,0.59-6.27,1.58c-0.71,0.32-1.39,0.68-2.05,1.08c-0.29,0.18-0.58,0.37-0.85,0.58l-0.41,0.32l-0.4,0.38
			c-0.5,0.5-0.93,1.07-1.26,1.7c-0.44,0.89-0.73,1.84-0.85,2.83c-0.1,0.96-0.11,1.92-0.01,2.88c0.04,0.96,0.19,1.92,0.44,2.85
			l0.11,0.36c0.34,1.04,0.83,2.01,1.47,2.9c0.61,0.88,1.29,1.68,1.94,2.49c1.07,1.28,1.65,2.1,2.49,3.06
			c0.39,0.44,0.81,0.85,1.26,1.24c0.47,0.41,1.24,0.98,2.01,1.53c0.77,0.54,1.56,1.07,2.05,1.44c0.68,0.52,1.31,1.13,2,1.62
			l0.27,0.21c1.68,1.11,3.45,2.08,5.29,2.89c1.45,0.73,2.26,1.3,3.38,1.88c0.52,0.27,1.06,0.51,1.6,0.72
			c0.8,0.28,1.62,0.52,2.44,0.72c0.93,0.24,1.88,0.42,2.5,0.58c0.87,0.26,1.74,0.46,2.63,0.62c0.12,0.02,0.25,0.04,0.37,0.06
			c2.3,0.27,4.62-0.22,6.61-1.41c0.73-0.42,1.4-0.92,2-1.51c0.53-0.51,0.98-1.08,1.36-1.7c0.31-0.54,0.58-1.1,0.81-1.68
			c0.13-0.31,0.24-0.72,0.37-1.17c0.1-0.46,0.22-0.96,0.28-1.48c0.12-0.91,0.18-1.83,0.17-2.75
			C2394.38,378.08,2394.33,377.12,2394.18,376.17z M2390.86,381.45c-0.33,1.06-0.75,2.09-1.25,3.09c-0.32,0.65-0.78,1.23-1.35,1.67
			l0,0c-0.75,0.57-1.64,0.93-2.58,1.04c-0.84,0.03-1.69-0.01-2.53-0.11c-0.18,0-0.4-0.01-0.63-0.02s-0.47-0.02-0.7-0.04
			c-1.34-0.1-2.65-0.38-3.92-0.83c-1.18-0.48-2.25-0.92-3.31-1.36c-0.86-0.36-1.71-0.75-2.58-1.18c-1.05-0.51-2.07-1.07-3.06-1.68
			c-0.81-0.51-1.51-1.18-2.31-1.68c-0.34-0.22-0.83-0.48-1.24-0.73c-1.2-0.69-2.34-1.49-3.4-2.38c-0.95-0.88-1.81-1.66-2.62-2.45
			c-0.67-0.64-1.31-1.29-1.93-2c-0.75-0.83-1.41-1.73-1.98-2.69c-0.38-0.79-0.71-1.6-0.98-2.42c-0.14-0.33-0.34-0.77-0.46-1.18
			c-0.41-1.1-0.49-2.3-0.22-3.45c0.15-0.49,0.35-0.96,0.59-1.4c0.11-0.22,0.24-0.39,0.36-0.59c0.13-0.18,0.27-0.36,0.42-0.53
			c0.52-0.59,1.15-1.08,1.84-1.46c0.91-0.51,1.91-0.87,2.94-1.06c0.87-0.15,1.77-0.06,2.65-0.12c0.37-0.03,0.89-0.08,1.35-0.1
			c1.34-0.08,2.67,0.03,3.98,0.32c1.22,0.33,2.31,0.64,3.37,1c0.88,0.29,1.74,0.62,2.58,0.99c1.04,0.45,2.04,0.98,2.98,1.61
			c0.38,0.26,0.74,0.55,1.08,0.86c0.33,0.32,0.69,0.62,1.05,0.89c0.32,0.24,0.8,0.55,1.2,0.84c1.16,0.79,2.27,1.65,3.31,2.6
			l2.56,2.54c0.66,0.66,1.28,1.32,1.88,2.04c0.72,0.84,1.34,1.75,1.85,2.73c0.32,0.79,0.58,1.6,0.77,2.43
			c0.05,0.17,0.12,0.36,0.18,0.57c0.07,0.21,0.12,0.42,0.16,0.63C2391.19,379.01,2391.17,380.26,2390.86,381.45z"/>
	</g>
	<g>
		<path class="st0" d="M2295.86,366.89l-0.06-0.26c-0.05-0.17-0.09-0.35-0.14-0.52c-0.1-0.34-0.19-0.67-0.32-0.99l-0.43-0.93
			c-0.13-0.32-0.28-0.63-0.45-0.93c-0.25-0.42-0.53-0.89-0.72-1.24c-0.26-0.4-0.49-0.81-0.69-1.23l-0.16-0.32l-0.19-0.3
			c-0.13-0.2-0.26-0.4-0.41-0.59c-0.17-0.24-0.35-0.47-0.54-0.69l-0.61-0.63c-0.2-0.21-0.41-0.42-0.63-0.61l-0.68-0.55
			c-0.19-0.15-0.37-0.31-0.56-0.45l-0.6-0.39c-0.38-0.27-0.78-0.52-1.2-0.75c-0.51-0.26-1-0.59-1.56-0.81
			c-0.55-0.25-1.1-0.54-1.72-0.75c-0.33-0.14-0.68-0.25-1.02-0.35c-0.35-0.07-0.69-0.13-1.03-0.18l-0.51-0.08
			c-0.17-0.02-0.34-0.02-0.51-0.03c-0.34-0.02-0.68-0.04-1.03-0.08c-0.49-0.02-1.03,0.04-1.43,0.03c-0.47-0.03-0.94,0-1.41-0.03
			l-0.72-0.03c-0.24,0.01-0.47,0.04-0.71,0.07l-0.87,0.13c-0.29,0.06-0.57,0.13-0.85,0.22l-0.84,0.24
			c-0.28,0.08-0.55,0.21-0.82,0.31c-0.89,0.35-1.74,0.76-2.57,1.23c-1.04,0.62-2.04,1.3-3,2.05c-1.06,0.91-1.96,1.99-2.67,3.19
			c-0.26,0.41-0.51,0.9-0.7,1.25c-0.51,0.8-0.98,1.62-1.4,2.47c-0.44,1.08-0.75,2.22-0.91,3.38c-0.09,0.48-0.11,0.96-0.17,1.43
			c-0.01,0.47-0.06,0.94-0.04,1.42c0,1.21,0.1,2.42,0.27,3.62c0.26,1.37,0.75,2.69,1.44,3.9c0.22,0.43,0.54,0.89,0.73,1.23
			c0.26,0.4,0.49,0.81,0.69,1.24c0.23,0.42,0.48,0.82,0.76,1.21c0.17,0.24,0.36,0.46,0.56,0.67l0.59,0.65
			c0.43,0.4,0.86,0.79,1.31,1.16l1.16,0.85l1.21,0.74c0.51,0.26,1.02,0.55,1.56,0.81c0.55,0.23,1.1,0.53,1.72,0.75
			c1.32,0.47,2.7,0.71,4.1,0.72c0.49-0.02,1.03,0.01,1.43-0.02c0.47-0.03,0.94,0.02,1.41,0.04c0.47-0.01,0.95,0,1.43-0.04
			c0.57-0.11,1.15-0.19,1.71-0.36c0.55-0.18,1.12-0.32,1.67-0.55c0.89-0.35,1.74-0.77,2.56-1.25c0.48-0.32,0.97-0.63,1.49-0.95
			c0.48-0.36,0.98-0.72,1.51-1.11c1.05-0.92,1.95-2,2.65-3.2c0.25-0.4,0.49-0.82,0.7-1.25c0.21-0.42,0.51-0.79,0.74-1.2
			s0.47-0.83,0.68-1.26c0.2-0.55,0.38-1.11,0.56-1.66c0.12-0.57,0.24-1.15,0.35-1.72c0.05-0.49,0.1-0.96,0.15-1.43h0
			c0.04-0.47,0.01-0.95,0.02-1.42c-0.01-1.21-0.1-2.42-0.27-3.62L2295.86,366.89z"/>
		<path class="st1" d="M2299.6,368.84c-0.02-0.17-0.04-0.37-0.06-0.58s-0.09-0.44-0.14-0.68c-0.11-0.47-0.22-0.99-0.36-1.5
			c-0.34-1.01-0.64-2.01-0.91-2.65c-0.17-0.45-0.28-0.92-0.45-1.38c-0.17-0.45-0.36-0.9-0.56-1.33c-0.05-0.12-0.1-0.24-0.16-0.36
			c-1.13-1.98-2.62-3.72-4.4-5.15c-0.71-0.57-1.21-1.1-1.76-1.5l-0.78-0.63c-0.13-0.1-0.26-0.21-0.39-0.31l-0.43-0.28
			c-0.24-0.16-0.5-0.31-0.78-0.48l-0.44-0.25c-0.16-0.08-0.32-0.15-0.5-0.22c-0.32-0.14-0.73-0.3-1.19-0.46s-0.98-0.27-1.49-0.42
			c-0.26-0.06-0.51-0.14-0.76-0.19l-0.74-0.13c-0.47-0.08-0.9-0.18-1.24-0.25c-0.94-0.21-1.89-0.37-2.85-0.46l-0.39-0.03
			c-2.28-0.03-4.54,0.38-6.66,1.21c-0.85,0.33-1.54,0.55-2.18,0.78c-0.62,0.26-1.21,0.49-1.85,0.78c-0.59,0.29-1.15,0.63-1.68,1.01
			c-0.76,0.56-1.46,1.19-2.11,1.87c-0.74,0.76-1.4,1.58-1.85,2.1c-0.66,0.7-1.28,1.45-1.84,2.23c-0.08,0.1-0.15,0.22-0.22,0.32
			c-0.62,0.96-1.11,1.99-1.45,3.08c-0.33,1.08-0.6,2.19-0.81,3.3c-0.31,1.41-0.54,2.83-0.68,4.27c-0.01,0.29-0.03,0.59-0.03,0.92
			c0,0.32,0.03,0.67,0.06,1.05c0.04,0.35,0.11,0.78,0.2,1.26c0.11,0.47,0.23,0.99,0.38,1.5c0.3,1.02,0.66,2,0.9,2.65
			c0.08,0.23,0.15,0.46,0.22,0.69l0.24,0.68c0.08,0.23,0.16,0.46,0.25,0.68s0.2,0.44,0.3,0.66l0.16,0.36
			c1.12,1.98,2.61,3.73,4.4,5.14c0.66,0.63,1.25,1.05,1.75,1.51c0.52,0.44,1.03,0.8,1.6,1.22c0.56,0.35,1.13,0.66,1.72,0.95
			c0.87,0.36,1.76,0.65,2.68,0.87c0.26,0.06,0.51,0.14,0.76,0.19l0.74,0.14c0.47,0.09,0.9,0.19,1.24,0.23
			c0.47,0.08,0.94,0.19,1.42,0.3c0.48,0.07,0.96,0.14,1.44,0.19c0.13,0.01,0.26,0.04,0.39,0.04c2.28,0.04,4.54-0.38,6.66-1.24
			c0.87-0.27,1.55-0.53,2.19-0.76c0.63-0.23,1.25-0.49,1.85-0.78c0.5-0.28,1.05-0.6,1.68-1.02c0.34-0.25,0.67-0.52,0.98-0.81
			c0.4-0.33,0.77-0.68,1.12-1.06l1.05-1.13c0.3-0.38,0.57-0.72,0.8-0.97c0.16-0.18,0.32-0.36,0.49-0.53
			c0.17-0.17,0.31-0.37,0.47-0.55c0.31-0.37,0.62-0.74,0.9-1.14l0.21-0.33c1.18-1.95,1.94-4.12,2.25-6.38
			c0.22-0.88,0.29-1.61,0.43-2.27l0.1-0.49c0.02-0.16,0.04-0.33,0.06-0.49c0.03-0.33,0.06-0.66,0.1-1.01
			C2299.69,370.16,2299.68,369.5,2299.6,368.84z M2296.13,372.2L2296.13,372.2c-0.05,0.47-0.1,0.95-0.16,1.43
			c-0.11,0.57-0.23,1.14-0.35,1.72c-0.18,0.56-0.35,1.12-0.56,1.66c-0.21,0.43-0.45,0.85-0.68,1.26s-0.53,0.78-0.74,1.2
			c-0.21,0.43-0.45,0.84-0.7,1.25c-0.71,1.2-1.6,2.28-2.65,3.2c-0.53,0.38-1.03,0.74-1.51,1.11c-0.51,0.31-1,0.63-1.49,0.95
			c-0.82,0.48-1.68,0.9-2.56,1.25c-0.54,0.22-1.11,0.36-1.67,0.55c-0.56,0.17-1.14,0.25-1.71,0.36c-0.48,0.04-0.96,0.04-1.43,0.04
			c-0.48-0.02-0.95-0.07-1.41-0.04c-0.4,0.02-0.94,0-1.43,0.02c-1.4-0.01-2.78-0.26-4.1-0.72c-0.62-0.22-1.17-0.52-1.72-0.75
			c-0.54-0.26-1.05-0.55-1.56-0.81l-1.21-0.74l-1.16-0.85c-0.45-0.38-0.88-0.76-1.31-1.16l-0.59-0.65c-0.2-0.21-0.39-0.43-0.56-0.67
			c-0.28-0.39-0.53-0.79-0.76-1.21c-0.2-0.43-0.43-0.84-0.69-1.24c-0.19-0.35-0.51-0.8-0.73-1.23c-0.69-1.21-1.18-2.53-1.44-3.9
			c-0.18-1.2-0.27-2.41-0.27-3.62c-0.02-0.47,0.03-0.94,0.04-1.42c0.05-0.47,0.07-0.95,0.17-1.43c0.16-1.16,0.46-2.3,0.91-3.38
			c0.42-0.85,0.89-1.67,1.4-2.47c0.19-0.35,0.44-0.84,0.7-1.25c0.71-1.2,1.61-2.28,2.67-3.19c0.96-0.75,1.96-1.43,3-2.05
			c0.83-0.47,1.69-0.88,2.57-1.23c0.27-0.1,0.54-0.23,0.82-0.31l0.84-0.24c0.28-0.09,0.56-0.16,0.85-0.22l0.87-0.13
			c0.24-0.03,0.47-0.06,0.71-0.07l0.72,0.03c0.48,0.03,0.94,0,1.41,0.03c0.4,0.01,0.95-0.05,1.43-0.03
			c0.34,0.04,0.69,0.06,1.03,0.08c0.17,0.01,0.34,0.02,0.51,0.03l0.51,0.08c0.34,0.05,0.68,0.11,1.03,0.18
			c0.35,0.1,0.69,0.21,1.02,0.35c0.62,0.21,1.17,0.51,1.72,0.75c0.56,0.22,1.05,0.55,1.56,0.81c0.42,0.22,0.82,0.47,1.2,0.75
			l0.6,0.39c0.19,0.14,0.37,0.3,0.56,0.45l0.68,0.55c0.22,0.19,0.43,0.39,0.63,0.61l0.61,0.63c0.2,0.22,0.38,0.45,0.54,0.69
			c0.14,0.19,0.28,0.39,0.41,0.59l0.19,0.3l0.16,0.32c0.2,0.43,0.43,0.84,0.69,1.23c0.19,0.35,0.47,0.82,0.72,1.24
			c0.17,0.3,0.32,0.61,0.45,0.93l0.43,0.93c0.13,0.32,0.22,0.65,0.32,0.99c0.05,0.17,0.09,0.34,0.14,0.52l0.06,0.26l0.03,0.27
			c0.17,1.2,0.26,2.41,0.27,3.62C2296.15,371.25,2296.17,371.73,2296.13,372.2z"/>
	</g>
	<circle id="타원_198" cx="2273.39" cy="369.4" r="1.69"/>
	<circle id="타원_199" cx="2267.54" cy="366.25" r="1.69"/>
	<path id="패스_12708" class="st1" d="M2270.13,373.14c-0.18-0.42-0.43-0.8-0.74-1.14c-0.28-0.36-0.62-0.66-1.01-0.9l-0.16-0.1
		c-0.49-0.26-1.05-0.38-1.6-0.34c-0.59,0.04-1.16,0.25-1.63,0.6c-0.32,0.24-0.59,0.53-0.81,0.87c-0.09,0.13-0.17,0.28-0.24,0.42
		c-0.07,0.14-0.14,0.29-0.18,0.44c-0.05,0.13-0.08,0.26-0.11,0.4c-0.04,0.15-0.05,0.31-0.06,0.46c-0.01,0.19-0.01,0.38,0,0.57
		c0.03,0.24,0.07,0.47,0.13,0.7c0.12,0.44,0.32,0.85,0.57,1.23c0.13,0.21,0.28,0.4,0.45,0.58c0.17,0.19,0.37,0.34,0.58,0.46
		c0.05,0.04,0.11,0.07,0.18,0.1c0.53,0.25,1.13,0.32,1.71,0.2c0.54-0.13,1.05-0.37,1.49-0.71c0.17-0.14,0.31-0.27,0.45-0.38
		s0.23-0.25,0.34-0.36c0.11-0.11,0.2-0.23,0.29-0.36c0.09-0.12,0.17-0.25,0.26-0.39c0.16-0.29,0.26-0.61,0.3-0.93
		C2270.38,374.08,2270.31,373.59,2270.13,373.14z M2268.22,375.18c-0.09,0.13-0.19,0.25-0.3,0.36c-0.24,0.27-0.57,0.44-0.92,0.49
		c-0.26,0.01-0.52-0.05-0.75-0.17c-0.06-0.01-0.11-0.03-0.16-0.06c-0.06-0.02-0.12-0.05-0.17-0.09c-0.35-0.23-0.57-0.6-0.6-1.01
		c0-0.11,0-0.22-0.01-0.32s0.02-0.22,0.03-0.32c0.01-0.2,0.04-0.4,0.09-0.6c0.05-0.27,0.17-0.52,0.35-0.74
		c0.2-0.23,0.5-0.37,0.81-0.36c0.28,0.04,0.56,0.14,0.81,0.28c0.14,0.05,0.28,0.12,0.41,0.19c0.38,0.2,0.66,0.54,0.78,0.96
		c0.05,0.34,0,0.68-0.15,0.99C2268.37,374.9,2268.3,375.05,2268.22,375.18L2268.22,375.18z"/>
	<g>
		<path d="M2306.54,360.77c-0.05-0.21-0.13-0.4-0.18-0.57c-0.19-0.83-0.45-1.64-0.77-2.43c-0.51-0.98-1.13-1.89-1.84-2.73
			c-0.6-0.72-1.22-1.39-1.88-2.04l-2.56-2.54c-1.04-0.94-2.15-1.81-3.31-2.59c-0.41-0.29-0.88-0.6-1.2-0.84
			c-0.37-0.28-0.72-0.58-1.05-0.89c-0.34-0.31-0.7-0.6-1.08-0.86c-0.94-0.62-1.94-1.16-2.98-1.61c-0.84-0.37-1.7-0.71-2.58-0.99
			c-1.06-0.36-2.15-0.67-3.37-1c-1.31-0.29-2.65-0.39-3.98-0.32c-0.46,0.02-0.98,0.07-1.35,0.1c-0.88,0.07-1.78-0.03-2.65,0.12
			c-1.03,0.19-2.02,0.55-2.94,1.06c-0.69,0.38-1.31,0.87-1.84,1.46c-0.17,0.16-0.28,0.36-0.42,0.53c-0.12,0.2-0.25,0.37-0.36,0.59
			c-0.25,0.45-0.44,0.91-0.59,1.4c-0.27,1.15-0.2,2.35,0.22,3.45c0.12,0.4,0.33,0.85,0.46,1.18c0.28,0.83,0.6,1.64,0.98,2.42
			c0.57,0.96,1.23,1.86,1.98,2.69c0.62,0.71,1.27,1.35,1.93,2c0.82,0.79,1.67,1.57,2.62,2.45c1.06,0.89,2.2,1.69,3.4,2.38
			c0.41,0.26,0.91,0.52,1.24,0.73c0.8,0.5,1.51,1.17,2.31,1.68c0.99,0.61,2.01,1.17,3.06,1.68c0.87,0.42,1.72,0.81,2.58,1.18
			c1.05,0.45,2.12,0.89,3.31,1.36c1.27,0.44,2.58,0.72,3.92,0.83c0.23,0.03,0.47,0.03,0.7,0.04c0.23,0.01,0.45,0.02,0.63,0.02
			c0.84,0.11,1.68,0.15,2.53,0.11c0.94-0.11,1.83-0.47,2.58-1.04l0,0c0.57-0.44,1.03-1.01,1.35-1.66c0.5-0.99,0.91-2.03,1.25-3.09
			c0.31-1.19,0.33-2.44,0.05-3.64C2306.66,361.19,2306.61,360.98,2306.54,360.77z"/>
		<path class="st1" d="M2309.98,359.76c-0.02-0.13-0.05-0.26-0.07-0.38c-0.24-1.09-0.67-2.12-1.26-3.07
			c-0.57-0.9-1.19-1.77-1.86-2.6c-1.03-1.33-1.6-2.16-2.42-3.13c-0.38-0.45-0.79-0.87-1.22-1.27c-0.91-0.86-2.97-2.31-3.9-3.1
			c-0.64-0.55-1.21-1.19-1.85-1.73l-0.25-0.23c-0.39-0.34-0.79-0.66-1.22-0.95c-0.44-0.29-0.88-0.56-1.34-0.81
			c-0.92-0.5-1.86-0.93-2.79-1.38c-1.5-0.71-2.38-1.22-3.56-1.73c-0.25-0.1-0.5-0.2-0.78-0.3s-0.58-0.18-0.92-0.28
			c-0.84-0.2-1.69-0.35-2.54-0.45c-0.97-0.11-1.93-0.18-2.57-0.24c-0.89-0.14-1.78-0.24-2.67-0.28l-0.36-0.01
			c-2.18,0.05-4.32,0.59-6.27,1.58c-0.71,0.32-1.39,0.68-2.05,1.08c-0.29,0.18-0.58,0.37-0.85,0.58l-0.41,0.32l-0.4,0.38
			c-0.5,0.5-0.93,1.07-1.26,1.7c-0.44,0.89-0.73,1.84-0.85,2.83c-0.1,0.96-0.11,1.92-0.01,2.88c0.04,0.96,0.19,1.92,0.44,2.85
			l0.11,0.36c0.34,1.04,0.84,2.01,1.47,2.9c0.61,0.88,1.29,1.68,1.94,2.49c1.07,1.28,1.65,2.1,2.49,3.06
			c0.39,0.44,0.81,0.85,1.26,1.24c0.47,0.41,1.24,0.98,2.01,1.53s1.56,1.07,2.05,1.44c0.68,0.53,1.31,1.13,2,1.62l0.27,0.21
			c1.68,1.12,3.45,2.08,5.29,2.89c1.45,0.73,2.26,1.3,3.38,1.88c0.52,0.27,1.05,0.51,1.6,0.72c0.8,0.28,1.62,0.52,2.44,0.72
			c0.93,0.24,1.88,0.42,2.5,0.58c0.87,0.26,1.74,0.46,2.63,0.62c0.12,0.02,0.25,0.04,0.37,0.06c2.3,0.27,4.62-0.22,6.61-1.41
			c0.73-0.42,1.4-0.92,2-1.51c0.53-0.51,0.98-1.08,1.36-1.71c0.31-0.54,0.58-1.1,0.81-1.68c0.13-0.31,0.24-0.72,0.36-1.17
			c0.1-0.46,0.22-0.96,0.28-1.48c0.12-0.91,0.18-1.83,0.17-2.75C2310.18,361.67,2310.13,360.7,2309.98,359.76z M2306.66,365.04
			c-0.33,1.06-0.75,2.09-1.25,3.09c-0.32,0.65-0.78,1.22-1.35,1.66l0,0c-0.75,0.57-1.64,0.93-2.58,1.04
			c-0.84,0.03-1.69-0.01-2.53-0.11c-0.18,0-0.4-0.01-0.63-0.02c-0.23-0.01-0.47-0.02-0.7-0.04c-1.34-0.1-2.65-0.38-3.92-0.83
			c-1.18-0.48-2.25-0.92-3.31-1.36c-0.86-0.36-1.71-0.75-2.58-1.18c-1.05-0.51-2.07-1.07-3.06-1.68c-0.81-0.51-1.51-1.18-2.31-1.68
			c-0.34-0.22-0.83-0.48-1.24-0.73c-1.2-0.69-2.34-1.49-3.4-2.38c-0.95-0.88-1.81-1.66-2.62-2.45c-0.67-0.65-1.31-1.29-1.93-2
			c-0.75-0.83-1.41-1.73-1.98-2.69c-0.38-0.79-0.71-1.6-0.98-2.42c-0.14-0.33-0.34-0.77-0.46-1.18c-0.41-1.1-0.49-2.3-0.22-3.45
			c0.15-0.49,0.35-0.95,0.59-1.4c0.11-0.22,0.24-0.39,0.36-0.59c0.15-0.17,0.26-0.37,0.42-0.53c0.52-0.59,1.15-1.08,1.84-1.46
			c0.91-0.51,1.91-0.87,2.94-1.06c0.87-0.15,1.77-0.06,2.65-0.12c0.37-0.03,0.89-0.08,1.35-0.1c1.33-0.08,2.67,0.03,3.98,0.32
			c1.22,0.33,2.31,0.64,3.37,1c0.88,0.29,1.74,0.62,2.58,0.99c1.04,0.45,2.04,0.98,2.98,1.61c0.38,0.26,0.74,0.55,1.08,0.86
			c0.34,0.32,0.69,0.62,1.05,0.89c0.32,0.24,0.79,0.55,1.2,0.84c1.16,0.79,2.27,1.65,3.31,2.59l2.56,2.54
			c0.66,0.66,1.28,1.32,1.88,2.04c0.72,0.84,1.34,1.75,1.84,2.73c0.32,0.79,0.58,1.6,0.77,2.43c0.05,0.17,0.12,0.36,0.18,0.57
			c0.07,0.21,0.12,0.42,0.16,0.63C2306.99,362.6,2306.97,363.85,2306.66,365.04z"/>
	</g>
	<g>
		<path class="st2" d="M2398.63,484.15c-0.07-0.35-0.08-0.8-0.13-1.1s-0.08-0.59-0.11-0.86c-0.11-1.37-0.29-2.73-0.54-4.08
			c-0.43-2.11-1.17-4.16-1.46-6.29c-0.02-0.12-0.03-0.24-0.05-0.37c-0.15-0.9-0.2-1.83-0.37-2.73c-0.23-1.3-1.05-3.88-1.35-5.16
			c-0.16-0.69-0.27-1.28-0.35-1.82c-0.21-1.32-0.3-2.37-0.72-4.05c-0.5-2.09-1.36-4.1-1.74-6.21l-0.06-0.36
			c-0.18-0.89-0.29-1.81-0.5-2.7c-0.3-1.28-1.23-3.82-1.63-5.07c-0.21-0.68-0.35-1.26-0.47-1.79l-0.38-1.87
			c-0.15-0.63-0.33-1.29-0.6-2.11c-0.34-1.02-0.74-2.01-1.13-3.01c-0.43-0.98-0.8-1.98-1.11-3l-0.1-0.35
			c-0.14-0.43-0.24-0.87-0.36-1.32s-0.25-0.87-0.41-1.3c-0.46-1.22-1.64-3.62-2.24-4.74c-0.3-0.63-0.52-1.16-0.72-1.66
			c-0.11-0.3-0.22-0.59-0.33-0.88l-0.34-0.75c-0.13-0.25-0.28-0.51-0.46-0.77c-0.18-0.26-0.4-0.53-0.65-0.83
			c-0.67-0.69-1.42-1.3-2.25-1.8c-0.82-0.51-1.68-0.95-2.53-1.44l-0.3-0.16c-0.37-0.19-0.74-0.39-1.13-0.57
			c-0.38-0.19-0.77-0.36-1.18-0.5c-0.8-0.24-1.61-0.41-2.44-0.5c-0.21-0.02-0.41-0.04-0.61-0.06c0.2,0.48,0.16,1.03-0.14,1.46
			c-0.16,0.19-0.33,0.37-0.51,0.55c-0.13,0.15-0.27,0.28-0.41,0.41c-0.71,0.59-1.46,1.13-2.25,1.63c-0.61,0.42-1.25,0.8-1.92,1.12
			c-0.68,0.32-1.43,0.5-2.18,0.52l-0.26-0.01c-0.62-0.02-1.24-0.1-1.85-0.23c-0.43-0.06-1.09-0.11-1.73-0.22
			c-0.57-0.08-1.13-0.22-1.67-0.4c-0.37-0.13-0.73-0.3-1.06-0.51c-0.28-0.16-0.55-0.34-0.81-0.53c-0.09-0.06-0.19-0.11-0.3-0.14
			c-0.26-0.09-0.57-0.17-0.68-0.47c-0.02-0.06-0.02-0.12-0.03-0.18c-0.11,0.07-0.23,0.14-0.34,0.23c-0.14,0.11-0.3,0.24-0.45,0.38
			c-0.34,0.29-0.65,0.59-0.95,0.92c-0.53,0.59-1.02,1.22-1.48,1.87l-1.01,1.38c-0.81,1.03-1.49,2.14-2.03,3.33
			c-0.72,1.92-1.32,3.88-1.82,5.87c-0.03,0.11-0.07,0.23-0.11,0.35c-0.24,0.88-0.58,1.74-0.81,2.63c-0.16,0.64-0.35,1.62-0.5,2.62
			s-0.3,1.99-0.44,2.63c-0.14,0.7-0.29,1.27-0.44,1.8c-0.41,1.31-0.76,2.64-1.04,3.98c-0.42,2.11-0.48,4.29-1.02,6.38
			c-0.03,0.12-0.06,0.24-0.09,0.36c-0.19,0.89-0.5,1.77-0.68,2.67c-0.28,1.29-0.49,3.99-0.69,5.29c-0.11,0.7-0.24,1.29-0.36,1.82
			c-0.29,1.3-0.61,2.31-0.87,4.03c-0.3,2.13-0.31,4.31-0.74,6.42l-0.08,0.36c-0.16,0.9-0.43,1.79-0.58,2.69
			c-0.22,1.3-0.32,4.01-0.47,5.32c-0.08,0.71-0.18,1.3-0.28,1.83s-0.2,1.02-0.3,1.52c-0.03,0.17-0.05,0.35-0.05,0.53
			c0.04,0.45-0.03,0.91-0.22,1.33c-0.07,0.12-0.15,0.23-0.24,0.34c-0.23,0.3-0.54,0.52-0.9,0.63c-0.19,0.03-0.38,0.03-0.57,0.01
			c0,0.02,0,0.04-0.01,0.06l66.41,0c0,0,0-0.02-0.01-0.05c-0.39,0.02-0.79-0.06-1.13-0.26
			C2399.19,485.91,2398.74,484.73,2398.63,484.15z"/>
		<path class="st2" d="M2366.3,413.68c-1.28-0.14-2.58-0.12-3.86,0.07c-0.99,0.18-1.97,0.46-2.91,0.81l-1.76,0.7
			c0.49,0.21,0.99,0.41,1.53,0.65c0.72,0.23,1.47,0.29,2.22,0.2c0.25-0.01,0.52-0.09,0.72-0.11c0.48-0.01,0.95-0.05,1.42-0.11
			c0.57-0.18,1.09-0.47,1.56-0.85c0.39-0.31,0.75-0.65,1.07-1.03c0.09-0.1,0.18-0.2,0.26-0.31
			C2366.47,413.69,2366.38,413.68,2366.3,413.68z"/>
		<path class="st1" d="M2402.28,483.6c-0.13-0.36-0.23-0.73-0.29-1.1c-0.06-0.32-0.12-0.63-0.17-0.94l-0.64-3.19
			c-0.27-1.3-0.54-2.6-0.76-3.91c-0.18-1.07-0.2-2.17-0.43-3.22c-0.1-0.45-0.26-1.05-0.41-1.59c-0.36-1.55-0.84-2.97-1.1-4.62
			c-0.24-1.47-0.51-2.78-0.81-4.06c-0.24-1.05-0.51-2.08-0.78-3.16c-0.32-1.29-0.64-2.58-0.93-3.88c-0.23-1.06-0.3-2.16-0.58-3.2
			c-0.12-0.44-0.31-1.04-0.48-1.57c-0.44-1.53-1-2.92-1.34-4.57c-0.32-1.46-0.69-2.75-1.06-4.02c-0.3-1.04-0.62-2.06-0.98-3.12
			c-0.42-1.27-0.85-2.53-1.21-3.82c-0.32-1.04-0.5-2.14-0.88-3.16c-0.16-0.43-0.41-1.02-0.62-1.53c-0.58-1.5-1.35-2.82-1.88-4.43
			c-0.24-0.69-0.51-1.36-0.81-2.02c-0.28-0.64-0.57-1.26-0.86-1.86l-0.36-0.74c-0.13-0.25-0.3-0.52-0.45-0.78
			c-0.15-0.27-0.32-0.52-0.5-0.77c-0.18-0.25-0.34-0.52-0.55-0.75c-0.92-1.15-1.99-2.18-3.17-3.07c-0.9-0.77-1.88-1.45-2.93-2.01
			c-0.22-0.11-0.5-0.21-0.79-0.33c-0.29-0.12-0.59-0.23-0.88-0.31c-1.61-0.51-3.26-0.92-4.93-1.22c-1.43-0.32-2.9-0.47-4.36-0.46
			c-1.15,0.01-2.3,0.08-3.44,0.24c-1.4,0.19-2.78,0.47-4.15,0.83c-1.14,0.23-2.26,0.56-3.34,1c-0.53,0.26-1.05,0.55-1.56,0.87
			c-1.47,0.93-2.83,2-4.08,3.2c-1.1,1.02-2.06,2.19-2.83,3.48c-0.6,0.97-1.14,1.98-1.63,3.01c-0.6,1.25-1.1,2.54-1.6,3.83
			c-0.48,1.04-0.87,2.11-1.19,3.21c-0.1,0.45-0.2,1.07-0.29,1.62c-0.33,1.56-0.5,3.05-0.95,4.66c-0.4,1.43-0.7,2.74-0.97,4.03
			c-0.22,1.06-0.4,2.1-0.61,3.2c-0.25,1.3-0.49,2.61-0.77,3.91c-0.23,1.06-0.63,2.08-0.82,3.15c-0.08,0.45-0.15,1.08-0.22,1.63
			c-0.25,1.57-0.34,3.06-0.72,4.7c-0.33,1.45-0.57,2.77-0.78,4.07c-0.16,1.07-0.31,2.12-0.48,3.22c-0.2,1.31-0.36,2.63-0.6,3.94
			c-0.2,1.07-0.54,2.11-0.68,3.18c-0.06,0.45-0.11,1.08-0.16,1.63c-0.19,1.58-0.21,3.08-0.52,4.73c-0.28,1.46-0.45,2.79-0.61,4.1
			l-0.1,0.89c-0.04,0.38-0.18,0.84-0.21,1.22c-0.13,0.56-0.08,1.14,0.16,1.66c0.24,0.55,0.75,0.92,1.32,1.01
			c0.18,0.03,0.38,0.03,0.57-0.01c0.36-0.11,0.67-0.33,0.9-0.63c0.09-0.11,0.17-0.22,0.24-0.34c0.19-0.42,0.26-0.88,0.22-1.33
			c0-0.18,0.02-0.36,0.05-0.53c0.1-0.5,0.2-0.99,0.3-1.52s0.2-1.13,0.28-1.83c0.15-1.31,0.25-4.02,0.47-5.32
			c0.15-0.91,0.41-1.79,0.58-2.69l0.08-0.36c0.43-2.11,0.45-4.28,0.74-6.42c0.25-1.72,0.57-2.72,0.87-4.03
			c0.12-0.53,0.25-1.12,0.36-1.82c0.2-1.3,0.41-4,0.69-5.29c0.19-0.9,0.49-1.77,0.68-2.67c0.03-0.12,0.06-0.24,0.09-0.36
			c0.54-2.08,0.61-4.26,1.02-6.38c0.28-1.34,0.63-2.67,1.04-3.98c0.15-0.53,0.3-1.1,0.44-1.8c0.13-0.65,0.28-1.64,0.44-2.63
			s0.34-1.98,0.5-2.62c0.23-0.89,0.58-1.74,0.81-2.63c0.04-0.12,0.07-0.24,0.11-0.35c0.5-1.99,1.11-3.95,1.82-5.87
			c0.55-1.19,1.23-2.3,2.03-3.33l1.01-1.38c0.46-0.65,0.95-1.28,1.48-1.87c0.3-0.32,0.62-0.63,0.95-0.92
			c0.16-0.14,0.31-0.27,0.45-0.38c0.12-0.09,0.23-0.16,0.34-0.23c0.02,0.06,0.01,0.12,0.03,0.18c0.11,0.3,0.42,0.38,0.68,0.47
			c0.11,0.03,0.21,0.08,0.3,0.14c0.26,0.19,0.53,0.37,0.81,0.53c0.33,0.21,0.69,0.38,1.06,0.51c0.54,0.18,1.1,0.32,1.67,0.4
			c0.65,0.11,1.3,0.16,1.73,0.22c0.61,0.13,1.23,0.21,1.85,0.23l0.26,0.01c0.76-0.02,1.5-0.2,2.18-0.52
			c0.67-0.32,1.31-0.7,1.92-1.12c0.78-0.49,1.53-1.04,2.25-1.63c0.14-0.13,0.28-0.27,0.41-0.41c0.18-0.17,0.35-0.35,0.51-0.55
			c0.3-0.43,0.35-0.98,0.14-1.46c0.2,0.02,0.41,0.04,0.61,0.06c0.83,0.09,1.64,0.26,2.44,0.5c0.4,0.14,0.8,0.31,1.18,0.5
			c0.39,0.18,0.75,0.39,1.13,0.57l0.3,0.16c0.85,0.49,1.71,0.93,2.53,1.44c0.82,0.5,1.58,1.11,2.25,1.8
			c0.25,0.3,0.47,0.56,0.65,0.83c0.18,0.26,0.32,0.52,0.46,0.77l0.34,0.75c0.11,0.28,0.22,0.57,0.33,0.88
			c0.2,0.5,0.42,1.03,0.72,1.66c0.6,1.13,1.78,3.53,2.24,4.74c0.15,0.43,0.29,0.86,0.41,1.3s0.22,0.89,0.36,1.32l0.1,0.35
			c0.31,1.02,0.67,2.02,1.11,3c0.39,1,0.79,1.99,1.13,3.01c0.27,0.82,0.45,1.49,0.6,2.11l0.38,1.87c0.12,0.53,0.26,1.11,0.47,1.79
			c0.4,1.25,1.32,3.79,1.63,5.07c0.21,0.89,0.32,1.81,0.5,2.7l0.06,0.36c0.38,2.12,1.24,4.12,1.74,6.21
			c0.41,1.68,0.5,2.74,0.72,4.05c0.08,0.54,0.19,1.13,0.35,1.82c0.3,1.28,1.12,3.86,1.35,5.16c0.16,0.9,0.22,1.83,0.37,2.73
			c0.02,0.12,0.03,0.25,0.05,0.37c0.29,2.13,1.03,4.18,1.46,6.29c0.25,1.35,0.43,2.71,0.54,4.08c0.04,0.27,0.07,0.55,0.11,0.86
			s0.06,0.75,0.13,1.1c0.11,0.58,0.56,1.76,1.17,1.99c0.34,0.2,0.74,0.29,1.13,0.26c0.19-0.01,0.38-0.04,0.56-0.11
			c0.38-0.33,0.68-0.74,0.9-1.19C2402.53,484.61,2402.49,484.08,2402.28,483.6z M2365.21,415.04c-0.46,0.38-0.99,0.66-1.56,0.85
			c-0.47,0.06-0.95,0.1-1.42,0.11c-0.2,0.02-0.47,0.1-0.72,0.11c-0.74,0.09-1.5,0.03-2.22-0.2c-0.54-0.24-1.04-0.44-1.53-0.65
			l1.76-0.7c0.94-0.36,1.92-0.63,2.91-0.81c1.28-0.19,2.58-0.21,3.86-0.07c0.08,0.01,0.17,0.01,0.25,0.02
			c-0.09,0.11-0.17,0.21-0.26,0.31C2365.96,414.38,2365.6,414.73,2365.21,415.04z"/>
	</g>
	<g id="그룹_16357" transform="translate(2351.534 429.795)">
		<path id="패스_12711" class="st1" d="M20.31,1.4c0.03-0.31-0.03-0.63-0.17-0.91c-0.18-0.37-0.6-0.56-0.99-0.44
			c-0.18,0.09-0.32,0.23-0.41,0.41c-0.04,0.06-0.07,0.13-0.1,0.2c-0.07,0.25-0.08,0.51-0.03,0.76c0.01,0.1,0.01,0.2,0.01,0.3
			c-0.02,0.29-0.04,0.57-0.06,0.87s-0.03,0.65-0.02,1.05c0,0.23,0.01,0.3,0.02,0.46c0.01,0.16,0.03,0.32,0.04,0.49
			c0.03,0.31,0.05,0.63,0.05,0.95c-0.01,0.3-0.08,0.48-0.1,0.73l-0.01,0.09c-0.01,0.16-0.14,0.29-0.3,0.3
			c-0.18,0.02-0.25-0.13-0.34-0.22c-0.21-0.22-0.41-0.46-0.6-0.7l-0.03-0.04c-0.14-0.19-0.27-0.39-0.38-0.6l-0.14-0.26L16.67,4.7
			c-0.03-0.05-0.06-0.11-0.09-0.16L16.4,4.29l-0.21-0.31l-0.48-0.68l-0.59-0.8c-0.22-0.3-0.45-0.59-0.7-0.87
			c-0.47-0.46-0.85-0.7-1.08-0.92L13.1,0.48c-0.08-0.09-0.18-0.15-0.29-0.19c-0.28-0.07-0.59,0-0.81,0.19
			c-0.05,0.04-0.08,0.09-0.11,0.14c-0.2,0.51-0.34,1.04-0.42,1.58c-0.05,0.42-0.05,0.83-0.02,1.25c0.02,0.45,0.03,0.88,0.03,1.3
			c0,0.34,0,0.65,0,0.93c0,0.14-0.01,0.28-0.01,0.41c0,0.11-0.01,0.22-0.02,0.33c-0.02,0.36-0.05,0.7-0.07,1.08
			C11.38,7.66,11.38,7.82,11.37,8s-0.04,0.42-0.03,0.62c0,0.34,0.13,1.04,0.41,1.22c0.3,0.2,0.5,0.33,0.82,0.24
			c0.14-0.04,0.45-0.44,0.54-0.57c0.11-0.26,0.13-0.56,0.07-0.84c-0.03-0.21-0.05-0.42-0.05-0.63c0-0.18,0-0.36,0-0.53
			c-0.01-0.52-0.02-1.04-0.02-1.58c-0.01-0.44-0.02-0.9-0.01-1.32c0.01-0.35,0.11-0.5,0.1-0.84c-0.01-0.09,0.02-0.18,0.07-0.26
			c0.05-0.08,0.13-0.13,0.23-0.14c0.13,0,0.2,0.1,0.26,0.18l0.21,0.24c0.17,0.2,0.32,0.41,0.46,0.63c0.14,0.23,0.25,0.41,0.37,0.59
			l0.17,0.26l0.2,0.28l1.52,2.11l0.35,0.49c0.4,0.48,0.85,0.92,1.34,1.3l0.28,0.25c0.1,0.1,0.24,0.16,0.39,0.17
			c0.33,0.04,0.64-0.12,0.8-0.41c0.06-0.19,0.13-0.46,0.2-0.75c0.13-0.47,0.2-0.96,0.21-1.45c-0.01-0.63-0.03-1.26,0-1.9
			c0.01-0.29,0.02-0.58,0.02-0.85s0.01-0.53,0.01-0.79c0-0.38,0-0.76,0-1.13c0-0.17,0-0.33,0-0.5C20.27,1.88,20.31,1.62,20.31,1.4z"
			/>
		<path id="패스_12712" class="st1" d="M8.72,15.72c-0.17-0.66-0.49-1.26-0.93-1.78C7.34,13.44,6.8,13.02,6.2,12.7
			c-0.26-0.14-0.53-0.26-0.82-0.36c-0.14-0.05-0.28-0.09-0.42-0.13c-0.16-0.04-0.33-0.07-0.5-0.09H3l-1.55,0.03H1.3l-0.16,0.01
			l-0.16,0.02l-0.15,0.03l-0.07,0.02l-0.07,0.02l-0.06,0.02l-0.06,0.02L0.5,12.32l-0.05,0.03l-0.02,0.02l-0.02,0.02L0.4,12.4
			l-0.01,0.02l-0.03,0.04l-0.02,0.04l-0.02,0.04L0.3,12.56L0.28,12.6l-0.01,0.04l0,0v0.01l-0.02,0.07l-0.02,0.06
			c0,0.02-0.01,0.04-0.01,0.06c-0.01,0.04-0.01,0.07-0.02,0.1l-0.01,0.08c-0.01,0.18-0.02,0.35-0.02,0.52s-0.01,0.33-0.01,0.5
			c0,0.33,0,0.64,0,0.95c0,0.21,0.02,0.42,0.02,0.64c0.01,0.26,0.02,0.52,0.01,0.78c-0.05,0.21-0.08,0.42-0.1,0.64
			c0,0.09,0.03,0.21,0.04,0.32c0.05,0.31,0.08,0.62,0.07,0.94c-0.04,0.27-0.05,0.54-0.04,0.82c0.01,0.51,0.02,1.02,0.02,1.55v0.16
			l0.01,0.16l0.02,0.16c0.01,0.05,0.02,0.1,0.03,0.15l0.02,0.07l0.02,0.07l0.02,0.07l0.02,0.06l0.03,0.05l0.03,0.05l0.01,0.02
			l0.02,0.02l0.02,0.02l0.02,0.02l0.04,0.03l0.04,0.02l0.04,0.02l0.04,0.02l0.04,0.02l0.04,0.01l0,0h0.01l0.06,0.02l0.06,0.02
			l0.06,0.01l0.1,0.02l0.07,0.01l0.52,0.02l0.5,0.01H3l1.13-0.01c0.24,0.01,0.48-0.01,0.72-0.05c0.23-0.05,0.45-0.12,0.67-0.2
			c1.07-0.37,1.98-1.09,2.59-2.03c0.5-0.77,0.78-1.67,0.79-2.59c0-0.19-0.03-0.41-0.05-0.65C8.83,16.19,8.78,15.95,8.72,15.72z
			 M6.72,18.72c-0.27,0.54-0.7,0.98-1.24,1.26c-0.35,0.2-0.74,0.31-1.14,0.32L3,20.23l-0.41-0.02H2.36H2.12h-0.1H2L1.97,20.2
			l-0.03-0.01l-0.02-0.01l-0.02-0.02l-0.02-0.02l-0.01-0.02L1.85,20.1l-0.01-0.03l-0.01-0.03v-0.03v-0.03v-0.06
			c0.02-0.27,0.04-0.53,0.06-0.81c0.02-0.12,0.03-0.24,0.02-0.37c-0.01-0.26-0.14-0.8-0.12-1.06c0.01-0.18,0.08-0.36,0.1-0.54
			c0-0.02,0.01-0.05,0.01-0.07c0-0.43-0.04-0.86-0.11-1.28c0-0.27,0.04-0.55,0.1-0.82c0.01-0.13,0.01-0.27,0.02-0.41
			c0-0.07,0-0.15,0-0.23V14.1l0,0v-0.01c0-0.03,0-0.07,0-0.1v-0.02l0.01-0.03l0.01-0.03l0.01-0.03l0.02-0.02l0.02-0.02l0.02-0.02
			l0.02-0.01l0.02-0.01l0.03-0.01h0.03h0.03h0.06l0.81,0.06c0.38,0.02,0.82,0.03,1.3,0.02c0.07,0,0.14,0,0.21,0.02
			c0.12,0.02,0.24,0.05,0.36,0.08c0.27,0.07,0.54,0.17,0.79,0.3c0.45,0.21,0.83,0.55,1.09,0.98c0.23,0.46,0.35,0.97,0.33,1.49
			c0,0.07,0,0.15,0,0.21C7.09,17.58,6.96,18.17,6.72,18.72L6.72,18.72z"/>
		<path id="패스_12713" class="st1" d="M8.78,0.49c-0.18-0.37-0.6-0.56-0.99-0.44C7.62,0.14,7.47,0.28,7.38,0.46
			c-0.04,0.06-0.07,0.13-0.1,0.2C7.21,0.9,7.2,1.16,7.25,1.42c0.01,0.1,0.01,0.2,0.01,0.3C7.23,2.01,7.21,2.29,7.19,2.59
			S7.17,3.24,7.17,3.64c0,0.23,0.01,0.3,0.02,0.46c0.01,0.16,0.03,0.32,0.04,0.49c0.03,0.31,0.05,0.63,0.05,0.95
			c-0.01,0.3-0.08,0.48-0.1,0.73L7.18,6.35c-0.01,0.16-0.14,0.29-0.3,0.3C6.7,6.67,6.63,6.52,6.54,6.43
			c-0.21-0.22-0.41-0.46-0.6-0.7L5.91,5.69C5.77,5.5,5.64,5.3,5.53,5.1L5.39,4.83L5.32,4.71C5.29,4.66,5.29,4.64,5.23,4.55
			L5.06,4.29L4.85,3.98L4.37,3.29l-0.59-0.8c-0.22-0.3-0.45-0.59-0.7-0.87C2.61,1.16,2.23,0.92,1.99,0.7L1.75,0.48
			C1.68,0.4,1.58,0.33,1.47,0.29c-0.28-0.07-0.59,0-0.81,0.19C0.61,0.53,0.58,0.57,0.55,0.63C0.34,1.13,0.2,1.67,0.13,2.21
			C0.08,2.62,0.08,3.04,0.11,3.46c0.02,0.45,0.03,0.88,0.03,1.3c0,0.34,0,0.65,0,0.93c0,0.14-0.01,0.28-0.01,0.41
			c0,0.11-0.01,0.22-0.02,0.33C0.09,6.8,0.07,7.13,0.04,7.51C0.03,7.66,0.03,7.83,0.02,8s-0.03,0.42-0.03,0.62
			c0,0.34,0.13,1.04,0.41,1.22c0.3,0.2,0.5,0.33,0.82,0.24c0.14-0.04,0.45-0.44,0.54-0.57C1.87,9.25,1.9,8.96,1.83,8.68
			C1.8,8.47,1.78,8.26,1.78,8.04c0-0.18,0-0.36,0-0.53C1.77,6.99,1.77,6.47,1.76,5.93c-0.01-0.44-0.02-0.9-0.01-1.32
			c0.01-0.35,0.11-0.5,0.1-0.84C1.84,3.68,1.87,3.59,1.92,3.51c0.05-0.08,0.13-0.13,0.23-0.14c0.13,0,0.2,0.1,0.26,0.18l0.21,0.24
			c0.17,0.2,0.32,0.41,0.46,0.63c0.14,0.23,0.25,0.41,0.37,0.59l0.17,0.26l0.2,0.28l1.52,2.11l0.35,0.49
			c0.4,0.48,0.85,0.92,1.34,1.3L7.31,9.7c0.1,0.1,0.24,0.16,0.39,0.17c0.33,0.04,0.64-0.12,0.8-0.41C8.56,9.27,8.63,9,8.7,8.71
			c0.13-0.47,0.2-0.96,0.21-1.45C8.9,6.64,8.88,6,8.91,5.36c0.01-0.29,0.02-0.58,0.02-0.85s0.01-0.53,0.01-0.79
			c0-0.38,0-0.76,0-1.13c0-0.17,0-0.33-0.01-0.5c0-0.21,0.04-0.48,0.03-0.69C9,1.09,8.94,0.77,8.78,0.49z"/>
	</g>
	<g>
		<path class="st3" d="M2278.1,400.02c-1.15,0.02-2.32,0.1-3.61,0.21c-0.64,0.09-1.27,0.22-1.89,0.4c0.41,0.24,0.84,0.47,1.29,0.74
			c0.68,0.31,1.43,0.46,2.17,0.45c0.25,0.02,0.53-0.04,0.73-0.03c0.48,0.04,0.95,0.05,1.43,0.04c0.59-0.12,1.15-0.35,1.65-0.68
			c0.43-0.26,0.83-0.57,1.2-0.91c0.02-0.02,0.05-0.05,0.07-0.07c-0.07-0.01-0.13-0.02-0.2-0.03
			C2279.99,400.04,2279.05,400,2278.1,400.02z"/>
		<path class="st3" d="M2307.88,485.16c-0.04-0.35,0.01-0.8-0.02-1.15l-0.08-0.83c-0.11-1.22-0.21-2.47-0.25-3.85
			c-0.04-1.56-0.36-2.93-0.54-4.4c-0.08-0.52-0.18-1.09-0.23-1.52c-0.12-1-0.03-2.02-0.1-3.03c-0.09-1.24-0.25-2.47-0.4-3.7
			c-0.13-1.03-0.25-2.01-0.38-3.01c-0.15-1.22-0.29-2.46-0.37-3.85c-0.09-1.57-0.45-2.92-0.67-4.38c-0.09-0.51-0.21-1.09-0.27-1.51
			c-0.15-0.99-0.08-2.03-0.19-3.03c-0.14-1.23-0.34-2.45-0.52-3.68c-0.15-1.02-0.33-2-0.49-2.99c-0.19-1.21-0.37-2.45-0.49-3.83
			c-0.16-1.56-0.58-2.89-0.85-4.35c-0.11-0.51-0.25-1.08-0.33-1.49c-0.2-0.98-0.18-2.01-0.34-3.01c-0.19-1.22-0.42-2.44-0.69-3.64
			c-0.22-1.01-0.43-1.97-0.64-2.96c-0.13-0.6-0.25-1.2-0.36-1.83c-0.12-0.63-0.25-1.27-0.36-1.95c-0.13-0.73-0.3-1.46-0.51-2.18
			c-0.2-0.69-0.4-1.37-0.6-2.07c-0.15-0.46-0.34-0.98-0.48-1.36c-0.31-0.9-0.45-1.87-0.79-2.78c-0.79-1.99-1.82-3.87-3.06-5.6
			c-0.16-0.23-0.34-0.45-0.51-0.68c-0.17-0.23-0.35-0.45-0.53-0.67c-0.38-0.46-0.78-0.9-1.2-1.31c-1-0.9-2.15-1.63-3.4-2.15
			c-0.43-0.2-0.94-0.37-1.3-0.52c-0.73-0.28-1.43-0.68-2.19-0.96c0.02,0.4-0.1,0.8-0.39,1.11c-0.18,0.17-0.37,0.33-0.57,0.48
			c-0.15,0.13-0.3,0.25-0.45,0.36c-0.77,0.5-1.58,0.96-2.41,1.36c-0.65,0.36-1.33,0.66-2.03,0.91c-0.72,0.24-1.48,0.34-2.24,0.28
			l-0.25-0.03c-0.16-0.02-0.32-0.04-0.47-0.06l-0.46-0.12c-0.31-0.07-0.59-0.18-0.89-0.26c-0.42-0.11-1.08-0.24-1.71-0.42
			c-0.56-0.15-1.1-0.35-1.63-0.6c-0.2-0.11-0.39-0.2-0.55-0.31s-0.31-0.22-0.44-0.32c-0.26-0.2-0.51-0.41-0.74-0.63
			c-0.08-0.07-0.18-0.13-0.28-0.18c-0.16-0.08-0.33-0.16-0.46-0.29c-0.68,0.28-1.36,0.59-2.01,0.93c-1.69,1.08-3.07,2.57-4.02,4.33
			l-0.19,0.35c-0.06,0.12-0.13,0.27-0.19,0.4l-0.4,0.82l-0.42,0.84l-0.43,0.89c-0.17,0.34-0.32,0.68-0.45,1.02
			c-0.13,0.34-0.24,0.69-0.34,1.03l-0.63,2.06c-0.14,0.49-0.28,1.05-0.41,1.45c-0.31,0.94-0.77,1.84-1.11,2.78
			c-0.39,1.16-0.7,2.36-1.03,3.54c-0.26,1-0.5,1.95-0.75,2.92c-0.29,1.19-0.63,2.39-1.03,3.71c-0.37,1.43-0.68,2.87-0.9,4.33
			c-0.09,0.51-0.18,1.09-0.26,1.5c-0.19,0.98-0.61,1.92-0.85,2.9c-0.29,1.2-0.51,2.42-0.75,3.63c-0.19,1.02-0.37,1.99-0.55,2.98
			c-0.23,1.21-0.47,2.43-0.82,3.77c-0.38,1.52-0.45,2.91-0.68,4.38c-0.06,0.52-0.13,1.1-0.19,1.52c-0.16,0.99-0.53,1.95-0.73,2.94
			c-0.25,1.21-0.42,2.44-0.61,3.67c-0.15,1.02-0.3,2-0.45,3c-0.19,1.21-0.39,2.45-0.69,3.8c-0.33,1.53-0.36,2.93-0.55,4.4
			c-0.05,0.52-0.09,1.1-0.15,1.53c-0.13,1-0.47,1.96-0.65,2.96c-0.21,1.22-0.36,2.45-0.51,3.68c-0.13,1.03-0.25,2.01-0.37,3.01
			c-0.04,0.29-0.08,0.58-0.11,0.88c-0.05,0.35-0.06,0.7-0.04,1.06c0.07,0.48-0.05,0.96-0.32,1.36c-0.34,0.34-0.74,0.61-1.18,0.8
			h65.8c0,0,0-0.01,0-0.03c-0.55,0-1.08-0.24-1.43-0.69C2308.02,486.22,2307.85,485.7,2307.88,485.16z"/>
		<path class="st3" d="M2243.36,487.37h0.4c-0.13-0.01-0.26-0.02-0.39-0.05C2243.36,487.35,2243.36,487.37,2243.36,487.37z"/>
		<path class="st1" d="M2311.26,484.84c-0.03-0.16-0.05-0.33-0.05-0.5c0-0.48,0.01-0.95,0-1.47s-0.03-1.08-0.1-1.75
			c-0.12-1.24-0.6-3.75-0.68-5c-0.06-0.86,0-1.74-0.05-2.6c0-0.12-0.01-0.23-0.01-0.35c-0.07-2.03-0.6-4.02-0.84-6.04
			c-0.2-1.63-0.16-2.62-0.21-3.88c-0.02-0.52-0.07-1.08-0.16-1.75c-0.17-1.23-0.7-3.73-0.83-4.97c-0.08-0.86-0.05-1.74-0.13-2.6
			c-0.01-0.12-0.01-0.23-0.02-0.35c-0.12-2.03-0.73-4.01-1.04-6.02c-0.24-1.62-0.24-2.62-0.35-3.88c-0.04-0.52-0.11-1.08-0.21-1.74
			c-0.19-1.23-0.85-3.71-1.02-4.94c-0.12-0.86-0.12-1.74-0.23-2.59c-0.01-0.12-0.02-0.23-0.03-0.35c-0.23-2.03-0.92-3.97-1.31-5.97
			c-0.35-1.61-0.39-2.61-0.56-3.86c-0.07-0.52-0.16-1.07-0.3-1.73c-0.27-1.22-1.1-3.66-1.34-4.89c-0.09-0.43-0.13-0.85-0.2-1.3
			c-0.07-0.45-0.15-0.9-0.27-1.35c-0.02-0.12-0.05-0.24-0.08-0.36c-0.63-2.03-1.5-3.99-2.6-5.81c-0.81-1.51-1.22-2.47-1.93-3.64
			c-0.15-0.25-0.32-0.5-0.49-0.74c-0.2-0.28-0.41-0.55-0.64-0.8c-0.63-0.69-1.32-1.32-2.07-1.88c-0.43-0.3-0.84-0.61-1.24-0.86
			l-1.04-0.67c-0.76-0.55-1.56-1.04-2.39-1.49l-0.33-0.17c-0.49-0.24-1-0.45-1.52-0.63c-0.53-0.15-1.05-0.31-1.59-0.41
			c-1.07-0.23-2.15-0.35-3.21-0.5c-1.72-0.21-2.75-0.4-4.09-0.5c-0.62-0.03-1.25-0.02-1.87,0.03c-0.4,0.03-0.8,0.09-1.2,0.16
			c-0.46,0.07-0.95,0.18-1.44,0.3c-0.99,0.23-1.95,0.53-2.59,0.69c-0.45,0.11-0.9,0.23-1.35,0.33c-0.45,0.12-0.9,0.25-1.34,0.41
			l-0.35,0.13c-1.04,0.4-2.02,0.94-2.91,1.62c-0.89,0.69-1.73,1.43-2.52,2.23l-0.86,0.89l-0.72,0.8c-0.23,0.25-0.42,0.52-0.64,0.78
			c-0.22,0.27-0.41,0.55-0.59,0.84c-0.34,0.53-0.63,1.08-0.87,1.65c-0.13,0.3-0.3,0.67-0.45,1.09l-0.46,1.34
			c-0.33,0.92-0.59,1.84-0.84,2.43c-0.34,0.81-0.75,1.6-1.06,2.42c-0.04,0.11-0.09,0.22-0.14,0.33c-0.66,1.95-1.19,3.93-1.6,5.95
			c-0.43,1.59-0.83,2.51-1.24,3.71c-0.16,0.49-0.32,1.04-0.48,1.69c-0.31,1.22-0.65,3.76-0.98,4.96c-0.22,0.84-0.55,1.65-0.77,2.49
			c-0.03,0.11-0.07,0.23-0.1,0.33c-0.57,1.96-0.69,4.02-1.07,6.02c-0.31,1.61-0.65,2.55-0.98,3.77c-0.14,0.5-0.26,1.05-0.38,1.71
			c-0.23,1.23-0.45,3.78-0.71,4.99c-0.18,0.85-0.47,1.67-0.66,2.52l-0.08,0.34c-0.49,1.98-0.52,4.04-0.83,6.04
			c-0.25,1.62-0.56,2.57-0.85,3.8c-0.12,0.5-0.23,1.06-0.33,1.72c-0.18,1.23-0.33,3.79-0.55,5.01c-0.15,0.85-0.42,1.69-0.58,2.53
			c-0.02,0.11-0.05,0.23-0.07,0.34c-0.43,1.99-0.4,4.05-0.66,6.06c-0.2,1.63-0.49,2.58-0.74,3.82c-0.05,0.25-0.1,0.52-0.15,0.8
			s-0.17,0.69-0.21,1.03c-0.07,0.56,0.03,1.76,0.54,2.13c0.27,0.28,0.61,0.46,0.98,0.54c0.13,0.03,0.26,0.05,0.39,0.05
			c0.07,0,0.13,0.01,0.2,0.01c0.01,0,0.01-0.01,0.02-0.01c0.44-0.19,0.84-0.46,1.18-0.8c0.27-0.4,0.39-0.88,0.32-1.36
			c-0.02-0.35,0-0.71,0.04-1.06c0.04-0.3,0.08-0.59,0.11-0.88c0.12-1,0.24-1.98,0.37-3.01c0.16-1.23,0.3-2.46,0.51-3.68
			c0.17-1,0.52-1.97,0.65-2.96c0.05-0.42,0.1-1.01,0.15-1.53c0.19-1.47,0.22-2.87,0.55-4.4c0.3-1.35,0.51-2.59,0.69-3.8
			c0.15-1,0.3-1.98,0.45-3c0.19-1.22,0.36-2.45,0.61-3.67c0.2-0.99,0.57-1.95,0.73-2.94c0.07-0.42,0.13-1,0.19-1.52
			c0.23-1.47,0.3-2.86,0.68-4.38c0.34-1.34,0.59-2.57,0.82-3.77c0.18-0.99,0.36-1.96,0.55-2.98c0.24-1.21,0.46-2.43,0.75-3.63
			c0.24-0.98,0.66-1.92,0.85-2.9c0.08-0.41,0.18-0.99,0.26-1.5c0.22-1.46,0.53-2.9,0.9-4.33c0.4-1.32,0.74-2.52,1.03-3.71
			c0.25-0.97,0.49-1.92,0.75-2.92c0.32-1.19,0.63-2.38,1.03-3.54c0.33-0.94,0.8-1.84,1.11-2.78c0.13-0.4,0.27-0.96,0.41-1.45
			l0.63-2.06c0.11-0.34,0.21-0.69,0.34-1.03c0.13-0.34,0.28-0.68,0.45-1.02l0.43-0.89l0.42-0.84l0.4-0.82
			c0.06-0.13,0.13-0.28,0.19-0.4l0.19-0.35c0.95-1.76,2.34-3.26,4.02-4.33c0.65-0.34,1.33-0.65,2.01-0.93
			c0.13,0.13,0.3,0.21,0.46,0.29c0.1,0.05,0.19,0.11,0.28,0.18c0.23,0.23,0.48,0.44,0.74,0.63c0.14,0.11,0.28,0.21,0.44,0.32
			s0.35,0.21,0.55,0.31c0.52,0.25,1.07,0.45,1.63,0.6c0.63,0.18,1.28,0.31,1.71,0.42c0.3,0.08,0.59,0.18,0.89,0.26l0.46,0.12
			c0.16,0.03,0.31,0.05,0.47,0.06l0.25,0.03c0.76,0.06,1.52-0.04,2.24-0.28c0.7-0.25,1.38-0.55,2.03-0.91
			c0.83-0.4,1.64-0.86,2.41-1.36c0.16-0.11,0.31-0.23,0.45-0.36c0.2-0.15,0.39-0.31,0.57-0.48c0.28-0.31,0.41-0.71,0.39-1.11
			c0.76,0.28,1.46,0.68,2.19,0.96c0.36,0.15,0.87,0.32,1.3,0.52c1.25,0.52,2.39,1.24,3.4,2.15c0.42,0.42,0.82,0.85,1.2,1.31
			c0.19,0.22,0.36,0.44,0.53,0.67c0.17,0.23,0.35,0.45,0.51,0.68c1.25,1.73,2.28,3.61,3.06,5.6c0.35,0.91,0.49,1.88,0.79,2.78
			c0.13,0.38,0.33,0.9,0.48,1.36c0.2,0.7,0.4,1.38,0.6,2.07c0.21,0.72,0.38,1.44,0.51,2.18c0.11,0.68,0.24,1.32,0.36,1.95
			c0.12,0.63,0.24,1.23,0.36,1.83c0.21,0.98,0.42,1.95,0.64,2.96c0.26,1.21,0.5,2.42,0.69,3.64c0.15,1,0.14,2.02,0.34,3.01
			c0.08,0.42,0.22,0.99,0.33,1.49c0.27,1.46,0.69,2.79,0.85,4.35c0.13,1.38,0.3,2.62,0.49,3.83c0.16,0.99,0.34,1.97,0.49,2.99
			c0.19,1.22,0.39,2.45,0.52,3.68c0.11,1,0.05,2.03,0.19,3.03c0.06,0.42,0.18,1,0.27,1.51c0.22,1.47,0.58,2.82,0.67,4.38
			c0.08,1.39,0.22,2.63,0.37,3.85c0.13,1,0.25,1.98,0.38,3.01c0.15,1.23,0.31,2.46,0.4,3.7c0.07,1.01-0.02,2.03,0.1,3.03
			c0.05,0.42,0.15,1,0.23,1.52c0.17,1.47,0.49,2.84,0.54,4.4c0.04,1.39,0.13,2.63,0.25,3.85l0.08,0.83c0.03,0.35-0.01,0.8,0.02,1.15
			c-0.02,0.53,0.14,1.06,0.46,1.48c0.35,0.45,0.89,0.69,1.43,0.69c0.2,0,0.4-0.03,0.6-0.1c0.33-0.16,0.6-0.42,0.78-0.74
			c0.07-0.11,0.13-0.23,0.18-0.36C2311.43,485.71,2311.4,485.26,2311.26,484.84z M2281.06,400.22c-0.37,0.34-0.77,0.65-1.2,0.91
			c-0.5,0.33-1.06,0.55-1.65,0.68c-0.48,0.02-0.95,0-1.43-0.04c-0.2-0.01-0.47,0.05-0.73,0.03c-0.75,0.02-1.49-0.14-2.17-0.45
			c-0.45-0.26-0.87-0.5-1.29-0.74c0.62-0.17,1.25-0.31,1.89-0.4c1.29-0.11,2.46-0.19,3.61-0.21c0.95-0.02,1.9,0.02,2.84,0.11
			c0.07,0.01,0.13,0.02,0.2,0.03C2281.11,400.18,2281.09,400.2,2281.06,400.22z"/>
	</g>
	<g>
		<path class="st0" d="M2333.42,443.28c0.05-0.08,0.1-0.17,0.15-0.26c0.38-0.66,0.66-1.36,0.85-2.1l0,0c0.12-0.74,0.12-1.5,0-2.24
			c-0.12-0.72-0.31-1.43-0.58-2.11c-0.21-0.53-0.39-0.97-0.58-1.36c-0.22-0.45-0.49-0.88-0.79-1.28c-0.43-0.53-0.91-1.02-1.42-1.46
			c-0.73-0.6-1.55-1.1-2.42-1.47c-0.86-0.39-1.79-0.71-2.72-1.12l-0.32-0.14c-0.8-0.33-1.61-0.73-2.46-1.03
			c-0.31-0.11-0.68-0.21-1.15-0.34s-0.97-0.29-1.47-0.44c-0.99-0.32-1.95-0.66-2.56-0.91c-0.66-0.28-1.19-0.53-1.67-0.78
			c-1.16-0.66-2.36-1.25-3.6-1.74c-0.92-0.34-1.87-0.58-2.83-0.71c-0.37-0.05-0.74-0.06-1.11-0.03c-0.06,0.01-0.1,0.03-0.15,0.03
			c-0.01,0.02-0.05,0.02-0.05,0.02s0-0.01,0.03-0.03c0.01-0.03,0.04-0.04,0.04-0.08c0.01-0.01,0.02-0.04-0.01-0.03
			c-0.33,0.48-0.51,1.05-0.52,1.63c0.03,0.24,0.11,0.47,0.24,0.67c0.16,0.25,0.36,0.48,0.6,0.67c0.55,0.43,1.15,0.79,1.79,1.07
			c0.54,0.26,1.02,0.48,1.48,0.68c0.27,0.13,0.49,0.21,0.89,0.4c0.18,0.09,0.35,0.19,0.52,0.27c0.14,0.07,0.29,0.11,0.44,0.15
			c0.38,0.03,0.75,0.15,1.07,0.36c0.09,0.08,0.17,0.16,0.25,0.25c0.23,0.25,0.41,0.55,0.51,0.88c0.13,0.36,0.1,0.75-0.06,1.09
			c-0.2,0.37-0.54,0.66-0.94,0.8c-0.62,0.19-1.29,0.15-1.88-0.12c-0.41-0.13-0.86-0.39-1.23-0.54l-0.02-0.01l-0.75-0.26
			c-1.49-0.49-2.86-1.28-4.03-2.33c-0.09-0.09-0.19-0.18-0.28-0.28c-0.62,0.15-1.27,0.17-1.9,0.06c-0.38-0.07-0.83-0.23-1.15-0.3
			s-0.62-0.15-0.9-0.23c-1.38-0.38-2.44-0.76-4.25-1.16c-2.29-0.37-4.56-0.88-6.79-1.53l-0.38-0.13c-0.47-0.16-0.94-0.34-1.4-0.54
			s-0.93-0.4-1.4-0.57c-1.15-0.43-2.39-0.55-3.6-0.35c-0.31,0.06-0.61,0.13-0.91,0.23c-0.4,0.12-0.78,0.3-1.13,0.53
			c-0.26,0.15-0.47,0.37-0.61,0.63c-0.07,0.18-0.12,0.37,0.22,0.72c0.11,0.1,0.24,0.18,0.38,0.25c0.22,0.11,0.42,0.21,0.67,0.31
			l0.74,0.29l0.77,0.28c1.04,0.36,2.1,0.72,3.13,1.17l0.35,0.15c0.88,0.36,1.75,0.8,2.65,1.13c1.3,0.48,4.08,1.08,5.41,1.42
			c0.72,0.2,1.31,0.37,1.85,0.55l1.53,0.51c0.18,0.06,0.36,0.09,0.54,0.11c0.47,0.01,0.93,0.13,1.35,0.36
			c0.11,0.08,0.22,0.17,0.32,0.27c0.29,0.25,0.49,0.58,0.59,0.95c0.1,0.81-0.4,1.57-1.19,1.79c-0.59,0.18-1.22,0.17-1.8-0.03
			c-0.41-0.08-0.88-0.29-1.28-0.38c-0.31-0.07-0.63-0.14-0.94-0.23c-1.44-0.36-2.85-0.79-4.25-1.29c-1.69-0.62-3.25-0.92-4.87-1.46
			c-0.57-0.16-1.22-0.36-1.69-0.52c-1.1-0.38-2.11-0.98-3.19-1.48c-0.33-0.15-0.66-0.3-1-0.46s-0.68-0.32-1.04-0.52
			c-0.1-0.05-0.24-0.13-0.37-0.21c-0.01,0.01-0.01,0.02-0.02,0.03c-0.02,0.05-0.04,0.11-0.06,0.16c-0.02,0.04-0.03,0.08-0.03,0.12
			c0,0.04-0.02,0.06-0.01,0.08c0.02,0.05,0,0.05,0.02,0.06c0.01,0-0.02-0.01-0.01-0.01s0-0.01-0.01-0.01
			c-0.03-0.01-0.02,0.02-0.05,0.02c0.01,0.03,0,0.06-0.01,0.08c0.01,0.04,0.01,0.09,0.02,0.13c0.08,0.34,0.24,0.67,0.45,0.95
			c0.35,0.43,0.77,0.8,1.25,1.09c0.83,0.48,1.69,0.89,2.58,1.25c0.89,0.39,1.8,0.76,2.66,1.22l0.3,0.16
			c0.75,0.37,1.46,0.82,2.23,1.15c1.52,0.55,3.07,1.01,4.64,1.38c0.62,0.18,1.13,0.34,1.59,0.51l1.32,0.45
			c0.15,0.04,0.31,0.07,0.47,0.09c0.41,0,0.81,0.1,1.17,0.3c0.1,0.08,0.19,0.16,0.28,0.25c0.26,0.25,0.43,0.58,0.51,0.93
			c0.1,0.78-0.33,1.53-1.05,1.83c-0.3,0.15-0.64,0.2-0.97,0.15c0.35,0.14,0.69,0.28,1.05,0.4c1.22,0.41,3.82,0.86,5.07,1.14
			c0.68,0.16,1.24,0.32,1.75,0.47c1.27,0.43,2.57,0.79,3.89,1.06c2.07,0.39,4.2,0.44,6.26,0.89l0.35,0.08
			c0.88,0.16,1.74,0.43,2.63,0.57c1.27,0.21,3.91,0.24,5.17,0.29c0.68,0.04,1.25,0.09,1.76,0.13c0.62,0.06,1.18,0.12,1.74,0.13
			c0.6,0.02,1.2-0.06,1.77-0.25c0.8-0.28,1.52-0.74,2.09-1.36C2332.49,444.68,2333,444.01,2333.42,443.28z"/>
		<path class="st1" d="M2337.65,437.97c-0.11-1.6-0.59-3.15-1.42-4.52c-0.33-0.54-0.71-1.05-1.14-1.52l-0.33-0.35l-0.3-0.29
			c-0.2-0.2-0.41-0.39-0.62-0.59c-1.06-0.99-2.22-1.85-3.48-2.56c-0.97-0.62-1.99-1.15-3.06-1.59c-0.44-0.15-1.06-0.33-1.6-0.47
			c-0.76-0.24-1.51-0.42-2.26-0.61c-0.39-0.1-0.7-0.18-1.06-0.31c-0.36-0.12-0.72-0.27-1.06-0.43c-1.28-0.6-2.46-1.14-3.66-1.65
			c-0.98-0.42-1.96-0.82-3-1.23c-1.3-0.52-2.63-0.96-3.99-1.31c-0.65-0.18-1.32-0.29-1.99-0.33l-0.29-0.01l-0.32,0.03
			c-0.23,0.02-0.46,0.06-0.68,0.13c-0.25,0.08-0.5,0.18-0.73,0.3c-0.25,0.15-0.49,0.33-0.69,0.54c-0.09,0.09-0.17,0.19-0.26,0.3
			c-0.08,0.11-0.15,0.23-0.22,0.34c-0.11,0.18-0.2,0.38-0.26,0.58c-0.14,0.35-0.24,0.7-0.32,1.07c-0.13,0.54-0.19,1.09-0.16,1.65
			c0.01,0.1,0.02,0.21,0.03,0.31c-0.13-0.02-0.25-0.04-0.38-0.06l-0.98-0.2l-3.34-0.69c-1.36-0.3-2.72-0.59-4.05-0.97
			c-1.09-0.31-2.12-0.79-3.19-1.08l-1.64-0.41l-1.16-0.33l-1.26-0.35c-0.95-0.24-1.93-0.39-2.91-0.47
			c-0.92-0.08-1.85-0.01-2.74,0.22c-0.92,0.23-1.78,0.66-2.51,1.27c-0.68,0.56-1.2,1.29-1.49,2.12c-0.16,0.47-0.23,0.96-0.21,1.46
			c0.01,0.23,0.05,0.46,0.1,0.69c-0.05,0.03-0.1,0.07-0.15,0.1c-0.37,0.26-0.67,0.6-0.89,0.99c-0.17,0.3-0.3,0.62-0.39,0.95
			c-0.09,0.32-0.14,0.64-0.16,0.97c-0.01,0.26,0,0.52,0.05,0.78c0.04,0.24,0.1,0.47,0.18,0.7c0.24,0.67,0.61,1.29,1.09,1.82
			c0.41,0.47,0.88,0.9,1.38,1.27c0.29,0.24,0.59,0.4,0.89,0.6c0.3,0.19,0.57,0.33,0.85,0.5l1.03,0.57
			c-0.02,0.11-0.03,0.21-0.04,0.28c0.06,0.67,0.39,1.29,0.92,1.71c0.35,0.32,0.68,0.6,1,0.9c0.27,0.24,0.54,0.48,0.82,0.69
			c0.93,0.7,1.92,1.31,2.95,1.84c1.23,0.65,2.48,1.18,3.71,1.72c1.01,0.44,1.96,1.01,3,1.35c0.44,0.14,1.05,0.3,1.59,0.45
			c1.53,0.46,3.01,0.7,4.6,1.22c1.41,0.46,2.71,0.79,3.99,1.08c1.05,0.23,2.09,0.44,3.17,0.65c1.3,0.25,2.6,0.47,3.89,0.74
			c1.05,0.22,2.08,0.59,3.15,0.74c0.45,0.06,1.08,0.11,1.63,0.16c1.57,0.19,3.07,0.19,4.73,0.45c1.38,0.22,2.78,0.34,4.18,0.37
			c0.56,0.01,1.11,0.01,1.7-0.02c0.29-0.02,0.59-0.03,0.91-0.08c0.32-0.03,0.64-0.09,0.95-0.16c1.55-0.33,3-1.02,4.23-2.03
			c0.51-0.4,0.99-0.83,1.44-1.29c0.44-0.47,0.82-0.99,1.12-1.56c0.28-0.57,0.51-1.17,0.68-1.79c0.26-0.86,0.42-1.74,0.45-2.64
			C2337.74,439.78,2337.73,438.87,2337.65,437.97z M2328.05,446.91c-0.56-0.01-1.12-0.08-1.74-0.13c-0.51-0.05-1.08-0.09-1.76-0.13
			c-1.26-0.06-3.9-0.08-5.17-0.29c-0.89-0.14-1.75-0.41-2.63-0.57l-0.35-0.08c-2.05-0.45-4.18-0.5-6.26-0.89
			c-1.32-0.27-2.61-0.63-3.89-1.06c-0.51-0.15-1.07-0.31-1.75-0.47c-1.25-0.28-3.86-0.73-5.07-1.14c-0.35-0.12-0.7-0.26-1.05-0.4
			c0.33,0.05,0.67-0.01,0.97-0.15c0.72-0.3,1.15-1.05,1.05-1.83c-0.08-0.35-0.26-0.67-0.51-0.93c-0.09-0.09-0.18-0.18-0.28-0.25
			c-0.36-0.2-0.76-0.31-1.17-0.3c-0.16-0.01-0.32-0.04-0.47-0.09l-1.32-0.45c-0.47-0.17-0.98-0.32-1.59-0.51
			c-1.57-0.37-3.12-0.83-4.64-1.38c-0.77-0.33-1.48-0.78-2.23-1.15l-0.3-0.16c-0.86-0.47-1.76-0.84-2.66-1.22
			c-0.89-0.35-1.75-0.77-2.58-1.25c-0.48-0.28-0.9-0.65-1.25-1.09c-0.21-0.28-0.37-0.6-0.45-0.95c0-0.04-0.01-0.09-0.02-0.13
			c0.01-0.03,0.01-0.06,0.01-0.08c0.03-0.01,0.01-0.03,0.05-0.02c0.01,0,0.01,0.01,0.01,0.01s0.02,0.01,0.01,0.01
			c-0.02-0.01,0-0.01-0.02-0.06c-0.01-0.02,0.01-0.05,0.01-0.08c0-0.04,0.01-0.09,0.03-0.12c0.02-0.05,0.04-0.1,0.06-0.16
			c0-0.01,0.01-0.02,0.02-0.03c0.14,0.08,0.27,0.16,0.37,0.21c0.36,0.21,0.7,0.36,1.04,0.52s0.67,0.31,1,0.46
			c1.08,0.5,2.09,1.1,3.19,1.48c0.46,0.16,1.11,0.35,1.69,0.52c1.62,0.54,3.19,0.84,4.87,1.46c1.39,0.5,2.81,0.93,4.25,1.29
			c0.31,0.08,0.62,0.15,0.94,0.23c0.4,0.09,0.87,0.3,1.28,0.38c0.58,0.2,1.21,0.21,1.8,0.03c0.78-0.22,1.29-0.98,1.19-1.79
			c-0.1-0.37-0.3-0.7-0.59-0.95c-0.1-0.1-0.21-0.19-0.32-0.27c-0.41-0.23-0.87-0.35-1.35-0.36c-0.18-0.02-0.36-0.06-0.54-0.11
			l-1.53-0.51c-0.54-0.18-1.14-0.35-1.85-0.55c-1.33-0.35-4.11-0.94-5.41-1.42c-0.9-0.33-1.77-0.77-2.65-1.13l-0.35-0.15
			c-1.03-0.45-2.09-0.81-3.13-1.17l-0.77-0.28l-0.74-0.29c-0.25-0.1-0.44-0.2-0.67-0.31c-0.14-0.07-0.26-0.15-0.38-0.25
			c-0.34-0.35-0.29-0.53-0.22-0.72c0.14-0.26,0.36-0.48,0.61-0.63c0.35-0.23,0.73-0.4,1.13-0.53c0.3-0.09,0.6-0.17,0.91-0.23
			c1.21-0.2,2.45-0.08,3.6,0.35c0.47,0.17,0.94,0.38,1.4,0.57s0.93,0.38,1.4,0.54l0.38,0.13c2.23,0.65,4.5,1.16,6.79,1.53
			c1.82,0.4,2.88,0.79,4.25,1.16c0.28,0.08,0.58,0.16,0.9,0.23s0.77,0.23,1.15,0.3c0.63,0.11,1.28,0.09,1.9-0.06
			c0.09,0.1,0.19,0.19,0.28,0.28c1.17,1.05,2.54,1.84,4.03,2.33l0.75,0.26l0.02,0.01c0.36,0.15,0.82,0.42,1.23,0.54
			c0.59,0.27,1.26,0.31,1.88,0.12c0.4-0.14,0.74-0.43,0.94-0.8c0.17-0.34,0.19-0.73,0.06-1.09c-0.1-0.33-0.28-0.63-0.51-0.88
			c-0.08-0.09-0.16-0.17-0.25-0.25c-0.32-0.21-0.69-0.33-1.07-0.36c-0.15-0.03-0.3-0.08-0.44-0.15c-0.17-0.08-0.34-0.17-0.52-0.27
			c-0.4-0.19-0.61-0.28-0.89-0.4c-0.46-0.21-0.93-0.42-1.48-0.68c-0.64-0.28-1.24-0.64-1.79-1.07c-0.24-0.19-0.44-0.41-0.6-0.67
			c-0.13-0.21-0.21-0.44-0.24-0.67c0.01-0.58,0.19-1.15,0.52-1.63c0.02-0.01,0.01,0.02,0.01,0.03c0,0.04-0.04,0.05-0.04,0.08
			c-0.03,0.02-0.03,0.03-0.03,0.03s0.04,0,0.05-0.02c0.05,0,0.09-0.02,0.15-0.03c0.37-0.03,0.74-0.02,1.11,0.03
			c0.97,0.13,1.92,0.37,2.83,0.71c1.24,0.5,2.44,1.08,3.6,1.74c0.48,0.25,1.01,0.51,1.67,0.78c0.61,0.26,1.57,0.59,2.56,0.91
			c0.5,0.16,1,0.31,1.47,0.44s0.84,0.23,1.15,0.34c0.85,0.3,1.65,0.7,2.46,1.03l0.32,0.14c0.93,0.41,1.86,0.74,2.72,1.12
			c0.87,0.37,1.69,0.87,2.42,1.47c0.52,0.44,0.99,0.93,1.42,1.46c0.31,0.4,0.57,0.83,0.79,1.28c0.19,0.39,0.38,0.82,0.58,1.36
			c0.27,0.68,0.46,1.39,0.58,2.11c0.12,0.74,0.12,1.5,0,2.24l0,0c-0.18,0.74-0.47,1.44-0.85,2.1c-0.05,0.09-0.1,0.17-0.15,0.26
			c-0.42,0.73-0.92,1.4-1.49,2.02c-0.58,0.62-1.3,1.09-2.09,1.36C2329.26,446.85,2328.66,446.93,2328.05,446.91z"/>
	</g>
</g>
</svg>
