<?xml version="1.0" encoding="utf-8"?>
<!-- Generator: Adobe Illustrator 24.1.2, SVG Export Plug-In . SVG Version: 6.00 Build 0)  -->
<!DOCTYPE svg PUBLIC "-//W3C//DTD SVG 1.1//EN" "http://www.w3.org/Graphics/SVG/1.1/DTD/svg11.dtd" [
	<!ENTITY ns_extend "http://ns.adobe.com/Extensibility/1.0/">
	<!ENTITY ns_ai "http://ns.adobe.com/AdobeIllustrator/10.0/">
	<!ENTITY ns_graphs "http://ns.adobe.com/Graphs/1.0/">
	<!ENTITY ns_vars "http://ns.adobe.com/Variables/1.0/">
	<!ENTITY ns_imrep "http://ns.adobe.com/ImageReplacement/1.0/">
	<!ENTITY ns_sfw "http://ns.adobe.com/SaveForWeb/1.0/">
	<!ENTITY ns_custom "http://ns.adobe.com/GenericCustomNamespace/1.0/">
	<!ENTITY ns_adobe_xpath "http://ns.adobe.com/XPath/1.0/">
]>
<svg version="1.1" id="레이어_1" xmlns:x="&ns_extend;" xmlns:i="&ns_ai;" xmlns:graph="&ns_graphs;"
	 xmlns="http://www.w3.org/2000/svg" xmlns:xlink="http://www.w3.org/1999/xlink" x="0px" y="0px" viewBox="0 0 61.64 119.54"
	 style="enable-background:new 0 0 61.64 119.54;" xml:space="preserve">
<style type="text/css">
	.st0{fill:#FF7A00;}
	.st1{fill:#202020;}
	.st2{fill:#FFFFFF;}
	.st3{fill:#040000;}
</style>
<metadata>
	<sfw  xmlns="&ns_sfw;">
		<slices></slices>
		<sliceSourceBounds  bottomLeftOrigin="true" height="119.54" width="61.64" x="652.18" y="-444.22"></sliceSourceBounds>
	</sfw>
</metadata>
<g id="그룹_23072" transform="translate(1381.526 -639.905)">
	<path id="패스_18660" class="st0" d="M-1321.35,759.44c0,0-3.56-33.6-13.67-56.59c-5.16-11.74-23.54-13.42-32.25-3.75
		c-3.32,3.69-5.82,10.48-6.77,15.04c-7,33.4-5.85,45.29-5.85,45.29"/>
	<path id="패스_18661" class="st1" d="M-1320.01,757.19c-0.09-0.29-0.16-0.59-0.2-0.89c-0.03-0.25-0.07-0.51-0.1-0.76
		c-0.13-0.86-0.25-1.7-0.4-2.58c-0.17-1.05-0.34-2.11-0.49-3.16c-0.11-0.86-0.07-1.75-0.23-2.6c-0.07-0.36-0.19-0.85-0.29-1.29
		c-0.24-1.26-0.6-2.4-0.77-3.74c-0.15-1.19-0.32-2.25-0.54-3.28l-0.55-2.55c-0.22-1.04-0.48-2.08-0.67-3.13
		c-0.16-0.86-0.18-1.75-0.38-2.59c-0.09-0.36-0.25-0.84-0.38-1.27c-0.33-1.24-0.76-2.36-1-3.69c-0.23-1.17-0.5-2.22-0.78-3.24
		c-0.23-0.84-0.47-1.66-0.74-2.51c-0.31-1.02-0.64-2.04-0.91-3.08c-0.21-0.85-0.34-1.73-0.61-2.55c-0.12-0.35-0.31-0.82-0.48-1.24
		c-0.21-0.61-0.44-1.18-0.68-1.77c-0.26-0.59-0.49-1.2-0.68-1.82c-0.31-1.07-0.68-2.13-1.1-3.17l-1.04-2.42l-0.64-1.49
		c-0.11-0.25-0.25-0.52-0.38-0.78s-0.25-0.53-0.4-0.78c-0.23-0.41-0.42-0.86-0.67-1.27c-0.12-0.21-0.24-0.42-0.36-0.62
		c-0.13-0.2-0.28-0.39-0.44-0.57c-0.13-0.15-0.29-0.33-0.46-0.51l-0.55-0.52c-1.03-0.92-2.12-1.77-3.27-2.53
		c-0.97-0.69-2.02-1.27-3.13-1.71c-0.43-0.18-0.87-0.32-1.3-0.48c-0.44-0.14-0.89-0.26-1.35-0.39c-1.1-0.27-2.21-0.48-3.33-0.64
		c-0.91-0.19-1.83-0.31-2.75-0.36c-0.39,0-0.93,0.07-1.4,0.1c-1.36,0.11-2.59,0.44-4,0.67c-1.17,0.2-2.31,0.53-3.4,0.97
		c-0.43,0.18-0.84,0.38-1.26,0.57c-0.41,0.22-0.82,0.43-1.24,0.67c-0.49,0.3-0.98,0.58-1.45,0.93c-0.23,0.17-0.47,0.32-0.7,0.49
		l-0.68,0.52c-0.78,0.53-1.51,1.13-2.18,1.8c-0.31,0.37-0.6,0.75-0.87,1.15c-0.82,1.12-1.34,2.27-2.08,3.46
		c-0.6,0.98-1.12,2.01-1.55,3.07c-0.34,0.83-0.65,1.65-0.94,2.52c-0.36,1.03-0.66,2.09-0.99,3.13c-0.32,0.84-0.6,1.7-0.83,2.58
		c-0.06,0.36-0.13,0.86-0.19,1.3c-0.23,1.26-0.29,2.46-0.64,3.76c-0.31,1.15-0.51,2.21-0.7,3.25c-0.15,0.85-0.29,1.7-0.44,2.57
		c-0.19,1.05-0.33,2.11-0.54,3.15c-0.17,0.85-0.49,1.68-0.62,2.53c-0.05,0.36-0.09,0.87-0.14,1.31c-0.17,1.27-0.2,2.47-0.48,3.79
		c-0.24,1.17-0.4,2.24-0.54,3.28c-0.11,0.86-0.19,1.71-0.29,2.6l-0.18,1.59c-0.05,0.53-0.11,1.06-0.18,1.59
		c-0.12,0.87-0.4,1.71-0.45,2.58c-0.02,0.37-0.03,0.88-0.05,1.32c-0.05,0.64-0.04,1.26-0.05,1.9s-0.04,1.27-0.11,1.95
		c-0.13,1.11-0.2,2.23-0.21,3.36v0.73c0,0.31-0.08,0.7-0.06,1.01c-0.06,0.47,0.06,0.95,0.33,1.34c0.41,0.56,1.14,0.78,1.79,0.54
		c0.28-0.13,0.53-0.33,0.7-0.59c0.06-0.09,0.12-0.19,0.17-0.29c0.11-0.34,0.13-0.7,0.04-1.05c-0.02-0.14-0.02-0.28-0.01-0.42
		c0.04-0.4,0.08-0.79,0.12-1.21s0.08-0.9,0.09-1.46c0.01-0.52,0-1.32-0.01-2.12s0.01-1.6,0.06-2.12c0.07-0.73,0.27-1.45,0.36-2.17
		l0.05-0.29c0.12-0.85,0.19-1.71,0.22-2.57c0.03-0.86,0.04-1.73,0.14-2.58c0.14-1.09,0.34-2.17,0.6-3.24
		c0.09-0.43,0.18-0.9,0.25-1.46c0.07-0.52,0.12-1.33,0.18-2.13s0.15-1.6,0.25-2.12c0.14-0.72,0.37-1.43,0.51-2.15l0.07-0.29
		c0.41-1.68,0.42-3.43,0.69-5.13c0.21-1.08,0.47-2.15,0.79-3.21c0.11-0.43,0.22-0.89,0.31-1.45c0.17-1.04,0.4-3.2,0.63-4.24
		c0.17-0.72,0.43-1.41,0.6-2.13c0.03-0.09,0.05-0.19,0.08-0.28c0.45-1.59,0.63-3.27,1.15-4.88c0.35-1.01,0.79-1.99,1.32-2.92
		c0.2-0.38,0.39-0.79,0.63-1.29c0.21-0.46,0.5-1.18,0.82-1.88c0.16-0.35,0.33-0.7,0.5-1c0.14-0.27,0.3-0.53,0.48-0.78
		c0.1-0.14,0.21-0.28,0.31-0.41l0.35-0.38c0.23-0.26,0.47-0.48,0.69-0.73c0.06-0.06,0.13-0.13,0.19-0.19
		c1.07-1.17,2.26-2.23,3.54-3.17c0.88-0.53,1.83-0.93,2.82-1.2c0.4-0.1,0.8-0.27,1.31-0.42c0.46-0.16,1.17-0.41,1.9-0.63
		c0.36-0.09,0.73-0.2,1.07-0.27s0.65-0.11,0.9-0.14c0.69-0.05,1.39,0.03,2.07,0.05l0.27,0.01c1.62,0.01,3.23,0.13,4.83,0.37
		c1,0.24,1.96,0.62,2.86,1.12c0.36,0.19,0.76,0.37,1.22,0.61c0.44,0.21,1.11,0.52,1.75,0.89c0.58,0.31,1.12,0.69,1.61,1.12
		c0.24,0.23,0.47,0.48,0.68,0.75c0.2,0.27,0.41,0.53,0.61,0.79l0.15,0.22c0.11,0.16,0.23,0.31,0.35,0.47l0.34,0.47
		c0.11,0.16,0.24,0.31,0.35,0.46l0.33,0.48c0.23,0.32,0.44,0.65,0.63,0.99l0.15,0.25l0.14,0.29c0.09,0.19,0.18,0.39,0.26,0.58
		c0.41,1.01,0.77,2.04,1.07,3.09c0.15,0.41,0.28,0.86,0.49,1.39c0.36,0.98,1.33,2.91,1.63,3.92c0.2,0.7,0.31,1.44,0.51,2.14
		l0.07,0.29c0.23,0.83,0.5,1.64,0.82,2.44c0.3,0.81,0.61,1.61,0.87,2.43c0.2,0.66,0.33,1.2,0.44,1.71s0.17,0.98,0.26,1.5
		c0.08,0.43,0.18,0.9,0.34,1.44c0.14,0.51,0.41,1.27,0.66,2.03s0.47,1.54,0.58,2.05c0.15,0.72,0.2,1.46,0.34,2.18
		c0.02,0.1,0.03,0.2,0.05,0.29c0.25,1.71,0.91,3.32,1.29,5.01c0.21,1.08,0.36,2.17,0.46,3.26c0.06,0.44,0.13,0.91,0.24,1.47
		c0.2,1.04,0.83,3.12,0.97,4.16c0.1,0.73,0.1,1.47,0.2,2.2c0.01,0.1,0.02,0.2,0.03,0.29c0.16,1.72,0.72,3.38,0.99,5.08
		c0.16,1.09,0.25,2.19,0.27,3.28c0.02,0.22,0.04,0.45,0.06,0.69s0.01,0.6,0.05,0.88c0.07,0.47,0.4,1.43,0.92,1.63
		c0.45,0.26,0.99,0.33,1.49,0.18c0.35-0.25,0.64-0.56,0.86-0.93C-1319.84,758.01-1319.85,757.57-1320.01,757.19z"/>
	<g id="그룹_23068" transform="translate(-2257.421 2093.858)">
		<path id="패스_18662" class="st2" d="M909.88-1368.47c0,0-10.23-8.28-18.24-3.82s-6.35,15.63,2.58,22.73s11.52,3.25,11.52,3.25
			l12.1-14.48L909.88-1368.47z"/>
		<path id="패스_18663" class="st1" d="M919.17-1360.85v-0.02v-0.02v-0.04l-0.01-0.07l-0.01-0.07l-0.02-0.06l-0.02-0.06
			l-0.02-0.06l-0.03-0.06l0,0l-0.01-0.02c-0.02-0.03-0.03-0.06-0.05-0.09l-0.05-0.08l-0.05-0.08l-0.05-0.07l-0.04-0.06l-0.07-0.09
			l-0.55-0.58l-0.54-0.55l-0.53-0.52l-0.53-0.5l-1.89-1.77c-0.77-0.72-1.55-1.44-2.29-2.19c-0.3-0.31-0.58-0.64-0.86-0.97
			c-0.14-0.17-0.28-0.33-0.43-0.49c-0.09-0.11-0.19-0.21-0.3-0.3l-0.18-0.15l-0.14-0.11c-0.32-0.23-0.77-0.51-1.17-0.75
			c-1.12-0.72-2.26-1.21-3.47-1.9c-1.01-0.58-2.07-1.05-3.17-1.42c-0.88-0.29-1.78-0.52-2.69-0.69c-1.14-0.21-2.29-0.31-3.45-0.3
			c-0.97-0.06-1.95,0.02-2.9,0.23c-0.48,0.14-0.94,0.32-1.39,0.53c-1.29,0.61-2.48,1.4-3.55,2.35c-0.97,0.81-1.77,1.8-2.35,2.93
			c-0.45,0.88-0.78,1.82-0.97,2.78c-0.23,1.16-0.31,2.35-0.24,3.53c-0.01,0.95,0.09,1.9,0.3,2.83c0.06,0.19,0.13,0.42,0.21,0.65
			l0.27,0.7c0.53,1.25,1.15,2.46,1.84,3.63c0.56,1.03,1.23,1.99,2,2.88c0.6,0.69,1.24,1.35,1.91,1.96c0.82,0.75,1.71,1.45,2.57,2.11
			c0.67,0.61,1.38,1.17,2.12,1.68c0.33,0.2,0.82,0.43,1.24,0.64c1.26,0.61,2.58,1.09,3.94,1.42c0.34,0.07,0.68,0.14,1.02,0.18
			l0.52,0.03c0.17,0.01,0.35,0.01,0.52-0.01l0.53-0.06c0.18-0.03,0.37-0.08,0.55-0.13c0.18-0.05,0.36-0.11,0.53-0.19
			c0.17-0.07,0.34-0.15,0.5-0.25c0.13-0.07,0.26-0.16,0.38-0.25c0.12-0.09,0.24-0.19,0.35-0.29c0.11-0.1,0.21-0.21,0.31-0.33
			l0.14-0.18l0.06-0.09l0.05-0.06l0.82-1.01c0.67-0.82,1.32-1.65,2.02-2.44c0.57-0.65,1.25-1.2,1.78-1.87
			c0.23-0.28,0.52-0.69,0.78-1.04c0.79-0.99,1.42-1.99,2.34-2.97c0.81-0.86,1.5-1.67,2.16-2.48l1.49-1.85l0.15-0.19l0.15-0.2
			l0.07-0.1l0.07-0.1l0.06-0.1l0.06-0.1l0.05-0.1l0.04-0.1l0.04-0.1c0.01-0.03,0.02-0.06,0.03-0.09l0.01-0.05l0.01-0.04l0.01-0.04
			v-0.04v-0.08L919.17-1360.85z M913.75-1358.25c-0.67,0.82-1.89,2.62-2.59,3.41c-0.49,0.55-1.05,1.04-1.54,1.59l-0.2,0.21
			c-1.19,1.26-2.09,2.75-3.17,4.09c-0.44,0.54-0.82,0.95-1.18,1.33c-0.08,0.08-0.2,0.2-0.25,0.26s-0.11,0.1-0.16,0.15
			c-0.12,0.09-0.24,0.16-0.38,0.22c-0.12,0.05-0.24,0.09-0.36,0.12c-0.15,0.04-0.3,0.06-0.46,0.08c-0.23,0.03-0.46,0.05-0.69,0.05
			c-0.14,0-0.3-0.02-0.45-0.03l-0.24-0.01l-0.25-0.05l-0.5-0.09c-0.17-0.03-0.33-0.1-0.49-0.14c-0.28-0.08-0.55-0.18-0.81-0.31
			c-0.3-0.16-0.59-0.33-0.88-0.51c-0.28-0.2-0.56-0.4-0.85-0.58l-0.23-0.15c-0.65-0.5-1.36-0.89-2.05-1.36
			c-0.34-0.23-0.7-0.45-1.04-0.68c-0.34-0.23-0.66-0.48-0.97-0.75c-0.78-0.69-1.46-1.47-2.04-2.34c-0.25-0.32-0.5-0.69-0.83-1.11
			c-0.29-0.39-0.77-0.97-1.19-1.59c-0.38-0.54-0.71-1.12-0.98-1.72c-0.12-0.32-0.23-0.64-0.31-0.97l-0.23-0.98
			c-0.02-0.09-0.03-0.18-0.05-0.26c-0.41-1.48-0.58-3.01-0.51-4.55c0.14-0.94,0.49-1.84,1.03-2.63c0.09-0.16,0.2-0.32,0.32-0.49
			s0.24-0.35,0.38-0.54c0.34-0.5,0.73-0.97,1.16-1.4c0.44-0.45,0.94-0.83,1.49-1.14c0.58-0.26,1.19-0.46,1.81-0.59l0.25-0.06
			c0.73-0.14,1.45-0.28,2.21-0.37c0.77-0.1,1.56-0.1,2.33,0c1.01,0.16,1.99,0.47,2.91,0.91c0.38,0.16,0.79,0.33,1.28,0.53
			c0.46,0.19,1.18,0.44,1.88,0.75c0.63,0.26,1.23,0.57,1.82,0.93c0.59,0.38,1.11,0.87,1.66,1.29l0.21,0.18l0.22,0.18
			c0.05,0.04,0.09,0.08,0.13,0.12c0.14,0.14,0.31,0.3,0.46,0.44c0.32,0.29,0.64,0.57,0.98,0.85c0.66,0.56,1.33,1.1,1.96,1.69
			c1.01,0.95,1.53,1.62,2.25,2.41l0.21,0.23l0.23,0.24l0.25,0.25l0.26,0.25l0,0l0.01,0.01l0.12,0.11l0.01,0.01l0.01,0.02l0.01,0.02
			l0.01,0.02l0.01,0.02v0l0,0l0,0l0,0l0,0l0,0l0,0.01l0.01,0.02l0.01,0.02l0.01,0.02v0.02v0.04v0.02v0.02v0.02l-0.01,0.04
			l-0.02,0.04l-0.02,0.04l-0.02,0.04l-0.03,0.03l-0.03,0.03l-0.44,0.44l-0.45,0.45C914.43-1359.05,914.11-1358.7,913.75-1358.25
			L913.75-1358.25z"/>
	</g>
	<g id="그룹_23069" transform="translate(-2258.784 2014.857)">
		<path id="패스_18664" class="st3" d="M925.93-1359.65c0.37,7.19-9.33,10.82-21.49,10.3c-10.63-0.45-17.52-4.55-17.7-10.93
			c-0.2-7.08,10.01-14.2,20.57-12.97S925.41-1369.81,925.93-1359.65z"/>
		<path id="패스_18665" class="st1" d="M927.39-1361.36c-0.13-0.79-0.33-1.57-0.6-2.32c-0.28-0.76-0.59-1.51-0.95-2.24
			c-0.33-0.79-0.74-1.54-1.22-2.25l-0.2-0.28c-0.62-0.8-1.38-1.47-2.23-2c-0.83-0.5-1.69-0.95-2.58-1.34
			c-1.4-0.61-2.21-1.02-3.29-1.42c-0.5-0.18-1.01-0.33-1.52-0.44c-1.1-0.26-3.36-0.44-4.44-0.62c-0.75-0.13-1.49-0.35-2.23-0.47
			l-0.3-0.06c-0.46-0.08-0.92-0.13-1.39-0.16c-0.47,0-0.95-0.02-1.42,0.02c-0.94,0.04-1.87,0.2-2.79,0.31
			c-1.49,0.21-2.4,0.28-3.54,0.5c-0.53,0.11-1.05,0.25-1.56,0.44c-0.73,0.28-1.43,0.61-2.11,0.98c-0.77,0.41-1.51,0.88-2.01,1.15
			c-0.72,0.36-1.41,0.77-2.09,1.21l-0.27,0.18c-1.54,1.18-2.81,2.69-3.72,4.41c-0.21,0.34-0.37,0.66-0.53,0.95
			c-0.15,0.3-0.3,0.57-0.42,0.85c-0.27,0.55-0.48,1.12-0.63,1.71c-0.03,0.13-0.06,0.26-0.1,0.4s-0.04,0.28-0.06,0.43
			c-0.04,0.32-0.06,0.65-0.05,0.98c0.04,0.86,0.2,1.71,0.48,2.53c0.28,0.8,0.64,1.57,1.07,2.31c0.2,0.39,0.42,0.76,0.66,1.12
			c0.11,0.19,0.23,0.37,0.36,0.54c0.14,0.17,0.27,0.33,0.42,0.49l0.23,0.27c0.16,0.19,0.34,0.37,0.54,0.52
			c0.19,0.16,0.38,0.32,0.57,0.47c0.4,0.28,0.82,0.55,1.24,0.79c0.42,0.24,0.87,0.42,1.3,0.63s0.88,0.35,1.31,0.55
			c0.35,0.16,0.66,0.27,0.96,0.39s0.56,0.23,0.82,0.35c0.52,0.21,1,0.39,1.54,0.59c0.51,0.16,1.02,0.3,1.54,0.4
			c0.55,0.13,1.41,0.18,2.26,0.27c0.85,0.04,1.7,0.1,2.25,0.15c0.77,0.06,1.53,0.26,2.3,0.3l0.31,0.03
			c1.81,0.06,3.62-0.06,5.41-0.35c1.45-0.15,2.34-0.13,3.48-0.25c0.53-0.06,1.05-0.15,1.56-0.27c0.74-0.19,1.47-0.42,2.19-0.7
			c0.81-0.31,1.61-0.65,2.15-0.87c0.77-0.26,1.53-0.57,2.26-0.94l0.3-0.16c1.78-1.04,3.18-2.64,3.97-4.55
			c0.29-0.66,0.52-1.35,0.68-2.06c0.14-0.61,0.22-1.23,0.23-1.86C927.5-1360.28,927.47-1360.82,927.39-1361.36z M924.2-1357.52
			c-0.26,0.83-0.72,1.58-1.34,2.19c-0.58,0.48-1.2,0.91-1.85,1.28c-0.27,0.18-0.64,0.44-0.99,0.65c-1.02,0.62-2.12,1.09-3.27,1.4
			c-1.11,0.25-2.11,0.46-3.11,0.64c-0.82,0.14-1.64,0.29-2.5,0.38c-1.03,0.13-2.07,0.2-3.11,0.21c-0.85,0-1.7-0.18-2.54-0.18
			c-0.36-0.01-0.85,0.03-1.29,0.02c-0.62-0.03-1.22,0-1.83-0.03c-0.62-0.02-1.25-0.09-1.86-0.21c-0.56-0.14-1.1-0.22-1.61-0.35
			s-1.01-0.22-1.5-0.35l-1.19-0.32c-0.39-0.12-0.77-0.26-1.17-0.39c-0.48-0.16-0.92-0.38-1.38-0.57c-0.44-0.21-0.87-0.46-1.28-0.71
			c-0.32-0.23-0.62-0.49-0.9-0.75c-0.26-0.28-0.53-0.54-0.81-0.79c-0.11-0.11-0.24-0.24-0.39-0.37c-0.15-0.12-0.29-0.26-0.42-0.41
			c-0.16-0.21-0.34-0.41-0.51-0.61l-0.43-0.65c-0.07-0.11-0.14-0.22-0.18-0.35c-0.05-0.12-0.1-0.24-0.16-0.36
			c-0.11-0.25-0.18-0.52-0.21-0.79l-0.06-0.36c-0.02-0.12-0.01-0.24-0.02-0.36c-0.01-0.24-0.03-0.47-0.04-0.7
			c0-0.43,0.04-0.87,0.12-1.29c0.13-0.72,0.37-1.43,0.7-2.08c0.42-0.85,0.97-1.64,1.63-2.33c0.59-0.53,1.21-1.03,1.85-1.49
			c0.26-0.21,0.6-0.53,0.93-0.78c0.93-0.75,1.95-1.37,3.05-1.84c1.05-0.39,2.01-0.71,2.97-0.98c0.79-0.23,1.58-0.41,2.39-0.55
			c0.99-0.18,1.99-0.26,2.99-0.24c0.41,0.02,0.81,0.07,1.22,0.14c0.41,0.07,0.78,0.15,1.21,0.18c0.36,0.04,0.86,0.06,1.31,0.09
			c1.25,0.06,2.5,0.22,3.73,0.47c1.13,0.29,2.14,0.54,3.11,0.81c0.79,0.21,1.57,0.47,2.33,0.77c0.91,0.34,1.77,0.81,2.55,1.38
			c0.57,0.5,1.09,1.05,1.55,1.64c0.1,0.12,0.23,0.25,0.36,0.39s0.25,0.31,0.38,0.45c0.69,0.89,1.17,1.92,1.43,3.01
			c0.18,1,0.3,2.01,0.37,3.03C924.48-1358.88,924.4-1358.18,924.2-1357.52L924.2-1357.52z"/>
	</g>
	<g id="그룹_23070" transform="translate(-2257.227 2026.533)">
		<path id="패스_18666" class="st2" d="M919.96-1351.1c-0.33,1.02-0.76,2.01-1.28,2.95c-3.98,7.2-12.52,10.55-20.33,7.99
			c-5.28-1.73-9.39-5.91-11.03-11.22c-1.05-3.39-1.02-7.03,0.09-10.4c2.95-8.99,12.63-13.88,21.61-10.94
			C918.01-1369.77,922.91-1360.09,919.96-1351.1C919.96-1351.11,919.96-1351.1,919.96-1351.1z"/>
		<path id="패스_18667" class="st1" d="M922.18-1357.25c0-0.21,0-0.43,0.01-0.64s-0.02-0.43-0.02-0.64
			c-0.02-0.43-0.04-0.86-0.09-1.28c-0.02-0.11-0.04-0.23-0.06-0.34c-0.39-1.98-1.18-3.87-2.32-5.54c-0.39-0.71-0.76-1.23-1.07-1.75
			l-0.23-0.38c-0.08-0.12-0.17-0.24-0.25-0.36l-0.54-0.72c-0.36-0.46-0.76-0.89-1.19-1.27l-0.39-0.35
			c-0.15-0.12-0.32-0.24-0.49-0.36c-0.35-0.25-0.73-0.52-1.13-0.78c-0.82-0.46-1.62-0.94-2.18-1.2c-0.38-0.2-0.74-0.44-1.11-0.64
			s-0.77-0.38-1.17-0.54l-0.31-0.14c-1.92-0.63-3.94-0.89-5.96-0.77c-0.8,0.05-1.45,0-2.05,0.06l-0.88,0.05
			c-0.15,0.01-0.29,0.01-0.44,0.03l-0.45,0.07c-0.25,0.04-0.52,0.09-0.8,0.15l-0.44,0.1c-0.15,0.04-0.3,0.1-0.46,0.15
			c-0.29,0.1-0.66,0.24-1.06,0.4s-0.81,0.4-1.23,0.61c-0.21,0.11-0.42,0.21-0.62,0.33l-0.56,0.35c-0.36,0.23-0.7,0.42-0.96,0.57
			c-0.75,0.42-1.46,0.89-2.15,1.4l-0.28,0.21c-1.52,1.34-2.76,2.96-3.66,4.77c-0.36,0.72-0.69,1.28-0.97,1.81
			c-0.25,0.54-0.5,1.04-0.76,1.61c-0.21,0.54-0.38,1.1-0.5,1.67c-0.16,0.82-0.25,1.65-0.27,2.49c-0.03,0.94,0.02,1.87,0.03,2.48
			c-0.02,0.86,0.02,1.71,0.12,2.57c0.01,0.12,0.03,0.23,0.05,0.34c0.16,1,0.46,1.97,0.89,2.89c0.43,0.91,0.91,1.79,1.43,2.65
			c0.63,1.11,1.34,2.18,2.1,3.21c0.16,0.2,0.33,0.41,0.53,0.62s0.42,0.42,0.66,0.65c0.23,0.21,0.54,0.45,0.88,0.71
			c0.35,0.25,0.74,0.52,1.14,0.76c0.8,0.49,1.63,0.93,2.17,1.21c0.19,0.1,0.37,0.21,0.56,0.32l0.56,0.31
			c0.19,0.1,0.38,0.21,0.57,0.3s0.39,0.17,0.59,0.25l0.32,0.14c1.92,0.64,3.94,0.9,5.96,0.76c0.81,0.02,1.45-0.05,2.05-0.05
			c0.6-0.02,1.16-0.09,1.78-0.15c0.57-0.1,1.14-0.24,1.7-0.4c0.79-0.28,1.55-0.62,2.28-1.02c0.21-0.11,0.42-0.21,0.61-0.33
			l0.57-0.35c0.36-0.22,0.7-0.41,0.95-0.58c0.36-0.23,0.74-0.43,1.11-0.65c0.36-0.24,0.71-0.48,1.06-0.73
			c0.09-0.07,0.2-0.13,0.28-0.21c1.52-1.33,2.76-2.96,3.64-4.78c0.41-0.69,0.7-1.27,0.98-1.8c0.28-0.53,0.53-1.07,0.75-1.62
			c0.17-0.49,0.33-1.02,0.5-1.67c0.08-0.37,0.13-0.74,0.16-1.12c0.06-0.45,0.1-0.91,0.1-1.37c0-0.47,0.01-0.94,0.02-1.36
			C922.2-1356.56,922.18-1356.95,922.18-1357.25z M917.59-1349.22c-0.22,0.47-0.51,0.9-0.77,1.35s-0.6,0.84-0.92,1.26
			c-0.29,0.31-0.61,0.59-0.92,0.88s-0.66,0.52-0.95,0.82c-0.25,0.25-0.62,0.56-0.93,0.86c-0.93,0.82-1.98,1.49-3.13,1.97
			c-0.53,0.23-1.07,0.35-1.58,0.53c-0.51,0.15-1.01,0.26-1.51,0.4l-1.24,0.23l-1.27,0.13c-0.52,0.02-1.04,0.02-1.55,0.02l-0.77-0.07
			c-0.26-0.02-0.52-0.05-0.77-0.11c-0.41-0.09-0.82-0.21-1.22-0.35c-0.39-0.16-0.78-0.3-1.19-0.41c-0.33-0.12-0.81-0.23-1.22-0.38
			c-1.18-0.39-2.28-0.97-3.27-1.71c-0.83-0.68-1.61-1.43-2.34-2.22c-0.3-0.3-0.54-0.64-0.82-0.95c-0.25-0.34-0.52-0.67-0.74-1.04
			c-0.59-0.86-1.06-1.79-1.42-2.76c-0.23-0.81-0.41-1.63-0.55-2.46c-0.08-0.34-0.21-0.81-0.28-1.24c-0.25-1.21-0.3-2.46-0.15-3.69
			c0.18-1.06,0.43-2.11,0.75-3.14c0.27-0.8,0.59-1.59,0.96-2.34c0.12-0.23,0.21-0.47,0.35-0.69l0.41-0.66
			c0.13-0.22,0.27-0.44,0.43-0.65l0.49-0.6c0.14-0.16,0.28-0.32,0.42-0.47l0.49-0.41c0.33-0.27,0.62-0.56,0.95-0.82
			c0.27-0.23,0.6-0.59,0.93-0.87c0.25-0.18,0.49-0.37,0.73-0.56c0.12-0.09,0.24-0.19,0.36-0.28l0.38-0.25
			c0.26-0.17,0.52-0.33,0.78-0.49c0.29-0.14,0.58-0.27,0.88-0.38c0.53-0.23,1.07-0.36,1.58-0.53c0.5-0.19,1.02-0.26,1.51-0.4
			c0.41-0.1,0.82-0.18,1.24-0.22l0.63-0.1c0.21-0.02,0.43-0.02,0.64-0.04l0.78-0.04c0.26-0.01,0.52,0,0.78,0.02l0.78,0.05
			c0.26,0.03,0.51,0.07,0.77,0.13c0.21,0.04,0.41,0.09,0.62,0.14l0.31,0.08l0.3,0.12c0.39,0.16,0.79,0.29,1.19,0.4
			c0.33,0.12,0.8,0.26,1.21,0.39c0.29,0.1,0.57,0.21,0.85,0.34l0.84,0.36c0.27,0.13,0.53,0.3,0.8,0.46l0.4,0.25l0.2,0.14l0.18,0.16
			c0.82,0.69,1.6,1.43,2.33,2.22c0.27,0.32,0.57,0.62,0.82,0.95l0.75,1.03c0.27,0.44,0.53,0.89,0.79,1.34
			c0.21,0.47,0.43,0.95,0.62,1.43c0.12,0.41,0.21,0.82,0.3,1.23s0.12,0.83,0.23,1.23c0.12,0.41,0.21,0.82,0.28,1.24
			c0.25,1.21,0.31,2.46,0.16,3.69c-0.12,0.57-0.24,1.11-0.34,1.63c-0.15,0.51-0.29,1.01-0.42,1.51
			C918.27-1350.77,917.96-1349.98,917.59-1349.22L917.59-1349.22z"/>
	</g>
	<circle id="타원_352" cx="-1350.66" cy="671.3" r="1.5"/>
	<circle id="타원_353" cx="-1356.43" cy="671.07" r="1.5"/>
	<g id="그룹_23071" transform="translate(-2252.809 2093.395)">
		<path id="패스_18668" class="st2" d="M899.83-1366.92l-4.5-0.82l-1.41-1.96l0.64-1.64l4.27-1.95l8.92,0.01l7.33,2.26l2.81,4.34
			l0.7,4.39l-1.65,5.59l-4.28,4.57l-9.51,7.31l-6.84,2.25l-2.5-1.06l-1.31-2.03l-2.23-2.41l-1.76-1.51l-1.46-2.75l-0.32-2.45
			l0.09-1.75l6-4.78l7.77-4.37l0.54-1.18L899.83-1366.92z"/>
		<path id="패스_18669" class="st1" d="M919.82-1366.56l-0.18-0.59l-0.22-0.53c-0.07-0.17-0.13-0.33-0.19-0.49
			s-0.15-0.3-0.22-0.45c-0.14-0.29-0.29-0.57-0.46-0.84c-0.17-0.26-0.35-0.53-0.55-0.81c-0.39-0.48-0.83-0.92-1.32-1.3l-0.44-0.33
			l-0.55-0.33c-0.19-0.11-0.39-0.24-0.6-0.34l-0.65-0.3c-0.43-0.21-0.88-0.36-1.28-0.51s-0.77-0.26-1.05-0.37
			c-0.78-0.33-1.59-0.6-2.41-0.82l-0.33-0.08c-1.92-0.34-3.87-0.41-5.81-0.21c-1.55,0.08-2.5,0.05-3.72,0.17
			c-0.57,0.06-1.14,0.18-1.7,0.33c-0.84,0.24-1.65,0.6-2.41,1.05c-0.94,0.52-1.71,1.31-2.21,2.27c-0.29,0.62-0.4,1.3-0.31,1.98
			c0.04,0.37,0.14,0.73,0.32,1.05c0.09,0.18,0.21,0.35,0.34,0.51c0.06,0.06,0.11,0.12,0.18,0.18c0.05,0.05,0.14,0.14,0.14,0.14
			c0.04,0.04,0.08,0.08,0.13,0.11c0.49,0.22,1.03,0.29,1.56,0.19c0.63-0.07,1.27-0.11,1.91-0.11c0.14,0,0.29,0.03,0.42,0.09
			c0.13,0.04,0.21,0.18,0.17,0.32c-0.01,0.02-0.01,0.04-0.02,0.05c-0.11,0.13-0.24,0.24-0.39,0.32c-0.29,0.17-0.59,0.3-0.87,0.44
			s-0.56,0.27-0.84,0.43c-0.25,0.15-0.57,0.38-0.95,0.64c-0.35,0.26-0.72,0.49-1.11,0.7l-0.88,0.4c-0.37,0.17-0.73,0.33-1.08,0.53
			l-0.29,0.15c-0.85,0.46-1.65,1-2.39,1.63c-0.78,0.65-1.51,1.34-2.19,2.09c-0.53,0.56-1,1.18-1.38,1.85
			c-0.35,0.6-0.6,1.25-0.75,1.93c-0.07,0.34-0.11,0.69-0.11,1.03c0.01,0.19,0.01,0.43,0.03,0.67c0.02,0.12,0.04,0.25,0.06,0.37
			c0.01,0.06,0.02,0.12,0.04,0.18l0.02,0.06c0.1,0.2,0.25,0.37,0.44,0.48c0.32,0.2,0.66,0.35,1.02,0.45l0.2,0.06l-0.13,0.3
			c-0.05,0.17-0.1,0.33-0.14,0.49c-0.05,0.16-0.09,0.32-0.1,0.49c-0.02,0.17-0.03,0.34-0.04,0.51c0,0.17,0.01,0.35,0.04,0.52
			c0.04,0.36,0.14,0.7,0.28,1.03c0.07,0.13,0.14,0.26,0.22,0.4c0.08,0.14,0.16,0.26,0.27,0.38c0.21,0.29,0.46,0.56,0.74,0.79
			c0.14,0.1,0.28,0.18,0.43,0.25c0.17,0.07,0.36,0.13,0.54,0.17c0.06,0.01,0.13,0.02,0.19,0.02c0.01,0.09,0.02,0.19,0.04,0.28
			c0.08,0.37,0.22,0.72,0.42,1.04c0.08,0.14,0.17,0.27,0.28,0.39c0.1,0.13,0.21,0.25,0.34,0.36c0.14,0.13,0.28,0.26,0.43,0.37
			c0.15,0.12,0.31,0.23,0.48,0.31c0.24,0.12,0.51,0.19,0.77,0.22c0,0.02,0.01,0.04,0.01,0.06c0.04,0.11,0.08,0.23,0.13,0.34
			c0.09,0.21,0.2,0.41,0.34,0.59c0.11,0.16,0.24,0.3,0.39,0.44c0.13,0.13,0.27,0.24,0.42,0.35c0.29,0.21,0.61,0.38,0.94,0.51
			c0.59,0.22,1.22,0.34,1.86,0.35c0.75,0.01,1.5-0.04,2.24-0.16c0.6-0.09,1.19-0.21,1.77-0.37c0.55-0.16,1.09-0.35,1.61-0.59
			c0.72-0.35,1.42-0.74,2.1-1.17c0.76-0.47,1.5-0.97,2-1.27c0.7-0.41,1.44-0.75,2.11-1.19l0.28-0.17c1.55-1.09,3-2.32,4.32-3.68
			c1.12-1.03,1.88-1.58,2.75-2.38c0.41-0.38,0.79-0.78,1.15-1.2c0.51-0.63,0.98-1.29,1.41-1.99c0.45-0.72,0.85-1.47,1.21-2.25
			c0.1-0.21,0.2-0.43,0.29-0.65l0.24-0.59c0.17-0.39,0.31-0.79,0.43-1.2l0.1-0.33C920.59-1362.42,920.5-1364.57,919.82-1366.56z
			 M892.11-1347.53c0-0.01,0.01-0.01,0.01-0.02C892.11-1347.54,892.1-1347.53,892.11-1347.53L892.11-1347.53z M892.12-1347.56
			c0-0.01,0-0.02,0-0.02v-0.01c0,0,0,0.01,0,0.01C892.12-1347.57,892.12-1347.56,892.12-1347.56L892.12-1347.56z M916.96-1361.19
			c-0.07,0.34-0.12,0.82-0.24,1.24c-0.04,0.15-0.08,0.3-0.12,0.45c-0.04,0.15-0.07,0.31-0.11,0.42c-0.08,0.26-0.17,0.51-0.28,0.75
			c-0.25,0.56-0.58,1.08-0.97,1.55c-0.75,0.9-1.48,1.7-2.2,2.48c-0.6,0.64-1.21,1.26-1.87,1.89c-0.79,0.76-1.62,1.47-2.49,2.14
			c-0.72,0.54-1.53,0.93-2.24,1.46l-1.06,0.82c-1.02,0.8-2.11,1.5-3.26,2.09c-1.1,0.5-2.07,0.93-3.03,1.27
			c-0.74,0.28-1.51,0.48-2.3,0.58c-0.39,0.05-0.79,0.03-1.17-0.05c-0.14-0.04-0.27-0.09-0.4-0.17c-0.1-0.07-0.19-0.15-0.26-0.25
			c-0.01-0.03,0-0.04-0.02-0.05c0.01-0.01,0.02-0.01,0.03,0c0.03,0.01,0.04,0.03,0.08-0.01c0.06-0.07,0.2-0.29,0.39-0.55
			c0.22-0.3,0.45-0.6,0.71-0.87c0.88-0.91,1.86-1.72,2.93-2.4c1.06-0.63,2.01-1.22,2.95-1.82l0.64-0.42
			c0.27-0.18,0.66-0.34,0.93-0.53c0.45-0.23,0.82-0.61,1.02-1.07c0.13-0.33,0.15-0.7,0.06-1.04c-0.09-0.32-0.3-0.6-0.59-0.77
			c-0.27-0.16-0.58-0.24-0.9-0.23c-0.11,0-0.23,0.01-0.34,0.02c-0.36,0.1-0.68,0.3-0.94,0.57c-0.11,0.09-0.24,0.18-0.37,0.25
			l-1.16,0.61c-0.41,0.23-0.85,0.48-1.36,0.82c-0.95,0.62-2.79,2.12-3.74,2.86c-0.72,0.49-1.4,1.04-2.03,1.65
			c-0.09,0.09-0.18,0.19-0.26,0.29s-0.15,0.18-0.22,0.28h-0.01c-0.12,0-0.24-0.04-0.34-0.12c-0.03-0.02-0.06-0.05-0.08-0.08
			c-0.02-0.02-0.05-0.04-0.06-0.07c-0.07-0.06-0.07-0.14-0.11-0.26c0-0.04,0-0.07,0-0.11v-0.02l0.02-0.04
			c0.16-0.27,0.36-0.53,0.58-0.76c0.27-0.29,0.55-0.55,0.86-0.8c0.51-0.42,1.15-0.71,1.68-1.13l0.79-0.68
			c0.76-0.67,1.57-1.29,2.43-1.84c0.83-0.47,1.56-0.93,2.27-1.4l0.48-0.32c0.21-0.14,0.5-0.24,0.71-0.37
			c0.33-0.22,0.59-0.32,0.74-0.81c0.17-0.63-0.01-1.3-0.47-1.77c-0.22-0.2-0.5-0.33-0.79-0.38c-0.1-0.02-0.2-0.03-0.3-0.03
			c-0.31,0.04-0.59,0.19-0.8,0.42c-0.09,0.08-0.19,0.14-0.3,0.2c-0.31,0.15-0.61,0.29-0.93,0.46c-0.37,0.19-0.72,0.4-1.06,0.64
			c-0.73,0.49-2.1,1.68-2.84,2.17c-0.51,0.34-1.09,0.6-1.6,0.95l-0.21,0.14c-0.62,0.41-1.19,0.9-1.7,1.44
			c-0.51,0.53-1,1.09-1.52,1.74l-0.06-0.02c-0.14-0.04-0.27-0.11-0.36-0.22c-0.09-0.08-0.1-0.15-0.17-0.22
			c-0.05-0.11-0.09-0.22-0.09-0.34c-0.01-0.08-0.01-0.15,0.01-0.23c0.01-0.1,0.04-0.19,0.08-0.28c0.11-0.29,0.26-0.56,0.43-0.82
			l0.32-0.39c0.13-0.13,0.27-0.26,0.41-0.39c0.47-0.42,1.1-0.7,1.61-1.13c0.22-0.18,0.52-0.44,0.78-0.67
			c0.77-0.66,1.6-1.26,2.47-1.78c0.85-0.45,1.59-0.89,2.32-1.33l0.5-0.3c0.21-0.13,0.51-0.22,0.72-0.34c0.34-0.21,0.6-0.3,0.77-0.78
			c0.2-0.62,0.05-1.3-0.39-1.79c-0.21-0.21-0.48-0.35-0.78-0.41c-0.1-0.02-0.2-0.03-0.3-0.04c-0.31,0.03-0.6,0.17-0.82,0.39
			c-0.09,0.07-0.2,0.14-0.31,0.19c-0.32,0.14-0.62,0.27-0.95,0.43c-0.38,0.18-0.74,0.38-1.1,0.6c-0.76,0.47-2.18,1.64-2.93,2.12
			c-0.53,0.33-1.11,0.59-1.64,0.95l-0.22,0.13c-0.31,0.21-0.62,0.44-0.91,0.69c-0.29,0.27-0.57,0.53-0.83,0.83
			c-0.16,0.18-0.32,0.37-0.48,0.57c-0.01-0.05-0.01-0.1-0.02-0.14c-0.01-0.08-0.01-0.16,0-0.24v-0.12l0.02-0.13l0.03-0.22l0.07-0.24
			c0.04-0.17,0.1-0.33,0.17-0.49c0.03-0.08,0.06-0.17,0.1-0.24s0.07-0.14,0.11-0.21c0.09-0.15,0.18-0.3,0.29-0.44
			c0.62-0.78,1.35-1.46,2.18-2.02c0.71-0.49,1.54-0.82,2.28-1.3l1.12-0.75l0.89-0.55l1.2-0.72c0.8-0.47,1.6-0.91,2.51-1.37
			c0.72-0.35,1.4-0.75,2.05-1.22c0.46-0.34,0.89-0.72,1.28-1.14c0.27-0.28,0.51-0.58,0.72-0.91c0.12-0.17,0.2-0.37,0.22-0.58
			c0-0.06,0-0.13-0.02-0.19c0-0.07-0.02-0.13-0.05-0.19c-0.05-0.1-0.12-0.19-0.21-0.27l-0.02-0.02c-0.36-0.22-0.76-0.37-1.18-0.43
			c-0.39-0.08-0.77-0.15-1.21-0.28c-0.4-0.13-0.79-0.29-1.17-0.46c-0.12-0.05-0.27-0.1-0.41-0.15c-0.17-0.04-0.32-0.1-0.53-0.13
			c-0.44-0.08-0.89-0.13-1.34-0.16c-0.2-0.02-0.42-0.03-0.63-0.05l-0.32-0.04c-0.05,0.02-0.11,0.05-0.16,0.08
			c-0.08,0.04-0.03,0.02-0.04,0.04s0,0.02,0,0.02c0,0.02,0,0.02-0.01,0.02c-0.01-0.09-0.06-0.18-0.05-0.23
			c-0.01-0.02-0.01-0.04,0-0.05c0.01-0.02,0-0.04,0.01-0.06c0.03-0.05,0.03-0.1,0.08-0.17c0.28-0.37,0.67-0.65,1.11-0.8
			c0.97-0.35,1.98-0.62,3-0.8c0.85-0.16,1.7-0.27,2.56-0.33c1.06-0.08,2.14-0.08,3.2,0c0.87,0.08,1.71,0.35,2.54,0.48
			c0.35,0.05,0.84,0.11,1.27,0.19c0.6,0.13,1.17,0.28,1.76,0.44c0.59,0.18,1.15,0.43,1.67,0.75c0.85,0.53,1.62,1.16,2.31,1.89
			l0.35,0.44c0.06,0.07,0.12,0.14,0.18,0.22l0.15,0.24c0.09,0.16,0.21,0.31,0.29,0.48l0.24,0.52c0.36,0.88,0.54,1.82,0.53,2.77
			C917.32-1362.77,917.17-1361.97,916.96-1361.19L916.96-1361.19z"/>
	</g>
	<path id="패스_18670" class="st1" d="M-1349.14,675.71c-0.17-0.33-0.43-0.6-0.75-0.8c-0.23-0.11-0.48-0.2-0.72-0.28
		c-0.13-0.04-0.27,0.03-0.32,0.17c0,0.01,0,0.01,0,0.02c-0.03,0.09-0.09,0.17-0.17,0.23l-0.19,0.15c-0.22,0.17-0.46,0.33-0.71,0.47
		c-0.3,0.18-0.62,0.31-0.96,0.4c-0.14,0.03-0.28,0.04-0.42,0.02c-0.13,0-0.27,0-0.4,0.01c-0.1,0.01-0.25,0.08-0.38,0.08
		c-0.18,0.02-0.35,0.03-0.53,0.03c-0.09,0-0.18,0-0.26-0.02c-0.08-0.03-0.17-0.06-0.24-0.1c-0.15-0.07-0.25-0.18-0.37-0.24
		c-0.11-0.08-0.21-0.18-0.32-0.26c-0.05-0.04-0.09-0.09-0.13-0.14c-0.06-0.06-0.08-0.17-0.14-0.23c-0.09-0.11-0.1-0.21-0.39-0.2
		c-0.46,0.02-0.9,0.17-1.28,0.43c-0.16,0.12-0.29,0.29-0.35,0.48c-0.02,0.06-0.04,0.12-0.04,0.19c0,0.19,0.09,0.36,0.25,0.47
		c0.06,0.05,0.1,0.1,0.15,0.16c0.11,0.18,0.23,0.36,0.36,0.52c0.18,0.19,0.38,0.36,0.59,0.52c0.12,0.07,0.29,0.15,0.47,0.22
		c0.09,0.04,0.19,0.08,0.28,0.11l0.3,0.07c0.35,0.08,0.71,0.13,1.07,0.18l0.53,0.09l0.27,0.04c0.09,0,0.18,0,0.26,0h0.14
		c0.8-0.09,1.57-0.36,2.24-0.8c0.55-0.29,0.92-0.4,1.35-0.63c0.09-0.05,0.18-0.11,0.27-0.17c0.12-0.07,0.24-0.14,0.35-0.23
		c0.11-0.11,0.19-0.25,0.24-0.4C-1349.03,676.08-1349.05,675.88-1349.14,675.71z"/>
</g>
</svg>
