<?xml version="1.0" encoding="utf-8"?>
<!-- Generator: Adobe Illustrator 24.3.0, SVG Export Plug-In . SVG Version: 6.00 Build 0)  -->
<!DOCTYPE svg PUBLIC "-//W3C//DTD SVG 1.1//EN" "http://www.w3.org/Graphics/SVG/1.1/DTD/svg11.dtd" [
	<!ENTITY ns_extend "http://ns.adobe.com/Extensibility/1.0/">
	<!ENTITY ns_ai "http://ns.adobe.com/AdobeIllustrator/10.0/">
	<!ENTITY ns_graphs "http://ns.adobe.com/Graphs/1.0/">
	<!ENTITY ns_vars "http://ns.adobe.com/Variables/1.0/">
	<!ENTITY ns_imrep "http://ns.adobe.com/ImageReplacement/1.0/">
	<!ENTITY ns_sfw "http://ns.adobe.com/SaveForWeb/1.0/">
	<!ENTITY ns_custom "http://ns.adobe.com/GenericCustomNamespace/1.0/">
	<!ENTITY ns_adobe_xpath "http://ns.adobe.com/XPath/1.0/">
]>
<svg version="1.1" id="레이어_1" xmlns:x="&ns_extend;" xmlns:i="&ns_ai;" xmlns:graph="&ns_graphs;"
	 xmlns="http://www.w3.org/2000/svg" xmlns:xlink="http://www.w3.org/1999/xlink" x="0px" y="0px" viewBox="0 0 51.9 94.6"
	 style="enable-background:new 0 0 51.9 94.6;" xml:space="preserve">
<style type="text/css">
	.st0{fill:#FF7A00;}
	.st1{fill:#202020;}
	.st2{fill:#FFFFFF;}
	.st3{fill:#040000;}
</style>
<metadata>
	<sfw  xmlns="&ns_sfw;">
		<slices></slices>
		<sliceSourceBounds  bottomLeftOrigin="true" height="94.6" width="51.9" x="0.5" y="-2.4"></sliceSourceBounds>
	</sfw>
</metadata>
<g id="그룹_30959" transform="translate(0 0)">
	<path id="패스_25878" class="st0" d="M50.7,92.7c0,0-3-24.3-11.5-40.9c-4.3-8.5-19.8-9.7-27.2-2.7C9.2,51.8,7.1,56.7,6.3,60
		C0.4,84.1,1.4,92.7,1.4,92.7"/>
	<path id="패스_25879" class="st1" d="M51.8,91.1c-0.1-0.2-0.1-0.4-0.2-0.6l-0.1-0.6c-0.1-0.6-0.2-1.2-0.3-1.9
		c-0.1-0.8-0.3-1.5-0.4-2.3c-0.1-0.6-0.1-1.3-0.2-1.9c-0.1-0.3-0.2-0.6-0.2-0.9c-0.2-0.9-0.5-1.7-0.7-2.7c-0.1-0.9-0.3-1.6-0.5-2.4
		l-0.5-1.9c-0.2-0.8-0.4-1.5-0.6-2.3c-0.1-0.6-0.1-1.3-0.3-1.9c-0.1-0.3-0.2-0.6-0.3-0.9c-0.3-0.9-0.6-1.7-0.8-2.7
		c-0.2-0.9-0.4-1.6-0.7-2.4c-0.2-0.6-0.4-1.2-0.6-1.8c-0.3-0.7-0.5-1.5-0.8-2.2c-0.2-0.6-0.3-1.3-0.5-1.8c-0.1-0.3-0.3-0.6-0.4-0.9
		c-0.2-0.4-0.4-0.9-0.6-1.3c-0.2-0.4-0.4-0.9-0.6-1.3c-0.3-0.8-0.6-1.6-0.9-2.3l-0.9-1.8l-0.5-1.1c-0.1-0.2-0.2-0.4-0.3-0.6
		s-0.2-0.4-0.3-0.6c-0.2-0.3-0.4-0.6-0.6-0.9c-0.1-0.2-0.2-0.3-0.3-0.4c-0.1-0.1-0.2-0.3-0.4-0.4c-0.1-0.1-0.2-0.2-0.4-0.4l-0.5-0.4
		c-0.9-0.7-1.8-1.3-2.8-1.8c-0.8-0.5-1.7-0.9-2.6-1.2c-0.4-0.1-0.7-0.2-1.1-0.3s-0.8-0.2-1.1-0.3c-0.9-0.2-1.9-0.3-2.8-0.5
		c-0.8-0.1-1.5-0.2-2.3-0.3c-0.3,0-0.8,0-1.2,0.1c-1.1,0.1-2.2,0.3-3.4,0.5c-1,0.1-1.9,0.4-2.9,0.7c-0.4,0.1-0.7,0.3-1.1,0.4
		c-0.3,0.2-0.7,0.3-1,0.5c-0.4,0.2-0.8,0.4-1.2,0.7c-0.2,0.1-0.4,0.2-0.6,0.4l-0.6,0.4c-0.6,0.4-1.3,0.8-1.8,1.3
		c-0.3,0.3-0.5,0.5-0.7,0.8c-0.7,0.8-1.1,1.6-1.8,2.5c-0.5,0.7-0.9,1.5-1.3,2.2c-0.3,0.6-0.5,1.2-0.8,1.8c-0.3,0.8-0.6,1.5-0.8,2.3
		C5.4,58.3,5.2,59,5,59.6c-0.1,0.3-0.1,0.6-0.2,0.9c-0.1,0.9-0.3,1.8-0.5,2.7c-0.2,0.8-0.4,1.6-0.6,2.4l-0.4,1.9
		C3.1,68.3,3,69,2.8,69.8c-0.1,0.6-0.4,1.2-0.5,1.8c0,0.3-0.1,0.6-0.1,1c-0.1,0.9-0.2,1.8-0.4,2.7c-0.2,0.8-0.3,1.6-0.5,2.4
		c-0.1,0.6-0.2,1.2-0.2,1.9L1,80.8c0,0.4-0.1,0.8-0.2,1.2c-0.1,0.6-0.3,1.2-0.4,1.9c0,0.3,0,0.6,0,1c0,0.5,0,0.9,0,1.4
		c0,0.5,0,0.9-0.1,1.4c-0.1,0.8-0.2,1.6-0.2,2.4v0.5C0.1,90.7,0,91,0,91.2c0,0.3,0.1,0.7,0.3,1c0.4,0.4,1,0.6,1.5,0.4
		c0.2-0.1,0.4-0.2,0.6-0.4C2.4,92.1,2.5,92,2.5,92c0.1-0.2,0.1-0.5,0-0.8c0-0.1,0-0.2,0-0.3c0-0.3,0.1-0.6,0.1-0.9s0.1-0.7,0.1-1.1
		c0-0.4,0-1,0-1.5c0-0.5,0-1,0.1-1.5c0.1-0.5,0.2-1,0.3-1.6l0-0.2c0.1-0.6,0.2-1.2,0.2-1.9c0-0.6,0-1.3,0.1-1.9
		c0.1-0.8,0.3-1.6,0.5-2.3C4,77.7,4.1,77.4,4.1,77c0.1-0.4,0.1-1,0.2-1.5s0.1-1.2,0.2-1.5c0.1-0.5,0.3-1,0.4-1.6
		c0-0.1,0-0.1,0.1-0.2c0.3-1.2,0.4-2.5,0.6-3.7c0.2-0.8,0.4-1.6,0.7-2.3c0.1-0.3,0.2-0.6,0.3-1.1c0.1-0.8,0.3-2.3,0.5-3.1
		c0.1-0.5,0.4-1,0.5-1.5c0-0.1,0-0.1,0.1-0.2c0.4-1.2,0.5-2.4,1-3.5c0.3-0.7,0.7-1.4,1.1-2.1c0.2-0.3,0.3-0.6,0.5-0.9
		c0.2-0.3,0.4-0.9,0.7-1.4c0.1-0.3,0.3-0.5,0.4-0.7c0.1-0.2,0.3-0.4,0.4-0.6c0.1-0.1,0.2-0.2,0.3-0.3l0.3-0.3
		c0.2-0.2,0.4-0.3,0.6-0.5l0.2-0.1c0.9-0.9,1.9-1.6,3-2.3c0.8-0.4,1.5-0.7,2.4-0.9c0.3-0.1,0.7-0.2,1.1-0.3c0.4-0.1,1-0.3,1.6-0.5
		c0.3-0.1,0.6-0.1,0.9-0.2s0.5-0.1,0.8-0.1c0.6,0,1.2,0,1.7,0l0.2,0c1.4,0,2.7,0.1,4.1,0.3c0.8,0.2,1.6,0.4,2.4,0.8
		c0.3,0.1,0.6,0.3,1,0.4c0.4,0.2,0.9,0.4,1.5,0.6c0.5,0.2,0.9,0.5,1.4,0.8c0.2,0.2,0.4,0.3,0.6,0.5c0.2,0.2,0.3,0.4,0.5,0.6l0.1,0.2
		c0.1,0.1,0.2,0.2,0.3,0.3l0.3,0.3c0.1,0.1,0.2,0.2,0.3,0.3l0.3,0.3c0.2,0.2,0.4,0.5,0.5,0.7l0.1,0.2l0.1,0.2
		c0.1,0.1,0.2,0.3,0.2,0.4c0.3,0.7,0.6,1.5,0.9,2.2c0.1,0.3,0.2,0.6,0.4,1c0.3,0.7,1.1,2.1,1.4,2.8c0.2,0.5,0.3,1,0.4,1.5
		c0,0.1,0,0.1,0.1,0.2c0.2,0.6,0.4,1.2,0.7,1.8c0.3,0.6,0.5,1.2,0.7,1.8c0.1,0.4,0.3,0.8,0.4,1.2c0.1,0.4,0.1,0.7,0.2,1.1
		c0.1,0.3,0.2,0.6,0.3,1c0.1,0.4,0.3,0.9,0.6,1.5s0.4,1.1,0.5,1.5c0.1,0.5,0.2,1.1,0.3,1.6c0,0.1,0,0.1,0,0.2
		c0.2,1.2,0.8,2.4,1.1,3.6c0.2,0.8,0.3,1.6,0.4,2.4c0.1,0.3,0.1,0.7,0.2,1.1c0.2,0.8,0.7,2.3,0.8,3c0.1,0.5,0.1,1.1,0.2,1.6
		c0,0.1,0,0.1,0,0.2c0.1,1.2,0.6,2.4,0.8,3.7c0.1,0.8,0.2,1.6,0.2,2.4c0,0.2,0,0.3,0,0.5s0,0.4,0,0.6c0.1,0.3,0.3,1,0.8,1.2
		c0.4,0.2,0.8,0.2,1.3,0.1c0.3-0.2,0.5-0.4,0.7-0.7C52,91.7,51.9,91.3,51.8,91.1z"/>
	<g id="그룹_30955" transform="translate(7.773 66.531)">
		<path id="패스_25880" class="st2" d="M20.9,5.5c0,0-8.6-7-15.4-3.2S0.1,15.4,7.7,21.4s9.7,2.7,9.7,2.7l10.2-12.2L20.9,5.5z"/>
		<path id="패스_25881" class="st1" d="M28.7,11.9L28.7,11.9L28.7,11.9l0-0.1l0-0.1l0-0.1l0-0.1l0,0l0,0l0,0l0,0l0-0.1l0-0.1
			l0-0.1l0-0.1l0,0l-0.1-0.1l-0.5-0.5l-0.5-0.5L27,9.7l-0.4-0.4l-1.6-1.5c-0.6-0.6-1.3-1.2-1.9-1.8c-0.3-0.3-0.5-0.5-0.7-0.8
			C22.2,5,22,4.8,21.9,4.7c-0.1-0.1-0.2-0.2-0.3-0.3l-0.2-0.1l-0.1-0.1c-0.3-0.2-0.6-0.4-1-0.6c-0.9-0.6-1.9-1-2.9-1.6
			c-0.8-0.5-1.7-0.9-2.7-1.2c-0.7-0.2-1.5-0.4-2.3-0.6C11.6,0.1,10.6,0,9.6,0C8.8,0,8,0,7.2,0.2C6.8,0.3,6.4,0.5,6,0.7
			c-1.1,0.5-2.1,1.2-3,2c-0.8,0.7-1.5,1.5-2,2.5C0.7,5.8,0.4,6.6,0.2,7.4c-0.2,1-0.3,2-0.2,3c0,0.8,0.1,1.6,0.2,2.4
			c0,0.2,0.1,0.4,0.2,0.5l0.2,0.6C1.1,15,1.7,16,2.2,17c0.5,0.9,1,1.7,1.7,2.4c0.5,0.6,1,1.1,1.6,1.7c0.7,0.6,1.4,1.2,2.2,1.8
			c0.6,0.5,1.2,1,1.8,1.4c0.3,0.2,0.7,0.4,1,0.5c1.1,0.5,2.2,0.9,3.3,1.2c0.3,0.1,0.6,0.1,0.9,0.2l0.4,0c0.1,0,0.3,0,0.4,0l0.4,0
			c0.2,0,0.3-0.1,0.5-0.1c0.2,0,0.3-0.1,0.4-0.2c0.1-0.1,0.3-0.1,0.4-0.2c0.1-0.1,0.2-0.1,0.3-0.2c0.1-0.1,0.2-0.2,0.3-0.2
			c0.1-0.1,0.2-0.2,0.3-0.3l0.1-0.1l0.1-0.1l0-0.1l0.7-0.9c0.6-0.7,1.1-1.4,1.7-2.1c0.5-0.5,1.1-1,1.5-1.6c0.2-0.2,0.4-0.6,0.7-0.9
			c0.7-0.8,1.2-1.7,2-2.5c0.7-0.7,1.3-1.4,1.8-2.1l1.3-1.6l0.1-0.2l0.1-0.2l0.1-0.1l0.1-0.1l0.1-0.1l0-0.1l0-0.1l0-0.1l0-0.1l0-0.1
			l0,0l0,0l0,0L28.7,11.9L28.7,11.9L28.7,11.9z M24.1,14.1c-0.6,0.7-1.6,2.2-2.2,2.9c-0.4,0.5-0.9,0.9-1.3,1.3l-0.2,0.2
			c-1,1.1-1.8,2.3-2.7,3.4c-0.4,0.5-0.7,0.8-1,1.1c-0.1,0.1-0.2,0.2-0.2,0.2s-0.1,0.1-0.1,0.1c-0.1,0.1-0.2,0.1-0.3,0.2
			c-0.1,0-0.2,0.1-0.3,0.1c-0.1,0-0.3,0.1-0.4,0.1c-0.2,0-0.4,0-0.6,0c-0.1,0-0.3,0-0.4,0l-0.2,0l-0.2,0l-0.4-0.1
			c-0.1,0-0.3-0.1-0.4-0.1c-0.2-0.1-0.5-0.2-0.7-0.3c-0.3-0.1-0.5-0.3-0.7-0.4c-0.2-0.2-0.5-0.3-0.7-0.5l-0.2-0.1
			c-0.5-0.4-1.1-0.8-1.7-1.1c-0.3-0.2-0.6-0.4-0.9-0.6C8,20.2,7.8,20,7.5,19.8c-0.7-0.6-1.2-1.2-1.7-2c-0.2-0.3-0.4-0.6-0.7-0.9
			c-0.2-0.3-0.6-0.8-1-1.3c-0.3-0.5-0.6-0.9-0.8-1.5c-0.1-0.3-0.2-0.5-0.3-0.8c-0.1-0.3-0.1-0.5-0.2-0.8c0-0.1,0-0.1,0-0.2
			C2.4,11,2.3,9.7,2.3,8.4c0.1-0.8,0.4-1.6,0.9-2.2c0.1-0.1,0.2-0.3,0.3-0.4s0.2-0.3,0.3-0.5c0.3-0.4,0.6-0.8,1-1.2
			c0.4-0.4,0.8-0.7,1.3-1C6.5,3,7,2.8,7.5,2.7l0.2,0C8.4,2.5,9,2.4,9.6,2.4c0.7-0.1,1.3-0.1,2,0c0.8,0.1,1.7,0.4,2.4,0.8
			c0.3,0.1,0.7,0.3,1.1,0.4c0.4,0.2,1,0.4,1.6,0.6c0.5,0.2,1,0.5,1.5,0.8c0.5,0.3,0.9,0.7,1.4,1.1l0.2,0.2L20,6.4
			c0,0,0.1,0.1,0.1,0.1c0.1,0.1,0.3,0.3,0.4,0.4c0.3,0.2,0.5,0.5,0.8,0.7C21.8,8,22.4,8.5,22.9,9c0.9,0.8,1.3,1.4,1.9,2l0.2,0.2
			l0.2,0.2l0.2,0.2l0.2,0.2l0,0l0,0l0.1,0.1l0,0l0,0l0,0l0,0l0,0l0,0l0,0l0,0l0,0l0,0v0l0,0v0v0v0v0.1v0v0l0,0l0,0l0,0l0,0l0,0l0,0
			l-0.4,0.4l-0.4,0.4C24.7,13.4,24.4,13.7,24.1,14.1L24.1,14.1z"/>
	</g>
	<g id="그룹_30956" transform="translate(6.625 0)">
		<path id="패스_25882" class="st3" d="M34.4,12.9c0.3,6.1-7.9,9.1-18.1,8.7c-9-0.4-14.8-3.8-14.9-9.2c-0.2-6,8.4-12,17.3-10.9
			S33.9,4.3,34.4,12.9z"/>
		<path id="패스_25883" class="st1" d="M35.6,11.4c-0.1-0.7-0.3-1.3-0.5-2c-0.2-0.6-0.5-1.3-0.8-1.9c-0.3-0.7-0.6-1.3-1-1.9
			l-0.2-0.2c-0.5-0.7-1.2-1.2-1.9-1.7C30.5,3.4,29.8,3,29,2.7c-1.2-0.5-1.9-0.9-2.8-1.2c-0.4-0.2-0.8-0.3-1.3-0.4
			c-0.9-0.2-2.8-0.4-3.7-0.5c-0.6-0.1-1.3-0.3-1.9-0.4l-0.3,0C18.7,0.1,18.3,0,18,0c-0.4,0-0.8,0-1.2,0c-0.8,0-1.6,0.2-2.4,0.3
			c-1.3,0.2-2,0.2-3,0.4c-0.4,0.1-0.9,0.2-1.3,0.4C9.5,1.3,8.9,1.6,8.3,1.9c-0.7,0.3-1.3,0.7-1.7,1C6,3.2,5.5,3.5,4.9,3.9L4.7,4
			C3.4,5,2.3,6.3,1.5,7.8C1.3,8,1.2,8.3,1.1,8.6C1,8.8,0.8,9,0.7,9.3c-0.2,0.5-0.4,0.9-0.5,1.4L0.1,11c0,0.1,0,0.2-0.1,0.4
			C0,11.7,0,12,0,12.2c0,0.7,0.2,1.4,0.4,2.1c0.2,0.7,0.5,1.3,0.9,1.9c0.2,0.3,0.4,0.6,0.6,0.9c0.1,0.2,0.2,0.3,0.3,0.5
			c0.1,0.1,0.2,0.3,0.4,0.4l0.2,0.2c0.1,0.2,0.3,0.3,0.5,0.4c0.2,0.1,0.3,0.3,0.5,0.4c0.3,0.2,0.7,0.5,1,0.7C5,20,5.4,20.2,5.8,20.4
			s0.7,0.3,1.1,0.5c0.3,0.1,0.6,0.2,0.8,0.3s0.5,0.2,0.7,0.3c0.4,0.2,0.8,0.3,1.3,0.5c0.4,0.1,0.9,0.3,1.3,0.3
			c0.5,0.1,1.2,0.2,1.9,0.2c0.7,0,1.4,0.1,1.9,0.1c0.6,0.1,1.3,0.2,1.9,0.3l0.3,0c1.5,0,3.1-0.1,4.6-0.3c1.2-0.1,2-0.1,2.9-0.2
			c0.4,0,0.9-0.1,1.3-0.2c0.6-0.2,1.2-0.4,1.8-0.6c0.7-0.3,1.4-0.5,1.8-0.7c0.7-0.2,1.3-0.5,1.9-0.8l0.3-0.1
			c1.5-0.9,2.7-2.2,3.3-3.8c0.2-0.6,0.4-1.1,0.6-1.7c0.1-0.5,0.2-1,0.2-1.6C35.7,12.4,35.7,11.9,35.6,11.4z M32.9,14.7
			c-0.2,0.7-0.6,1.3-1.1,1.8c-0.5,0.4-1,0.8-1.6,1.1c-0.2,0.1-0.5,0.4-0.8,0.5c-0.9,0.5-1.8,0.9-2.8,1.2c-0.9,0.2-1.8,0.4-2.6,0.5
			c-0.7,0.1-1.4,0.2-2.1,0.3c-0.9,0.1-1.7,0.2-2.6,0.2c-0.7,0-1.4-0.1-2.1-0.1c-0.3,0-0.7,0-1.1,0c-0.5,0-1,0-1.5,0
			c-0.5,0-1-0.1-1.6-0.2c-0.5-0.1-0.9-0.2-1.4-0.3s-0.9-0.2-1.3-0.3l-1-0.3c-0.3-0.1-0.7-0.2-1-0.3c-0.4-0.1-0.8-0.3-1.2-0.5
			c-0.4-0.2-0.7-0.4-1.1-0.6c-0.3-0.2-0.5-0.4-0.8-0.6c-0.2-0.2-0.4-0.5-0.7-0.7c-0.1-0.1-0.2-0.2-0.3-0.3c-0.1-0.1-0.2-0.2-0.4-0.3
			c-0.1-0.2-0.3-0.3-0.4-0.5l-0.4-0.5c-0.1-0.1-0.1-0.2-0.2-0.3l-0.1-0.3c-0.1-0.2-0.2-0.4-0.2-0.7c0-0.1,0-0.2-0.1-0.3s0-0.2,0-0.3
			c0-0.2,0-0.4,0-0.6c0-0.4,0-0.7,0.1-1.1c0.1-0.6,0.3-1.2,0.6-1.8c0.4-0.7,0.8-1.4,1.4-2c0.5-0.4,1-0.9,1.6-1.3
			C6.5,6.1,6.8,5.8,7,5.6C7.8,4.9,8.7,4.4,9.6,4c0.9-0.3,1.7-0.6,2.5-0.8c0.7-0.2,1.3-0.3,2-0.5c0.8-0.2,1.7-0.2,2.5-0.2
			c0.3,0,0.7,0.1,1,0.1c0.3,0.1,0.7,0.1,1,0.2c0.3,0,0.7,0,1.1,0.1c1.1,0.1,2.1,0.2,3.1,0.4c1,0.2,1.8,0.5,2.6,0.7
			c0.7,0.2,1.3,0.4,2,0.6c0.8,0.3,1.5,0.7,2.1,1.2c0.5,0.4,0.9,0.9,1.3,1.4c0.1,0.1,0.2,0.2,0.3,0.3l0.3,0.4c0.6,0.7,1,1.6,1.2,2.5
			c0.2,0.8,0.3,1.7,0.3,2.6C33.2,13.5,33.1,14.1,32.9,14.7L32.9,14.7z"/>
	</g>
	<g id="그룹_30957" transform="translate(7.936 9.833)">
		<path id="패스_25884" class="st2" d="M29.3,20.1c-0.3,0.9-0.6,1.7-1.1,2.5c-3.4,6.1-10.5,8.9-17.1,6.7c-4.4-1.5-7.9-5-9.3-9.4
			C1,17,1,13.9,1.9,11.1C4.4,3.5,12.6-0.6,20.1,1.9C27.7,4.4,31.8,12.5,29.3,20.1C29.3,20.1,29.3,20.1,29.3,20.1z"/>
		<path id="패스_25885" class="st1" d="M31.2,14.9c0-0.2,0-0.4,0-0.5s0-0.4,0-0.5c0-0.4,0-0.7-0.1-1.1c0-0.1,0-0.2,0-0.3
			c-0.3-1.7-1-3.3-2-4.7c-0.3-0.6-0.6-1-0.9-1.5L28,6c-0.1-0.1-0.1-0.2-0.2-0.3l-0.5-0.6c-0.3-0.4-0.6-0.7-1-1.1L26,3.7
			c-0.1-0.1-0.3-0.2-0.4-0.3c-0.3-0.2-0.6-0.4-1-0.7c-0.7-0.4-1.4-0.8-1.8-1c-0.3-0.2-0.6-0.4-0.9-0.5s-0.6-0.3-1-0.5l-0.3-0.1
			c-1.6-0.5-3.3-0.7-5-0.6c-0.7,0-1.2,0-1.7,0.1l-0.7,0c-0.1,0-0.2,0-0.4,0l-0.4,0.1c-0.2,0-0.4,0.1-0.7,0.1l-0.4,0.1
			c-0.1,0-0.3,0.1-0.4,0.1c-0.2,0.1-0.6,0.2-0.9,0.3s-0.7,0.3-1,0.5C8.9,1.5,8.7,1.6,8.5,1.7L8.1,2C7.8,2.2,7.5,2.3,7.3,2.4
			C6.6,2.8,6,3.2,5.5,3.6L5.2,3.8c-1.3,1.1-2.3,2.5-3.1,4C1.8,8.4,1.6,8.9,1.3,9.3c-0.2,0.5-0.4,0.9-0.6,1.4
			c-0.2,0.5-0.3,0.9-0.4,1.4C0.1,12.8,0,13.5,0,14.2c0,0.8,0,1.6,0,2.1c0,0.7,0,1.4,0.1,2.2c0,0.1,0,0.2,0,0.3
			c0.1,0.8,0.4,1.7,0.7,2.4c0.4,0.8,0.8,1.5,1.2,2.2c0.5,0.9,1.1,1.8,1.8,2.7c0.1,0.2,0.3,0.3,0.4,0.5s0.4,0.4,0.6,0.6
			c0.2,0.2,0.5,0.4,0.7,0.6c0.3,0.2,0.6,0.4,1,0.6c0.7,0.4,1.4,0.8,1.8,1c0.2,0.1,0.3,0.2,0.5,0.3L9.4,30c0.2,0.1,0.3,0.2,0.5,0.3
			s0.3,0.1,0.5,0.2l0.3,0.1c1.6,0.5,3.3,0.8,5,0.6c0.7,0,1.2,0,1.7,0c0.5,0,1-0.1,1.5-0.1c0.5-0.1,1-0.2,1.4-0.3
			c0.7-0.2,1.3-0.5,1.9-0.9c0.2-0.1,0.4-0.2,0.5-0.3l0.5-0.3c0.3-0.2,0.6-0.3,0.8-0.5c0.3-0.2,0.6-0.4,0.9-0.5
			c0.3-0.2,0.6-0.4,0.9-0.6c0.1-0.1,0.2-0.1,0.2-0.2c1.3-1.1,2.3-2.5,3.1-4c0.3-0.6,0.6-1.1,0.8-1.5c0.2-0.4,0.4-0.9,0.6-1.4
			c0.1-0.4,0.3-0.9,0.4-1.4c0.1-0.3,0.1-0.6,0.1-0.9c0.1-0.4,0.1-0.8,0.1-1.2c0-0.4,0-0.8,0-1.1C31.2,15.5,31.2,15.2,31.2,14.9z
			 M27.4,21.7c-0.2,0.4-0.4,0.8-0.6,1.1s-0.5,0.7-0.8,1.1c-0.2,0.3-0.5,0.5-0.8,0.7s-0.6,0.4-0.8,0.7c-0.2,0.2-0.5,0.5-0.8,0.7
			c-0.8,0.7-1.7,1.3-2.6,1.7c-0.4,0.2-0.9,0.3-1.3,0.4c-0.4,0.1-0.9,0.2-1.3,0.3l-1,0.2l-1.1,0.1c-0.4,0-0.9,0-1.3,0l-0.7-0.1
			c-0.2,0-0.4,0-0.6-0.1c-0.3-0.1-0.7-0.2-1-0.3c-0.3-0.1-0.7-0.3-1-0.3c-0.3-0.1-0.7-0.2-1-0.3c-1-0.3-1.9-0.8-2.8-1.4
			c-0.7-0.6-1.4-1.2-2-1.9c-0.2-0.3-0.5-0.5-0.7-0.8C5,23.3,4.7,23,4.5,22.7C4,22,3.6,21.2,3.3,20.4C3.1,19.7,3,19,2.9,18.3
			c-0.1-0.3-0.2-0.7-0.2-1c-0.2-1-0.3-2.1-0.1-3.1c0.2-0.9,0.4-1.8,0.6-2.6c0.2-0.7,0.5-1.3,0.8-2C4,9.3,4.1,9.1,4.2,8.9l0.3-0.6
			C4.7,8.2,4.8,8,5,7.8l0.4-0.5c0.1-0.1,0.2-0.3,0.4-0.4l0.4-0.3c0.3-0.2,0.5-0.5,0.8-0.7c0.2-0.2,0.5-0.5,0.8-0.7
			C7.9,5,8.1,4.8,8.3,4.7c0.1-0.1,0.2-0.2,0.3-0.2l0.3-0.2C9.2,4.1,9.4,4,9.6,3.8c0.2-0.1,0.5-0.2,0.7-0.3c0.5-0.2,0.9-0.3,1.3-0.4
			c0.4-0.2,0.9-0.2,1.3-0.3c0.3-0.1,0.7-0.1,1-0.2l0.5-0.1c0.2,0,0.4,0,0.5,0l0.7,0c0.2,0,0.4,0,0.7,0l0.7,0c0.2,0,0.4,0.1,0.6,0.1
			c0.2,0,0.3,0.1,0.5,0.1l0.3,0.1l0.3,0.1c0.3,0.1,0.7,0.2,1,0.3c0.3,0.1,0.7,0.2,1,0.3c0.2,0.1,0.5,0.2,0.7,0.3l0.7,0.3
			c0.2,0.1,0.4,0.3,0.7,0.4l0.3,0.2l0.2,0.1L23.5,5c0.7,0.6,1.4,1.2,2,1.9c0.2,0.3,0.5,0.5,0.7,0.8l0.6,0.9c0.2,0.4,0.4,0.8,0.7,1.1
			c0.2,0.4,0.4,0.8,0.5,1.2c0.1,0.3,0.2,0.7,0.3,1s0.1,0.7,0.2,1c0.1,0.3,0.2,0.7,0.2,1c0.2,1,0.3,2.1,0.1,3.1
			c-0.1,0.5-0.2,0.9-0.3,1.4c-0.1,0.4-0.2,0.9-0.4,1.3C27.9,20.4,27.7,21,27.4,21.7L27.4,21.7z"/>
	</g>
	<circle id="타원_665" cx="26" cy="26.4" r="1.3"/>
	<circle id="타원_666" cx="21.1" cy="26.3" r="1.3"/>
	<g id="그룹_30958" transform="translate(11.656 66.141)">
		<path id="패스_25886" class="st2" d="M12.4,6.8L8.6,6.1L7.4,4.4L8,3l3.6-1.6l7.5,0l6.2,1.9L27.6,7l0.6,3.7l-1.4,4.7l-3.6,3.9
			l-8,6.2l-5.8,1.9l-2.1-0.9l-1.1-1.7l-1.9-2l-1.5-1.3l-1.2-2.3L1.4,17l0.1-1.5l5.1-4L13,7.8l0.5-1L12.4,6.8z"/>
		<path id="패스_25887" class="st1" d="M29.2,7.1c-0.1-0.2-0.1-0.3-0.2-0.5S29,6.3,28.9,6.1s-0.1-0.3-0.2-0.4s-0.1-0.3-0.2-0.4
			c-0.1-0.2-0.2-0.5-0.4-0.7C28,4.4,27.9,4.2,27.7,4c-0.3-0.4-0.7-0.8-1.1-1.1l-0.4-0.3l-0.5-0.3c-0.2-0.1-0.3-0.2-0.5-0.3l-0.5-0.3
			c-0.4-0.2-0.7-0.3-1.1-0.4S23,1.1,22.7,1c-0.7-0.3-1.3-0.5-2-0.7l-0.3-0.1c-1.6-0.3-3.3-0.3-4.9-0.2c-1.3,0.1-2.1,0-3.1,0.1
			c-0.5,0.1-1,0.1-1.4,0.3c-0.7,0.2-1.4,0.5-2,0.9C8.1,1.8,7.5,2.5,7.1,3.3C6.8,3.8,6.7,4.4,6.8,5c0,0.3,0.1,0.6,0.3,0.9
			C7.2,6,7.3,6.1,7.4,6.3c0,0.1,0.1,0.1,0.1,0.2c0,0,0.1,0.1,0.1,0.1c0,0,0.1,0.1,0.1,0.1c0.4,0.2,0.9,0.2,1.3,0.2
			c0.5-0.1,1.1-0.1,1.6-0.1c0.1,0,0.2,0,0.4,0.1c0.1,0,0.2,0.2,0.1,0.3c0,0,0,0,0,0c-0.1,0.1-0.2,0.2-0.3,0.3
			c-0.2,0.1-0.5,0.3-0.7,0.4S9.6,7.9,9.4,8.1C9.2,8.2,8.9,8.4,8.6,8.6C8.3,8.8,8,9,7.7,9.2L6.9,9.5C6.6,9.7,6.3,9.8,6,10l-0.2,0.1
			c-0.7,0.4-1.4,0.8-2,1.4c-0.7,0.5-1.3,1.1-1.8,1.8c-0.4,0.5-0.8,1-1.2,1.6c-0.3,0.5-0.5,1.1-0.6,1.6C0,16.7,0,17,0,17.3
			c0,0.2,0,0.4,0,0.6c0,0.1,0,0.2,0.1,0.3c0,0.1,0,0.1,0,0.1l0,0c0.1,0.2,0.2,0.3,0.4,0.4c0.3,0.2,0.6,0.3,0.9,0.4l0.2,0
			c0,0.1-0.1,0.2-0.1,0.3l-0.1,0.4c0,0.1-0.1,0.3-0.1,0.4c0,0.1,0,0.3,0,0.4c0,0.1,0,0.3,0,0.4c0,0.3,0.1,0.6,0.2,0.9
			c0.1,0.1,0.1,0.2,0.2,0.3c0.1,0.1,0.1,0.2,0.2,0.3c0.2,0.2,0.4,0.5,0.6,0.7c0.1,0.1,0.2,0.2,0.4,0.2c0.1,0.1,0.3,0.1,0.5,0.1
			c0.1,0,0.1,0,0.2,0c0,0.1,0,0.2,0,0.2c0.1,0.3,0.2,0.6,0.3,0.9C3.9,24.9,4,25,4.1,25.1c0.1,0.1,0.2,0.2,0.3,0.3
			c0.1,0.1,0.2,0.2,0.4,0.3C4.9,25.9,5,25.9,5.1,26c0.2,0.1,0.4,0.2,0.7,0.2c0,0,0,0,0,0.1c0,0.1,0.1,0.2,0.1,0.3
			C6,26.7,6.1,26.9,6.2,27c0.1,0.1,0.2,0.3,0.3,0.4c0.1,0.1,0.2,0.2,0.4,0.3c0.2,0.2,0.5,0.3,0.8,0.4c0.5,0.2,1,0.3,1.6,0.3
			c0.6,0,1.3,0,1.9-0.1c0.5-0.1,1-0.2,1.5-0.3c0.5-0.1,0.9-0.3,1.4-0.5c0.6-0.3,1.2-0.6,1.8-1c0.6-0.4,1.3-0.8,1.7-1.1
			c0.6-0.3,1.2-0.6,1.8-1l0.2-0.1c1.3-0.9,2.5-2,3.6-3.1c0.9-0.9,1.6-1.3,2.3-2c0.3-0.3,0.7-0.7,1-1c0.4-0.5,0.8-1.1,1.2-1.7
			c0.4-0.6,0.7-1.2,1-1.9c0.1-0.2,0.2-0.4,0.2-0.5l0.2-0.5c0.1-0.3,0.3-0.7,0.4-1c0-0.1,0.1-0.2,0.1-0.3
			C29.9,10.6,29.8,8.8,29.2,7.1z M5.9,23.1C5.9,23.1,5.9,23.1,5.9,23.1C5.9,23.1,5.9,23.1,5.9,23.1L5.9,23.1z M5.9,23.1
			C5.9,23.1,5.9,23.1,5.9,23.1L5.9,23.1C5.9,23.1,5.9,23.1,5.9,23.1C5.9,23.1,5.9,23.1,5.9,23.1z M26.8,11.6c-0.1,0.3-0.1,0.7-0.2,1
			c0,0.1-0.1,0.3-0.1,0.4c0,0.1-0.1,0.3-0.1,0.3c-0.1,0.2-0.1,0.4-0.2,0.6c-0.2,0.5-0.5,0.9-0.8,1.3c-0.6,0.8-1.2,1.4-1.9,2.1
			c-0.5,0.5-1,1.1-1.6,1.6c-0.7,0.6-1.4,1.2-2.1,1.8c-0.6,0.5-1.3,0.8-1.9,1.2l-0.9,0.7c-0.9,0.7-1.8,1.3-2.7,1.8
			c-0.9,0.4-1.7,0.8-2.6,1.1c-0.6,0.2-1.3,0.4-1.9,0.5c-0.3,0-0.7,0-1,0c-0.1,0-0.2-0.1-0.3-0.1c-0.1-0.1-0.2-0.1-0.2-0.2
			c0,0,0,0,0,0c0,0,0,0,0,0c0,0,0,0,0.1,0c0-0.1,0.2-0.2,0.3-0.5c0.2-0.3,0.4-0.5,0.6-0.7c0.7-0.8,1.6-1.4,2.5-2
			c0.9-0.5,1.7-1,2.5-1.5l0.5-0.4c0.2-0.2,0.6-0.3,0.8-0.4c0.4-0.2,0.7-0.5,0.9-0.9c0.1-0.3,0.1-0.6,0-0.9c-0.1-0.3-0.3-0.5-0.5-0.6
			c-0.2-0.1-0.5-0.2-0.8-0.2c-0.1,0-0.2,0-0.3,0c-0.3,0.1-0.6,0.3-0.8,0.5c-0.1,0.1-0.2,0.2-0.3,0.2l-1,0.5
			c-0.3,0.2-0.7,0.4-1.1,0.7c-0.8,0.5-2.4,1.8-3.1,2.4c-0.6,0.4-1.2,0.9-1.7,1.4c-0.1,0.1-0.1,0.2-0.2,0.2s-0.1,0.2-0.2,0.2h0
			c-0.1,0-0.2,0-0.3-0.1c0,0,0,0-0.1-0.1c0,0,0,0,0-0.1c-0.1-0.1-0.1-0.1-0.1-0.2c0,0,0-0.1,0-0.1v0l0,0c0.1-0.2,0.3-0.4,0.5-0.6
			c0.2-0.2,0.5-0.5,0.7-0.7c0.4-0.4,1-0.6,1.4-1l0.7-0.6c0.6-0.6,1.3-1.1,2-1.5c0.7-0.4,1.3-0.8,1.9-1.2l0.4-0.3
			c0.2-0.1,0.4-0.2,0.6-0.3c0.3-0.2,0.5-0.3,0.6-0.7c0.1-0.5,0-1.1-0.4-1.5c-0.2-0.2-0.4-0.3-0.7-0.3c-0.1,0-0.2,0-0.3,0
			c-0.3,0-0.5,0.2-0.7,0.4c-0.1,0.1-0.2,0.1-0.2,0.2c-0.3,0.1-0.5,0.2-0.8,0.4c-0.3,0.2-0.6,0.3-0.9,0.5c-0.6,0.4-1.8,1.4-2.4,1.8
			c-0.4,0.3-0.9,0.5-1.3,0.8L7,18.5c-0.5,0.3-1,0.8-1.4,1.2c-0.5,0.5-0.9,1-1.3,1.5l-0.1,0c-0.1,0-0.2-0.1-0.3-0.2
			c-0.1-0.1-0.1-0.1-0.1-0.2c0-0.1-0.1-0.2-0.1-0.3c0-0.1,0-0.1,0-0.2c0-0.1,0-0.2,0.1-0.2c0.1-0.2,0.2-0.5,0.4-0.7l0.3-0.3
			c0.1-0.1,0.2-0.2,0.3-0.3c0.4-0.4,0.9-0.6,1.4-0.9c0.2-0.2,0.4-0.4,0.7-0.6c0.6-0.6,1.3-1.1,2.1-1.5c0.7-0.4,1.3-0.7,2-1.1
			l0.4-0.3c0.2-0.1,0.4-0.2,0.6-0.3c0.3-0.2,0.5-0.3,0.6-0.7c0.2-0.5,0-1.1-0.3-1.5c-0.2-0.2-0.4-0.3-0.7-0.3c-0.1,0-0.2,0-0.3,0
			c-0.3,0-0.5,0.1-0.7,0.3c-0.1,0.1-0.2,0.1-0.3,0.2c-0.3,0.1-0.5,0.2-0.8,0.4c-0.3,0.2-0.6,0.3-0.9,0.5c-0.6,0.4-1.8,1.4-2.5,1.8
			c-0.4,0.3-0.9,0.5-1.4,0.8l-0.2,0.1C4.3,15.8,4,16,3.8,16.2c-0.2,0.2-0.5,0.4-0.7,0.7c-0.1,0.1-0.3,0.3-0.4,0.5c0,0,0-0.1,0-0.1
			c0-0.1,0-0.1,0-0.2V17l0-0.1l0-0.2l0.1-0.2c0-0.1,0.1-0.3,0.1-0.4C2.9,16,3,15.9,3,15.8s0.1-0.1,0.1-0.2c0.1-0.1,0.2-0.3,0.2-0.4
			c0.5-0.7,1.1-1.2,1.8-1.7c0.6-0.4,1.3-0.7,1.9-1.1L8,11.9l0.8-0.5l1-0.6c0.7-0.4,1.4-0.8,2.1-1.2c0.6-0.3,1.2-0.6,1.7-1
			c0.4-0.3,0.7-0.6,1.1-1c0.2-0.2,0.4-0.5,0.6-0.8c0.1-0.1,0.2-0.3,0.2-0.5c0-0.1,0-0.1,0-0.2c0-0.1,0-0.1,0-0.2
			c0-0.1-0.1-0.2-0.2-0.2l0,0c-0.3-0.2-0.6-0.3-1-0.4c-0.3-0.1-0.7-0.1-1-0.2c-0.3-0.1-0.7-0.2-1-0.4c-0.1,0-0.2-0.1-0.3-0.1
			c-0.1,0-0.3-0.1-0.4-0.1c-0.4-0.1-0.8-0.1-1.1-0.1c-0.2,0-0.4,0-0.5,0l-0.3,0c0,0-0.1,0-0.1,0.1c-0.1,0,0,0,0,0s0,0,0,0s0,0,0,0
			c0-0.1-0.1-0.2,0-0.2c0,0,0,0,0,0c0,0,0,0,0-0.1c0,0,0-0.1,0.1-0.1c0.2-0.3,0.6-0.5,0.9-0.7C11.1,3.2,12,3,12.9,2.8
			c0.7-0.1,1.4-0.2,2.2-0.3c0.9-0.1,1.8-0.1,2.7,0c0.7,0.1,1.4,0.3,2.1,0.4c0.3,0,0.7,0.1,1.1,0.2c0.5,0.1,1,0.2,1.5,0.4
			c0.5,0.2,1,0.4,1.4,0.6c0.7,0.4,1.4,1,1.9,1.6L26.1,6c0,0.1,0.1,0.1,0.1,0.2l0.1,0.2c0.1,0.1,0.2,0.3,0.2,0.4l0.2,0.4
			c0.3,0.7,0.5,1.5,0.4,2.3C27.1,10.3,27,10.9,26.8,11.6L26.8,11.6z"/>
	</g>
	<path id="패스_25888" class="st1" d="M27.3,30.2c-0.1-0.3-0.4-0.5-0.6-0.7c-0.2-0.1-0.4-0.2-0.6-0.2c-0.1,0-0.2,0-0.3,0.1
		c0,0,0,0,0,0c0,0.1-0.1,0.1-0.1,0.2l-0.2,0.1c-0.2,0.1-0.4,0.3-0.6,0.4c-0.3,0.2-0.5,0.3-0.8,0.3c-0.1,0-0.2,0-0.4,0
		c-0.1,0-0.2,0-0.3,0c-0.1,0-0.2,0.1-0.3,0.1c-0.1,0-0.3,0-0.4,0c-0.1,0-0.1,0-0.2,0c-0.1,0-0.1,0-0.2-0.1c-0.1-0.1-0.2-0.2-0.3-0.2
		c-0.1-0.1-0.2-0.2-0.3-0.2c0,0-0.1-0.1-0.1-0.1c0-0.1-0.1-0.1-0.1-0.2c-0.1-0.1-0.1-0.2-0.3-0.2c-0.4,0-0.8,0.1-1.1,0.4
		c-0.1,0.1-0.2,0.2-0.3,0.4c0,0.1,0,0.1,0,0.2c0,0.2,0.1,0.3,0.2,0.4c0,0,0.1,0.1,0.1,0.1c0.1,0.2,0.2,0.3,0.3,0.4
		c0.2,0.2,0.3,0.3,0.5,0.4c0.1,0.1,0.2,0.1,0.4,0.2c0.1,0,0.2,0.1,0.2,0.1l0.3,0.1c0.3,0.1,0.6,0.1,0.9,0.1l0.4,0.1l0.2,0
		c0.1,0,0.1,0,0.2,0h0.1c0.7-0.1,1.3-0.3,1.9-0.7c0.5-0.2,0.8-0.3,1.1-0.5c0.1,0,0.1-0.1,0.2-0.1c0.1-0.1,0.2-0.1,0.3-0.2
		c0.1-0.1,0.2-0.2,0.2-0.3C27.4,30.5,27.4,30.3,27.3,30.2z"/>
</g>
</svg>
