<?xml version="1.0" encoding="utf-8"?>
<!-- Generator: Adobe Illustrator 24.1.1, SVG Export Plug-In . SVG Version: 6.00 Build 0)  -->
<!DOCTYPE svg PUBLIC "-//W3C//DTD SVG 1.1//EN" "http://www.w3.org/Graphics/SVG/1.1/DTD/svg11.dtd" [
	<!ENTITY ns_extend "http://ns.adobe.com/Extensibility/1.0/">
	<!ENTITY ns_ai "http://ns.adobe.com/AdobeIllustrator/10.0/">
	<!ENTITY ns_graphs "http://ns.adobe.com/Graphs/1.0/">
	<!ENTITY ns_vars "http://ns.adobe.com/Variables/1.0/">
	<!ENTITY ns_imrep "http://ns.adobe.com/ImageReplacement/1.0/">
	<!ENTITY ns_sfw "http://ns.adobe.com/SaveForWeb/1.0/">
	<!ENTITY ns_custom "http://ns.adobe.com/GenericCustomNamespace/1.0/">
	<!ENTITY ns_adobe_xpath "http://ns.adobe.com/XPath/1.0/">
]>
<svg version="1.1" id="레이어_1" xmlns:x="&ns_extend;" xmlns:i="&ns_ai;" xmlns:graph="&ns_graphs;"
	 xmlns="http://www.w3.org/2000/svg" xmlns:xlink="http://www.w3.org/1999/xlink" x="0px" y="0px" viewBox="0 0 76.78 76.91"
	 style="enable-background:new 0 0 76.78 76.91;" xml:space="preserve">
<style type="text/css">
	.st0{fill:#FFFFFF;}
	.st1{fill:#424242;}
</style>
<metadata>
	<sfw  xmlns="&ns_sfw;">
		<slices></slices>
		<sliceSourceBounds  bottomLeftOrigin="true" height="76.91" width="76.78" x="645.12" y="-422.47"></sliceSourceBounds>
	</sfw>
</metadata>
<g id="그룹_17488" transform="translate(280.835 419)">
	<ellipse id="타원_246" class="st0" cx="-242.65" cy="-379.59" rx="37" ry="37.5"/>
	<g id="그룹_17487" transform="translate(74.567 2114.932)">
		<path id="패스_13019" class="st1" d="M-292.55-2477.88c-0.06-0.51-0.2-1.01-0.4-1.48c-0.17-0.37-0.38-0.73-0.61-1.06
			c-0.16-0.24-0.35-0.5-0.59-0.79c-0.44-0.54-1.46-1.55-1.88-2.11c-0.29-0.39-0.52-0.82-0.81-1.21l-0.11-0.16
			c-0.64-0.94-1.52-1.7-2.24-2.58c-0.45-0.57-0.87-1.17-1.25-1.79l-0.29-0.4l-0.35-0.44l-0.46-0.52l-0.14-0.15
			c0.01-0.16,0.02-0.31,0.03-0.47c0.01-0.19,0.02-0.38,0.02-0.58s0.05-0.51,0.04-0.75c-0.01-0.27-0.05-0.54-0.13-0.8
			c0.88-0.17,1.69-0.58,2.35-1.18c0.8-0.76,1.36-1.74,1.6-2.82c0.23-0.86,0.24-1.76,0.04-2.62l-0.32-1.03
			c-0.28-1.01-0.64-1.93-0.85-3.01c-0.19-0.96-0.4-1.82-0.62-2.66c-0.14-0.49-0.27-0.98-0.41-1.49l-0.04-0.15l-0.05-0.15l-0.06-0.15
			l-0.07-0.14l-0.08-0.13l-0.04-0.06l-0.04-0.05l-0.05-0.04l-0.05-0.04l-0.05-0.03l-0.01-0.01l-0.01-0.01l-0.02-0.02l-0.07-0.06
			l-0.07-0.05l-0.08-0.04l0,0l-0.01-0.01l-0.06-0.03l-0.06-0.02l-0.06-0.02l-0.1-0.02l-0.07-0.01l-0.02-0.05
			c0.09-0.08,0.17-0.17,0.26-0.25c0.63-0.56,1.18-1.08,1.71-1.6l0.36-0.36c0.15-0.15,0.37-0.31,0.52-0.46
			c0.1-0.1,0.19-0.18,0.27-0.27c1.23,0.41,2.56-0.26,2.97-1.5c0.05-0.15,0.08-0.31,0.1-0.47c0.04-0.43-0.05-0.87-0.26-1.24
			c-0.31-0.54-0.83-0.92-1.44-1.06c-0.59-0.13-1.2-0.03-1.72,0.28c-0.55,0.3-0.96,0.82-1.11,1.43c-0.02,0.08-0.04,0.17-0.05,0.25
			c-0.06,0.47,0.05,0.94,0.29,1.33c-0.05,0.05-0.09,0.1-0.14,0.15c-0.07,0.08-0.14,0.15-0.21,0.22c-0.22,0.19-0.44,0.37-0.67,0.57
			c-0.23,0.2-0.49,0.43-0.78,0.72c-0.2,0.2-0.48,0.49-0.77,0.8c-0.18-0.36-0.36-0.71-0.55-1.08c-0.21-0.33-0.46-0.68-0.77-1.08
			c-0.85-0.93-1.82-1.76-2.86-2.47c-0.51-0.41-1.04-0.79-1.59-1.14l-0.23-0.13c-1.37-0.69-2.87-1.11-4.4-1.21
			c-0.96-0.15-1.93-0.23-2.9-0.25c-0.44,0-0.88,0.04-1.32,0.12c-0.62,0.12-1.24,0.28-1.83,0.5c-0.66,0.27-1.32,0.53-1.74,0.74
			c-0.61,0.23-1.2,0.5-1.77,0.82l-0.23,0.12c-1.28,0.85-2.38,1.94-3.25,3.2c-0.6,0.77-1.16,1.57-1.66,2.4
			c-0.14,0.27-0.3,0.58-0.44,0.92l-0.79,0.02l-0.17,0.01l-0.18,0.02l-0.07,0.01h-0.01l-0.11-0.01l-0.77-0.03l-0.74-0.02h-1.43
			c-0.1,0.01-0.19,0.02-0.29,0.03c-0.12,0.02-0.24,0.02-0.36,0.01c-0.1-0.02-0.2-0.15-0.29-0.13c-0.05,0.01-0.1,0.03-0.15,0.05
			c-0.14,0.02-0.28,0.15-0.43,0.09c-0.12-0.05-0.25-0.06-0.37-0.05l-1.55,0.03l-0.16,0.01l-0.16,0.02l-0.16,0.02l-0.15,0.03
			l-0.14,0.04l-0.07,0.03l-0.06,0.03l-0.05,0.03l-0.05,0.04l-0.04,0.04l-0.01,0.01l-0.01,0.01l-0.02,0.01l-0.08,0.06l-0.07,0.06
			l-0.05,0.06l0,0l-0.01,0.01l-0.04,0.06l-0.04,0.06l-0.03,0.05l-0.04,0.09l-0.03,0.07l-0.16,0.5l-0.14,0.48l-0.24,0.93
			c-0.16,0.69-0.33,1.37-0.49,2.09c-0.2,0.85-0.4,1.7-0.63,2.55c-0.19,0.69-0.49,1.35-0.65,2.04c-0.1,0.43-0.15,0.86-0.16,1.3
			c0,1.32,0.45,2.6,1.29,3.62c0.69,0.91,1.7,1.53,2.83,1.73c-0.03,0.24-0.02,0.49,0.01,0.73c0.01,0.12,0.02,0.24,0.01,0.36
			c-0.03,0.35-0.05,0.68-0.08,1.05c-0.02,0.37-0.04,0.77-0.03,1.25c0.01,0.89,0.18,2.72,0.15,3.61c-0.02,0.62-0.1,1.24-0.13,1.86
			c0,0.08-0.01,0.17-0.01,0.25c-0.08,1.46,0.13,2.91,0.15,4.37c0.02,1.17-0.08,1.88-0.13,2.78l-0.02,0.53v0.61
			c0.01,0.2,0.02,0.46,0.03,0.75c0.02,0.27,0.04,0.56,0.05,0.85v0.02v0.05l0,0v0.02l0.01,0.07l0.02,0.06l0.02,0.06l0.02,0.06
			l0.03,0.05l0.03,0.05l0.03,0.04l0.03,0.04l0.04,0.04l0.04,0.03l0.08,0.06l0.09,0.05l0.09,0.04l0.09,0.03l0.09,0.02l0.09,0.02
			l0.17,0.02h0.14h0.38l0.35,0.01l0.63,0.03l1.17,0.09l0,0c0.34,0.02,0.71,0.03,1.15,0.03c0.82-0.01,2.49-0.18,3.3-0.16
			c0.57,0.02,1.14,0.1,1.7,0.13l0.23,0.01c1.33,0.08,2.67-0.13,4-0.15c1.08-0.02,1.72,0.08,2.55,0.13c0.34,0.02,0.71,0.03,1.15,0.03
			c0.82-0.01,2.49-0.18,3.3-0.16c0.57,0.02,1.14,0.1,1.7,0.13l0.23,0.01c1.33,0.08,2.67-0.13,4-0.15c1.07-0.02,1.72,0.08,2.55,0.13
			l0,0l0.53,0.02h0.61l0.75-0.03l0.85-0.05h0.02h0.05l0,0h0.02l0.07-0.01l0.07-0.02l0.06-0.02l0.06-0.02l0.05-0.03l0.05-0.03
			l0.05-0.03l0.04-0.03l0.04-0.04l0.04-0.04l0.06-0.08l0.05-0.09l0.04-0.09l0.03-0.09l0.02-0.09l0.02-0.09l0.02-0.17v-0.14v-0.38
			l0.01-0.35l0.04-0.63l0.09-1.17l0,0c0.02-0.32,0.03-0.67,0.03-1.07c0.06,0.09,0.11,0.18,0.17,0.27c0.35,0.64,0.67,1.3,0.94,1.97
			c0.07,0.15,0.14,0.3,0.22,0.44c0.12,0.21,0.25,0.4,0.41,0.58c0.43,0.48,0.96,0.85,1.56,1.08c0.59,0.22,1.21,0.33,1.84,0.32
			c0.66,0.03,1.32-0.1,1.92-0.39l0.24-0.13c0.69-0.4,1.22-1.02,1.51-1.76C-292.54-2476.34-292.45-2477.11-292.55-2477.88z
			 M-301.39-2497.65c0.22-0.38,0.4-0.78,0.55-1.2c0.25-0.69,0.42-1.41,0.51-2.14c0.09,0.47,0.15,0.95,0.25,1.41l0.05,0.24
			c0.04,0.19,0.07,0.34,0.08,0.46c0.03,0.13,0.05,0.26,0.05,0.39c0.03,0.26,0.03,0.52,0.01,0.78c-0.04,0.54-0.24,1.05-0.57,1.48
			c-0.42,0.52-1.04,0.84-1.71,0.85c-0.26,0.02-0.52,0.01-0.77-0.03C-302.37-2496.12-301.85-2496.87-301.39-2497.65L-301.39-2497.65z
			 M-325.77-2506.9c0.03-0.09,0.06-0.17,0.09-0.26c0.23-0.7,0.5-1.38,0.81-2.05c0.01-0.02,0.02-0.03,0.02-0.05
			c0.13-0.28,0.27-0.54,0.43-0.81c0.15-0.29,0.32-0.57,0.52-0.83c0.22-0.33,0.46-0.65,0.73-0.94c0.25-0.31,0.53-0.59,0.83-0.85
			c0.47-0.45,1.08-0.72,1.58-1.11l0.81-0.55c0.4-0.26,0.82-0.45,1.22-0.68c0.44-0.2,0.89-0.36,1.36-0.48
			c0.81-0.17,1.62-0.29,2.44-0.36c0.65-0.05,1.29-0.05,1.94-0.01l1.18,0.15c0.39,0.09,0.77,0.19,1.16,0.3
			c0.61,0.23,1.17,0.56,1.75,0.84c0.3,0.12,0.59,0.26,0.88,0.42c0.85,0.42,1.63,0.98,2.3,1.65l0.83,0.97l0.71,0.96
			c0.26,0.44,0.54,0.87,0.78,1.33c0.02,0.03,0.03,0.06,0.05,0.09c0.04,0.09,0.1,0.17,0.14,0.26c0.18,0.35,0.33,0.72,0.46,1.1
			c0.02,0.04,0.03,0.09,0.04,0.13c0.08,0.21,0.14,0.43,0.19,0.64c0.03,0.12,0.06,0.25,0.08,0.37c0.07,0.32,0.11,0.64,0.11,0.97
			c0.02,0.33,0.04,0.65,0.05,0.96c0.01,0.27,0.07,0.64,0.08,0.97c0.05,0.95-0.05,1.9-0.3,2.82c-0.24,0.79-0.54,1.56-0.9,2.3
			c-0.13,0.29-0.28,0.58-0.45,0.85c-0.15,0.29-0.32,0.57-0.52,0.83c-0.13,0.19-0.27,0.38-0.4,0.56c-0.1,0.13-0.21,0.26-0.32,0.39
			c-0.04,0.05-0.08,0.09-0.13,0.14c-0.2,0.23-0.41,0.45-0.64,0.65l0,0c-0.02,0.02-0.04,0.04-0.07,0.06
			c-0.04,0.04-0.09,0.07-0.13,0.11c-0.04,0.04-0.1,0.09-0.15,0.13c-0.24,0.18-0.49,0.34-0.74,0.5c-0.19,0.12-0.38,0.24-0.56,0.38
			l-0.81,0.55c-0.01,0.01-0.03,0.02-0.05,0.03c-0.31,0.2-0.63,0.36-0.95,0.54c-0.07,0.04-0.15,0.08-0.22,0.12
			c-0.27,0.11-0.55,0.22-0.83,0.32c-0.17,0.06-0.35,0.12-0.53,0.16c-0.81,0.18-1.62,0.3-2.44,0.36c-0.65,0.05-1.3,0.05-1.94,0.01
			l-1.18-0.15c-0.39-0.09-0.77-0.18-1.16-0.3c-0.56-0.24-1.12-0.5-1.65-0.79c-0.03-0.02-0.06-0.03-0.09-0.05
			c-0.3-0.12-0.59-0.26-0.88-0.42c-0.51-0.27-1-0.58-1.47-0.92c-0.18-0.19-0.36-0.37-0.51-0.57c-0.02,0.03-0.05,0.05-0.07,0.08
			c-0.08-0.08-0.17-0.15-0.25-0.23l-0.83-0.97l-0.36-0.49l-0.35-0.48c-0.36-0.54-0.68-1.1-0.96-1.69c-0.18-0.35-0.33-0.72-0.46-1.1
			c-0.14-0.37-0.25-0.76-0.32-1.15c-0.07-0.32-0.11-0.64-0.11-0.96l-0.05-0.96c-0.01-0.27-0.08-0.64-0.09-0.97
			C-326.12-2505.03-326.02-2505.98-325.77-2506.9z M-305.02-2490.57l-0.78,0.52l0,0l-0.02,0.01l-0.04,0.01h-0.04l-0.04-0.01
			l-0.04-0.01l-0.04-0.02l-0.04-0.02l-0.04-0.03l-0.03-0.03l-0.03-0.04l-0.04-0.06l-0.08-0.12l-0.01-0.02l0,0l-0.52-0.78
			c-0.09-0.12-0.18-0.23-0.27-0.35c-0.03-0.03-0.05-0.07-0.07-0.1c0.21-0.1,0.42-0.2,0.62-0.31l0.23-0.12
			c0.23-0.15,0.46-0.31,0.67-0.48c0.06,0.15,0.14,0.29,0.23,0.42l0.65,0.94l0.03,0.04l0.02,0.04l0.01,0.04l0.01,0.04v0.04
			l-0.01,0.04l-0.01,0.04l-0.02,0.04l-0.02,0.04l-0.03,0.04l-0.03,0.03l-0.04,0.03l-0.05,0.04l-0.12,0.08L-305.02-2490.57
			L-305.02-2490.57z M-328.93-2498.19l0.07-0.67l0.01-0.06c0.2-1.11,0.33-2.23,0.4-3.35c0.01-0.04,0.01-0.07,0.02-0.11
			c0.05-0.22,0.08-0.42,0.12-0.63c0.1,1.51,0.48,2.99,1.13,4.36c0.26,0.55,0.45,1.01,0.63,1.43l0.62,1.21
			c0.14,0.21,0.3,0.44,0.47,0.68c-0.3,0.04-0.6,0.03-0.9-0.02c-0.27-0.04-0.54-0.11-0.8-0.22c-0.39-0.15-0.75-0.37-1.05-0.66
			c-0.32-0.31-0.56-0.69-0.68-1.12c-0.05-0.19-0.07-0.39-0.07-0.59C-328.96-2498.02-328.94-2498.11-328.93-2498.19z
			 M-334.41-2495.37c-0.27-0.07-0.53-0.17-0.79-0.29c-0.38-0.19-0.71-0.45-0.99-0.76c-0.29-0.34-0.5-0.74-0.59-1.18
			c-0.06-0.46-0.01-0.92,0.13-1.36l0.06-0.2c0.43-1.36,0.58-2.8,0.9-4.19c0.27-1.12,0.53-1.77,0.8-2.61l0.13-0.4
			c0.04-0.14,0.07-0.29,0.12-0.45l0,0v-0.01l0.02-0.1v-0.01l0.02-0.03l0.02-0.02l0.01-0.01v-0.01l0.01-0.02l0.02-0.03l0.02-0.02
			l0.02-0.02l0.02-0.02l0.02-0.01l0.03-0.01l0.03-0.01h0.03h0.06l0.81,0.08c0.05,0.02,0.11,0.03,0.17,0.03
			c0.12-0.01,0.36-0.18,0.48-0.16c0.08,0.02,0.17,0.1,0.25,0.12l0.03,0.02c0.19,0.08,0.39-0.13,0.59-0.15
			c0.16-0.02,0.25,0.08,0.37,0.13l0.62,0.02h0.7h0.01h0.16h0.01l0.05,0.01l0.04,0.01h0.01l0.01,0.01l0.01,0.01l0.02,0.03l0.02,0.03
			l0.01,0.03v0.02l-0.11,0.69l-0.01,0.1c-0.05,0.22-0.1,0.44-0.15,0.67l0.06,0.01l0,0l-0.06-0.01c-0.08,0.36-0.15,0.74-0.21,1.21
			c-0.07,0.53-0.14,1.39-0.21,2.18c-0.03,0.18-0.05,0.37-0.08,0.55c-0.13,0.7-0.36,1.38-0.45,2.09c-0.02,0.13-0.04,0.35-0.05,0.59
			l-0.03,0.13c-0.07,0.32-0.13,0.76-0.17,0.99c-0.04,0.26-0.11,0.51-0.2,0.76c-0.18,0.5-0.51,0.93-0.94,1.24
			C-333.09-2495.28-333.78-2495.18-334.41-2495.37z M-312.6-2476.35c-0.01,0.12-0.01,0.24-0.02,0.37s-0.03,0.32-0.03,0.47l0,0
			l-0.16,0.01c-0.98,0.02-1.89,0.15-2.92,0.09c-0.91-0.05-1.74-0.06-2.55-0.05c-0.38,0-0.76,0.01-1.13,0.02v-0.02
			c-0.01-0.08-0.01-0.15-0.01-0.23c0.02-0.22,0.04-0.43,0.05-0.66c0.01-0.23,0.02-0.49,0.02-0.8c-0.01-0.57-0.13-1.72-0.11-2.29
			c0.01-0.39,0.07-0.79,0.09-1.18c0-0.05,0.01-0.11,0.01-0.16c0.06-0.92-0.09-1.85-0.1-2.77c-0.01-0.74,0.06-1.19,0.09-1.76
			l0.02-0.37c0-0.13,0-0.27,0-0.42l0,0v0v-0.08v-0.02l0.01-0.03l0.01-0.03l0.01-0.02l0.02-0.02l0.02-0.02l0.02-0.01l0.02-0.01
			l0.02-0.01l0.02-0.01l0.05-0.01h0.05l0.73,0.06c0.14,0.02,0.28,0.02,0.42,0.02c0.3-0.01,0.92-0.13,1.22-0.11
			c0.21,0.01,0.42,0.07,0.63,0.09l0.09,0.01c0.49,0,0.99-0.03,1.47-0.1c0.32,0,0.63,0.03,0.94,0.09l0.37,0.02h0.42h0.01h0.08h0.02
			l0.03,0.01l0.03,0.01l0.02,0.01l0.02,0.02l0.02,0.02l0.01,0.02l0.01,0.02l0.01,0.02l0.01,0.02l0.01,0.05v0.05l-0.06,0.73
			c-0.02,0.23-0.02,0.49-0.02,0.8c0.01,0.57,0.12,1.72,0.11,2.29c-0.01,0.39-0.07,0.79-0.09,1.18c0,0.05-0.01,0.11-0.01,0.16
			c-0.06,0.92,0.09,1.85,0.1,2.77C-312.5-2477.37-312.56-2476.92-312.6-2476.35L-312.6-2476.35z M-303.83-2479.72
			c-0.05,1-0.06,1.9-0.05,2.78l0,0l0.02,1.14v0.05l-0.01,0.05l-0.01,0.04l-0.02,0.04l-0.02,0.03l-0.02,0.03l-0.03,0.02l-0.04,0.02
			l-0.04,0.02l-0.04,0.01l-0.05,0.01l-0.05,0.01h-0.07h-0.16h-0.94l0,0c-0.66,0.01-1.32,0.02-2,0.03c-0.82,0.01-1.64,0.03-2.45,0.01
			c-0.4-0.01-0.79-0.05-1.18-0.09c-0.03-0.15-0.04-0.29-0.04-0.44c0-0.14,0-0.27,0-0.41c0-0.46-0.02-0.91-0.02-1.39
			c-0.01-0.57-0.02-1.13-0.01-1.7c0.01-0.46,0.1-0.92,0.09-1.38c0-0.19-0.02-0.46-0.04-0.7c-0.01-0.68-0.1-1.31-0.06-2.02
			c0.04-0.63,0.04-1.2,0.04-1.76c-0.01-0.46-0.02-0.92-0.02-1.39l-0.01-0.29l-0.02-0.15l-0.02-0.14l-0.03-0.13l-0.04-0.11
			l-0.02-0.05l-0.03-0.04l-0.03-0.04l-0.03-0.03l-0.07-0.03l-0.07-0.03l-0.07-0.03h-0.02l-0.06-0.02l-0.11-0.03l-0.09-0.02
			l-0.07-0.01l-0.92-0.03h-0.86c-0.24,0-0.49,0.02-0.74,0.02c-0.3,0.01-0.6,0.02-0.9,0.01c-0.25-0.01-0.49-0.1-0.74-0.09
			c-0.1,0-0.25,0.02-0.37,0.04c-0.36,0.05-0.72,0.07-1.08,0.06c-0.31-0.03-0.63-0.04-0.94-0.03l-1.39,0.02l-0.29,0.01l-0.14,0.02
			l-0.14,0.02l-0.13,0.03l-0.11,0.04l-0.05,0.02l-0.04,0.03l-0.04,0.03l-0.03,0.03l-0.04,0.07l-0.03,0.07l-0.02,0.07v0.02
			l-0.02,0.06l-0.03,0.11l-0.01,0.09l-0.01,0.07c-0.01,0.32-0.02,0.62-0.03,0.91c-0.01,0.29,0,0.58,0,0.86
			c0,0.46,0.02,0.91,0.02,1.39c0.01,0.57,0.02,1.13,0.01,1.7c-0.01,0.46-0.1,0.92-0.09,1.38c0,0.19,0.02,0.46,0.04,0.7
			c0.02,0.68,0.1,1.31,0.06,2.02c-0.04,0.63-0.04,1.2-0.04,1.76c0,0.13,0,0.25,0,0.38c0,0.16-0.03,0.36-0.03,0.53v0.02
			c-0.59,0.01-1.18,0.02-1.77,0.01c-0.67-0.02-1.33-0.15-1.99-0.13c-0.28,0.01-0.67,0.03-1.01,0.05c-0.98,0.02-1.89,0.15-2.92,0.09
			c-0.91-0.05-1.74-0.06-2.55-0.05l0,0l-1.14,0.02h-0.05l-0.05-0.01l-0.04-0.01l-0.04-0.02l-0.04-0.04l-0.03-0.03l-0.03-0.03
			l-0.02-0.03l-0.02-0.04l-0.01-0.04l-0.01-0.05l-0.01-0.05v-0.07v-0.16l0,0c0-0.32,0-0.63,0-0.94c-0.01-0.73-0.02-1.44-0.03-2.19
			c-0.01-0.89-0.03-1.79-0.01-2.68c0.02-0.73,0.15-1.46,0.13-2.18c-0.01-0.31-0.03-0.73-0.05-1.1c-0.02-1.07-0.14-2.07-0.09-3.19
			c0.05-1,0.06-1.9,0.05-2.78c0-0.2,0-0.4-0.01-0.6c0-0.26,0.05-0.57,0.04-0.83c0.02-0.27-0.01-0.55-0.09-0.81
			c0.23-0.07,0.46-0.15,0.68-0.26c0.78-0.38,1.46-0.95,1.96-1.66c0.16,0.22,0.32,0.43,0.5,0.64c0.8,0.88,1.91,1.4,3.09,1.46
			c0.91,0.06,1.81-0.13,2.61-0.56c0.5,0.44,1.03,0.85,1.58,1.22c0.51,0.41,1.04,0.79,1.59,1.14l0.23,0.13
			c1.37,0.7,2.87,1.11,4.4,1.21c0.96,0.15,1.93,0.23,2.9,0.24c0.44,0,0.88-0.04,1.32-0.12c0.62-0.12,1.24-0.28,1.83-0.5
			c0.3-0.13,0.6-0.25,0.88-0.36c0.11,0.08,0.21,0.17,0.3,0.27c0.1,0.16,0.17,0.35,0.2,0.54l0.28,0.46c0.1,0.16,0.21,0.33,0.33,0.51
			c0.12,0.17,0.28,0.38,0.45,0.61l0.52,0.68v0.01l0.01,0.01l0.03,0.04l0,0l0.01,0.02l0.05,0.05l0.05,0.05l0.05,0.04l0.04,0.03
			l0.12,0.21l0.15,0.29c0.09,0.19,0.17,0.36,0.25,0.52c0.15,0.33,0.29,0.64,0.45,0.99c0.12,0.26,0.26,0.54,0.45,0.87
			c0.35,0.6,1.19,1.77,1.51,2.39c0.01,0.03,0.02,0.06,0.04,0.09C-303.83-2481.28-303.81-2480.5-303.83-2479.72z M-294.76-2476.6
			c-0.19,0.3-0.46,0.56-0.77,0.74c-0.14,0.11-0.29,0.2-0.45,0.28c-0.51,0.23-1.09,0.2-1.57-0.08c-0.21-0.14-0.39-0.31-0.55-0.5
			c-0.17-0.22-0.31-0.45-0.44-0.69l-0.86-1.48c-0.35-0.6-0.71-1.2-1.03-1.83c-0.26-0.51-0.43-1.06-0.72-1.55l-0.47-0.73
			c-0.03-0.05-0.06-0.1-0.09-0.15c-0.44-0.64-0.84-1.31-1.2-1.99c-0.3-0.64-0.61-1.21-0.92-1.76c-0.03-0.05-0.06-0.11-0.09-0.17
			l-0.53-0.91l-0.02-0.04l-0.01-0.04l-0.01-0.04v-0.04v-0.04l0.01-0.03l0.03-0.07l0.02-0.03l0.02-0.03l0.03-0.03l0.03-0.03
			l0.05-0.04l0.11-0.07l0.02-0.01l0,0h0.01l0,0l0.08-0.06l0.24-0.16l0.38-0.26l-0.01-0.01l0.16-0.11l0.04-0.02l0.04-0.02l0.04-0.01
			h0.04h0.04l0.04,0.01l0.07,0.02l0.04,0.02l0.04,0.02l0.04,0.03l0.03,0.03l0.04,0.05l0.08,0.1l0.01,0.01l0,0l0.29,0.37l0,0
			l0.24,0.31l0,0l0,0l0,0l0.13,0.15l0,0l0.34,0.41c0.21,0.25,0.41,0.5,0.62,0.75c0.44,0.54,0.9,1.07,1.31,1.63
			c0.34,0.46,0.6,0.98,0.96,1.42l0.58,0.64c0.54,0.64,1.12,1.18,1.62,1.9c0.45,0.64,0.88,1.2,1.32,1.73l0.25,0.31
			c0.06,0.07,0.11,0.15,0.16,0.23c0.1,0.16,0.18,0.34,0.23,0.52C-294.54-2477.51-294.56-2477.03-294.76-2476.6L-294.76-2476.6z"/>
		<path id="패스_13020" class="st1" d="M-323.34-2499.38c0.18,0.42,0.38,0.83,0.6,1.23c0.25,0.41,0.55,0.8,0.87,1.15
			c0.47,0.51,1.01,0.96,1.59,1.33c0.31,0.22,0.63,0.41,0.97,0.58c0.31,0.18,0.6,0.31,0.82,0.42c0.31,0.17,0.63,0.32,0.96,0.46
			c0.24,0.11,0.48,0.19,0.73,0.26l-0.01,0.02c0.58,0.22,1.2,0.34,1.82,0.36c0.02,0,0.04-0.01,0.05-0.01
			c0.72,0.03,1.43-0.03,2.14-0.17l0.02,0.01c0.49-0.09,0.98-0.21,1.46-0.35l0,0c0.37-0.12,0.69-0.23,0.99-0.34
			c0.67-0.24,1.32-0.53,1.95-0.88c0.41-0.25,0.8-0.55,1.15-0.87c0.08-0.07,0.16-0.15,0.25-0.24c0.28-0.28,0.53-0.58,0.77-0.9
			c0.11-0.15,0.22-0.3,0.32-0.45c0.2-0.29,0.38-0.6,0.54-0.91c0.01-0.02,0.03-0.04,0.04-0.06c0.18-0.31,0.31-0.59,0.42-0.83
			c0.17-0.31,0.32-0.63,0.46-0.96c0.15-0.32,0.27-0.66,0.36-1l0.08-0.27c0.32-1.48,0.25-3.01-0.19-4.46
			c-0.04-0.16-0.09-0.32-0.13-0.48c-0.05-0.16-0.09-0.27-0.13-0.4c-0.1-0.28-0.19-0.55-0.28-0.79c-0.17-0.46-0.37-0.9-0.59-1.34
			c-0.07-0.13-0.13-0.26-0.21-0.4c-0.25-0.41-0.55-0.8-0.87-1.15c-0.47-0.51-1.01-0.96-1.59-1.33c-0.31-0.22-0.63-0.41-0.97-0.58
			c-0.31-0.18-0.6-0.31-0.83-0.42c-0.31-0.17-0.63-0.32-0.96-0.46c-0.32-0.15-0.66-0.27-1-0.36l-0.28-0.08
			c-1.65-0.34-3.35-0.23-4.94,0.33c-1.02,0.3-2,0.71-2.93,1.21c-0.41,0.25-0.8,0.55-1.15,0.87c-0.51,0.47-0.96,1.01-1.33,1.59
			c-0.17,0.25-0.33,0.52-0.47,0.79c-0.03,0.06-0.08,0.12-0.11,0.18c-0.18,0.31-0.31,0.59-0.42,0.83c-0.17,0.31-0.32,0.63-0.46,0.96
			c-0.04,0.09-0.06,0.19-0.1,0.28c-0.1,0.23-0.19,0.47-0.26,0.72l-0.08,0.27c-0.34,1.65-0.23,3.35,0.32,4.94
			C-323.74-2500.4-323.54-2499.87-323.34-2499.38z M-306.26-2503.99l0.01-0.02c0.02,0.18,0.04,0.35,0.06,0.54
			c0.01,0.12,0.04,0.23,0.05,0.35c-0.05,0.25-0.1,0.5-0.13,0.74c-0.07,0.26-0.1,0.65-0.2,0.97c-0.23,0.93-0.66,1.8-1.26,2.54
			c-0.01,0.01-0.01,0.02-0.02,0.03c-0.53,0.58-1.12,1.1-1.75,1.57l-0.19,0.12l-0.36,0.23c-0.42,0.26-0.86,0.49-1.33,0.66
			c-0.3,0.11-0.6,0.2-0.9,0.27c-0.48,0.12-0.97,0.2-1.46,0.21c-0.65-0.03-1.3-0.11-1.94-0.26c-0.15-0.04-0.34-0.07-0.54-0.11
			c-0.14-0.02-0.29-0.06-0.42-0.1c-0.94-0.23-1.82-0.66-2.57-1.28c-0.62-0.57-1.18-1.19-1.67-1.88c-0.05-0.07-0.08-0.15-0.13-0.22
			c0-0.1,0.01-0.2,0.01-0.3l0.03-0.05c0.09-0.14,0.18-0.27,0.29-0.39c0.09-0.1,0.24-0.15,0.31-0.26c0.03-0.06,0.06-0.12,0.09-0.18
			c0.07-0.18,0.18-0.35,0.3-0.5c0.12-0.11,0.24-0.24,0.33-0.38l0.76-1.03l0.04-0.04l0.03-0.04l0.03-0.03l0.03-0.03l0.03-0.02
			l0.03-0.01h0.02l0,0l0,0l0,0l0.01,0.01l0.03,0.03l0.03,0.03l0.03,0.04l0.06,0.09l0.04,0.07l0.07,0.14l0.01,0.02l0,0l0.07,0.14l0,0
			l0.05,0.1l0.36,0.7h0.01l0.69,1.32l0.24,0.43l0.13,0.21l0.13,0.2l0.13,0.18l0.12,0.15l0.06,0.06l0.06,0.05l0.05,0.04l0.01,0.01
			l0.01-0.01l0.03-0.02l0.02-0.02l0.01,0.01l0.06,0.06l0.05,0.05l0.01,0.01l0.01-0.01l0.03-0.02l0.1-0.09l0.1-0.09l0.09-0.1
			l0.02-0.03l0.07-0.08l0.13-0.16l0,0l0.17-0.25l0.93-1.49l0.85-1.42c0.01-0.02,0.02-0.05,0.02-0.07c0.02-0.01,0.03-0.02,0.05-0.03
			c0.04-0.01,0.08-0.04,0.1-0.08c0-0.01,0.01-0.02,0.01-0.03c0-0.01,0.02,0,0.02-0.01c0-0.02,0-0.03-0.01-0.05l0.01-0.03
			c0.02-0.05,0.04-0.11,0.05-0.17c0.02-0.01,0.04-0.03,0.05-0.05l0.12-0.21c0.04-0.04,0.08-0.09,0.11-0.14l0.71-1.09l0.03-0.05l0,0
			l0.03,0.03l0.07,0.08l0.07,0.1l0.04,0.08l0.08,0.16l0.01,0.02l0,0l0.21,0.42l0,0l0.03,0.06l0.29,0.59h0.01l0.53,1.04l0.19,0.34
			l0.1,0.17l0.11,0.16l0.11,0.14l0.1,0.12l0.05,0.05l0.05,0.04l0.05,0.03l0.01,0.01h0.01h0.03l0.1-0.03l0.09-0.04l0.08-0.05
			l0.02-0.01l0.02-0.01l0.05,0.05l0.05,0.04l0.05,0.04l0.05,0.03l0.01,0.01h0.01l0.02-0.01l0.09-0.03l0.09-0.04l0.08-0.05l0.02-0.01
			l0.07-0.04l0.12-0.09l0.1-0.08l0.07-0.06l0.85-0.85l0.02-0.03c0.27-0.29,0.54-0.57,0.8-0.85c0.1-0.11,0.19-0.22,0.29-0.34
			c0.11-0.14,0.24-0.27,0.37-0.4C-306.52-2503.83-306.35-2503.87-306.26-2503.99L-306.26-2503.99z M-322.01-2505.46
			c0.07-0.26,0.1-0.65,0.2-0.97c0.23-0.94,0.66-1.82,1.28-2.57c0.09-0.1,0.18-0.18,0.27-0.27c0.49-0.51,1.03-0.98,1.6-1.4
			c0.55-0.37,1.13-0.67,1.75-0.91c0.75-0.3,1.55-0.47,2.37-0.48c0.65,0.03,1.3,0.11,1.94,0.26c0.26,0.07,0.65,0.1,0.97,0.2
			c0.94,0.23,1.82,0.66,2.57,1.28c0.37,0.34,0.71,0.7,1.03,1.08c0.22,0.26,0.44,0.53,0.63,0.8c0.32,0.49,0.59,1,0.81,1.53v0.03
			l0.04,0.16v0.01l0,0c0.03,0.19,0.05,0.36,0.08,0.53c-0.19,0.2-0.38,0.41-0.58,0.6c-0.59,0.58-1.02,0.93-1.48,1.32
			c-0.09,0.08-0.18,0.15-0.27,0.23l0,0l0,0l0,0l-0.27,0.25l0,0l-0.1,0.09l-0.38,0.36l-0.02-0.04l-0.35-0.71l0.01-0.01l-0.29-0.54
			l-0.34-0.61l-1-1.61l0,0l-0.01-0.02l-0.09-0.12l-0.09-0.1l-0.01-0.01l-0.08-0.07l-0.09-0.06l-0.09-0.05l-0.02-0.01h-0.01h-0.01
			l-0.01,0.01l-0.04-0.04l-0.09-0.06l-0.02-0.01h-0.01h-0.01l-0.01,0.01l-0.05,0.03l-0.09,0.08l-0.08,0.09l-0.08,0.09l0,0
			l-0.14,0.19l-0.12,0.18l-0.09,0.15l-0.48,0.8l-0.2,0.32l-0.23,0.36c-0.2,0.3-0.39,0.59-0.58,0.89c-0.02,0.02-0.04,0.04-0.06,0.07
			c0,0.01-0.01,0.03-0.01,0.04l-0.17,0.26c-0.02,0-0.04,0.02-0.04,0.04c0,0.04,0,0.07,0.01,0.11c-0.04,0.02-0.07,0.04-0.1,0.06
			l-0.02,0.02c-0.01,0.01-0.01,0.03-0.02,0.04c-0.01,0.01-0.02,0.03-0.02,0.04c-0.04,0.06-0.07,0.14-0.09,0.21h-0.03l-0.21,0.33
			c-0.02,0.01-0.04,0.02-0.06,0.03l0.02,0.02l0,0l-0.02-0.02l-0.37,0.52l-0.05,0.07l-0.35,0.53l0,0l0,0v0.01l-0.02,0.03l-0.01-0.01
			l-0.03-0.03l-0.03-0.03l-0.05-0.08l-0.05-0.09l-0.04-0.09c-0.17-0.44-0.34-0.85-0.52-1.3c-0.03-0.08-0.06-0.17-0.1-0.26
			c-0.04-0.09-0.07-0.23-0.12-0.33c-0.08-0.17-0.34-0.48-0.61-0.47c-0.05,0-0.1,0.01-0.14,0.01l-0.31-0.55l0,0l-0.01-0.02
			l-0.09-0.13l-0.09-0.1l-0.09-0.08l-0.09-0.06l-0.08-0.05l-0.02-0.01h-0.01h-0.01l-0.01,0.01l-0.04,0.02l-0.09,0.06l-0.08,0.07
			l-0.08,0.07l-0.15,0.15l-0.12,0.14l-0.09,0.12l-0.5,0.65l-0.44,0.55l-0.84,1.01c-0.02,0.02-0.04,0.05-0.07,0.07
			c-0.03,0.03-0.06,0.06-0.09,0.1c-0.09,0.13-0.2,0.47-0.3,0.59c-0.08,0.08-0.19,0.14-0.27,0.22l-0.04,0.03
			c-0.08,0.08-0.14,0.17-0.18,0.28c-0.26-0.7-0.4-1.43-0.42-2.17C-322.24-2504.18-322.15-2504.83-322.01-2505.46L-322.01-2505.46z"
			/>
	</g>
	<path id="패스_13784" class="st1" d="M-204.08-381.83c-0.07-0.8-0.25-2.43-0.36-3.22c-0.07-0.55-0.07-1.11-0.13-1.66l-0.02-0.22
		c-0.18-1.3-0.5-2.57-0.96-3.8c-0.14-0.51-0.23-0.92-0.3-1.31l-0.31-1.12c-0.09-0.32-0.21-0.66-0.36-1.07
		c-0.15-0.37-0.38-0.94-0.65-1.49c-0.3-0.53-0.59-1.07-0.76-1.43c-0.23-0.51-0.39-1.05-0.62-1.55l-0.09-0.21
		c-0.66-1.13-1.38-2.22-2.16-3.27c-0.64-0.83-0.94-1.4-1.39-2.08c-0.18-0.28-0.39-0.58-0.66-0.92c-0.55-0.59-1.77-1.69-2.29-2.3
		c-0.35-0.43-0.74-0.83-1.12-1.23l-0.16-0.16c-0.46-0.46-0.96-0.89-1.47-1.29c-0.53-0.39-1.1-0.72-1.62-1.1
		c-0.86-0.6-1.27-1.11-1.96-1.55c-0.27-0.19-0.58-0.39-0.95-0.61c-0.35-0.2-0.89-0.48-1.43-0.77s-1.12-0.48-1.47-0.68
		c-0.49-0.26-0.96-0.57-1.45-0.83l-0.2-0.11c-1.2-0.51-2.44-0.94-3.71-1.27c-1-0.33-1.6-0.52-2.37-0.79
		c-0.32-0.1-0.66-0.21-1.09-0.31c-0.77-0.23-2.43-0.24-3.21-0.4c-0.54-0.14-1.09-0.25-1.64-0.32l-0.22-0.03
		c-1.3-0.1-2.61-0.1-3.92,0.01c-1.05,0.07-1.68,0.01-2.5,0c-0.38-0.02-0.75,0.01-1.13,0.07c-0.8,0.13-2.39,0.54-3.18,0.64
		c-0.55,0.08-1.1,0.16-1.64,0.27l-0.22,0.04c-0.64,0.13-1.27,0.31-1.89,0.52c-0.61,0.23-1.2,0.53-1.81,0.76
		c-0.97,0.4-1.63,0.46-2.37,0.79c-0.31,0.13-0.64,0.27-1.03,0.46c-0.72,0.35-2.13,1.19-2.79,1.64c-0.48,0.28-1,0.49-1.49,0.76
		l-0.2,0.1c-1.09,0.72-2.12,1.53-3.09,2.41c-0.82,0.66-1.31,1.06-1.96,1.55c-0.26,0.21-0.54,0.44-0.85,0.74
		c-0.6,0.54-1.54,1.9-2.1,2.47c-0.41,0.37-0.8,0.77-1.16,1.2l-0.15,0.17c-0.82,1.02-1.53,2.12-2.13,3.28
		c-0.53,0.91-0.94,1.4-1.4,2.07c-0.16,0.29-0.33,0.61-0.52,1c-0.32,0.74-0.96,2.24-1.21,3.01c-0.2,0.52-0.48,1.01-0.68,1.52
		l-0.09,0.21c-0.44,1.23-0.76,2.5-0.95,3.8c-0.27,1.02-0.43,1.63-0.61,2.42c-0.07,0.33-0.14,0.68-0.2,1.11
		c-0.08,0.54-0.12,1.08-0.13,1.62c0.01,0.61,0.01,1.22-0.02,1.62c-0.04,0.55-0.16,1.11-0.2,1.66l-0.02,0.22
		c-0.03,1.31,0.25,2.61,0.33,3.91c0.16,1.04,0.17,1.68,0.24,2.48c0.03,0.33,0.07,0.69,0.14,1.12c0.15,0.79,0.75,2.33,0.92,3.11
		c0.06,0.27,0.11,0.55,0.15,0.82c0.07,0.27,0.14,0.54,0.22,0.8l0.06,0.22c0.41,1.24,0.94,2.44,1.59,3.58
		c0.47,0.94,0.66,1.55,0.97,2.31c0.15,0.3,0.33,0.61,0.56,0.98c0.45,0.67,1.36,2.03,1.86,2.65c0.32,0.45,0.58,0.95,0.9,1.41
		l0.12,0.19c0.79,1.04,1.68,2.01,2.66,2.88c0.7,0.79,1.14,1.24,1.7,1.83c0.23,0.24,0.49,0.49,0.82,0.78
		c0.57,0.58,2.01,1.39,2.63,1.89c0.44,0.34,0.82,0.77,1.28,1.07l0.18,0.13c1.1,0.71,2.26,1.33,3.45,1.85
		c0.95,0.44,1.48,0.8,2.19,1.2c0.32,0.19,0.67,0.35,1.03,0.46c0.76,0.26,2.35,0.69,3.09,0.96c0.53,0.15,1.05,0.38,1.58,0.53
		l0.21,0.07c0.62,0.2,1.26,0.35,1.91,0.44c0.65,0.06,1.31,0.1,1.96,0.19c1.04,0.13,1.65,0.37,2.46,0.43
		c0.33,0.04,0.69,0.07,1.13,0.09c1.08,0.02,2.16-0.02,3.23-0.11c0.55-0.01,1.11,0.05,1.67,0.03h0.22c0.66,0.01,1.31-0.07,1.94-0.24
		c0.64-0.14,1.28-0.29,1.92-0.4c1.04-0.14,1.66-0.29,2.46-0.42c0.33-0.06,0.68-0.14,1.1-0.26c0.79-0.16,2.26-0.92,3.02-1.17
		c0.52-0.19,1.09-0.27,1.6-0.48l0.21-0.08c1.19-0.54,2.34-1.17,3.44-1.88c0.89-0.56,1.48-0.81,2.2-1.19
		c0.34-0.17,0.66-0.37,0.95-0.61c0.64-0.49,1.86-1.59,2.49-2.07c0.42-0.36,0.89-0.67,1.31-1.03l0.18-0.14
		c0.51-0.41,0.98-0.86,1.41-1.36c0.41-0.51,0.81-1.03,1.24-1.52c0.35-0.39,0.65-0.69,0.93-0.97c0.27-0.28,0.5-0.56,0.77-0.86
		c0.21-0.25,0.44-0.53,0.7-0.89c0.23-0.33,0.58-0.83,0.89-1.35c0.28-0.54,0.57-1.08,0.79-1.41c0.3-0.47,0.66-0.9,0.97-1.36
		l0.13-0.18c0.58-1.17,1.1-2.37,1.57-3.6c0.35-0.99,0.65-1.55,0.98-2.3c0.13-0.31,0.27-0.64,0.41-1.05
		c0.19-0.78,0.45-2.41,0.66-3.17c0.17-0.53,0.31-1.07,0.42-1.61l0.05-0.22c0.24-1.29,0.35-2.59,0.31-3.9
		c0.04-1.05,0.16-1.68,0.25-2.49C-204.05-381.03-204.06-381.39-204.08-381.83z M-208.8-367.19c-0.25,0.72-0.56,1.41-0.92,2.08
		c-0.28,0.55-0.66,1.05-0.91,1.61c-0.12,0.22-0.29,0.54-0.44,0.82c-0.41,0.81-0.86,1.59-1.35,2.35c-0.55,0.65-1.01,1.26-1.45,1.86
		c-0.35,0.51-0.73,1-1.15,1.45c-0.5,0.57-1,1.14-1.52,1.69c-0.42,0.45-1,0.74-1.43,1.18l-0.66,0.67c-0.62,0.66-1.3,1.26-2.05,1.77
		c-0.72,0.45-1.29,0.96-1.95,1.33l-1.57,0.99l-0.96,0.6l-1.03,0.49c-0.57,0.25-1.17,0.41-1.72,0.69c-0.27,0.16-0.55,0.29-0.84,0.41
		c-0.84,0.33-1.6,0.73-2.52,1.01c-0.81,0.24-1.57,0.37-2.29,0.58c-0.6,0.15-1.17,0.35-1.79,0.47c-0.75,0.12-1.49,0.26-2.25,0.35
		c-0.61,0.08-1.24,0.07-1.85,0.08l-0.93,0.1c-0.89,0.14-1.8,0.19-2.71,0.16c-0.85-0.09-1.61-0.14-2.36-0.17
		c-0.62-0.01-1.24-0.07-1.85-0.18c-0.75-0.1-1.5-0.2-2.25-0.33c-0.6-0.13-1.17-0.43-1.76-0.56l-0.92-0.18
		c-0.89-0.15-1.77-0.4-2.6-0.76c-0.77-0.36-1.51-0.56-2.18-0.9l-1.68-0.78l-1.03-0.48c-0.33-0.19-0.65-0.39-0.97-0.59
		c-0.52-0.34-0.98-0.76-1.51-1.07c-0.28-0.14-0.55-0.3-0.81-0.47c-0.73-0.53-1.49-0.94-2.22-1.56c-0.64-0.55-1.17-1.11-1.74-1.6
		c-0.45-0.42-0.94-0.78-1.37-1.25c-0.52-0.55-1.04-1.1-1.54-1.68c-0.2-0.24-0.39-0.48-0.56-0.74c-0.15-0.27-0.33-0.52-0.51-0.77
		l-0.6-0.72c-0.28-0.36-0.57-0.69-0.86-1.03c-0.28-0.36-0.53-0.75-0.74-1.16c-0.4-0.75-0.79-1.4-1.18-2.04
		c-0.28-0.55-0.55-1.09-0.83-1.66c-0.37-0.66-0.68-1.35-0.94-2.07c-0.2-0.59-0.29-1.21-0.52-1.78l-0.37-0.86
		c-0.3-0.85-0.56-1.72-0.77-2.6c-0.19-0.83-0.29-1.58-0.41-2.32c-0.1-0.61-0.21-1.21-0.31-1.83c-0.11-0.75-0.16-1.51-0.17-2.27
		c-0.01-0.62,0.08-1.24,0.03-1.85v-0.93c0.03-0.9-0.05-1.76,0.05-2.71c0.16-0.83,0.3-1.59,0.4-2.33c0.06-0.62,0.16-1.23,0.3-1.83
		c0.18-0.73,0.35-1.48,0.56-2.2c0.2-0.59,0.42-1.16,0.68-1.72l0.27-0.89c0.22-0.88,0.54-1.73,0.96-2.53
		c0.41-0.74,0.75-1.43,1.07-2.11l0.93-1.6c0.36-0.67,0.76-1.31,1.22-1.91c0.39-0.49,0.85-0.91,1.21-1.41
		c0.14-0.21,0.34-0.52,0.52-0.78c0.55-0.72,1.14-1.41,1.75-2.07c0.58-0.62,1.18-1.1,1.72-1.61l1.35-1.27
		c0.58-0.48,1.19-0.94,1.81-1.38c0.52-0.34,1.05-0.66,1.58-0.96c0.21-0.14,0.51-0.35,0.77-0.53c0.72-0.55,1.49-1.02,2.31-1.42
		c0.79-0.32,1.47-0.65,2.15-0.98c0.56-0.27,1.13-0.51,1.71-0.71c0.71-0.27,1.41-0.56,2.13-0.78c0.6-0.14,1.23-0.17,1.82-0.34
		l0.89-0.28c0.86-0.28,1.75-0.47,2.65-0.56c0.85-0.07,1.6-0.23,2.35-0.24l1.85-0.12l1.14-0.08l1.14,0.07
		c0.62,0.05,1.23,0.2,1.84,0.22c0.26,0.02,0.62-0.02,0.93,0.02c0.9,0.12,1.75,0.13,2.69,0.33c0.84,0.14,1.56,0.4,2.29,0.56l1.8,0.43
		c0.72,0.23,1.44,0.49,2.14,0.76c0.57,0.25,1.13,0.51,1.67,0.79l0.86,0.36c0.85,0.31,1.67,0.69,2.45,1.16
		c0.7,0.48,1.35,0.89,1.99,1.27c0.53,0.32,1.04,0.67,1.53,1.04c0.61,0.45,1.24,0.88,1.82,1.36c0.45,0.43,0.82,0.94,1.28,1.34
		l0.73,0.59c0.7,0.58,1.34,1.22,1.92,1.91c0.27,0.33,0.53,0.64,0.79,0.93s0.46,0.62,0.69,0.91l1.14,1.47
		c0.46,0.6,0.88,1.24,1.24,1.91c0.31,0.54,0.52,1.12,0.85,1.64l0.45,0.82c0.46,0.78,0.87,1.59,1.24,2.41
		c0.24,0.81,0.5,1.53,0.77,2.23c0.24,0.57,0.44,1.16,0.59,1.76c0.2,0.73,0.41,1.46,0.58,2.2c0.17,0.6,0.08,1.24,0.2,1.84l0.19,0.91
		c0.08,0.45,0.18,0.88,0.27,1.31c0.06,0.46,0.08,0.91,0.08,1.37c-0.01,0.85,0.02,1.61,0.07,2.36c-0.02,0.61-0.04,1.22-0.07,1.85
		c0,0.76-0.05,1.52-0.15,2.27c-0.11,0.61-0.32,1.2-0.4,1.81c-0.02,0.26-0.06,0.62-0.09,0.93c-0.11,0.9-0.3,1.78-0.55,2.65
		c-0.13,0.4-0.24,0.79-0.35,1.17c-0.13,0.37-0.26,0.72-0.39,1.08C-208.39-368.36-208.59-367.79-208.8-367.19z"/>
</g>
</svg>
