<?xml version="1.0" encoding="utf-8"?>
<!-- Generator: Adobe Illustrator 24.1.1, SVG Export Plug-In . SVG Version: 6.00 Build 0)  -->
<!DOCTYPE svg PUBLIC "-//W3C//DTD SVG 1.1//EN" "http://www.w3.org/Graphics/SVG/1.1/DTD/svg11.dtd" [
	<!ENTITY ns_extend "http://ns.adobe.com/Extensibility/1.0/">
	<!ENTITY ns_ai "http://ns.adobe.com/AdobeIllustrator/10.0/">
	<!ENTITY ns_graphs "http://ns.adobe.com/Graphs/1.0/">
	<!ENTITY ns_vars "http://ns.adobe.com/Variables/1.0/">
	<!ENTITY ns_imrep "http://ns.adobe.com/ImageReplacement/1.0/">
	<!ENTITY ns_sfw "http://ns.adobe.com/SaveForWeb/1.0/">
	<!ENTITY ns_custom "http://ns.adobe.com/GenericCustomNamespace/1.0/">
	<!ENTITY ns_adobe_xpath "http://ns.adobe.com/XPath/1.0/">
]>
<svg version="1.1" id="레이어_1" xmlns:x="&ns_extend;" xmlns:i="&ns_ai;" xmlns:graph="&ns_graphs;"
	 xmlns="http://www.w3.org/2000/svg" xmlns:xlink="http://www.w3.org/1999/xlink" x="0px" y="0px" viewBox="0 0 76.78 76.59"
	 style="enable-background:new 0 0 76.78 76.59;" xml:space="preserve">
<style type="text/css">
	.st0{fill:#FFFFFF;}
	.st1{fill:#424242;}
</style>
<metadata>
	<sfw  xmlns="&ns_sfw;">
		<slices></slices>
		<sliceSourceBounds  bottomLeftOrigin="true" height="76.59" width="76.78" x="629.71" y="-409.86"></sliceSourceBounds>
	</sfw>
</metadata>
<g id="그룹_17495" transform="translate(-2651.165 -5698)">
	<ellipse id="타원_227" class="st0" cx="2689.35" cy="5736.81" rx="37" ry="37.5"/>
	<path id="패스_13034" class="st1" d="M2711.72,5756.44c-0.1-0.22-0.26-0.41-0.46-0.53c-0.07-0.05-0.15-0.09-0.23-0.13
		c-0.12-0.05-0.24-0.08-0.37-0.07c0-0.15-0.01-0.29-0.04-0.44c-0.04-0.22-0.06-0.45-0.06-0.67c0-0.19,0-0.38,0-0.57
		c-0.01-0.64-0.02-1.28-0.03-1.94c-0.01-0.79-0.03-1.58-0.01-2.37c0.02-0.65,0.14-1.29,0.13-1.93c-0.01-0.27-0.03-0.65-0.05-0.98
		c-0.02-0.95-0.15-1.83-0.09-2.83c0.05-0.88,0.06-1.68,0.05-2.47c-0.01-0.64-0.02-1.28-0.03-1.94c-0.01-0.79-0.03-1.58-0.01-2.37
		c0.02-0.65,0.14-1.29,0.13-1.93c-0.01-0.27-0.03-0.65-0.05-0.98c-0.02-0.95-0.15-1.83-0.09-2.83c0.05-0.88,0.06-1.68,0.05-2.47
		c-0.01-0.64-0.02-1.28-0.03-1.94c-0.01-0.79-0.03-1.58-0.01-2.37c0.02-0.65,0.14-1.29,0.13-1.93c-0.01-0.27-0.03-0.65-0.05-0.98
		c-0.02-0.95-0.15-1.83-0.09-2.83c0.05-0.88,0.06-1.68,0.05-2.47c-0.01-0.66-0.02-1.31-0.03-1.99l-0.01-0.2l-0.01-0.21l-0.02-0.21
		l-0.03-0.2l-0.04-0.18l-0.03-0.08l-0.03-0.08l-0.03-0.07l-0.04-0.06l-0.04-0.05l-0.02-0.02l-0.02-0.02l-0.09-0.06l-0.1-0.05
		l-0.1-0.04l0,0l-0.02-0.01l-0.08-0.03l-0.15-0.04l-0.13-0.02l-0.1-0.01l-0.67-0.03l-0.64-0.02h-1.18h-0.05
		c-0.64,0.01-1.28,0.02-1.94,0.03l-0.2,0.01l-0.21,0.01l-0.21,0.02l-0.2,0.03l-0.18,0.05l-0.08,0.03l-0.08,0.03l-0.07,0.03
		l-0.06,0.04l-0.05,0.04l-0.02,0.02l-0.02,0.02l-0.06,0.09l-0.05,0.1l-0.04,0.1l0,0l-0.01,0.02l-0.03,0.08l-0.04,0.15l-0.02,0.13
		l-0.01,0.1c-0.01,0.23-0.02,0.45-0.03,0.67l-0.02,0.64v1.23c0.01,0.64,0.02,1.28,0.03,1.94c0.01,0.79,0.03,1.58,0.01,2.37
		c-0.02,0.65-0.15,1.29-0.13,1.93c0.01,0.27,0.03,0.65,0.05,0.98c0.02,0.95,0.15,1.83,0.09,2.83c-0.05,0.88-0.06,1.68-0.05,2.47
		c0.01,0.64,0.02,1.28,0.03,1.94c0.01,0.79,0.03,1.58,0.01,2.37c-0.02,0.65-0.15,1.29-0.13,1.93c0.01,0.27,0.03,0.65,0.05,0.98
		c0.02,0.95,0.15,1.83,0.09,2.83c-0.05,0.88-0.06,1.68-0.05,2.47c0.01,0.64,0.02,1.28,0.03,1.94c0.01,0.79,0.03,1.58,0.01,2.37
		c-0.02,0.65-0.15,1.29-0.13,1.93c0.01,0.27,0.03,0.65,0.05,0.98c0.02,0.95,0.15,1.83,0.09,2.83c-0.05,0.88-0.06,1.68-0.05,2.47
		c0,0.18,0,0.36,0.01,0.53c0,0.23-0.05,0.51-0.04,0.74c0,0.16,0,0.29,0.02,0.43c-0.25-0.02-0.5-0.05-0.75-0.05l-0.08-0.01
		c0.01-0.18,0-0.36-0.03-0.54c-0.04-0.24-0.06-0.49-0.06-0.74c0-0.21,0-0.42,0-0.62c-0.01-0.7-0.02-1.4-0.03-2.12
		c-0.01-0.86-0.03-1.73-0.01-2.6c0.02-0.71,0.15-1.41,0.13-2.11c-0.01-0.3-0.03-0.71-0.05-1.07c-0.02-1.04-0.15-2-0.09-3.1
		c0.05-0.97,0.06-1.84,0.05-2.7c-0.01-0.7-0.02-1.4-0.03-2.12c-0.01-0.87-0.03-1.73-0.01-2.6c0.02-0.71,0.15-1.41,0.13-2.11
		c-0.01-0.3-0.03-0.71-0.05-1.07c-0.02-1.04-0.15-2-0.09-3.1c0.05-0.97,0.06-1.84,0.05-2.7c-0.01-0.66-0.02-1.31-0.03-1.99
		l-0.01-0.2l-0.01-0.21l-0.02-0.21l-0.03-0.2l-0.05-0.18l-0.03-0.08l-0.03-0.08l-0.03-0.07l-0.04-0.06l-0.04-0.05l-0.02-0.02
		l-0.02-0.02l-0.09-0.06l-0.1-0.05l-0.1-0.04l0,0l-0.02-0.01l-0.08-0.03l-0.15-0.04l-0.13-0.02l-0.1-0.01l-0.67-0.03l-0.64-0.02
		h-0.99l0.2-0.48c0.04-0.1,0.06-0.21,0.1-0.32c0.03-0.13,0.08-0.26,0.15-0.38c0.06-0.1,0.22-0.15,0.25-0.26
		c0.01-0.06,0.01-0.12,0.01-0.18c0.04-0.16-0.01-0.35,0.11-0.48c0.09-0.11,0.16-0.24,0.21-0.38c0.46-1.16,0.92-2.3,1.39-3.49
		l0.27-0.72l0.13-0.37l0.11-0.36l0.09-0.34l0.06-0.3l0.02-0.13l0.01-0.12v-0.1v-0.02l-0.02-0.01l-0.05-0.01l-0.19-0.02l-0.19-0.01
		h-0.19h-0.04h-0.15l-0.29,0.02l-0.24,0.03l-0.18,0.03l-2.42,0.47l-2.27,0.48c-0.12,0.03-0.23,0.07-0.36,0.11
		c-0.14,0.05-0.29,0.08-0.44,0.1c-0.13,0.01-0.27-0.09-0.39-0.05c-0.06,0.03-0.12,0.06-0.17,0.09c-0.17,0.06-0.31,0.21-0.51,0.2
		c-0.16-0.01-0.32,0-0.47,0.05l-3.39,0.75l-0.69,0.17l-0.35,0.1l-0.33,0.1l-0.3,0.11l-0.26,0.11l-0.11,0.06l-0.1,0.06l-0.08,0.06
		l-0.02,0.02v0.02l0.01,0.04l0.06,0.16l0.08,0.16l0.09,0.15l0.02,0.03l0.07,0.12l0.15,0.22l0.14,0.18l0.11,0.13l0.89,1.01
		l-0.02,0.02l0.42,0.45l0.21,0.24l0.24,0.27l0.01,0.02l0.01,0.04l0.01,0.04v0.04v0.02l0,0l0.01-0.04v0.01v0.01l-0.01,0.04
		l-0.02,0.04l-0.02,0.04l-0.03,0.04l-0.03,0.04l-0.04,0.03l-0.88,0.69l0,0c-0.41,0.33-0.83,0.65-1.27,0.97
		c-0.52,0.39-1.05,0.77-1.61,1.12c-0.46,0.27-0.97,0.46-1.41,0.75l-0.66,0.46c-0.63,0.46-1.29,0.87-1.98,1.23
		c-0.67,0.29-1.25,0.61-1.83,0.89c-0.48,0.23-0.93,0.49-1.43,0.71c-0.59,0.27-1.17,0.57-1.79,0.78c-0.5,0.18-1.03,0.27-1.52,0.46
		l-0.74,0.32c-0.7,0.32-1.44,0.59-2.18,0.79c-0.71,0.16-1.35,0.29-1.96,0.47l-1.58,0.36l-0.16,0.04l-0.16,0.05l-0.15,0.05
		l-0.13,0.02l-0.16,0.03l-0.14,0.04l-0.06,0.03l-0.06,0.03l-0.05,0.03l-0.05,0.04l-0.04,0.04l-0.01,0.01l-0.01,0.01l-0.02,0.01
		l-0.08,0.06l-0.07,0.06l-0.05,0.07l0,0l-0.01,0.01l-0.04,0.06l-0.04,0.05l-0.03,0.05l-0.04,0.09l-0.03,0.07l-0.16,0.5l-0.14,0.48
		l-0.24,0.93c-0.23,0.95-0.45,1.88-0.69,2.85l-0.42,1.77c-0.18,0.78-0.14,1.6,0.12,2.35c0.38,1.3,1.41,2.3,2.71,2.67
		c0.01,0.05,0.01,0.09,0.02,0.14c0.01,0.08,0.02,0.17,0.01,0.25c-0.03,0.24-0.05,0.47-0.07,0.72c-0.03,0.29-0.04,0.58-0.03,0.87
		c0.01,0.62,0.18,1.88,0.16,2.5c-0.02,0.43-0.1,0.86-0.12,1.29c-0.01,0.06-0.01,0.12-0.02,0.17c0,1.01,0.05,2.02,0.15,3.02
		c0,0.65-0.05,1.31-0.14,1.95l-0.02,0.53v0.61l0.01,0.28c-0.15-0.01-0.31-0.02-0.47-0.02c-0.19-0.01-0.48-0.05-0.7-0.04
		c-0.38,0.01-1.17,0.17-1.38,0.52c-0.24,0.29-0.35,0.68-0.27,1.06c0.17,0.27,0.39,0.51,0.65,0.7c0.29,0.14,0.63,0.17,0.95,0.09
		c0.24-0.04,0.48-0.06,0.71-0.06h0.6c0.68-0.01,1.36-0.02,2.06-0.03c0.2,0,0.39,0,0.59,0l1,0.08c0.46,0.02,0.96,0.04,1.56,0.03
		c0.21,0,0.46-0.01,0.74-0.02c0.23,0.02,0.46,0.04,0.69,0.03c0.29-0.01,0.69-0.03,1.04-0.05c0.8-0.02,1.56-0.1,2.37-0.1
		c0.65,0.03,1.31,0.09,1.96,0.11l0.31,0.02c1.29,0.06,2.58-0.03,3.87-0.09c0.57-0.01,1.14-0.02,1.71-0.01
		c0.69,0.02,1.37,0.15,2.05,0.13c0.29-0.01,0.69-0.03,1.04-0.05h0.03c0.07,0,0.13,0.01,0.2,0.01l0.53,0.03h0.61l0.75-0.03l0.85-0.05
		h0.02h0.05l0,0h0.02l0.07-0.01l0.05-0.01c0.88,0.04,1.68,0.05,2.46,0.04c0.68-0.01,1.36-0.02,2.06-0.03
		c0.84-0.01,1.68-0.03,2.52-0.01c0.69,0.02,1.37,0.15,2.05,0.13c0.29-0.01,0.69-0.03,1.04-0.05c1.01-0.02,1.95-0.15,3.01-0.09
		c0.94,0.05,1.79,0.06,2.62,0.05l0.57-0.01c0.24,0,0.54,0.05,0.78,0.04c0.36,0.04,0.72-0.04,1.03-0.22
		C2711.67,5757.45,2711.87,5756.93,2711.72,5756.44z M2691.55,5718.5L2691.55,5718.5l0.02-0.03l0.03-0.04l0.04-0.03l0.05-0.03
		l0.05-0.03l0.05-0.02l0.06-0.02l0.12-0.03l0.13-0.03l1.8-0.3c0.07,0.01,0.15,0,0.22-0.01c0.15-0.04,0.41-0.27,0.57-0.28
		c0.11-0.01,0.23,0.06,0.33,0.06l0.05,0.01c0.26,0.03,0.46-0.23,0.69-0.3c0.16-0.03,0.33-0.02,0.49,0.03l0.99-0.19l1.11-0.23l0,0
		h0.01l0.25-0.06h0.02l0.08-0.01h0.08l0,0v0.01l0.01,0.02l0.01,0.05v0.05v0.06l-0.01,0.06l-0.03,0.12l-0.04,0.13l-0.05,0.13
		l-0.82,1.8c-0.05,0.05-0.08,0.1-0.1,0.17c-0.04,0.13,0.01,0.45-0.06,0.57c-0.05,0.08-0.17,0.14-0.22,0.22l-0.03,0.03
		c-0.16,0.18-0.05,0.46-0.11,0.68c-0.05,0.17-0.19,0.24-0.29,0.34l-0.39,0.88l-0.2,0.49c-0.07,0.17-0.14,0.33-0.21,0.51l0,0l0,0
		v0.01l-0.09,0.23l-0.01,0.02l-0.04,0.07l-0.04,0.06l-0.01,0.01l0,0h-0.01h-0.02l-0.03-0.01l-0.28-0.36l-0.25-0.3
		c-0.1-0.12-0.19-0.24-0.29-0.37c-0.2-0.3-0.4-0.61-0.61-0.93l-1.81,1.31l0.17,0.23l-0.53,0.47l-0.52,0.44l-0.56,0.41
		c-0.23,0.17-0.48,0.35-0.76,0.59c-0.68,0.64-1.39,1.24-2.14,1.79c-0.39,0.28-0.87,0.44-1.27,0.69l-0.17,0.09
		c-0.98,0.55-1.88,1.26-2.86,1.85c-0.65,0.33-1.32,0.62-2,0.87c-0.26,0.11-0.56,0.23-0.9,0.39c-0.06,0.03-0.15,0.08-0.22,0.12
		l-1.61,0.03l-0.19,0.01l-0.2,0.01l-0.08,0.01h-0.02l-0.1-0.01l-0.7-0.03l-0.67-0.02h-0.35c0.86-0.33,1.66-0.8,2.48-1.2
		c0.81-0.37,1.33-0.53,1.97-0.78c0.3-0.11,0.59-0.25,0.87-0.4c0.6-0.32,1.74-1.13,2.33-1.45c0.42-0.21,0.86-0.39,1.27-0.62
		l0.17-0.09c0.94-0.58,1.84-1.23,2.69-1.94c0.72-0.53,1.21-0.76,1.79-1.14l0.46-0.32l0.5-0.4l0.28-0.23l0.32-0.29l0.61-0.59
		l0.04-0.04l0.01-0.02l0.02-0.02l0,0l0.02-0.02l0.05-0.06l0.04-0.05l0.03-0.06l0.03-0.06l0.02-0.05l0.02-0.06l0.01-0.06l0.01-0.05
		l0.01-0.05v-0.05v-0.05l-0.01-0.05l-0.03-0.1l-0.03-0.1l-0.04-0.09l-0.01-0.02l0.14-0.13l-0.61-0.7l-0.7-0.78l0,0l0,0l-0.01-0.01
		l-0.16-0.17l-0.01-0.02l-0.04-0.06l-0.03-0.06v-0.01l0,0l0,0L2691.55,5718.5z M2691.54,5743.48c0.04,0.17,0.06,0.35,0.06,0.53
		c0,0.15,0,0.3,0,0.44c0.01,0.5,0.02,1,0.03,1.52c0.01,0.62,0.03,1.24,0.01,1.85c-0.02,0.5-0.15,1.01-0.13,1.51
		c0.01,0.21,0.03,0.5,0.05,0.76c0.07,0.73,0.1,1.47,0.09,2.21c-0.05,0.69-0.06,1.32-0.05,1.93l0.02,1.14v0.05l-0.01,0.05l-0.01,0.04
		l-0.02,0.04l-0.02,0.03l-0.03,0.03l-0.03,0.02l-0.03,0.02l-0.04,0.02l-0.04,0.01l-0.05,0.01l-0.05,0.01h-0.07h-0.16h-0.94h-0.28
		c-0.21-0.02-0.43-0.04-0.64-0.05l-0.23-0.02c-0.7-0.03-1.4-0.02-2.1,0.04c0-0.08,0-0.17,0-0.25c0-0.32-0.02-0.63-0.02-0.95
		c-0.01-0.39-0.02-0.78-0.01-1.17c0.01-0.32,0.1-0.63,0.09-0.95c0-0.13-0.02-0.32-0.04-0.48c-0.05-0.46-0.07-0.93-0.06-1.39
		c0.03-0.4,0.04-0.81,0.04-1.21c-0.01-0.46-0.02-0.92-0.02-1.39l-0.02-0.29l-0.02-0.14l-0.02-0.14l-0.03-0.13l-0.04-0.11l-0.02-0.05
		l-0.03-0.04l-0.03-0.04l-0.03-0.03l-0.07-0.04l-0.07-0.03l-0.07-0.03h-0.02l-0.05-0.02l-0.11-0.03l-0.09-0.01l-0.07-0.01
		l-0.91-0.03h-0.86c-0.13,0-0.26,0.02-0.39,0.02c-0.16,0.01-0.32,0.02-0.48,0.01c-0.13-0.01-0.26-0.1-0.39-0.09
		c-0.07,0.01-0.13,0.02-0.2,0.04c-0.19,0.05-0.38,0.07-0.57,0.06c-0.16-0.03-0.33-0.04-0.5-0.03l-1.39,0.02l-0.28,0.02l-0.15,0.02
		l-0.14,0.02l-0.13,0.03l-0.11,0.04l-0.05,0.02l-0.04,0.03l-0.04,0.03l-0.03,0.03l-0.05,0.07l-0.03,0.07l-0.02,0.07v0.02l-0.02,0.05
		l-0.03,0.11l-0.01,0.09l-0.01,0.07l-0.03,0.91c0,0.29,0,0.58,0,0.86c0,0.32,0.01,0.63,0.02,0.95c0.01,0.39,0.02,0.78,0.01,1.17
		c-0.01,0.32-0.1,0.63-0.09,0.95c0,0.13,0.02,0.32,0.04,0.48c0.05,0.46,0.07,0.93,0.06,1.39c-0.03,0.4-0.04,0.81-0.03,1.21
		c0,0.09,0,0.17,0,0.26l0,0c-0.63,0.02-1.25,0.06-1.89,0.07c-0.47-0.03-0.95-0.09-1.42-0.1l-0.24-0.02
		c-0.81-0.03-1.62-0.01-2.43,0.06c-0.22,0-0.45,0-0.66,0l-1.14,0.02h-0.05l-0.05-0.01l-0.04-0.01l-0.04-0.02l-0.03-0.02l-0.03-0.03
		l-0.02-0.03l-0.02-0.03l-0.02-0.04l-0.02-0.04l-0.01-0.05l-0.01-0.05v-0.07v-0.16l0,0v-0.94c-0.01-0.5-0.02-1-0.03-1.51
		c-0.01-0.62-0.03-1.24-0.01-1.85c0.02-0.5,0.15-1.01,0.13-1.51c-0.01-0.21-0.03-0.5-0.05-0.76c-0.07-0.74-0.1-1.47-0.09-2.21
		c0.05-0.69,0.06-1.31,0.05-1.93c0-0.14,0-0.28-0.01-0.42c0-0.18,0.05-0.4,0.04-0.58c0-0.1,0-0.19-0.01-0.28
		c0.61-0.23,1.15-0.62,1.56-1.13c0.61,0.78,1.51,1.29,2.49,1.39c0.69,0.06,1.39-0.07,2.01-0.36c0.5-0.23,0.94-0.58,1.29-1
		c0.25,0.31,0.55,0.59,0.89,0.81c0.58,0.38,1.26,0.58,1.96,0.57c0.7,0,1.38-0.2,1.97-0.55c0.37-0.22,0.7-0.51,0.98-0.84
		c0.33,0.41,0.74,0.74,1.2,1c0.61,0.31,1.3,0.45,1.98,0.39c1.01-0.11,1.94-0.61,2.59-1.4c0.4,0.47,0.89,0.84,1.45,1.08
		C2691.49,5743.25,2691.51,5743.37,2691.54,5743.48L2691.54,5743.48z M2680.67,5753.31c0.01-0.27,0.07-0.54,0.09-0.81l0.01-0.11
		c0-0.64-0.03-1.27-0.1-1.91c0-0.41,0.03-0.81,0.09-1.21l0.02-0.37c0-0.13,0-0.27,0-0.42l0,0l0,0v-0.08v-0.02l0.01-0.03l0.01-0.03
		l0.01-0.02l0.02-0.02l0.02-0.02l0.02-0.01l0.02-0.01l0.02-0.01l0.02-0.01l0.05-0.01h0.05l0.73,0.06c0.07,0.02,0.15,0.02,0.23,0.02
		c0.21-0.05,0.43-0.08,0.65-0.11c0.11,0.01,0.22,0.07,0.33,0.09l0.04,0.01c0.26,0.06,0.52-0.09,0.78-0.1c0.17,0,0.34,0.04,0.5,0.09
		l0.37,0.02h0.42h0.01h0.08h0.02l0.03,0.01l0.02,0.01l0.02,0.01l0.02,0.02l0.02,0.02l0.01,0.02l0.01,0.02l0.01,0.02l0.01,0.02
		l0.01,0.05v0.05l-0.06,0.73c-0.02,0.18-0.02,0.37-0.02,0.55c0.01,0.39,0.12,1.19,0.11,1.57c-0.01,0.27-0.07,0.54-0.09,0.81
		l-0.01,0.11c0,0.64,0.03,1.27,0.1,1.91c0,0.41-0.03,0.81-0.09,1.21c-0.01,0.08-0.01,0.17-0.02,0.25c0,0.02,0,0.04-0.01,0.06
		c-0.4,0-0.8,0.01-1.19,0c-0.9-0.02-1.81-0.15-2.71-0.13c-0.18,0-0.4,0.01-0.63,0.02c0.01-0.07,0.02-0.13,0.02-0.21
		c0.02-0.18,0.02-0.37,0.02-0.55C2680.77,5754.5,2680.65,5753.7,2680.67,5753.31L2680.67,5753.31z M2668.3,5737.84
		c0.04-0.17,0.08-0.3,0.12-0.45c0.21-0.82,0.41-1.47,0.61-2.1c0.11-0.33,0.21-0.67,0.32-1.03l0.13-0.4
		c0.04-0.14,0.08-0.29,0.12-0.45l0,0v-0.01l0.02-0.1v-0.01l0.02-0.03l0.02-0.02v-0.01v-0.01l0.01-0.02l0.02-0.03l0.02-0.02
		l0.02-0.02l0.02-0.01l0.02-0.01l0.03-0.01l0.03-0.01h0.03h0.06l0.27,0.03l0.54,0.05v-0.01h0.05l0,0l0.62,0.02h0.36h0.34h0.16h0.01
		l0.05,0.01l0.04,0.01h0.01l0.01,0.01l0.01,0.01l0.02,0.03l0.02,0.03l0.01,0.04v0.02l-0.11,0.69l-0.02,0.1l-0.04,0.18
		c-0.03,0.16-0.07,0.32-0.11,0.49c-0.05,0.23-0.09,0.47-0.14,0.73c-0.05,0.29-0.1,0.59-0.15,0.93c-0.01,0.08-0.02,0.18-0.03,0.27
		c-0.08,0.58-0.16,1.35-0.24,2.14l-0.07,0.67c-0.01,0.15-0.04,0.3-0.09,0.44c-0.07,0.23-0.19,0.45-0.35,0.63
		c-0.35,0.38-0.87,0.56-1.38,0.5c-0.06-0.01-0.13-0.02-0.19-0.03c-0.57-0.14-1.05-0.53-1.3-1.06c-0.14-0.29-0.21-0.61-0.21-0.93
		C2668.1,5738.67,2668.18,5738.25,2668.3,5737.84z M2695.08,5728.5c0.01,0.86,0.03,1.73,0.01,2.6c-0.01,0.3-0.04,0.6-0.07,0.9
		l-0.03-0.09l-0.06-0.15l-0.07-0.14l-0.08-0.13l-0.04-0.06l-0.04-0.05l-0.05-0.04l-0.05-0.04l-0.05-0.03l-0.01-0.01l-0.01-0.01
		l-0.02-0.02l-0.07-0.06l-0.08-0.05l-0.08-0.04l0,0l-0.01-0.01l-0.06-0.03l-0.06-0.02l-0.06-0.02l-0.1-0.02l-0.07-0.01l-0.52-0.03
		l-0.5-0.02h-0.96l0,0h-0.05l0,0l-0.63,0.01l0,0l-3.69-0.01h-0.88v0.01h-0.05c-0.01-0.04-0.01-0.1-0.01-0.1
		c0,0.02-0.01,0.04-0.01,0.05c0,0.01-0.01,0.03-0.01,0.04h-0.03c0-0.01-0.01-0.01-0.01-0.01l-0.75,0.01
		c0.24-0.14,0.48-0.28,0.72-0.4c0.55-0.24,1.08-0.51,1.59-0.81l0.73-0.53c0.73-0.48,1.3-1.09,2.09-1.57
		c0.64-0.42,1.24-0.89,1.81-1.39l0.54-0.46l0.51-0.5l0.04-0.05l0.05-0.04l0.05-0.03l0.05-0.02l0.04-0.01l0.04-0.01h0.02h0.09l0,0
		h0.01h0.01l0.04,0.02l0.04,0.03l0.04,0.03l0.04,0.04l0.04,0.04l0.05,0.06l0.1,0.14l0.01,0.02l0,0l0.47,0.66v0.19
		C2695.05,5727.08,2695.07,5727.77,2695.08,5728.5L2695.08,5728.5z M2685.14,5734.11c-0.01-0.2-0.02-0.4-0.03-0.63l0,0v-0.01
		l-0.01-0.15l0,0l0.01-0.04l0.01-0.04l0.01-0.02l0.01-0.02l0.02-0.03l0.03-0.02l0.03-0.02l0.03-0.02l0.03-0.01l0.03-0.01l0.07-0.01
		h0.08l1.1,0.08c0,0.02,0.01,0.04,0.01,0.03c0-0.01,0.01-0.02,0.01-0.03h0.04v0.01c0,0.03,0.01,0.02,0.01-0.01l0.37,0.02l0.14,0.01
		h0.52h0.01h0.12h0.01l0.04,0.01l0.06,0.03l0.03,0.02l0.03,0.02l0.02,0.02l0.02,0.02l0,0l0.05,0.42l0.02,0.13l0.03,0.52
		c0.05,0.49,0.12,1.03,0.22,1.67c0.09,0.59,0.28,1.48,0.45,2.37c0.04,0.2,0.1,0.49,0.12,0.62c0.03,0.14,0.03,0.29,0.03,0.43
		c-0.01,0.25-0.07,0.49-0.18,0.71c-0.25,0.46-0.69,0.79-1.21,0.89c-0.06,0.02-0.13,0.01-0.19,0.02c-0.59,0.06-1.17-0.15-1.57-0.58
		c-0.22-0.23-0.37-0.51-0.45-0.82c-0.04-0.18-0.07-0.35-0.08-0.53l-0.03-1.03c-0.01-0.9-0.04-1.74-0.08-2.56c0-0.29,0-0.59,0-0.9
		L2685.14,5734.11z M2673.8,5738.84c0.2-1.02,0.35-1.96,0.49-2.88c0.04-0.24,0.07-0.48,0.11-0.71c0.03-0.15,0.06-0.31,0.1-0.47
		c0.03-0.13,0.05-0.25,0.08-0.39l0.09-0.45l0.06-0.36c0.33-0.14,0.65-0.29,0.98-0.44l0.29,0.03c0,0.02,0.01,0.03,0.01,0.03
		l0.01-0.03h0.04v0.01c0.01,0.03,0.01,0.02,0.01-0.01l0.39,0.01l0.23,0.01h0.63h0.01h0.15l0,0l0.04,0.01l0.04,0.01l0.02,0.01
		l0.01,0.01l0.02,0.02l0.02,0.03l0.02,0.03l0.01,0.02l-0.02,0.28l-0.02,0.45c-0.02,0.2-0.05,0.39-0.08,0.6
		c-0.01,0.08-0.01,0.16-0.02,0.24c-0.04,0.43-0.07,0.89-0.09,1.44c-0.02,0.6-0.03,1.51-0.03,2.42l-0.01,0.66
		c0,0.15-0.02,0.29-0.05,0.43c-0.05,0.24-0.16,0.46-0.3,0.66c-0.32,0.4-0.82,0.63-1.34,0.62c-0.08,0-0.16,0-0.23-0.01
		c-0.58-0.07-1.09-0.4-1.4-0.89c-0.17-0.27-0.28-0.58-0.3-0.9c-0.01-0.09-0.01-0.17,0-0.26
		C2673.78,5738.99,2673.79,5738.92,2673.8,5738.84z M2679.54,5738.51c0.1-1.1,0.16-2.11,0.21-3.09c0.03-0.29,0.06-0.58,0.09-0.88
		l0.05-0.5l0.01-0.18c0.01-0.13,0.01-0.25,0.02-0.39l0,0v-0.01v-0.13v-0.01l0.01-0.04l0.02-0.03l0.02-0.03l0.02-0.03l0.02-0.02
		l0.03-0.02l0.03-0.02l0.03-0.01l0.03-0.01l0.03-0.01h0.03h0.07l0.99,0.08c0,0.02,0.01,0.03,0.01,0.03c0-0.01,0.01-0.02,0.01-0.03
		h0.05v0.01c0.01,0.03,0.01,0.02,0.02-0.01h0.07l0.49,0.02h0.57h0.01h0.13h0.01l0.04,0.01l0.03,0.01l0.03,0.02l0.03,0.02l0.03,0.02
		l0.02,0.03l0.01,0.02v0.17l0.02,0.47l-0.02,0.56c0,0.5,0.02,1.03,0.06,1.68c0.04,0.6,0.13,1.5,0.21,2.41l0.06,0.64
		c0.01,0.14,0.01,0.29-0.01,0.43c-0.03,0.24-0.12,0.48-0.24,0.68c-0.29,0.43-0.76,0.71-1.28,0.75c-0.06,0-0.13,0-0.19,0
		c-0.29,0.01-0.59-0.06-0.85-0.18c-0.27-0.13-0.5-0.31-0.68-0.55c-0.2-0.25-0.33-0.55-0.39-0.86c-0.02-0.12-0.03-0.25-0.03-0.38
		C2679.51,5738.94,2679.52,5738.73,2679.54,5738.51L2679.54,5738.51z M2693.25,5741.08c-0.56,0.11-1.14-0.06-1.57-0.45
		c-0.23-0.22-0.4-0.49-0.51-0.78c-0.03-0.08-0.05-0.16-0.07-0.24l-0.07-0.36l-0.06-0.32c0-0.01,0-0.02,0-0.03
		c-0.05-0.38-0.1-0.76-0.15-1.15c-0.08-0.71-0.17-1.37-0.26-2.01c-0.03-0.3-0.06-0.6-0.09-0.91l0,0l-0.07-0.62
		c-0.03-0.21-0.06-0.44-0.1-0.69l0,0v-0.01l-0.03-0.15v-0.02v-0.05l0.01-0.05v-0.01v-0.01l0.01-0.02l0.03-0.03l0.03-0.02l0.03-0.02
		l0.03-0.01l0.04-0.01l0.04-0.01l0.08-0.01h0.09l0.81,0.06c0,0,0.5,0.06,0.74,0.06c0.01,0,0.02-0.01,0.03-0.01l0.1,0.01h0.47h0.01
		h0.11h0.01l0.03,0.01l0.03,0.01h0.01h0.01h0.02l0.03,0.01l0.03,0.01l0.02,0.02l0.02,0.02l0.02,0.02l0.01,0.02l0.01,0.03l0.01,0.03
		l0.01,0.06c0.04,0.27,0.08,0.53,0.12,0.81c0.1,0.49,0.22,1.01,0.38,1.64c0.15,0.58,0.42,1.45,0.68,2.32
		c0.06,0.2,0.15,0.47,0.18,0.62c0.04,0.14,0.06,0.29,0.07,0.43c0.02,0.25-0.02,0.49-0.11,0.72c-0.2,0.49-0.61,0.88-1.11,1.04
		L2693.25,5741.08z M2694.35,5755.64c-0.17,0-0.39,0.01-0.62,0.02l0.01-0.25c0.03-0.4,0.06-0.77,0.09-1.17
		c0.02-0.26,0.03-0.54,0.03-0.87c-0.01-0.62-0.18-1.88-0.15-2.5c0.01-0.43,0.1-0.86,0.12-1.29c0-0.06,0.01-0.12,0.02-0.17
		c0-1.01-0.05-2.02-0.15-3.03c0-0.64,0.05-1.29,0.14-1.93c0.01-0.13,0.02-0.26,0.02-0.41c0-0.14,0.05-0.35,0.04-0.52
		c0-0.07-0.01-0.15-0.03-0.22c0.44-0.13,0.85-0.33,1.21-0.6c0.01,0.69,0.02,1.39,0.01,2.08c-0.02,0.71-0.15,1.41-0.13,2.11
		c0.01,0.3,0.03,0.71,0.05,1.07c0.02,1.04,0.15,2,0.09,3.1c-0.05,0.97-0.06,1.84-0.05,2.7c0,0.2,0,0.39,0.01,0.58
		c0,0.25-0.05,0.56-0.04,0.8c0,0.18,0,0.34,0.02,0.49C2694.82,5755.64,2694.6,5755.64,2694.35,5755.64L2694.35,5755.64z
		 M2698.15,5755.8c-0.34,0.01-0.64,0-0.91-0.02c0.02-0.22,0.01-0.44-0.02-0.66c-0.01-0.12-0.02-0.23-0.01-0.35
		c0.03-0.34,0.05-0.66,0.07-1.01s0.03-0.75,0.03-1.22c-0.01-0.87-0.18-2.63-0.16-3.5c0.01-0.6,0.1-1.2,0.12-1.8
		c0.01-0.08,0.01-0.16,0.02-0.24c0.08-1.41-0.13-2.82-0.15-4.23c-0.02-1.14,0.08-1.82,0.13-2.7c0.02-0.36,0.03-0.75,0.03-1.22
		c-0.01-0.86-0.18-2.63-0.16-3.5c0.01-0.6,0.1-1.2,0.12-1.8c0.01-0.08,0.01-0.16,0.02-0.24c0.08-1.41-0.13-2.82-0.15-4.24
		c-0.02-1.05,0.07-1.72,0.12-2.51l0.06-0.13l0.67-1.54l0.66,0.05l0,0l0.53,0.02h0.6h0.01l0.12-0.01h0.03l0.04,0.01l0.04,0.02
		l0.03,0.02l0.03,0.02l0.02,0.02l0.02,0.03l0.02,0.03l0.01,0.03l0.01,0.03l0.01,0.07v0.07l-0.08,1.04
		c-0.02,0.36-0.03,0.75-0.03,1.22c0.01,0.86,0.18,2.63,0.15,3.5c-0.01,0.6-0.1,1.2-0.12,1.8c-0.01,0.08-0.01,0.16-0.02,0.24
		c-0.08,1.41,0.13,2.82,0.15,4.23c0.02,1.14-0.08,1.82-0.13,2.7c-0.02,0.36-0.03,0.75-0.03,1.22c0.01,0.87,0.18,2.63,0.15,3.5
		c-0.01,0.6-0.1,1.2-0.12,1.8c-0.01,0.08-0.01,0.16-0.02,0.24c-0.08,1.41,0.13,2.82,0.15,4.24c0.02,1.14-0.08,1.83-0.13,2.7
		c-0.01,0.18-0.02,0.37-0.02,0.57c-0.01,0.2-0.05,0.49-0.04,0.73c0.01,0.22,0.04,0.43,0.1,0.64
		C2699.47,5755.74,2698.81,5755.79,2698.15,5755.8L2698.15,5755.8z M2707.65,5755.64c-0.53,0.01-1.4,0.08-2.18,0.12
		c0-0.16-0.01-0.32-0.03-0.48c-0.01-0.11-0.02-0.21-0.01-0.32c0.03-0.31,0.05-0.6,0.08-0.93c0.02-0.33,0.04-0.68,0.03-1.11
		c-0.01-0.79-0.18-2.41-0.16-3.2c0.02-0.55,0.1-1.1,0.13-1.65c0-0.07,0.01-0.15,0.02-0.22c0.08-1.29-0.13-2.58-0.15-3.87
		c-0.02-1.04,0.08-1.67,0.13-2.47c0.02-0.33,0.04-0.69,0.03-1.11c-0.01-0.79-0.18-2.41-0.16-3.2c0.02-0.55,0.11-1.1,0.13-1.65
		c0-0.07,0.01-0.15,0.02-0.22c0.08-1.29-0.13-2.58-0.15-3.87c-0.02-1.04,0.08-1.67,0.13-2.47c0.02-0.33,0.03-0.69,0.03-1.11
		c-0.01-0.79-0.18-2.41-0.16-3.2c0.02-0.55,0.1-1.1,0.13-1.65c0-0.07,0.01-0.15,0.01-0.22c0.08-1.29-0.13-2.58-0.15-3.87
		c-0.02-1.04,0.08-1.67,0.13-2.47l0.02-0.53v-0.6l0,0v-0.01l-0.01-0.12v-0.03l0.01-0.04l0.01-0.04l0.02-0.03l0.02-0.03l0.02-0.02
		l0.03-0.02l0.03-0.02l0.03-0.01l0.03-0.01l0.07-0.01h0.07l0.99,0.08l0,0l0.53,0.03h0.6h0.01h0.12h0.03l0.04,0.01l0.04,0.01
		l0.03,0.02l0.03,0.02l0.02,0.02l0.02,0.03l0.02,0.03l0.01,0.03l0.01,0.03l0.01,0.07v0.07l-0.08,1.04
		c-0.02,0.33-0.03,0.69-0.03,1.11c0.01,0.79,0.18,2.41,0.15,3.2c-0.02,0.55-0.1,1.1-0.12,1.65c-0.01,0.07-0.01,0.15-0.01,0.22
		c-0.08,1.29,0.13,2.58,0.15,3.87c0.02,1.04-0.08,1.67-0.14,2.47c-0.02,0.33-0.03,0.69-0.03,1.11c0.01,0.79,0.18,2.41,0.15,3.2
		c-0.02,0.55-0.1,1.1-0.12,1.65c-0.01,0.07-0.01,0.15-0.01,0.22c-0.09,1.29,0.13,2.58,0.15,3.87c0.02,1.04-0.08,1.67-0.14,2.47
		c-0.02,0.33-0.03,0.69-0.03,1.11c0.01,0.79,0.18,2.41,0.15,3.2c-0.02,0.55-0.1,1.1-0.12,1.65c-0.01,0.07-0.01,0.15-0.02,0.22
		c-0.08,1.29,0.13,2.58,0.15,3.87c0.02,1.04-0.08,1.67-0.14,2.47c-0.01,0.17-0.02,0.34-0.03,0.52c-0.01,0.18-0.05,0.45-0.04,0.66
		c0.01,0.15,0.03,0.29,0.06,0.43C2708.11,5755.64,2707.9,5755.64,2707.65,5755.64L2707.65,5755.64z"/>
	<path id="패스_13056" class="st1" d="M2727.92,5735.17c-0.07-0.8-0.25-2.43-0.36-3.22c-0.07-0.55-0.07-1.11-0.13-1.66l-0.02-0.22
		c-0.18-1.3-0.5-2.57-0.97-3.8c-0.14-0.51-0.22-0.92-0.3-1.31l-0.31-1.12c-0.09-0.32-0.21-0.66-0.36-1.07
		c-0.15-0.37-0.38-0.94-0.65-1.49c-0.3-0.53-0.59-1.07-0.76-1.43c-0.23-0.51-0.39-1.05-0.62-1.55l-0.08-0.21
		c-0.66-1.13-1.38-2.22-2.16-3.27c-0.64-0.83-0.94-1.4-1.39-2.07c-0.18-0.28-0.39-0.58-0.66-0.92c-0.55-0.59-1.77-1.69-2.29-2.3
		c-0.35-0.43-0.74-0.83-1.12-1.23l-0.16-0.16c-0.46-0.46-0.96-0.89-1.47-1.29c-0.53-0.39-1.1-0.72-1.62-1.1
		c-0.86-0.6-1.27-1.11-1.96-1.55c-0.27-0.19-0.58-0.39-0.95-0.61c-0.35-0.2-0.89-0.48-1.43-0.77c-0.54-0.28-1.12-0.48-1.47-0.68
		c-0.49-0.25-0.96-0.57-1.45-0.83l-0.2-0.11c-1.2-0.51-2.44-0.94-3.71-1.27c-1-0.33-1.6-0.52-2.37-0.79
		c-0.32-0.1-0.67-0.21-1.09-0.31c-0.77-0.23-2.43-0.24-3.21-0.4c-0.54-0.14-1.09-0.25-1.64-0.32l-0.22-0.03
		c-1.3-0.1-2.61-0.1-3.92,0.01c-1.05,0.07-1.69,0.01-2.5,0c-0.38-0.02-0.75,0.01-1.13,0.07c-0.8,0.13-2.39,0.54-3.18,0.64
		c-0.55,0.08-1.1,0.17-1.65,0.27l-0.22,0.04c-0.64,0.13-1.27,0.31-1.89,0.52c-0.61,0.23-1.2,0.53-1.81,0.76
		c-0.97,0.4-1.63,0.46-2.37,0.79c-0.31,0.13-0.64,0.27-1.03,0.46c-0.72,0.35-2.13,1.19-2.79,1.64c-0.48,0.27-1,0.49-1.49,0.76
		l-0.2,0.1c-1.09,0.73-2.12,1.53-3.09,2.41c-0.81,0.66-1.31,1.06-1.96,1.55c-0.26,0.21-0.54,0.44-0.85,0.74
		c-0.6,0.54-1.54,1.9-2.1,2.47c-0.41,0.37-0.8,0.77-1.16,1.2l-0.15,0.17c-0.82,1.02-1.53,2.12-2.13,3.29
		c-0.53,0.91-0.94,1.4-1.4,2.07c-0.16,0.29-0.33,0.61-0.51,1c-0.31,0.74-0.96,2.24-1.21,3c-0.2,0.52-0.48,1.01-0.68,1.52l-0.09,0.21
		c-0.44,1.23-0.76,2.5-0.95,3.8c-0.27,1.01-0.43,1.63-0.61,2.42c-0.07,0.33-0.14,0.68-0.2,1.11c-0.08,0.54-0.12,1.08-0.13,1.62
		c0.01,0.61,0.01,1.22-0.02,1.62c-0.04,0.55-0.16,1.11-0.2,1.66l-0.02,0.22c-0.03,1.31,0.25,2.61,0.33,3.91
		c0.16,1.04,0.17,1.68,0.24,2.48c0.03,0.33,0.07,0.69,0.14,1.12c0.15,0.79,0.75,2.33,0.92,3.11c0.06,0.27,0.11,0.55,0.15,0.82
		c0.07,0.27,0.14,0.54,0.23,0.8l0.06,0.21c0.41,1.24,0.94,2.44,1.59,3.58c0.47,0.94,0.66,1.55,0.97,2.31
		c0.15,0.3,0.33,0.61,0.56,0.98c0.45,0.67,1.36,2.03,1.86,2.65c0.32,0.45,0.58,0.95,0.9,1.41l0.12,0.19
		c0.79,1.04,1.68,2.01,2.66,2.88c0.7,0.79,1.14,1.24,1.69,1.83c0.23,0.24,0.49,0.49,0.82,0.78c0.57,0.58,2.01,1.39,2.63,1.89
		c0.44,0.34,0.82,0.77,1.28,1.07l0.18,0.13c1.1,0.71,2.26,1.33,3.45,1.85c0.95,0.44,1.48,0.8,2.19,1.2
		c0.32,0.19,0.67,0.35,1.03,0.46c0.76,0.26,2.35,0.69,3.09,0.96c0.53,0.15,1.05,0.38,1.58,0.53l0.21,0.07
		c0.62,0.2,1.26,0.35,1.91,0.44c0.66,0.06,1.31,0.1,1.96,0.19c1.04,0.13,1.65,0.37,2.46,0.43c0.33,0.04,0.69,0.07,1.13,0.09
		c1.08,0.02,2.16-0.02,3.23-0.11c0.56-0.01,1.11,0.04,1.67,0.03h0.22c0.66,0.01,1.31-0.07,1.94-0.25c0.64-0.14,1.28-0.29,1.92-0.4
		c1.04-0.14,1.66-0.29,2.46-0.42c0.33-0.06,0.68-0.14,1.1-0.26c0.79-0.15,2.26-0.92,3.02-1.17c0.52-0.19,1.09-0.27,1.6-0.48
		l0.21-0.08c1.19-0.54,2.34-1.17,3.44-1.88c0.89-0.56,1.48-0.81,2.2-1.19c0.34-0.17,0.66-0.37,0.95-0.61
		c0.64-0.49,1.86-1.59,2.5-2.07c0.42-0.36,0.89-0.67,1.31-1.03l0.18-0.14c0.51-0.41,0.98-0.86,1.41-1.36
		c0.41-0.51,0.81-1.03,1.24-1.52c0.35-0.39,0.65-0.69,0.93-0.97c0.27-0.28,0.5-0.56,0.77-0.86c0.21-0.25,0.44-0.54,0.7-0.89
		c0.23-0.33,0.58-0.83,0.89-1.35c0.28-0.54,0.57-1.08,0.79-1.42c0.3-0.47,0.66-0.9,0.97-1.36l0.13-0.18c0.58-1.17,1.1-2.37,1.56-3.6
		c0.35-0.99,0.65-1.55,0.98-2.3c0.13-0.31,0.27-0.64,0.41-1.05c0.19-0.78,0.45-2.41,0.66-3.17c0.17-0.53,0.31-1.07,0.42-1.61
		l0.05-0.22c0.24-1.29,0.35-2.59,0.31-3.9c0.04-1.05,0.16-1.68,0.25-2.49C2727.95,5735.97,2727.94,5735.61,2727.92,5735.17z
		 M2723.2,5749.81c-0.25,0.72-0.56,1.41-0.92,2.08c-0.28,0.55-0.66,1.05-0.91,1.61c-0.12,0.23-0.29,0.54-0.44,0.82
		c-0.41,0.81-0.86,1.59-1.34,2.35c-0.55,0.65-1.01,1.26-1.45,1.86c-0.35,0.51-0.73,1-1.15,1.45c-0.5,0.57-1,1.14-1.52,1.69
		c-0.42,0.45-1,0.74-1.43,1.18l-0.66,0.67c-0.62,0.66-1.3,1.26-2.05,1.76c-0.72,0.45-1.29,0.96-1.95,1.33l-1.57,0.99l-0.96,0.6
		l-1.03,0.49c-0.57,0.25-1.17,0.41-1.72,0.69c-0.27,0.16-0.55,0.29-0.84,0.41c-0.84,0.33-1.6,0.73-2.52,1.01
		c-0.81,0.24-1.57,0.37-2.29,0.58c-0.59,0.15-1.17,0.35-1.79,0.47c-0.75,0.12-1.49,0.26-2.25,0.35c-0.61,0.08-1.23,0.07-1.85,0.08
		l-0.93,0.1c-0.89,0.14-1.8,0.19-2.71,0.16c-0.84-0.09-1.61-0.14-2.36-0.17c-0.62-0.01-1.24-0.07-1.84-0.18
		c-0.75-0.1-1.5-0.2-2.25-0.33c-0.6-0.13-1.17-0.43-1.76-0.56l-0.92-0.18c-0.89-0.15-1.77-0.4-2.6-0.76
		c-0.77-0.36-1.51-0.56-2.18-0.9l-1.68-0.78l-1.03-0.48c-0.33-0.19-0.65-0.39-0.97-0.59c-0.52-0.34-0.98-0.76-1.51-1.07
		c-0.28-0.14-0.55-0.3-0.81-0.47c-0.73-0.53-1.49-0.94-2.22-1.56c-0.64-0.55-1.17-1.11-1.74-1.6c-0.45-0.42-0.94-0.78-1.37-1.25
		c-0.52-0.55-1.04-1.1-1.54-1.68c-0.2-0.23-0.39-0.48-0.56-0.74c-0.15-0.27-0.33-0.52-0.51-0.77l-0.6-0.72
		c-0.28-0.36-0.57-0.69-0.86-1.03c-0.28-0.36-0.53-0.75-0.74-1.16c-0.4-0.75-0.79-1.4-1.18-2.04c-0.27-0.55-0.55-1.09-0.83-1.66
		c-0.37-0.66-0.68-1.35-0.94-2.07c-0.2-0.59-0.29-1.21-0.52-1.78l-0.37-0.86c-0.3-0.85-0.56-1.72-0.76-2.6
		c-0.19-0.82-0.29-1.58-0.41-2.32c-0.1-0.61-0.21-1.21-0.31-1.83c-0.11-0.75-0.16-1.51-0.17-2.27c-0.01-0.62,0.08-1.24,0.03-1.85
		v-0.93c0.03-0.9-0.05-1.76,0.05-2.71c0.16-0.83,0.3-1.59,0.4-2.33c0.06-0.62,0.16-1.23,0.3-1.83c0.18-0.73,0.35-1.48,0.56-2.2
		c0.2-0.58,0.42-1.16,0.68-1.72l0.27-0.89c0.22-0.88,0.54-1.73,0.96-2.53c0.41-0.74,0.75-1.43,1.07-2.11l0.94-1.6
		c0.36-0.67,0.76-1.31,1.22-1.91c0.39-0.49,0.85-0.91,1.21-1.41c0.14-0.21,0.34-0.52,0.52-0.78c0.55-0.72,1.14-1.41,1.75-2.06
		c0.58-0.62,1.18-1.1,1.72-1.61l1.35-1.27c0.59-0.48,1.19-0.94,1.81-1.38c0.51-0.34,1.05-0.66,1.58-0.96
		c0.21-0.14,0.51-0.35,0.77-0.53c0.72-0.55,1.49-1.02,2.31-1.42c0.79-0.32,1.47-0.65,2.15-0.98c0.56-0.27,1.13-0.51,1.71-0.71
		c0.71-0.27,1.41-0.56,2.13-0.78c0.6-0.14,1.23-0.17,1.82-0.34l0.89-0.28c0.86-0.28,1.75-0.46,2.65-0.56
		c0.84-0.07,1.59-0.23,2.35-0.24l1.85-0.12l1.14-0.07l1.14,0.06c0.62,0.05,1.23,0.2,1.84,0.22c0.26,0.02,0.62-0.02,0.93,0.02
		c0.9,0.12,1.75,0.13,2.69,0.33c0.84,0.14,1.56,0.4,2.29,0.56l1.8,0.43c0.72,0.23,1.44,0.49,2.14,0.76
		c0.57,0.25,1.13,0.51,1.67,0.79l0.86,0.36c0.85,0.31,1.67,0.69,2.45,1.15c0.7,0.48,1.35,0.89,1.99,1.27
		c0.53,0.32,1.04,0.67,1.53,1.04c0.61,0.45,1.24,0.88,1.82,1.36c0.45,0.43,0.82,0.94,1.28,1.34l0.73,0.59
		c0.7,0.58,1.34,1.22,1.92,1.91c0.27,0.33,0.53,0.64,0.78,0.93s0.46,0.62,0.69,0.91l1.14,1.47c0.46,0.6,0.88,1.24,1.24,1.9
		c0.31,0.54,0.52,1.12,0.85,1.64l0.45,0.82c0.46,0.78,0.87,1.59,1.24,2.41c0.24,0.81,0.5,1.53,0.77,2.23
		c0.24,0.57,0.44,1.16,0.59,1.76c0.2,0.73,0.41,1.46,0.58,2.2c0.17,0.6,0.08,1.24,0.2,1.84l0.19,0.91c0.08,0.45,0.18,0.88,0.27,1.31
		c0.06,0.46,0.08,0.91,0.08,1.37c-0.01,0.85,0.03,1.61,0.07,2.36c-0.02,0.61-0.04,1.22-0.06,1.85c0,0.76-0.05,1.52-0.15,2.27
		c-0.11,0.61-0.32,1.2-0.4,1.81c-0.02,0.26-0.06,0.62-0.09,0.93c-0.11,0.9-0.3,1.78-0.55,2.65c-0.13,0.4-0.24,0.79-0.35,1.17
		c-0.13,0.37-0.26,0.72-0.39,1.08C2723.61,5748.64,2723.41,5749.21,2723.2,5749.81z"/>
</g>
</svg>
