<?xml version="1.0" encoding="utf-8"?>
<!-- Generator: Adobe Illustrator 24.1.2, SVG Export Plug-In . SVG Version: 6.00 Build 0)  -->
<!DOCTYPE svg PUBLIC "-//W3C//DTD SVG 1.1//EN" "http://www.w3.org/Graphics/SVG/1.1/DTD/svg11.dtd" [
	<!ENTITY ns_extend "http://ns.adobe.com/Extensibility/1.0/">
	<!ENTITY ns_ai "http://ns.adobe.com/AdobeIllustrator/10.0/">
	<!ENTITY ns_graphs "http://ns.adobe.com/Graphs/1.0/">
	<!ENTITY ns_vars "http://ns.adobe.com/Variables/1.0/">
	<!ENTITY ns_imrep "http://ns.adobe.com/ImageReplacement/1.0/">
	<!ENTITY ns_sfw "http://ns.adobe.com/SaveForWeb/1.0/">
	<!ENTITY ns_custom "http://ns.adobe.com/GenericCustomNamespace/1.0/">
	<!ENTITY ns_adobe_xpath "http://ns.adobe.com/XPath/1.0/">
]>
<svg version="1.1" xmlns:x="&ns_extend;" xmlns:i="&ns_ai;" xmlns:graph="&ns_graphs;"
	 xmlns="http://www.w3.org/2000/svg" xmlns:xlink="http://www.w3.org/1999/xlink" x="0px" y="0px" viewBox="0 0 60 60"
	 style="enable-background:new 0 0 60 60;" xml:space="preserve">
<style type="text/css">
	.st0{fill:#FF7A00;}
</style>
<metadata>
	<sfw  xmlns="&ns_sfw;">
		<slices></slices>
		<sliceSourceBounds  bottomLeftOrigin="true" height="28.66" width="51.13" x="4.34" y="13.7"></sliceSourceBounds>
	</sfw>
</metadata>
<g id="레이어_1">
	<path class="st0" d="M54.56,18.54c-0.54-0.54-1.31-0.85-2.11-0.85c0,0,0,0,0,0c-0.8,0-1.57,0.31-2.11,0.85L29.9,38.98L9.46,18.54
		c-1.2-1.2-3.02-1.2-4.22,0c-1.2,1.2-1.2,3.02,0,4.22l22.58,22.77l0.16,0.12c0.65,0.43,1.3,0.65,1.93,0.65
		c0.78,0,1.57-0.34,2.16-0.94l22.5-22.6C55.76,21.56,55.76,19.74,54.56,18.54z"/>
</g>
<g id="레이어_2">
</g>
</svg>
