<?xml version="1.0" encoding="utf-8"?>
<!-- Generator: Adobe Illustrator 24.1.3, SVG Export Plug-In . SVG Version: 6.00 Build 0)  -->
<!DOCTYPE svg PUBLIC "-//W3C//DTD SVG 1.1//EN" "http://www.w3.org/Graphics/SVG/1.1/DTD/svg11.dtd" [
	<!ENTITY ns_extend "http://ns.adobe.com/Extensibility/1.0/">
	<!ENTITY ns_ai "http://ns.adobe.com/AdobeIllustrator/10.0/">
	<!ENTITY ns_graphs "http://ns.adobe.com/Graphs/1.0/">
	<!ENTITY ns_vars "http://ns.adobe.com/Variables/1.0/">
	<!ENTITY ns_imrep "http://ns.adobe.com/ImageReplacement/1.0/">
	<!ENTITY ns_sfw "http://ns.adobe.com/SaveForWeb/1.0/">
	<!ENTITY ns_custom "http://ns.adobe.com/GenericCustomNamespace/1.0/">
	<!ENTITY ns_adobe_xpath "http://ns.adobe.com/XPath/1.0/">
]>
<svg version="1.1" id="레이어_2" xmlns:x="&ns_extend;" xmlns:i="&ns_ai;" xmlns:graph="&ns_graphs;"
	 xmlns="http://www.w3.org/2000/svg" xmlns:xlink="http://www.w3.org/1999/xlink" x="0px" y="0px" viewBox="0 0 42 42"
	 style="enable-background:new 0 0 42 42;" xml:space="preserve">
<style type="text/css">
	.st0{fill:#212121;}
</style>
<metadata>
	<sfw  xmlns="&ns_sfw;">
		<slices></slices>
		<sliceSourceBounds  bottomLeftOrigin="true" height="40.2" width="40.15" x="0.93" y="0.9"></sliceSourceBounds>
	</sfw>
</metadata>
<g>
	<g>
		<g>
			<path class="st0" d="M25.93,15.74c0-0.03,0.02-0.07,0.02-0.1c0-0.05-0.07-0.16-0.23-0.19c-0.17-0.03-0.28-0.05-0.46-0.04
				c-0.08,0.01-0.26,0.07-0.31,0.09c-0.08,0.03-0.06,0.09-0.04,0.13c0.02,0.03,0.03,0.07,0.03,0.1c0,0.03,0,0.06,0,0.08
				c0,0.09,0.01,0.19,0.01,0.29c0,0.12,0.01,0.23,0,0.35c-0.01,0.1-0.06,0.19-0.06,0.28c0,0.04,0.01,0.1,0.02,0.14
				c0.01,0.14,0.06,0.27,0.04,0.42c-0.02,0.13-0.03,0.25-0.02,0.36c0,0.03,0,0.05,0,0.08c0,0.03-0.02,0.07-0.02,0.11
				c0,0.05-0.01,0.09,0.1,0.14c0.12,0.06,0.36,0.09,0.56,0.07c0.1-0.01,0.17-0.04,0.23-0.06c0.02-0.01,0.04-0.02,0.06-0.03
				c0.05-0.04,0.03-0.08,0.02-0.12c0-0.02-0.01-0.03,0-0.05c0.01-0.05,0.02-0.09,0.03-0.14c0.01-0.05,0.02-0.1,0.01-0.16
				c0-0.12-0.08-0.35-0.07-0.47c0.01-0.08,0.05-0.16,0.05-0.24c0-0.01,0-0.02,0.01-0.03c0.04-0.19-0.06-0.38-0.06-0.57
				c-0.01-0.15,0.04-0.25,0.06-0.36C25.92,15.79,25.92,15.77,25.93,15.74z"/>
			<path class="st0" d="M26.15,15.51c-0.08,0.03-0.06,0.09-0.04,0.13c0.02,0.03,0.03,0.07,0.03,0.1c0,0.03,0,0.06,0,0.08
				c0,0.09,0.01,0.19,0.01,0.29c0,0.12,0.01,0.23,0,0.35c-0.01,0.1-0.06,0.19-0.06,0.28c0,0.04,0.01,0.1,0.02,0.14
				c0.01,0.14,0.06,0.27,0.04,0.42c-0.02,0.13-0.03,0.25-0.02,0.36c0,0.03,0,0.05,0,0.08c0,0.03-0.02,0.07-0.02,0.11
				c0,0.05-0.01,0.09,0.1,0.14c0.12,0.06,0.36,0.09,0.56,0.07c0.1-0.01,0.17-0.04,0.23-0.06c0.02-0.01,0.04-0.02,0.06-0.03
				c0.05-0.04,0.03-0.08,0.02-0.12c0-0.02-0.01-0.03,0-0.05c0.01-0.05,0.02-0.09,0.03-0.14c0.01-0.05,0.02-0.1,0.01-0.16
				c0-0.12-0.08-0.35-0.07-0.47c0.01-0.08,0.05-0.16,0.05-0.24c0-0.01,0-0.02,0.01-0.03c0.04-0.19-0.06-0.38-0.06-0.57
				c-0.01-0.15,0.04-0.25,0.06-0.36c0-0.02,0.01-0.05,0.01-0.08c0-0.03,0.02-0.07,0.02-0.1c0-0.05-0.07-0.16-0.23-0.19
				c-0.17-0.03-0.28-0.05-0.46-0.04C26.38,15.42,26.2,15.48,26.15,15.51z"/>
			<path class="st0" d="M41.07,2.42l-0.01-0.11l-0.02-0.12l-1.17,0.45l0.01,0.04l0,0.04l0,0.09l0.01,0.22l0,0.03l0,0.02l-0.01,0.02
				l-0.01,0.02l-0.01,0.02l-0.01,0.02l-0.02,0.01l-0.02,0.01L39.79,3.2l-0.02,0.01l-0.05,0.01l-0.04,0c-0.03,0-0.05,0-0.08,0
				l-0.01,0v0c-0.17,0-0.34,0-0.51,0c-0.05,0-0.1,0-0.15,0c-0.01,0-0.02,0-0.03,0c-0.01-0.13-0.02-0.27-0.03-0.41l0,0l0-0.01
				l-0.01-0.07l-0.02-0.06L38.8,2.61l-0.04-0.05l-0.04-0.04l-0.05-0.03l-0.05-0.03l-0.05-0.02l-0.05-0.02l-0.05-0.01L38.42,2.4
				c-0.03,0-0.06-0.01-0.09-0.01c-0.03,0-0.05,0-0.07,0c-0.15,0-0.28,0-0.4,0c-0.03,0-0.06,0-0.09-0.01V2.32
				c-0.09,0-0.19-0.01-0.29-0.01c-0.1,0-0.21,0-0.33,0c-0.11,0-0.25,0.01-0.41,0.02c-0.16,0.01-0.33,0.02-0.5,0.03l0,0l-0.01,0
				l-0.07,0.01l-0.06,0.02l-0.06,0.03l-0.05,0.04L35.95,2.5l-0.03,0.05l-0.03,0.05l-0.02,0.05l-0.02,0.05l-0.01,0.05l-0.01,0.05
				c0,0.03-0.01,0.06-0.01,0.09c0,0.03,0,0.05,0,0.07c0,0.03,0,0.05,0,0.08c-0.01,0-0.02,0-0.03,0c-0.13,0-0.26,0.01-0.4,0.02
				c-0.16,0.01-0.33,0.02-0.49,0.01c-0.13-0.01-0.27-0.08-0.4-0.07c-0.06,0-0.13,0.02-0.2,0.03c-0.2,0.01-0.38,0.08-0.59,0.05
				c-0.17-0.03-0.33-0.03-0.48-0.03c-0.01-0.08-0.01-0.15-0.01-0.23l0,0l0-0.01l-0.01-0.07l-0.02-0.06l-0.03-0.06L33.1,2.56
				l-0.04-0.04l-0.05-0.03l-0.05-0.03l-0.05-0.02l-0.05-0.02l-0.05-0.01L32.77,2.4c-0.03,0-0.06-0.01-0.09-0.01
				c-0.03,0-0.05,0-0.07,0c-0.15,0-0.28,0-0.4,0c-0.03,0-0.06,0-0.09-0.01V2.32c-0.09,0-0.19-0.01-0.29-0.01c-0.1,0-0.21,0-0.33,0
				c-0.11,0-0.25,0.01-0.41,0.02c-0.16,0.01-0.33,0.02-0.5,0.03l0,0l-0.01,0L30.5,2.37l-0.06,0.02l-0.06,0.03l-0.05,0.04L30.29,2.5
				l-0.03,0.05l-0.03,0.05l-0.02,0.05l-0.02,0.05l-0.01,0.05l-0.01,0.05c0,0.03-0.01,0.06-0.01,0.09c0,0.03,0,0.05,0,0.07
				c0,0.03,0,0.05,0,0.08c-0.01,0-0.02,0-0.03,0c-0.13,0-0.26,0.01-0.4,0.02c-0.16,0.01-0.33,0.02-0.49,0.01
				c-0.13-0.01-0.27-0.08-0.4-0.07c-0.06,0-0.13,0.02-0.2,0.03c-0.2,0.01-0.38,0.08-0.58,0.05c-0.17-0.03-0.33-0.03-0.48-0.03
				c-0.01-0.08-0.01-0.15-0.01-0.23l0,0l0-0.01l-0.01-0.07l-0.02-0.06l-0.03-0.06l-0.04-0.05l-0.04-0.04l-0.05-0.03l-0.05-0.03
				l-0.05-0.02l-0.05-0.02l-0.05-0.01L27.12,2.4c-0.03,0-0.06-0.01-0.09-0.01c-0.03,0-0.05,0-0.07,0c-0.15,0-0.28,0-0.4,0
				c-0.03,0-0.06,0-0.09-0.01V2.32c-0.09,0-0.19-0.01-0.29-0.01c-0.1,0-0.21,0-0.33,0c-0.11,0-0.25,0.01-0.41,0.02
				c-0.16,0.01-0.33,0.02-0.5,0.03l0,0l-0.01,0l-0.07,0.01l-0.06,0.02l-0.06,0.03l-0.05,0.04L24.64,2.5l-0.03,0.05l-0.03,0.05
				l-0.02,0.05l-0.02,0.05l-0.01,0.05l-0.01,0.05c0,0.03-0.01,0.06-0.01,0.09c0,0.03,0,0.05,0,0.07c0,0.08,0,0.15,0,0.23
				c-0.09,0.01-0.18,0.03-0.27,0.03c-0.1,0-0.2,0-0.3,0l-0.62,0.01l-0.03,0l-0.02,0l-0.02-0.01l-0.02-0.01L23.2,3.19l-0.02-0.01
				l-0.01-0.02l-0.01-0.02l-0.01-0.02L23.14,3.1l-0.01-0.05l0-0.03c0-0.13,0.01-0.25,0.01-0.37c0.03-0.18,0.14-0.35,0.31-0.45
				c0.1-0.06,0.22-0.08,0.33-0.08c0.16,0,0.33,0,0.49,0c0.32,0.01,0.64,0.08,0.96,0.07c0.13-0.01,0.32-0.02,0.49-0.03
				c0.47-0.01,0.91-0.08,1.41-0.05c0.44,0.03,0.84,0.03,1.23,0.03c0.32,0,0.64-0.01,0.97-0.02c0.4-0.01,0.79-0.02,1.19-0.01
				c0.32,0.01,0.64,0.08,0.96,0.07c0.14,0,0.32-0.02,0.49-0.03c0.47-0.01,0.91-0.08,1.41-0.05c0.44,0.03,0.84,0.03,1.23,0.03
				c0.32-0.01,0.64-0.01,0.97-0.02c0.4-0.01,0.79-0.02,1.19-0.01c0.32,0.01,0.64,0.08,0.96,0.07c0.13-0.01,0.32-0.02,0.49-0.03
				c0.22-0.01,0.46-0.03,0.7-0.04c0.09-0.01,0.18-0.01,0.27-0.01c0.07,0,0.15,0,0.21,0.03c0.24,0.09,0.4,0.29,0.45,0.51l1.17-0.45
				c-0.05-0.23-0.15-0.47-0.35-0.7c-0.18-0.21-0.56-0.46-0.98-0.51c-0.21-0.03-0.42-0.01-0.61-0.01c-0.15,0.01-0.26,0.01-0.37,0.01
				c-0.27-0.01-0.55-0.06-0.82-0.07L37.8,0.91c-0.64-0.05-1.29,0.07-1.93,0.08C35.34,1,35.03,0.95,34.63,0.92
				c-0.16-0.01-0.34-0.02-0.56-0.02c-0.4,0.01-1.2,0.1-1.6,0.08c-0.27-0.01-0.55-0.06-0.82-0.07c-0.04,0-0.07-0.01-0.11-0.01
				c-0.64-0.05-1.29,0.07-1.93,0.08C29.09,1,28.78,0.95,28.38,0.92c-0.16-0.01-0.34-0.02-0.56-0.02c-0.4,0.01-1.2,0.1-1.6,0.08
				c-0.27-0.01-0.55-0.06-0.82-0.07L25.3,0.91c-0.32-0.02-0.64-0.01-0.97,0.02c-0.17,0.01-0.35,0.03-0.52,0.04
				c-0.23,0.01-0.45,0.03-0.66,0.1c-0.66,0.24-0.99,0.61-1.18,1.12l-0.03,0.09l-0.01,0.05l-0.01,0.05l-0.02,0.1L21.9,2.6
				c0,0.07,0,0.15-0.01,0.23c0,0.07,0,0.14,0,0.21c0,0.11,0.01,0.25,0.02,0.41c0.01,0.16,0.02,0.33,0.03,0.5l0,0l0,0.01l0.01,0.07
				l0.02,0.06l0.03,0.06l0.04,0.05l0.04,0.04l0.05,0.03l0.05,0.03l0.05,0.02l0.05,0.02l0.05,0.01l0.05,0.01
				c0.03,0,0.06,0.01,0.09,0.01c0.03,0,0.05,0,0.07,0c0.15,0,0.28,0,0.4,0c0.12,0.01,0.23,0.01,0.34,0.02
				c0.22,0.02,0.42,0.03,0.64,0.05c0.09,0.01,0.18,0.01,0.28,0.01c0.06,0,0.14,0.01,0.23,0.02c-0.01,0.14-0.01,0.27-0.01,0.44
				c0.01,0.4,0.1,1.22,0.08,1.63c-0.01,0.28-0.06,0.56-0.07,0.84c0,0.04-0.01,0.08-0.01,0.11c-0.05,0.66,0.07,1.31,0.08,1.97
				c0.01,0.53-0.04,0.85-0.07,1.25c0,0.09-0.01,0.19-0.01,0.29c0,0.1,0,0.21,0,0.33c0,0.11,0.01,0.25,0.02,0.41
				c0.01,0.16,0.02,0.33,0.03,0.5l0,0l0,0.01l0.01,0.07l0.02,0.06l0.03,0.06l0.04,0.05l0.04,0.04l0.05,0.03l0.05,0.03l0.05,0.02
				l0.05,0.02l0.05,0.01l0.05,0.01c0.03,0,0.06,0.01,0.09,0.01c0.03,0,0.05,0,0.07,0c0.11,0,0.21,0,0.31,0
				c0.02,0.07,0.03,0.14,0.03,0.21c0,0.07,0,0.13,0,0.19c0,0.06,0,0.12,0,0.18c0,0.08-0.03,0.17-0.02,0.25c0,0.02,0,0.03,0,0.05
				c-0.09,0-0.18-0.01-0.28-0.01c-0.1,0-0.21,0-0.33,0c-0.11,0-0.25,0.01-0.41,0.02c-0.16,0.01-0.33,0.02-0.5,0.03l0,0l-0.01,0
				l-0.07,0.01l-0.06,0.02l-0.06,0.03l-0.05,0.04l-0.04,0.04l-0.03,0.05l-0.03,0.05l-0.02,0.05l-0.02,0.05l-0.01,0.05l-0.01,0.05
				c0,0.03-0.01,0.06-0.01,0.09c0,0.03,0,0.05,0,0.07c0,0.15,0,0.28,0,0.4c-0.01,0.12-0.01,0.23-0.02,0.34
				c-0.02,0.22-0.03,0.42-0.05,0.64c-0.01,0.06-0.02,0.12-0.02,0.2c0.01,0.14,0.1,0.43,0.08,0.57c-0.01,0.1-0.06,0.19-0.07,0.29
				c0,0.01-0.01,0.03-0.01,0.04c-0.05,0.23,0.07,0.46,0.08,0.69c0.01,0.18-0.04,0.3-0.07,0.44c0,0.09-0.01,0.19-0.01,0.29
				c0,0.1,0,0.21,0,0.33c0,0.11,0.01,0.25,0.02,0.41c0.01,0.16,0.02,0.33,0.03,0.5l0,0l0,0.01l0.01,0.07l0.02,0.06l0.03,0.06
				l0.04,0.05l0.04,0.04l0.05,0.03l0.05,0.03l0.05,0.02l0.05,0.02l0.05,0.01l0.05,0.01c0.03,0,0.06,0.01,0.09,0.01
				c0.03,0,0.05,0,0.07,0c0.15,0,0.28,0,0.4,0c0.12,0.01,0.23,0.01,0.34,0.02c0.22,0.02,0.42,0.03,0.64,0.05
				c0.03,0.01,0.06,0.02,0.1,0.02c0.07-0.01,0.22-0.1,0.29-0.08c0.05,0.01,0.1,0.06,0.15,0.07c0.01,0,0.01,0.01,0.02,0.01
				c0.12,0.05,0.23-0.07,0.35-0.08c0.09-0.01,0.15,0.04,0.22,0.07c0.09,0,0.19,0.01,0.29,0.01c0.1,0,0.21,0,0.33,0
				c0.11,0,0.25-0.01,0.41-0.02c0.16-0.01,0.33-0.02,0.5-0.03l0,0l0.01,0l0.07-0.01l0.06-0.02l0.06-0.03l0.05-0.04l0.04-0.04
				l0.03-0.05l0.03-0.05l0.02-0.05l0.02-0.05l0.01-0.05l0.01-0.05c0-0.03,0.01-0.06,0.01-0.09c0-0.03,0-0.05,0-0.07
				c0-0.15,0-0.28,0-0.4c0.01-0.12,0.01-0.23,0.02-0.34c0.02-0.22,0.03-0.42,0.05-0.64c0.01-0.06,0.02-0.12,0.02-0.2
				c-0.01-0.14-0.1-0.43-0.08-0.57c0.01-0.1,0.06-0.19,0.07-0.29c0-0.01,0.01-0.03,0.01-0.04c0.05-0.23-0.07-0.46-0.08-0.69
				c-0.01-0.18,0.04-0.3,0.07-0.44c0-0.09,0.01-0.19,0.01-0.29c0-0.1,0-0.21,0-0.33c0-0.11-0.01-0.25-0.02-0.41
				c-0.01-0.16-0.02-0.33-0.03-0.5l0,0l0-0.01l-0.01-0.07l-0.02-0.06l-0.03-0.06l-0.04-0.05l-0.04-0.04l-0.05-0.03l-0.05-0.03
				l-0.05-0.02l-0.05-0.02l-0.05-0.01l-0.05-0.01c-0.03,0-0.06-0.01-0.09-0.01c-0.03,0-0.05,0-0.07,0c-0.15,0-0.28,0-0.4,0
				c-0.12-0.01-0.23-0.01-0.34-0.02c-0.2-0.02-0.38-0.03-0.58-0.05c0-0.02-0.01-0.04-0.01-0.06c-0.01-0.04-0.01-0.07,0-0.11
				c0.01-0.1,0.03-0.21,0.04-0.32c0.01-0.06,0.01-0.11,0.01-0.18c0-0.04,0.01-0.1,0.02-0.16c0.14-0.01,0.28-0.02,0.43-0.03l0,0
				l0.01,0l0.07-0.01l0.06-0.02l0.06-0.03l0.05-0.04l0.04-0.04l0.03-0.05l0.03-0.05l0.02-0.05l0.02-0.05l0.01-0.05l0.01-0.05
				c0-0.03,0.01-0.06,0.01-0.09c0-0.03,0-0.05,0-0.07c0-0.15,0-0.28,0-0.4c0.01-0.12,0.01-0.23,0.02-0.34
				c0.02-0.22,0.03-0.42,0.05-0.64c0.01-0.17,0.02-0.35,0.02-0.57c-0.01-0.4-0.1-1.22-0.08-1.63c0.01-0.28,0.06-0.56,0.07-0.84
				c0-0.04,0.01-0.08,0.01-0.11c0.05-0.66-0.07-1.31-0.08-1.97c-0.01-0.53,0.04-0.85,0.07-1.25c0-0.02,0-0.05,0-0.08
				c0.05,0.01,0.11,0.01,0.18,0.01c0.16-0.01,0.5-0.1,0.66-0.08c0.11,0.01,0.23,0.06,0.34,0.07c0.02,0,0.03,0.01,0.05,0.01
				c0.27,0.05,0.53-0.07,0.8-0.08c0.2-0.01,0.32,0.04,0.47,0.06c0,0.03,0,0.06-0.01,0.09h0c-0.01,0.17-0.02,0.35-0.02,0.57
				c0.01,0.4,0.1,1.22,0.08,1.63c-0.01,0.28-0.06,0.56-0.07,0.84c0,0.04-0.01,0.08-0.01,0.11c-0.05,0.66,0.07,1.31,0.08,1.97
				c0.01,0.53-0.04,0.85-0.07,1.25h0c0,0.09-0.01,0.19-0.01,0.29c0,0.1,0,0.21,0,0.33c0,0.11,0.01,0.25,0.02,0.41
				c0.01,0.16,0.02,0.33,0.03,0.5l0,0l0,0.01l0.01,0.07l0.02,0.06l0.03,0.06l0.04,0.05l0.04,0.04l0.05,0.03l0.05,0.03l0.05,0.02
				l0.05,0.02l0.05,0.01l0.05,0.01c0.03,0,0.06,0.01,0.09,0.01c0.03,0,0.05,0,0.07,0c0.12,0,0.23,0,0.33,0
				c0,0.01,0.01,0.03,0.01,0.04c0,0.05,0,0.1,0,0.15c0,0.17,0.01,0.34,0.02,0.52c0.01,0.21,0.02,0.43,0.01,0.64
				c-0.01,0.17-0.08,0.35-0.07,0.52c0,0.07,0.02,0.17,0.03,0.26c0.01,0.25,0.08,0.49,0.05,0.76c-0.03,0.24-0.03,0.45-0.03,0.66
				c0,0.05,0,0.1,0,0.14c0,0.01,0,0.03-0.01,0.04c-0.09-0.01-0.17-0.04-0.25-0.06c-0.09,0-0.19-0.01-0.29-0.01c-0.1,0-0.21,0-0.33,0
				c-0.11,0-0.25,0.01-0.41,0.02c-0.16,0.01-0.33,0.02-0.5,0.03l0,0l-0.01,0l-0.07,0.01l-0.06,0.02l-0.06,0.03l-0.05,0.04L29,16.52
				l-0.03,0.05l-0.03,0.05l-0.02,0.05l-0.02,0.05l-0.01,0.05l-0.01,0.05c0,0.03-0.01,0.06-0.01,0.09c0,0.03,0,0.06,0,0.08
				c0.01,0.09,0.01,0.18,0.01,0.26c0.01,0.08,0.02,0.16,0.03,0.24l0.01,0.06l0.01,0.05l0.02,0.11l0.02,0.1l0.03,0.1l0.03,0.1
				l0.01,0.05l0.02,0.05l0.08,0.19l0.02,0.05l0.02,0.04l0.05,0.09l0.05,0.09l0.06,0.09c0.07,0.12,0.17,0.24,0.3,0.37
				c0.24,0.25,0.89,0.53,1.21,0.61c0.22,0.07,0.44,0.16,0.68,0.18l0.09,0.01c0.56,0.05,1.1-0.22,1.54-0.51
				c0.36-0.24,0.58-0.4,0.81-0.66l0.06-0.07l0.05-0.07c0.03-0.05,0.07-0.11,0.11-0.16c0.03-0.06,0.06-0.12,0.09-0.18l0.02-0.05
				l0.02-0.05l0.04-0.11c0.01-0.03,0.02-0.07,0.04-0.11l0.02-0.06l0.01-0.06l0.03-0.13l0.01-0.07l0.01-0.07l0.02-0.15l0-0.08l0-0.08
				l0-0.16l-0.01-0.13l0,0l0-0.01l-0.01-0.07l-0.02-0.06l-0.03-0.06l-0.04-0.05l-0.04-0.04l-0.05-0.03l-0.05-0.03l-0.05-0.02
				l-0.05-0.02l-0.05-0.01l-0.05-0.01c-0.03,0-0.06-0.01-0.09-0.01c-0.03,0-0.05,0-0.07,0c-0.15,0-0.28,0-0.4,0
				c-0.12-0.01-0.23-0.01-0.34-0.02c-0.22-0.02-0.42-0.03-0.64-0.05c-0.04-0.01-0.09-0.02-0.15-0.02c-0.02,0-0.07,0.01-0.1,0.02
				c0.01-0.04,0.02-0.09,0.02-0.13c0.01-0.09,0.02-0.18,0.02-0.3c-0.01-0.21-0.1-0.65-0.08-0.86c0.01-0.15,0.06-0.3,0.07-0.44
				c0-0.02,0.01-0.04,0.01-0.06c0.05-0.35-0.07-0.69-0.08-1.04c-0.01-0.28,0.04-0.45,0.07-0.66c0.01-0.04,0.01-0.08,0.01-0.13
				c0.14-0.01,0.3-0.02,0.45-0.03l0,0l0.01,0l0.07-0.01l0.06-0.02l0.06-0.03L33,12.59l0.04-0.04l0.03-0.05l0.03-0.05l0.02-0.05
				l0.02-0.05l0.01-0.05l0.01-0.05c0-0.03,0.01-0.06,0.01-0.09c0-0.03,0-0.05,0-0.07c0-0.15,0-0.28,0-0.4
				c0.01-0.12,0.01-0.23,0.02-0.34c0.02-0.22,0.03-0.42,0.05-0.64c0.01-0.17,0.02-0.35,0.02-0.57c-0.01-0.4-0.1-1.22-0.08-1.63
				c0.01-0.28,0.06-0.56,0.07-0.84c0-0.04,0.01-0.08,0.01-0.11c0.05-0.66-0.07-1.31-0.08-1.97c-0.01-0.53,0.04-0.85,0.07-1.25
				c0-0.02,0-0.05,0-0.08c0.06,0.01,0.11,0.01,0.18,0.01c0.16-0.01,0.5-0.1,0.66-0.08c0.11,0.01,0.23,0.06,0.34,0.07
				c0.02,0,0.03,0.01,0.05,0.01c0.27,0.05,0.53-0.07,0.8-0.08c0.2-0.01,0.33,0.04,0.47,0.07c0,0.03,0,0.06-0.01,0.09
				c-0.01,0.17-0.02,0.35-0.02,0.57c0.01,0.4,0.1,1.22,0.08,1.63c-0.01,0.28-0.06,0.56-0.07,0.84c0,0.04-0.01,0.08-0.01,0.11
				c-0.05,0.66,0.07,1.31,0.08,1.97c0.01,0.53-0.04,0.85-0.07,1.25c0,0.09-0.01,0.19-0.01,0.29c0,0.1,0,0.21,0,0.33
				c0,0.11,0.01,0.25,0.02,0.41c0.01,0.16,0.02,0.33,0.03,0.5l0,0l0,0.01l0.01,0.07l0.02,0.06l0.03,0.06l0.04,0.05l0.04,0.04
				l0.05,0.03l0.05,0.03l0.05,0.02l0.05,0.02l0.05,0.01l0.05,0.01c0.03,0,0.06,0.01,0.09,0.01c0.03,0,0.05,0,0.07,0
				c0.1,0,0.2,0,0.29,0c0,0.06,0.01,0.12,0.02,0.16c0.02,0.11,0.03,0.21,0.03,0.31c0,0.09,0,0.18,0,0.26c0,0.08,0,0.17,0,0.25
				c0,0.11-0.03,0.24-0.02,0.34c0,0.05,0,0.1,0,0.14c-0.83,0.21-1.48,0.93-1.66,1.74c-0.05,0.19-0.07,0.37-0.08,0.53
				c-0.01,0.13-0.01,0.25-0.02,0.37c-0.02,0.22-0.03,0.44-0.05,0.66c0,0.13-0.01,0.28-0.01,0.43c0,0.15,0,0.31,0,0.49
				c0.01,0.33,0.03,0.83,0.05,1.33l0,0c0,0.01,0,0.01,0,0.02c0.01,0.04,0.01,0.07,0.01,0.11l0.02,0.09L35,19.97l0.04,0.07l0.04,0.06
				l0.01,0.01l0,0l0,0l0,0l0,0l0.01,0l0.04,0l0.08,0l0.08-0.01l0.08-0.01c0.05-0.01,0.1-0.02,0.15-0.03
				c0.05-0.01,0.09-0.03,0.13-0.04c0.04-0.01,0.07-0.03,0.1-0.04c0.2-0.08,0.38-0.15,0.55-0.21c0.17-0.06,0.32-0.11,0.47-0.17
				c0.3-0.1,0.58-0.19,0.89-0.3c0.02,0,0.05,0,0.08-0.01c0.05-0.03,0.12-0.15,0.17-0.16c0.04-0.01,0.09,0.03,0.13,0.02
				c0.01,0,0.01,0,0.02,0c0.1,0.01,0.14-0.13,0.21-0.17c0.06-0.03,0.12,0,0.18,0.01c0.06-0.02,0.12-0.04,0.19-0.06
				c0.07-0.02,0.14-0.05,0.21-0.08c0.07-0.03,0.16-0.07,0.25-0.12c0.09-0.05,0.19-0.09,0.28-0.14l0,0l0,0
				c0.01,0,0.01-0.01,0.02-0.01l0,0l0.01,0l0.02-0.02l0.02-0.02l0.02-0.02l0.02-0.02l0.02-0.04l0.02-0.05l0.01-0.05l0-0.01
				l0.01-0.01l0.02-0.02l0.03-0.03l0.02-0.03l0.02-0.03l0.01-0.03l0.01-0.03c0-0.02,0.01-0.04,0.01-0.06c0-0.02,0-0.04,0-0.05
				c0-0.1,0-0.19,0-0.27c0.01-0.08,0.01-0.16,0.02-0.23c0.02-0.15,0.03-0.28,0.05-0.44c0.01-0.19,0.02-0.4,0.02-0.64
				c0.01-0.3-0.1-0.79-0.36-1.17c-0.25-0.4-0.61-0.68-0.87-0.83c-0.18-0.12-0.39-0.21-0.6-0.28c0-0.07-0.01-0.14-0.01-0.21
				c-0.01-0.05-0.01-0.1,0-0.15c0.01-0.14,0.03-0.28,0.04-0.43c0.01-0.08,0.01-0.16,0.01-0.24c0-0.09,0.03-0.21,0.02-0.31
				c0-0.03-0.01-0.08-0.02-0.13c0.14-0.01,0.29-0.02,0.44-0.03l0,0l0.01,0l0.07-0.01l0.06-0.02l0.06-0.03l0.05-0.04l0.04-0.04
				l0.03-0.05l0.03-0.05l0.02-0.05l0.02-0.05l0.01-0.05l0.01-0.05c0-0.03,0.01-0.06,0.01-0.09c0-0.03,0-0.05,0-0.07
				c0-0.15,0-0.28,0-0.4c0.01-0.12,0.01-0.23,0.02-0.34c0.02-0.22,0.03-0.42,0.05-0.64c0.01-0.17,0.02-0.35,0.02-0.57
				c-0.01-0.4-0.1-1.22-0.08-1.63c0.01-0.28,0.06-0.56,0.07-0.84c0-0.04,0.01-0.08,0.01-0.11c0.05-0.66-0.07-1.31-0.08-1.97
				c-0.01-0.5,0.04-0.81,0.07-1.19c0.06,0.01,0.12,0.02,0.18,0.03c0.09,0,0.19,0.01,0.29,0.01c0.1,0,0.21,0,0.33,0
				c0.11,0,0.25-0.01,0.41-0.02c0.16-0.01,0.33-0.02,0.5-0.03l0,0l0.01,0l0.07-0.01l0.06-0.02l0.06-0.03l0.05-0.04l0.04-0.04
				l0.03-0.05l0.03-0.05l0.02-0.05l0.02-0.05l0.01-0.05l0.01-0.05c0-0.03,0.01-0.06,0.01-0.09c0-0.03,0-0.05,0-0.07
				c0-0.15,0-0.28,0-0.4c0.01-0.12,0.01-0.23,0.02-0.34c0.01-0.14,0.02-0.27,0.02-0.4l0-0.11L41.07,2.42z M25.65,3.72l0-0.03l0-0.02
				l0.01-0.02l0.01-0.02l0.01-0.02l0.01-0.02l0.02-0.01l0.02-0.01l0.02-0.01l0.02-0.01l0.05-0.01l0.04,0c0.03,0,0.05,0,0.08,0
				l0.01,0v0c0.11,0,0.21,0,0.31,0l0.01,0l0.02,0.01l0.02,0.01l0.02,0.01l0.01,0.02l0.01,0.02l0.01,0.02l0.01,0.02l0.01,0.05l0,0.04
				c0,0.03,0,0.05,0,0.08l0,0.01h0c0,0.17,0,0.34,0,0.51c0,0.33,0.01,0.65,0.02,0.99c0.01,0.4,0.02,0.81,0.01,1.21
				c-0.01,0.33-0.08,0.66-0.07,0.98c0,0.14,0.02,0.33,0.03,0.5c0.01,0.48,0.08,0.93,0.05,1.44c-0.03,0.45-0.03,0.86-0.03,1.25
				l0.01,0.62l0,0.03l0,0.02l-0.01,0.02l-0.01,0.02l-0.01,0.02l-0.01,0.02l-0.02,0.01l-0.02,0.01l-0.02,0.01l-0.02,0.01l-0.05,0.01
				l-0.04,0c-0.03,0-0.05,0-0.08,0l-0.01,0v0c-0.11,0-0.21,0-0.31,0l-0.01,0l-0.02-0.01l-0.02-0.01l-0.02-0.01l-0.01-0.02
				l-0.01-0.02l-0.01-0.02l-0.01-0.02l-0.01-0.05l0-0.04c0-0.03,0-0.05,0-0.08l0-0.01h0c0-0.17,0-0.34,0-0.51
				c0-0.33-0.01-0.65-0.02-0.99c-0.01-0.4-0.02-0.81-0.01-1.21c0.01-0.33,0.08-0.66,0.07-0.98c0-0.14-0.02-0.33-0.03-0.5
				c-0.01-0.48-0.08-0.93-0.05-1.44c0.03-0.45,0.03-0.86,0.03-1.25L25.65,3.72z M27.18,14.75l0.03,0l0.02,0l0.02,0.01l0.02,0.01
				l0.02,0.01l0.02,0.01l0.01,0.02l0.01,0.02l0.01,0.02l0.01,0.02l0.01,0.05l0,0.04c0,0.03,0,0.05,0,0.08l0,0.01h0
				c0,0.17,0,0.34,0,0.51h0c0,0.11,0.01,0.23,0.02,0.34c0.01,0.14,0.02,0.28,0.01,0.42c-0.01,0.11-0.08,0.23-0.07,0.34
				c0,0.05,0.02,0.11,0.03,0.17c0.01,0.17,0.08,0.32,0.05,0.5c-0.03,0.16-0.03,0.3-0.03,0.44h0l0.01,0.62l0,0.03l0,0.02l-0.01,0.02
				l-0.01,0.02l-0.01,0.02l-0.01,0.02l-0.02,0.01l-0.02,0.01l-0.02,0.01l-0.02,0.01l-0.05,0.01l-0.04,0c-0.03,0-0.05,0-0.08,0
				l-0.01,0v0c-0.17,0-0.34,0-0.51,0c-0.06,0-0.12,0.01-0.18,0.02c-0.07,0.01-0.14,0.02-0.22,0.01c-0.06-0.01-0.12-0.08-0.18-0.07
				c-0.02,0-0.06,0.02-0.09,0.03c-0.09,0.01-0.17,0.08-0.26,0.05c-0.08-0.03-0.15-0.03-0.22-0.03l-0.62,0.01l-0.03,0l-0.02,0
				l-0.02-0.01l-0.02-0.01l-0.02-0.01l-0.02-0.01l-0.01-0.02l-0.01-0.02l-0.01-0.02l-0.01-0.02l-0.01-0.05l0-0.04
				c0-0.03,0-0.05,0-0.08l0-0.01h0c0-0.17,0-0.34,0-0.51c0-0.11-0.01-0.23-0.02-0.34c-0.01-0.14-0.02-0.28-0.01-0.42
				c0.01-0.11,0.08-0.23,0.07-0.34c0-0.05-0.02-0.11-0.03-0.17c-0.01-0.17-0.08-0.32-0.05-0.5c0.03-0.16,0.03-0.3,0.03-0.44
				l-0.01-0.62l0-0.03l0-0.02l0.01-0.02l0.01-0.02l0.01-0.02l0.01-0.02l0.02-0.01l0.02-0.01l0.02-0.01l0.02-0.01l0.05-0.01l0.04,0
				c0.03,0,0.05,0,0.08,0l0.01,0v0c0.17,0,0.34,0,0.51,0c0.06,0,0.12-0.01,0.18-0.02c0.07-0.01,0.14-0.02,0.22-0.01
				c0.06,0.01,0.12,0.08,0.18,0.07c0.02,0,0.06-0.02,0.09-0.03c0.09-0.01,0.17-0.08,0.26-0.05c0.08,0.03,0.15,0.03,0.22,0.03
				L27.18,14.75z M31.3,3.72l0-0.03l0-0.02l0.01-0.02l0.01-0.02l0.01-0.02l0.01-0.02l0.02-0.01l0.02-0.01l0.02-0.01l0.02-0.01
				l0.05-0.01l0.04,0c0.03,0,0.05,0,0.08,0l0.01,0v0c0.11,0,0.21,0,0.31,0l0.01,0l0.02,0.01l0.02,0.01l0.02,0.01l0.01,0.02L32,3.61
				l0.01,0.02l0.01,0.02l0.01,0.05l0,0.04c0,0.03,0,0.05,0,0.08l0,0.01h0c0,0.17,0,0.34,0,0.51c0,0.33,0.01,0.65,0.02,0.99
				c0.01,0.4,0.02,0.81,0.01,1.21c-0.01,0.33-0.08,0.66-0.07,0.98c0,0.14,0.02,0.33,0.03,0.5c0.01,0.48,0.08,0.93,0.05,1.44
				c-0.03,0.45-0.03,0.86-0.03,1.25l0.01,0.62l0,0.03l0,0.02l-0.01,0.02l-0.01,0.02L32,11.44l-0.01,0.02l-0.02,0.01l-0.02,0.01
				l-0.02,0.01l-0.02,0.01l-0.05,0.01l-0.04,0c-0.03,0-0.05,0-0.08,0l-0.01,0v0c-0.11,0-0.21,0-0.31,0l-0.01,0l-0.02-0.01
				l-0.02-0.01l-0.02-0.01l-0.01-0.02l-0.01-0.02l-0.01-0.02l-0.01-0.02l-0.01-0.05l0-0.04c0-0.03,0-0.05,0-0.08l0-0.01h0
				c0-0.17,0-0.34,0-0.51c0-0.33-0.01-0.65-0.02-0.99c-0.01-0.4-0.02-0.81-0.01-1.21c0.01-0.33,0.08-0.66,0.07-0.98
				c0-0.14-0.02-0.33-0.03-0.5c-0.01-0.48-0.08-0.93-0.05-1.44c0.03-0.45,0.03-0.86,0.03-1.25L31.3,3.72z M33.21,17.41L33.21,17.41
				L33.21,17.41l0.01,0.02l0,0.02l0,0.01C33.22,17.44,33.21,17.43,33.21,17.41L33.21,17.41z M32.51,17.56l0.62-0.01l0.03,0l0.02,0
				l0.01,0l-0.02,0.04l-0.05,0.11l-0.01,0.03l-0.02,0.03l-0.03,0.05l-0.03,0.05L33,17.91c-0.09,0.13-0.2,0.25-0.33,0.35
				c-0.15,0.12-0.33,0.23-0.53,0.27c-0.16,0.04-0.33-0.01-0.48,0c-0.07,0-0.16,0.02-0.24,0.01c-0.23-0.02-0.47-0.03-0.67-0.2
				c-0.17-0.14-0.31-0.28-0.43-0.44l-0.04-0.04l-0.03-0.05l-0.06-0.1l-0.05-0.1l-0.01-0.03l-0.01-0.03l0,0l0,0l0.05-0.01l0.04,0
				c0.03,0,0.05,0,0.08,0l0.01,0v0c0.17,0,0.34,0,0.51,0c0.09,0,0.17-0.01,0.26-0.02c0.11-0.01,0.21-0.02,0.32-0.01
				c0.09,0.01,0.18,0.08,0.26,0.07c0.04,0,0.09-0.02,0.13-0.03c0.13-0.01,0.25-0.08,0.38-0.05C32.3,17.56,32.41,17.56,32.51,17.56z
				 M36.95,3.72l0-0.03l0-0.02l0.01-0.02l0.01-0.02l0.01-0.02L37,3.59l0.02-0.01l0.02-0.01l0.02-0.01l0.02-0.01l0.05-0.01l0.04,0
				c0.03,0,0.05,0,0.08,0l0.01,0v0c0.11,0,0.21,0,0.31,0l0.01,0l0.02,0.01l0.02,0.01l0.02,0.01l0.01,0.02l0.01,0.02l0.01,0.02
				l0.01,0.02l0.01,0.05l0,0.04c0,0.03,0,0.05,0,0.08l0,0.01h0c0,0.17,0,0.34,0,0.51c0,0.33,0.01,0.65,0.02,0.99
				c0.01,0.4,0.02,0.81,0.01,1.21c-0.01,0.33-0.08,0.66-0.07,0.98c0,0.14,0.02,0.33,0.03,0.5c0.01,0.48,0.08,0.93,0.05,1.44
				c-0.03,0.45-0.03,0.86-0.03,1.25l0.01,0.62l0,0.03l0,0.02l-0.01,0.02l-0.01,0.02l-0.01,0.02l-0.01,0.02l-0.02,0.01l-0.02,0.01
				l-0.02,0.01l-0.02,0.01l-0.05,0.01l-0.04,0c-0.03,0-0.05,0-0.08,0l-0.01,0v0c-0.11,0-0.21,0-0.31,0l-0.01,0l-0.02-0.01
				l-0.02-0.01l-0.02-0.01L37,11.46l-0.01-0.02l-0.01-0.02l-0.01-0.02l-0.01-0.05l0-0.04c0-0.03,0-0.05,0-0.08l0-0.01h0
				c0-0.17,0-0.34,0-0.51c0-0.33-0.01-0.65-0.02-0.99c-0.01-0.4-0.02-0.81-0.01-1.21c0.01-0.33,0.08-0.66,0.07-0.98
				c0-0.14-0.02-0.33-0.03-0.5c-0.01-0.48-0.08-0.93-0.05-1.44c0.03-0.45,0.03-0.86,0.03-1.25L36.95,3.72z M38.43,15.96
				c0.06,0.16,0.09,0.32,0.09,0.48c0,0.23,0,0.46,0,0.68l0.01,0.42l0,0.02l0,0.02l-0.01,0.02l-0.01,0.01l-0.01,0.01l-0.01,0.01
				l-0.01,0l0,0l0,0l0,0l0,0l-0.01,0.02l-0.01,0.01l-0.01,0.01l-0.01,0.01l-0.01,0.01c0.01-0.06,0.01-0.11,0.02-0.17
				c0-0.06,0.01-0.12,0.01-0.18s0.02-0.16,0.02-0.23c0-0.12-0.07-0.38-0.23-0.45c-0.17-0.07-0.28-0.12-0.46-0.09
				c-0.08,0.01-0.26,0.16-0.31,0.21c-0.08,0.08-0.06,0.22-0.04,0.31c0.02,0.08,0.03,0.16,0.03,0.23c0,0.07,0,0.13,0,0.2
				c0,0.06,0,0.12,0,0.19c0,0.08-0.02,0.18-0.02,0.26c0,0.05,0,0.09,0.01,0.14c-0.02,0.01-0.03,0.03-0.06,0.03
				c-0.07,0-0.12,0.01-0.17,0.04l-0.03,0.01c0.01-0.13,0.02-0.26,0.03-0.4c0-0.07,0.01-0.15,0.01-0.23c0-0.08,0.02-0.2,0.02-0.29
				c0-0.16-0.07-0.48-0.23-0.57c-0.17-0.09-0.28-0.16-0.46-0.11c-0.08,0.02-0.26,0.2-0.31,0.27c-0.08,0.1-0.06,0.28-0.04,0.39
				c0.02,0.1,0.03,0.2,0.03,0.3c0,0.08,0,0.17,0,0.25c0,0.08,0,0.16,0,0.23c0,0.1-0.02,0.22-0.02,0.32c0,0.08,0,0.14,0.01,0.2l0,0
				l-0.03,0l-0.03,0l-0.01,0l0,0l0,0l0,0l0-0.01l-0.01-0.03l-0.02-0.06l-0.01-0.08l0-0.06c0-0.04,0-0.07,0-0.11l0-0.02h0
				c0-0.25,0-0.5,0-0.75c0-0.35-0.01-0.7-0.01-1.07c0.02-0.3,0.16-0.61,0.41-0.8c0.2-0.16,0.46-0.19,0.7-0.22
				c0.1-0.01,0.24-0.02,0.37,0C37.92,15.4,38.29,15.58,38.43,15.96z"/>
		</g>
	</g>
	<path class="st0" d="M40.93,24.03c-0.02-0.23-0.03-0.49-0.05-0.74l0-0.01l0-0.01c0-0.01,0-0.03,0-0.04l0,0l0-0.02l-0.01-0.06
		l-0.01-0.06l-0.02-0.05l-0.02-0.05l-0.02-0.05l-0.03-0.04l-0.03-0.04l-0.03-0.04l-0.03-0.03l-0.03-0.03l-0.07-0.05l-0.08-0.04
		l-0.08-0.03l-0.08-0.03l-0.08-0.02l-0.08-0.01c-0.05,0-0.1-0.01-0.15-0.01c-0.04,0-0.09,0-0.12,0c-0.12,0-0.23,0-0.33,0
		c-0.11,0-0.21,0-0.31-0.01c-0.2-0.01-0.38-0.02-0.55-0.03c-0.35-0.03-0.67-0.05-1.03-0.08c-0.29-0.02-0.61-0.03-0.99-0.03
		c-0.71,0.01-2.15,0.15-2.85,0.14c-0.49-0.01-0.98-0.09-1.47-0.11c-0.07,0-0.13-0.01-0.2-0.01c-1.15-0.07-2.3,0.11-3.45,0.13
		c-0.93,0.01-1.49-0.07-2.2-0.12c-0.29-0.02-0.61-0.03-0.99-0.03c-0.71,0.01-2.15,0.15-2.85,0.14c-0.49-0.01-0.98-0.09-1.47-0.11
		c-0.07,0-0.13-0.01-0.2-0.01c-1.15-0.07-2.3,0.11-3.45,0.13c-0.93,0.01-1.49-0.07-2.2-0.12c-0.29-0.02-0.61-0.03-0.99-0.03
		c-0.71,0.01-2.15,0.15-2.85,0.14c-0.49-0.01-0.98-0.09-1.47-0.11c-0.07,0-0.13-0.01-0.2-0.01c-1.15-0.07-2.3,0.11-3.45,0.13
		c-0.93,0.01-1.49-0.07-2.2-0.12c-0.15-0.01-0.3-0.01-0.47-0.02c-0.17,0-0.34,0-0.53,0c-0.18,0.01-0.41,0.02-0.66,0.03
		c-0.23,0.01-0.49,0.03-0.74,0.05l-0.01,0l-0.01,0c-0.01,0-0.03,0-0.04,0l0,0l-0.02,0l-0.06,0.01l-0.06,0.01l-0.05,0.02l-0.05,0.02
		l-0.05,0.02l-0.04,0.03l-0.04,0.03l-0.04,0.03L1.31,22.7l-0.03,0.03L1.22,22.8l-0.04,0.08l-0.03,0.08l-0.03,0.08L1.1,23.13
		l-0.01,0.08c-0.01,0.05-0.01,0.1-0.01,0.15c0,0.04,0,0.09,0,0.12c0,0.12,0,0.23,0,0.33c0,0.11,0,0.21-0.01,0.31
		c0,0.08-0.01,0.16-0.01,0.24h-0.1c-0.01,0.15-0.01,0.3-0.02,0.47c0,0.17,0,0.34,0,0.53c0.01,0.18,0.02,0.41,0.03,0.66
		c0.01,0.23,0.03,0.49,0.05,0.74l0,0.01l0,0.01c0,0.01,0,0.03,0,0.04l0,0l0,0.02l0.01,0.06l0.01,0.06l0.02,0.05l0.02,0.05l0.02,0.05
		l0.03,0.04l0.03,0.04l0.03,0.04l0.03,0.03l0.03,0.03l0.07,0.05l0.08,0.04l0.08,0.03l0.08,0.03l0.08,0.02l0.08,0.01
		c0.05,0,0.1,0.01,0.15,0.01c0.04,0,0.09,0,0.12,0c0.12,0,0.23,0,0.33,0c0.11,0,0.21,0,0.31,0.01c0.2,0.01,0.38,0.02,0.55,0.03
		c0.35,0.03,0.67,0.05,1.03,0.08c0.29,0.02,0.61,0.03,0.99,0.03c0.06,0,0.13,0,0.21-0.01c0.01,0.08,0.02,0.16,0.03,0.22
		c0.04,0.18,0.05,0.36,0.05,0.54c0,0.15,0,0.3,0,0.46c0.01,0.52,0.02,1.02,0.03,1.56c0.01,0.64,0.03,1.27,0.01,1.91
		c-0.02,0.52-0.13,1.04-0.11,1.55c0.01,0.22,0.03,0.52,0.05,0.78c0.01,0.3,0.03,0.59,0.05,0.88c-0.38-0.03-0.72-0.06-1.1-0.09
		c-0.14-0.01-0.3-0.02-0.46-0.02c-0.16,0-0.4-0.04-0.58-0.04c-0.31,0-0.97,0.15-1.14,0.46c-0.19,0.34-0.31,0.56-0.23,0.92
		c0.04,0.16,0.41,0.51,0.54,0.61c0.2,0.15,0.55,0.12,0.78,0.08c0.2-0.04,0.39-0.05,0.59-0.05c0.17,0,0.33,0,0.5,0
		c0.37,0,0.74-0.01,1.11-0.02c-0.02,0.53-0.03,1.03-0.03,1.52c0,0.14,0,0.29,0.01,0.43c0,0.18-0.04,0.41-0.04,0.59
		c0.01,0.3-0.02,0.5,0.2,0.78c0.24,0.31,0.72,0.51,1.12,0.38c0.2-0.07,0.35-0.2,0.47-0.35c0.04-0.06,0.08-0.11,0.11-0.17
		c0.11-0.2,0.06-0.44,0.04-0.65c-0.01-0.09-0.02-0.17-0.01-0.26c0.02-0.25,0.05-0.48,0.07-0.74c0.02-0.26,0.03-0.55,0.03-0.89
		c0-0.17-0.02-0.4-0.03-0.64c0.25,0,0.51-0.01,0.76,0c0.57,0.02,1.14,0.13,1.7,0.11c0.24-0.01,0.57-0.03,0.86-0.05
		c0.83-0.02,1.61-0.13,2.49-0.08c0.78,0.05,1.48,0.05,2.17,0.04c0.57-0.01,1.12-0.02,1.71-0.03c0.7-0.01,1.39-0.03,2.09-0.01
		c0.57,0.02,1.14,0.13,1.7,0.11c0.24-0.01,0.57-0.03,0.86-0.05c0.83-0.02,1.61-0.13,2.49-0.08c0.78,0.05,1.48,0.05,2.17,0.04
		c0.57-0.01,1.12-0.02,1.71-0.03c0.7-0.01,1.39-0.03,2.09-0.01c0.57,0.02,1.14,0.13,1.7,0.11c0.24-0.01,0.57-0.03,0.86-0.05
		c0.57-0.01,1.12-0.07,1.69-0.08c-0.02,0.54-0.03,1.06-0.03,1.55c0,0.14,0,0.29,0.01,0.43c0,0.18-0.04,0.41-0.04,0.59
		c0.01,0.3-0.02,0.5,0.2,0.78c0.24,0.31,0.72,0.51,1.12,0.38c0.2-0.07,0.35-0.2,0.47-0.35c0.04-0.06,0.08-0.11,0.11-0.17
		c0.11-0.2,0.06-0.44,0.04-0.65c-0.01-0.09-0.02-0.17-0.01-0.26c0.02-0.25,0.05-0.48,0.07-0.74c0.02-0.26,0.03-0.55,0.03-0.89
		c0-0.17-0.01-0.38-0.03-0.61c0.36,0.01,0.71,0.01,1.05,0c0.16,0,0.31,0,0.47-0.01c0.2,0,0.45,0.04,0.65,0.04
		c0.32-0.01,0.54,0.02,0.85-0.2c0.34-0.24,0.56-0.72,0.41-1.12c-0.07-0.2-0.22-0.35-0.38-0.47c-0.06-0.04-0.13-0.08-0.19-0.11
		c-0.22-0.11-0.48-0.06-0.71-0.04c-0.09,0.01-0.19,0.02-0.28,0.01c-0.27-0.02-0.53-0.05-0.82-0.07c-0.29-0.02-0.6-0.03-0.98-0.03
		c-0.05,0-0.11,0-0.17,0.01c0.01-0.44,0.09-0.87,0.11-1.31c0-0.06,0.01-0.12,0.01-0.18c0.07-1.04-0.11-2.07-0.13-3.11
		c-0.01-0.84,0.07-1.34,0.12-1.98c0.01-0.13,0.02-0.27,0.02-0.42c0-0.15,0.04-0.36,0.04-0.53c0-0.1-0.03-0.24-0.06-0.38
		c0.43,0.03,0.82,0.07,1.25,0.09c0.15,0.01,0.3,0.01,0.47,0.02c0.17,0,0.34,0,0.53,0c0.18-0.01,0.41-0.02,0.66-0.03
		c0.23-0.02,0.49-0.03,0.74-0.05l0.01,0l0.01,0c0.01,0,0.03,0,0.04,0l0,0l0.02,0l0.06-0.01l0.06-0.01l0.05-0.02l0.05-0.02l0.05-0.02
		l0.04-0.03l0.04-0.03l0.04-0.03l0.03-0.03l0.03-0.03l0.05-0.07l0.04-0.08l0.03-0.08l0.03-0.08l0.02-0.08l0.01-0.08
		c0-0.05,0.01-0.1,0.01-0.15c0-0.04,0-0.09,0-0.12c0-0.12,0-0.23,0-0.33c0-0.11,0-0.21,0.01-0.31c0-0.08,0.01-0.16,0.01-0.24h0.1
		c0.01-0.15,0.01-0.3,0.02-0.47c0-0.17,0-0.34,0-0.53C40.95,24.51,40.94,24.28,40.93,24.03z M34.51,30.38
		c0.01,0.64,0.03,1.27,0.01,1.91c-0.02,0.52-0.13,1.04-0.11,1.55c0.01,0.22,0.03,0.52,0.05,0.78c0.01,0.3,0.03,0.59,0.05,0.88
		c-0.31,0.02-0.6,0.03-0.81,0.02c-0.48-0.01-0.97-0.09-1.45-0.11c-0.06,0-0.13-0.01-0.19-0.01c-1.14-0.07-2.27,0.11-3.41,0.13
		c-0.92,0.01-1.47-0.07-2.17-0.12c-0.29-0.02-0.6-0.03-0.98-0.03c-0.7,0.01-2.12,0.15-2.82,0.14c-0.48-0.01-0.97-0.09-1.45-0.11
		c-0.06,0-0.13-0.01-0.19-0.01c-1.14-0.07-2.27,0.11-3.41,0.13c-0.92,0.01-1.47-0.07-2.17-0.12c-0.29-0.02-0.6-0.03-0.98-0.03
		c-0.7,0.01-2.12,0.15-2.82,0.14c-0.48-0.01-0.97-0.09-1.45-0.11c-0.06,0-0.13-0.01-0.19-0.01c-0.88-0.06-1.77,0.04-2.65,0.1
		c0-0.03,0-0.06,0-0.09c0.01-0.44,0.09-0.88,0.11-1.32c0-0.06,0.01-0.12,0.01-0.18c0.07-1.04-0.11-2.07-0.13-3.11
		c-0.01-0.84,0.07-1.34,0.12-1.98c0.01-0.13,0.02-0.27,0.02-0.42c0-0.15,0.04-0.36,0.04-0.53c0-0.1-0.03-0.24-0.06-0.39
		c0.23-0.01,0.44-0.02,0.61-0.01c0.49,0.01,0.98,0.09,1.47,0.11c0.07,0,0.13,0.01,0.2,0.01c1.15,0.07,2.3-0.11,3.45-0.13
		c0.93-0.01,1.49,0.07,2.2,0.12c0.29,0.02,0.61,0.03,0.99,0.03c0.71-0.01,2.15-0.15,2.85-0.14c0.49,0.01,0.98,0.09,1.47,0.11
		c0.07,0,0.13,0.01,0.2,0.01c1.15,0.07,2.3-0.11,3.45-0.13c0.93-0.01,1.49,0.07,2.2,0.12c0.29,0.02,0.61,0.03,0.99,0.03
		c0.71-0.01,2.15-0.15,2.85-0.14c0.49,0.01,0.98,0.09,1.47,0.11c0.07,0,0.13,0.01,0.2,0.01c0.79,0.05,1.57-0.02,2.36-0.08
		c0,0.11,0.01,0.22,0.03,0.3c0.04,0.18,0.05,0.36,0.05,0.54c0,0.15,0,0.3,0,0.46C34.49,29.35,34.5,29.85,34.51,30.38z M37.68,25.64
		c-0.57,0.01-1.14,0.02-1.73,0.03c-0.71,0.01-1.41,0.03-2.12,0.01c-0.58-0.02-1.15-0.13-1.72-0.11c-0.24,0.01-0.58,0.03-0.87,0.05
		c-0.84,0.02-1.63,0.13-2.52,0.08c-0.79-0.05-1.5-0.05-2.2-0.04c-0.57,0.01-1.14,0.02-1.73,0.03c-0.71,0.01-1.41,0.03-2.12,0.01
		c-0.58-0.02-1.15-0.13-1.72-0.11c-0.24,0.01-0.58,0.03-0.87,0.05c-0.84,0.02-1.63,0.13-2.52,0.08c-0.79-0.05-1.5-0.05-2.2-0.04
		c-0.57,0.01-1.14,0.02-1.73,0.03c-0.71,0.01-1.41,0.03-2.12,0.01c-0.58-0.02-1.15-0.13-1.72-0.11c-0.24,0.01-0.58,0.03-0.87,0.05
		c-0.84,0.02-1.63,0.13-2.52,0.08c-0.79-0.05-1.5-0.05-2.2-0.04l-1,0.02l-0.04,0l-0.04-0.01l-0.04-0.01l-0.03-0.01L3.02,25.6
		l-0.03-0.02l-0.02-0.03l-0.02-0.03l-0.02-0.03l-0.01-0.04l-0.01-0.04l-0.01-0.04c0-0.02,0-0.04,0-0.06c0-0.04,0-0.08,0-0.12l0-0.02
		c0,0,0,0,0,0c0-0.2,0-0.39,0-0.59l0-0.01l0.01-0.03l0.02-0.03l0.02-0.03l0.03-0.02l0.03-0.02l0.03-0.02l0.04-0.01l0.04-0.01
		l0.04-0.01c0.02,0,0.04,0,0.06,0c0.04,0,0.08,0,0.12,0l0.02,0c0,0,0,0,0,0c0.28,0,0.55,0,0.82,0c0.57-0.01,1.14-0.02,1.73-0.03
		c0.71-0.01,1.41-0.03,2.12-0.01c0.58,0.02,1.15,0.13,1.72,0.11c0.24-0.01,0.58-0.03,0.87-0.05c0.84-0.02,1.63-0.13,2.52-0.08
		c0.79,0.05,1.5,0.05,2.2,0.04c0.57-0.01,1.14-0.02,1.73-0.03c0.71-0.01,1.41-0.03,2.12-0.01c0.58,0.02,1.15,0.13,1.72,0.11
		c0.24-0.01,0.58-0.03,0.87-0.05c0.84-0.02,1.63-0.13,2.52-0.08c0.79,0.05,1.5,0.05,2.2,0.04c0.57-0.01,1.14-0.02,1.73-0.03
		c0.71-0.01,1.41-0.03,2.12-0.01c0.58,0.02,1.15,0.13,1.72,0.11c0.24-0.01,0.58-0.03,0.87-0.05c0.84-0.02,1.63-0.13,2.52-0.08
		c0.79,0.05,1.5,0.05,2.2,0.04l1-0.02l0.04,0l0.04,0.01l0.04,0.01l0.03,0.01l0.03,0.02l0.03,0.02l0.02,0.03l0.02,0.03l0.02,0.03
		l0.01,0.04l0.01,0.04l0.01,0.04c0,0.02,0,0.04,0,0.06c0,0.04,0,0.08,0,0.12l0,0.02c0,0,0,0,0,0c0,0.2,0,0.39,0,0.59l0,0.01
		l-0.01,0.03l-0.02,0.03l-0.02,0.03l-0.03,0.02l-0.03,0.02l-0.03,0.02l-0.04,0.01l-0.04,0.01l-0.04,0.01c-0.02,0-0.04,0-0.06,0
		c-0.04,0-0.08,0-0.12,0l-0.02,0c0,0,0,0,0,0C38.23,25.64,37.95,25.64,37.68,25.64z"/>
</g>
</svg>
