<?xml version="1.0" encoding="utf-8"?>
<!-- Generator: Adobe Illustrator 24.1.3, SVG Export Plug-In . SVG Version: 6.00 Build 0)  -->
<!DOCTYPE svg PUBLIC "-//W3C//DTD SVG 1.1//EN" "http://www.w3.org/Graphics/SVG/1.1/DTD/svg11.dtd" [
	<!ENTITY ns_extend "http://ns.adobe.com/Extensibility/1.0/">
	<!ENTITY ns_ai "http://ns.adobe.com/AdobeIllustrator/10.0/">
	<!ENTITY ns_graphs "http://ns.adobe.com/Graphs/1.0/">
	<!ENTITY ns_vars "http://ns.adobe.com/Variables/1.0/">
	<!ENTITY ns_imrep "http://ns.adobe.com/ImageReplacement/1.0/">
	<!ENTITY ns_sfw "http://ns.adobe.com/SaveForWeb/1.0/">
	<!ENTITY ns_custom "http://ns.adobe.com/GenericCustomNamespace/1.0/">
	<!ENTITY ns_adobe_xpath "http://ns.adobe.com/XPath/1.0/">
]>
<svg version="1.1" id="레이어_2" xmlns:x="&ns_extend;" xmlns:i="&ns_ai;" xmlns:graph="&ns_graphs;"
	 xmlns="http://www.w3.org/2000/svg" xmlns:xlink="http://www.w3.org/1999/xlink" x="0px" y="0px" viewBox="0 0 42 42"
	 style="enable-background:new 0 0 42 42;" xml:space="preserve">
<style type="text/css">
	.st0{fill:#212121;}
</style>
<metadata>
	<sfw  xmlns="&ns_sfw;">
		<slices></slices>
		<sliceSourceBounds  bottomLeftOrigin="true" height="37.74" width="40.8" x="0.6" y="2.13"></sliceSourceBounds>
	</sfw>
</metadata>
<g>
	<path class="st0" d="M41.37,29.23c0,0,0.01-0.01,0.01-0.01c0.07-0.08-0.11-0.15-0.13-0.23c-0.01-0.06,0.07-0.1,0.12-0.14
		c0.01-0.15,0.01-0.3,0.02-0.47c0-0.17,0-0.34,0-0.53c-0.01-0.18-0.02-0.41-0.03-0.66c-0.01-0.23-0.03-0.49-0.05-0.74l0-0.01l0-0.01
		c0-0.01,0-0.03,0-0.04l0,0l0-0.02l-0.01-0.06l-0.01-0.06l-0.02-0.05l-0.02-0.05l-0.02-0.05l-0.03-0.04l-0.03-0.04L41.15,26
		l-0.03-0.03l-0.03-0.03l-0.07-0.05l-0.08-0.04l-0.08-0.03l-0.08-0.03l-0.08-0.02l-0.08-0.01c-0.05-0.01-0.1-0.01-0.15-0.01
		c-0.04,0-0.07,0-0.09,0c-0.06-0.07-0.12-0.13-0.19-0.2c-0.3-0.31-0.59-0.65-1.07-1.04c-0.89-0.69-1.78-1.34-2.66-1.96
		c-0.61-0.43-1.22-0.85-1.85-1.29c-0.62-0.43-1.25-0.86-1.85-1.32c-0.49-0.37-0.93-0.82-1.44-1.17c-0.22-0.14-0.52-0.34-0.79-0.51
		c-0.75-0.51-1.5-0.92-2.25-1.52c-0.33-0.27-0.65-0.51-0.96-0.74c-0.1-0.07-0.2-0.15-0.3-0.22c0-0.07,0-0.14,0-0.2
		c0-0.11,0-0.21,0.01-0.31c0.01-0.2,0.02-0.38,0.03-0.55c0.02-0.31,0.05-0.61,0.07-0.93h0.01c0.01-0.15,0.01-0.3,0.02-0.47
		c0-0.17,0-0.34,0-0.53c-0.01-0.18-0.02-0.41-0.03-0.66c-0.02-0.23-0.03-0.49-0.05-0.74l0-0.01l0-0.01c0-0.01,0-0.03,0-0.04l0,0
		l0-0.02l-0.01-0.06l-0.01-0.06l-0.02-0.05l-0.02-0.05L27,11.03l-0.03-0.04l-0.03-0.04l-0.03-0.04l-0.03-0.03l-0.03-0.03l-0.07-0.05
		l-0.08-0.04l-0.08-0.03l-0.08-0.03l-0.08-0.02l-0.08-0.01c-0.05,0-0.1-0.01-0.15-0.01c-0.04,0-0.09,0-0.12,0c-0.12,0-0.23,0-0.33,0
		c-0.11,0-0.21,0-0.31-0.01c-0.03,0-0.05,0-0.08,0c0-0.08,0.01-0.16,0.01-0.23c0.03-0.35,0.05-0.67,0.08-1.03h0
		c0.02-0.1,0.03-0.22,0.03-0.35c-0.01-0.25-0.15-0.76-0.14-1.01c0.01-0.17,0.09-0.35,0.11-0.52c0-0.02,0.01-0.05,0.01-0.07
		c0.07-0.41-0.11-0.82-0.13-1.23c-0.01-0.33,0.07-0.53,0.12-0.78h0c0.01-0.15,0.01-0.3,0.02-0.47c0-0.17,0-0.34,0-0.53
		C25.5,4.23,25.49,4,25.48,3.75c-0.02-0.23-0.03-0.49-0.05-0.74l0-0.01l0-0.01c0-0.01,0-0.03,0-0.04l0,0l0-0.02l-0.01-0.06
		L25.4,2.82l-0.02-0.05l-0.02-0.05l-0.02-0.05l-0.03-0.04l-0.03-0.04l-0.03-0.04l-0.03-0.03l-0.03-0.03l-0.07-0.05l-0.08-0.04
		l-0.08-0.03l-0.08-0.03l-0.08-0.02l-0.08-0.01c-0.05,0-0.1-0.01-0.15-0.01c-0.04,0-0.09,0-0.12,0c-0.12,0-0.23,0-0.33,0
		c-0.11,0-0.21,0-0.31-0.01c-0.2-0.01-0.38-0.02-0.55-0.03c-0.35-0.03-0.67-0.05-1.03-0.08c-0.06-0.02-0.13-0.03-0.22-0.03
		c-0.16,0.01-0.47,0.15-0.63,0.14c-0.11-0.01-0.22-0.09-0.32-0.11c-0.01,0-0.03-0.01-0.04-0.01c-0.25-0.07-0.51,0.11-0.76,0.13
		c-0.2,0.01-0.33-0.07-0.49-0.12c-0.15-0.01-0.3-0.01-0.47-0.02c-0.17,0-0.34,0-0.53,0c-0.18,0.01-0.41,0.02-0.66,0.03
		c-0.23,0.02-0.49,0.03-0.74,0.05l-0.01,0l-0.01,0c-0.01,0-0.03,0-0.04,0l0,0l-0.02,0l-0.06,0.01l-0.06,0.01l-0.05,0.02l-0.05,0.02
		L17.03,2.3l-0.04,0.03l-0.04,0.03l-0.04,0.03l-0.03,0.03l-0.03,0.03l-0.05,0.07L16.75,2.6l-0.03,0.08l-0.03,0.08l-0.02,0.08
		l-0.01,0.08c0,0.05-0.01,0.1-0.01,0.15c0,0.04,0,0.09,0,0.12c0,0.12,0,0.23,0,0.33c0,0.11,0,0.21-0.01,0.31
		c-0.01,0.2-0.02,0.38-0.03,0.55c-0.03,0.35-0.05,0.67-0.08,1.03h0c-0.02,0.1-0.03,0.22-0.03,0.35c0.01,0.25,0.15,0.76,0.14,1.01
		c-0.01,0.17-0.09,0.35-0.11,0.52c0,0.02-0.01,0.05-0.01,0.07c-0.07,0.41,0.11,0.82,0.13,1.23c0.01,0.33-0.07,0.53-0.12,0.78h0
		c-0.01,0.15-0.01,0.3-0.02,0.47c0,0.17,0,0.34,0,0.53c0,0.04,0,0.1,0.01,0.15c-0.02,0-0.03,0-0.05,0
		c-0.23,0.02-0.49,0.03-0.74,0.05l-0.01,0l-0.01,0c-0.01,0-0.03,0-0.04,0l0,0l-0.02,0l-0.06,0.01l-0.06,0.01l-0.05,0.02l-0.05,0.02
		l-0.05,0.02l-0.04,0.03l-0.04,0.03l-0.04,0.03l-0.03,0.03l-0.03,0.03l-0.05,0.07l-0.04,0.08l-0.03,0.08l-0.03,0.08l-0.02,0.08
		L15,11.28c0,0.05-0.01,0.1-0.01,0.15c0,0.04,0,0.09,0,0.12c0,0.12,0,0.23,0,0.33c0,0.11,0,0.21-0.01,0.31
		c-0.01,0.2-0.02,0.38-0.03,0.55c-0.02,0.31-0.05,0.61-0.07,0.93h-0.01c-0.01,0.15-0.01,0.3-0.02,0.47c0,0.17,0,0.34,0,0.53
		c0.01,0.18,0.02,0.41,0.03,0.66c0.01,0.16,0.02,0.33,0.03,0.5c-0.08,0.06-0.17,0.11-0.25,0.17c-0.32,0.23-0.63,0.45-0.93,0.67
		c-0.49,0.37-0.98,0.73-1.49,1.1c-0.61,0.45-1.22,0.91-1.84,1.33c-0.51,0.35-1.08,0.62-1.57,0.99c-0.2,0.16-0.48,0.39-0.73,0.58
		c-0.77,0.58-1.2,1.02-2.46,1.85c-1.01,0.67-1.92,1.32-2.78,1.94l-0.07,0.05c-0.53,0.42-0.81,0.8-1.07,1.13
		c-0.08,0.01-0.16,0.01-0.24,0.02l-0.01,0l-0.01,0c-0.01,0-0.03,0-0.04,0l0,0l-0.02,0l-0.06,0.01l-0.06,0.01L1.23,25.7l-0.05,0.02
		l-0.05,0.02l-0.04,0.03L1.05,25.8l-0.04,0.03l-0.03,0.03L0.95,25.9L0.9,25.97l-0.04,0.08l-0.03,0.08l-0.03,0.08l-0.02,0.08
		l-0.01,0.08c0,0.05-0.01,0.1-0.01,0.15c0,0.04,0,0.09,0,0.12c0,0.12,0,0.23,0,0.33c0,0.11,0,0.21-0.01,0.31
		c-0.01,0.2-0.02,0.38-0.03,0.55c-0.03,0.35-0.05,0.67-0.08,1.03c-0.02,0.02-0.03,0.04-0.03,0.06c0.01,0.05,0.15,0.14,0.14,0.19
		c-0.01,0.03-0.09,0.06-0.11,0.1c0,0-0.01,0.01-0.01,0.01c-0.07,0.08,0.11,0.15,0.13,0.23c0.01,0.06-0.07,0.1-0.12,0.14
		c-0.01,0.15-0.01,0.3-0.02,0.47c0,0.17,0,0.34,0,0.53c0.01,0.18,0.02,0.41,0.03,0.66c0.01,0.23,0.03,0.49,0.05,0.74l0,0.01l0,0.01
		c0,0.01,0,0.03,0,0.04l0,0l0,0.02l0.01,0.06l0.01,0.06l0.02,0.05l0.02,0.05l0.02,0.05l0.03,0.04l0.03,0.04l0.03,0.04l0.03,0.03
		l0.03,0.03l0.07,0.05l0.08,0.04l0.08,0.03l0.08,0.03l0.08,0.02l0.08,0.01c0.05,0,0.1,0.01,0.15,0.01c0.04,0,0.09,0,0.12,0
		c0.12,0,0.23,0,0.33,0c0.11,0,0.21,0,0.31,0.01c0.2,0.01,0.38,0.02,0.55,0.03c0.35,0.03,0.67,0.05,1.03,0.08
		c0.3,0.02,0.62,0.03,1.01,0.03c0.72-0.01,2.2-0.15,2.92-0.14c0.5,0.01,1,0.09,1.5,0.11c0.07,0,0.14,0.01,0.2,0.01
		c1.18,0.07,2.35-0.11,3.53-0.13c0.95-0.01,1.52,0.07,2.25,0.12c0.3,0.02,0.62,0.03,1.01,0.03c0.72-0.01,2.2-0.15,2.92-0.14
		c0.5,0.01,1,0.09,1.5,0.11c0.07,0,0.14,0.01,0.2,0.01c1.18,0.07,2.35-0.11,3.53-0.13c0.95-0.01,1.52,0.07,2.25,0.12
		c0.3,0.02,0.62,0.03,1.01,0.03c0.72-0.01,2.2-0.15,2.92-0.14c0.5,0.01,1,0.09,1.5,0.11c0.07,0,0.14,0.01,0.2,0.01
		c1.18,0.07,2.35-0.11,3.53-0.13c0.95-0.01,1.52,0.07,2.25,0.12c0.15,0.01,0.3,0.01,0.47,0.02c0.17,0,0.34,0,0.53,0
		c0.18-0.01,0.41-0.02,0.66-0.03c0.23-0.01,0.49-0.03,0.74-0.05l0.01,0l0.01,0c0.01,0,0.03,0,0.04,0l0,0l0.02,0l0.06-0.01l0.06-0.01
		l0.05-0.02l0.05-0.02l0.05-0.02l0.04-0.03l0.04-0.03l0.04-0.03l0.03-0.03l0.03-0.03l0.05-0.07l0.04-0.08l0.03-0.08l0.03-0.08
		l0.02-0.08l0.01-0.08c0-0.05,0.01-0.1,0.01-0.15c0-0.04,0-0.09,0-0.12c0-0.12,0-0.23,0-0.33c0-0.11,0-0.21,0.01-0.31
		c0.01-0.2,0.02-0.38,0.03-0.55c0.03-0.35,0.05-0.67,0.08-1.03c0.02-0.02,0.03-0.04,0.03-0.06c-0.01-0.05-0.15-0.14-0.14-0.19
		C41.28,29.3,41.35,29.27,41.37,29.23z M18.46,4.41l0-0.04l0.01-0.04l0.01-0.04l0.01-0.03l0.02-0.03l0.02-0.03l0.03-0.02l0.03-0.02
		l0.03-0.02l0.04-0.01l0.04-0.01l0.04-0.01c0.02,0,0.04,0,0.06,0c0.04,0,0.08,0,0.12,0l0.02,0c0,0,0,0,0,0c0.28,0,0.55,0,0.82,0
		c0.13-0.01,0.25-0.02,0.38-0.03c0.16-0.01,0.31-0.03,0.47-0.01C20.74,4.1,20.87,4.21,21,4.19c0.05-0.01,0.13-0.03,0.19-0.05
		c0.19-0.02,0.36-0.13,0.56-0.08c0.17,0.05,0.33,0.05,0.49,0.04l1-0.02l0.04,0l0.04,0.01l0.04,0.01l0.03,0.01l0.03,0.02l0.03,0.02
		l0.02,0.03l0.02,0.03l0.02,0.03L23.5,4.3l0.01,0.04l0.01,0.04c0,0.02,0,0.04,0,0.06c0,0.04,0,0.08,0,0.12l0,0.02c0,0,0,0,0,0
		c0,0.28,0,0.55,0,0.82h0c0.01,0.2,0.02,0.4,0.03,0.61c0.01,0.17,0.01,0.34,0.01,0.51h0c-0.04,0.01-0.07,0.02-0.11,0.01
		c-0.1-0.02-0.21-0.05-0.32-0.07c-0.11-0.02-0.23-0.03-0.38-0.03c-0.27,0.01-0.82,0.15-1.09,0.14c-0.19-0.01-0.37-0.09-0.56-0.11
		c-0.03,0-0.05-0.01-0.08-0.01c-0.44-0.07-0.88,0.11-1.32,0.13c-0.35,0.01-0.57-0.07-0.84-0.12c-0.06-0.01-0.11-0.02-0.18-0.02
		c-0.06,0-0.15-0.04-0.23-0.04c-0.01,0-0.03,0.01-0.04,0.01c0-0.08,0-0.15,0.01-0.23c0.05-0.28,0.05-0.53,0.04-0.78h0L18.46,4.41z
		 M18.45,8.76c0-0.09,0-0.18,0-0.27c0.08-0.04,0.15-0.05,0.23-0.05c0.06,0,0.13,0,0.19,0c0.22-0.01,0.43-0.02,0.66-0.03
		c0.27-0.01,0.54-0.03,0.81-0.01c0.22,0.02,0.44,0.13,0.66,0.11c0.09-0.01,0.22-0.03,0.33-0.05c0.32-0.02,0.62-0.13,0.96-0.08
		c0.3,0.05,0.57,0.05,0.84,0.04c0.06,0,0.12,0,0.18-0.01c0.08,0,0.17,0.04,0.25,0.04c0,0,0.01,0,0.01,0c0,0.04,0,0.09-0.01,0.13
		c-0.05,0.28-0.05,0.53-0.04,0.78h0l0.02,1l0,0.04l-0.01,0.04l-0.01,0.04l-0.01,0.01c-0.05,0-0.09-0.01-0.14-0.01
		c-0.37,0.01-1.11,0.15-1.48,0.14c-0.25-0.01-0.51-0.09-0.76-0.11c-0.03,0-0.07-0.01-0.1-0.01c-0.6-0.07-1.19,0.11-1.79,0.13
		c-0.28,0.01-0.5-0.02-0.7-0.05l-0.01-0.01l-0.02-0.03l-0.02-0.03l-0.01-0.04l-0.01-0.04l-0.01-0.04c0-0.02,0-0.04,0-0.06
		c0-0.04,0-0.08,0-0.12l0-0.02c0,0,0,0,0,0c0-0.28,0-0.55,0-0.82h0C18.47,9.17,18.46,8.97,18.45,8.76z M16.8,12.77l0-0.04l0.01-0.04
		l0.01-0.04l0.01-0.03l0.02-0.03l0.02-0.03l0.03-0.02l0.03-0.02l0.03-0.02l0.04-0.01l0.04-0.01l0.04-0.01c0.02,0,0.04,0,0.06,0
		c0.02,0,0.05,0,0.07,0l0.07,0.01c0.05,0,0.1,0.01,0.15,0.01c0.04,0,0.09,0,0.12,0c0.12,0,0.23,0,0.33,0c0.11,0,0.21,0,0.31,0.01
		c0.2,0.01,0.38,0.02,0.55,0.03c0.35,0.03,0.67,0.05,1.03,0.08c0.06,0.02,0.13,0.03,0.22,0.03c0.15-0.01,0.44-0.14,0.6-0.13
		c0.02,0,0.04,0,0.06,0.01c0.1,0.02,0.2,0.08,0.3,0.1c0.01,0,0.03,0.01,0.04,0.01c0.25,0.07,0.51-0.11,0.76-0.13
		c0.2-0.01,0.33,0.07,0.49,0.12c0.15,0.01,0.3,0.01,0.47,0.02c0.17,0,0.34,0,0.53,0c0.18-0.01,0.41-0.02,0.66-0.03
		c0.23-0.02,0.49-0.03,0.74-0.05l0.01,0l0.01,0c0.01,0,0.03,0,0.04,0l0,0l0.02,0l0.06-0.01l0.06-0.01l0.05-0.02l0.05-0.02l0.05-0.02
		l0.01-0.01l0.03,0.01l0.03,0.01l0.03,0.02l0.03,0.02l0.02,0.03l0.02,0.03l0.02,0.03l0.01,0.04l0.01,0.04l0.01,0.04
		c0,0.02,0,0.04,0,0.06c0,0.04,0,0.08,0,0.12l0,0.02c0,0,0,0,0,0c0,0.24,0,0.48,0,0.72h0l0,0.01c0,0.03,0,0.06,0,0.09h0l0.01,0.9
		l0,0.04l-0.01,0.04l-0.01,0.04l-0.01,0.03l-0.02,0.03l-0.02,0.03l-0.03,0.02l-0.03,0.02l-0.03,0.02l-0.04,0.01l-0.04,0.01
		l-0.04,0.01c-0.02,0-0.04,0-0.06,0c-0.04,0-0.08,0-0.12,0l-0.02,0c0,0,0,0,0,0c-0.28,0-0.55,0-0.82,0
		c-0.3,0.01-0.59,0.02-0.89,0.03c-0.37,0.01-0.73,0.03-1.1,0.01c-0.3-0.02-0.6-0.13-0.89-0.11c-0.13,0.01-0.3,0.03-0.45,0.05
		c-0.44,0.02-0.85,0.13-1.31,0.08c-0.41-0.05-0.78-0.05-1.14-0.04l-1,0.02l-0.04,0l-0.04-0.01l-0.04-0.01l-0.03-0.01l-0.03-0.02
		l-0.03-0.02l-0.02-0.03l-0.02-0.03l-0.02-0.03l-0.01-0.04l-0.01-0.04l-0.01-0.04c0-0.02,0-0.04,0-0.06c0-0.04,0-0.08,0-0.12l0-0.02
		c0,0,0,0,0,0c0-0.24,0-0.48,0-0.72h0l0-0.01c0-0.03,0-0.06,0-0.09h0L16.8,12.77z M6.81,24.05c0.34-0.26,0.76-0.74,1.6-1.31
		c0.44-0.3,0.91-0.54,1.35-0.83l0.18-0.11c1.05-0.66,1.94-1.53,2.94-2.27c0.8-0.59,1.34-0.87,1.99-1.28
		c0.27-0.17,0.55-0.36,0.88-0.6c0.13-0.1,0.39-0.3,0.5-0.39c0.12-0.08,0.22-0.27,0.4-0.24l0.25-0.03c0.14-0.01,0.27-0.01,0.39-0.02
		c0.26-0.01,0.5-0.02,0.69-0.01c0.53,0.01,1.05,0.09,1.58,0.11c0.07,0,0.14,0.01,0.21,0.01c1.24,0.07,2.47-0.11,3.71-0.13
		c0.96-0.01,1.75,0.07,2.03,0.12c0.16,0.14,0.2,0.18,0.6,0.46c0.62,0.43,1.96,1.22,2.57,1.68c0.42,0.32,0.8,0.69,1.22,1.01
		l0.16,0.13c0.96,0.78,2.07,1.35,3.09,2.06c0.41,0.28,0.72,0.53,1.01,0.77c0.17,0.14,0.2,0.18,0.29,0.26
		c0.07,0.07,0.15,0.14,0.22,0.21c0.13,0.11,0.26,0.22,0.45,0.35c0.32,0.22,1.33,0.76,1.68,1.04c0.23,0.18,0.27,0.31,0.45,0.46
		c0.02,0.02,0,0.06-0.03,0.09c-0.03,0-0.06,0-0.1,0c-0.01,0-0.02,0-0.03,0c-0.33-0.01-0.55,0-0.77,0.04
		c-0.5,0.03-1.06,0.07-1.53,0.09c-0.34-0.02-0.63-0.07-0.92-0.1c-0.19-0.02-0.3-0.03-0.78-0.03c-0.15,0-0.33,0.01-0.52,0.02
		c-0.03,0-0.05,0-0.08-0.01c-0.94-0.06-1.88,0.04-2.81,0.1c-0.41-0.03-0.82-0.07-1.23-0.08c-0.07,0-0.14-0.01-0.21-0.01
		c-0.5-0.03-1-0.01-1.5,0.01c-0.01,0-0.02,0-0.03,0c-0.3-0.02-0.62-0.03-1.01-0.03c-0.52,0.01-1.44,0.08-2.18,0.12
		c-0.47-0.03-0.88-0.07-1.35-0.09c-0.31-0.02-0.66-0.03-1.07-0.03c-0.1,0-0.2,0-0.32,0.01c-0.96-0.03-1.91,0.08-2.87,0.12
		c-0.48-0.02-0.97-0.08-1.45-0.1c-0.07,0-0.14-0.01-0.21-0.01c-0.4-0.02-0.81-0.02-1.21,0c-0.23-0.01-0.48-0.02-0.76-0.01
		c-0.61,0.01-1.74,0.11-2.51,0.13c-0.58-0.02-1.05-0.07-1.59-0.11c-0.31-0.02-0.66-0.03-1.07-0.03c-0.03,0-0.09,0-0.13,0
		c-0.71,0.01-1.43,0.07-2.14,0.11c-0.21-0.03-0.39-0.07-0.59-0.09l-0.09-0.01c-0.27-0.04-0.65-0.01-1.1,0.03L4.7,25.65
		c-0.03,0.01-0.06,0.01-0.08,0.01c0,0-0.01,0-0.01,0c-0.07-0.02-0.1-0.12-0.04-0.13c0.09-0.09,0.21-0.19,0.35-0.3
		c0.45-0.34,0.93-0.58,1.34-0.82l0.03-0.02C6.47,24.29,6.64,24.18,6.81,24.05z M39.43,30.58l0,0.04l-0.01,0.04l-0.01,0.04
		l-0.01,0.03l-0.02,0.03l-0.02,0.03l-0.03,0.02l-0.03,0.02l-0.03,0.02l-0.04,0.01l-0.04,0.01l-0.04,0.01c-0.02,0-0.04,0-0.06,0
		c-0.04,0-0.08,0-0.12,0l-0.02,0c0,0,0,0,0,0c-0.28,0-0.55,0-0.82,0c-0.59,0.01-1.16,0.02-1.77,0.03c-0.72,0.01-1.44,0.03-2.16,0.01
		c-0.59-0.02-1.18-0.13-1.76-0.11c-0.25,0.01-0.59,0.03-0.89,0.05c-0.86,0.02-1.67,0.13-2.58,0.08c-0.81-0.05-1.53-0.05-2.25-0.04
		c-0.59,0.01-1.16,0.02-1.77,0.03c-0.72,0.01-1.44,0.03-2.16,0.01c-0.59-0.02-1.18-0.13-1.76-0.11c-0.25,0.01-0.59,0.03-0.89,0.05
		c-0.86,0.02-1.67,0.13-2.58,0.08c-0.81-0.05-1.53-0.05-2.25-0.04c-0.59,0.01-1.16,0.02-1.77,0.03c-0.72,0.01-1.44,0.03-2.16,0.01
		c-0.59-0.02-1.18-0.13-1.76-0.11c-0.25,0.01-0.59,0.03-0.89,0.05c-0.86,0.02-1.67,0.13-2.58,0.08c-0.81-0.05-1.53-0.05-2.25-0.04
		l-1,0.02l-0.04,0l-0.04-0.01l-0.04-0.01l-0.03-0.01L2.7,30.84l-0.03-0.02l-0.02-0.03l-0.02-0.03l-0.02-0.03L2.6,30.69l-0.01-0.04
		L2.59,30.6c0-0.02,0-0.04,0-0.06c0-0.04,0-0.08,0-0.12l0-0.02c0,0,0,0,0,0c0-0.28,0-0.55,0-0.82c-0.01-0.04-0.02-0.07-0.03-0.11
		c-0.01-0.05-0.03-0.09-0.01-0.14c0.02-0.04,0.13-0.08,0.11-0.11c-0.01-0.02-0.03-0.04-0.05-0.06C2.6,29.11,2.49,29.05,2.54,29
		c0.05-0.05,0.05-0.1,0.04-0.14l-0.02-1l0-0.04l0.01-0.04l0.01-0.04L2.6,27.7l0.02-0.03l0.02-0.03l0.03-0.02l0.03-0.02l0.03-0.02
		l0.04-0.01l0.04-0.01l0.04-0.01c0.02,0,0.04,0,0.06,0c0.04,0,0.08,0,0.12,0l0.02,0c0,0,0,0,0,0c0.02,0,0.04,0,0.06,0
		c0.15,0.02,0.32,0.03,0.5,0.03c0.58,0,1.15-0.03,1.71-0.05c0.11,0,0.21,0,0.32,0c0.72-0.01,1.44-0.03,2.15-0.01
		c0.01,0,0.01,0,0.02,0c0.59,0.02,1.17,0.13,1.76,0.11c0.25-0.01,0.59-0.03,0.89-0.05c0.36-0.01,0.71-0.03,1.06-0.05
		c0.17,0,0.34-0.01,0.51-0.01c0.44-0.01,0.88,0,1.32-0.01c0.5,0.02,0.98,0.03,1.44,0.03c0.45,0.04,0.91,0.09,1.36,0.08
		c0.26-0.01,0.62-0.03,0.94-0.05c0.46-0.01,0.9-0.04,1.36-0.06c0.26,0,0.52-0.01,0.78,0c0.59,0.02,1.18,0.13,1.76,0.11
		c0.25-0.01,0.59-0.03,0.89-0.05c0.29-0.01,0.58-0.02,0.86-0.04c0.42-0.01,0.85-0.01,1.28-0.02c0.27,0,0.54,0,0.8,0
		c0.66,0.03,1.28,0.04,1.89,0.03c0.02,0,0.05,0,0.07,0c0.46,0.04,0.91,0.09,1.36,0.08c0.26-0.01,0.62-0.03,0.94-0.05
		c0.49-0.01,0.96-0.04,1.43-0.07c0.04,0,0.09,0,0.13,0c0.59,0.02,1.18,0.13,1.76,0.11c0.25-0.01,0.59-0.03,0.89-0.05
		c0.24-0.01,0.49-0.02,0.72-0.03c0.14,0,0.28,0,0.41,0c0.68-0.01,1.37-0.01,2.06-0.02c0.57,0.02,1.11,0.03,1.63,0.02l1-0.02l0.04,0
		l0.04,0.01l0.04,0.01l0.03,0.01l0.03,0.02l0.03,0.02l0.02,0.03l0.02,0.03l0.02,0.03l0.01,0.04l0.01,0.04l0.01,0.04
		c0,0.02,0,0.04,0,0.06c0,0.04,0,0.08,0,0.12l0,0.02c0,0,0,0,0,0c0,0.28,0,0.55,0,0.82c0.01,0.04,0.02,0.07,0.03,0.11
		c0.01,0.05,0.03,0.09,0.01,0.14c-0.02,0.04-0.13,0.08-0.11,0.11c0.01,0.02,0.03,0.04,0.05,0.06c0.02,0.06,0.13,0.11,0.08,0.16
		c-0.05,0.05-0.05,0.1-0.04,0.14L39.43,30.58z"/>
	<path class="st0" d="M15.06,34.74c-0.19-0.05-0.36-0.07-0.5-0.07c-0.05,0-0.1,0.01-0.14,0.01c-0.14,0.02-0.13,0.13-0.17,0.22
		c-0.02,0.03-0.03,0.07-0.06,0.09c-0.08,0.07-0.17,0.14-0.25,0.22c-0.09,0.07-0.19,0.15-0.3,0.27c-0.18,0.21-0.59,0.7-0.86,0.86
		c-0.19,0.11-0.42,0.15-0.61,0.24l-0.08,0.03c-0.48,0.18-0.88,0.56-1.37,0.77c-0.4,0.16-0.67,0.17-0.99,0.22l-0.21,0.04
		c-0.07,0.02-0.19,0.01-0.27,0.04c-0.14,0.04-0.39,0.25-0.4,0.57c-0.01,0.35-0.03,0.58,0.09,0.93c0.05,0.15,0.32,0.45,0.41,0.53
		c0.14,0.13,0.32,0.04,0.42-0.03c0.09-0.06,0.19-0.11,0.29-0.14l0.25-0.08c0.28-0.1,0.55-0.2,0.84-0.32
		c0.34-0.14,0.67-0.28,1.02-0.43c0.28-0.11,0.6-0.15,0.87-0.3c0.11-0.06,0.26-0.17,0.38-0.27c0.38-0.25,0.67-0.58,1.08-0.85
		c0.37-0.23,0.66-0.53,0.92-0.83l0.17-0.22c0.07-0.1,0.2-0.19,0.26-0.29c0.1-0.17,0.19-0.28,0.09-0.54
		C15.84,35.14,15.45,34.85,15.06,34.74z"/>
	<path class="st0" d="M32.75,37.73c-0.1,0.01-0.19,0.01-0.28-0.02l-0.22-0.06c-0.25-0.07-0.5-0.14-0.76-0.23
		c-0.31-0.1-0.62-0.21-0.9-0.36c-0.24-0.12-0.41-0.34-0.64-0.45c-0.09-0.04-0.23-0.1-0.36-0.15c-0.33-0.17-0.68-0.28-0.94-0.56
		c-0.25-0.26-0.43-0.45-0.63-0.66l-0.12-0.15c-0.05-0.06-0.07-0.17-0.13-0.22c-0.08-0.1-0.08-0.19-0.33-0.19
		c-0.28,0-0.77,0.1-1.09,0.34c-0.16,0.12-0.26,0.26-0.31,0.4c-0.02,0.05-0.03,0.1-0.04,0.15c-0.03,0.17,0.09,0.29,0.19,0.39
		c0.04,0.04,0.08,0.08,0.11,0.13l0.24,0.43c0.1,0.14,0.22,0.28,0.38,0.43c0.29,0.3,1.01,0.66,1.31,0.88c0.21,0.15,0.4,0.35,0.62,0.5
		l0.09,0.06c0.51,0.36,1.14,0.44,1.7,0.64c0.45,0.15,0.7,0.33,1.04,0.48l0.22,0.09c0.08,0.03,0.19,0.1,0.29,0.12
		c0.16,0.04,0.54-0.01,0.7-0.3c0.17-0.31,0.27-0.51,0.31-0.88c0.02-0.16-0.07-0.54-0.1-0.65C33.03,37.72,32.87,37.72,32.75,37.73z"
		/>
	<path class="st0" d="M20.67,34.89c-0.16,0.04-0.51,0.42-0.61,0.55c-0.15,0.2-0.12,0.57-0.08,0.8c0.04,0.21,0.05,0.4,0.05,0.61
		c0,0.17,0,0.34,0,0.51c0,0.16,0,0.32,0.01,0.48c0,0.21-0.04,0.46-0.04,0.67c0.01,0.33-0.02,0.56,0.2,0.88
		c0.24,0.35,0.72,0.58,1.12,0.42c0.2-0.08,0.35-0.22,0.47-0.39c0.04-0.06,0.08-0.13,0.11-0.2c0.11-0.22,0.06-0.5,0.04-0.73
		c-0.01-0.1-0.02-0.19-0.01-0.29c0.02-0.28,0.05-0.55,0.07-0.84c0.01-0.15,0.02-0.3,0.02-0.47c0-0.17,0.04-0.41,0.04-0.6
		c0-0.32-0.15-1-0.46-1.17C21.26,34.93,21.04,34.8,20.67,34.89z"/>
</g>
</svg>
