<?xml version="1.0" encoding="utf-8"?>
<!-- Generator: Adobe Illustrator 24.1.3, SVG Export Plug-In . SVG Version: 6.00 Build 0)  -->
<!DOCTYPE svg PUBLIC "-//W3C//DTD SVG 1.1//EN" "http://www.w3.org/Graphics/SVG/1.1/DTD/svg11.dtd" [
	<!ENTITY ns_extend "http://ns.adobe.com/Extensibility/1.0/">
	<!ENTITY ns_ai "http://ns.adobe.com/AdobeIllustrator/10.0/">
	<!ENTITY ns_graphs "http://ns.adobe.com/Graphs/1.0/">
	<!ENTITY ns_vars "http://ns.adobe.com/Variables/1.0/">
	<!ENTITY ns_imrep "http://ns.adobe.com/ImageReplacement/1.0/">
	<!ENTITY ns_sfw "http://ns.adobe.com/SaveForWeb/1.0/">
	<!ENTITY ns_custom "http://ns.adobe.com/GenericCustomNamespace/1.0/">
	<!ENTITY ns_adobe_xpath "http://ns.adobe.com/XPath/1.0/">
]>
<svg version="1.1" id="레이어_2" xmlns:x="&ns_extend;" xmlns:i="&ns_ai;" xmlns:graph="&ns_graphs;"
	 xmlns="http://www.w3.org/2000/svg" xmlns:xlink="http://www.w3.org/1999/xlink" x="0px" y="0px" viewBox="0 0 42 42"
	 style="enable-background:new 0 0 42 42;" xml:space="preserve">
<style type="text/css">
	.st0{fill:#212121;}
</style>
<metadata>
	<sfw  xmlns="&ns_sfw;">
		<slices></slices>
		<sliceSourceBounds  bottomLeftOrigin="true" height="40.84" width="40.35" x="0.82" y="0.58"></sliceSourceBounds>
	</sfw>
</metadata>
<g>
	<path class="st0" d="M14.48,30.48c0-0.07,0.01-0.15,0.01-0.23c0-0.08,0-0.17,0-0.27c0-0.09-0.01-0.2-0.01-0.33
		c-0.01-0.13-0.02-0.26-0.03-0.4l0,0l0-0.01l-0.01-0.06l-0.02-0.05l-0.02-0.04l-0.03-0.04l-0.03-0.03l-0.04-0.03l-0.04-0.02
		l-0.04-0.02l-0.04-0.01l-0.08-0.02c-0.03,0-0.05,0-0.07-0.01c-0.02,0-0.04,0-0.06,0c-0.12,0-0.22,0-0.32,0
		c-0.1-0.01-0.19-0.01-0.27-0.02c-0.17-0.01-0.33-0.03-0.51-0.04c-0.13-0.01-0.27-0.02-0.44-0.01c-0.31,0-0.95,0.08-1.26,0.07
		c-0.22-0.01-0.43-0.05-0.65-0.05c-0.03,0-0.06,0-0.09-0.01c-0.51-0.04-1.01,0.06-1.52,0.06c-0.41,0.01-0.66-0.04-0.97-0.06
		c-0.07,0-0.15-0.01-0.23-0.01c-0.08,0-0.17,0-0.27,0c-0.09,0-0.2,0.01-0.33,0.01c-0.13,0.01-0.26,0.02-0.4,0.03l0,0l-0.01,0
		l-0.06,0.01l-0.05,0.02l-0.04,0.02l-0.04,0.03L6.48,29l-0.03,0.04l-0.02,0.04l-0.02,0.04L6.4,29.15l-0.02,0.08
		c0,0.03,0,0.05-0.01,0.07c0,0.02,0,0.04,0,0.06c0,0.12,0,0.22,0,0.32c-0.01,0.1-0.01,0.19-0.02,0.27
		c-0.01,0.17-0.03,0.33-0.04,0.51C6.3,30.49,6.3,30.5,6.3,30.51c0,0.02,0.08,0.07,0.07,0.1c-0.01,0.02-0.05,0.03-0.05,0.05
		c0,0,0,0-0.01,0.01c-0.04,0.04,0.06,0.08,0.06,0.12c0.01,0.03-0.04,0.05-0.06,0.07c0,0.07-0.01,0.15-0.01,0.23
		c0,0.08,0,0.17,0,0.27c0,0.09,0.01,0.2,0.01,0.33c0.01,0.13,0.02,0.26,0.03,0.4l0,0l0,0.01l0.01,0.06l0.02,0.05l0.02,0.04
		l0.03,0.04l0.03,0.03l0.04,0.03l0.04,0.02l0.04,0.02l0.04,0.01l0.08,0.02c0.03,0,0.05,0,0.07,0.01c0.02,0,0.04,0,0.06,0
		c0.12,0,0.22,0,0.32,0c0.1,0.01,0.19,0.01,0.27,0.02c0.17,0.01,0.33,0.03,0.51,0.04c0.13,0.01,0.27,0.02,0.44,0.01
		c0.31,0,0.95-0.08,1.26-0.07c0.22,0.01,0.43,0.05,0.65,0.05c0.03,0,0.06,0,0.09,0.01c0.51,0.04,1.01-0.06,1.52-0.06
		c0.41-0.01,0.66,0.04,0.97,0.06c0.07,0,0.15,0.01,0.23,0.01c0.08,0,0.17,0,0.27,0c0.09,0,0.2-0.01,0.33-0.01
		c0.13-0.01,0.26-0.02,0.4-0.03l0,0l0.01,0l0.06-0.01l0.05-0.02l0.04-0.02l0.04-0.03l0.03-0.03l0.03-0.04l0.02-0.04l0.02-0.04
		l0.01-0.04l0.02-0.08c0-0.03,0-0.05,0.01-0.07c0-0.02,0-0.04,0-0.06c0-0.12,0-0.22,0-0.32c0.01-0.1,0.01-0.19,0.02-0.27
		c0.01-0.17,0.03-0.33,0.04-0.51c0.01-0.01,0.02-0.02,0.01-0.03c0-0.02-0.08-0.07-0.07-0.1c0.01-0.02,0.05-0.03,0.05-0.05
		c0,0,0,0,0.01-0.01c0.04-0.04-0.06-0.08-0.06-0.12C14.41,30.52,14.46,30.5,14.48,30.48z M13.51,31.35l0,0.02l0,0.02l-0.01,0.02
		l-0.01,0.02l-0.01,0.01l-0.01,0.01l-0.01,0.01l-0.02,0.01l-0.02,0.01l-0.02,0.01l-0.04,0.01l-0.03,0c-0.02,0-0.04,0-0.06,0l-0.01,0
		v0c-0.14,0-0.28,0-0.41,0c-0.25,0-0.5,0.01-0.76,0.01c-0.31,0-0.62,0.01-0.93,0c-0.25-0.01-0.51-0.06-0.76-0.06
		c-0.11,0-0.25,0.01-0.38,0.02c-0.37,0.01-0.72,0.06-1.11,0.04C8.56,31.5,8.25,31.5,7.94,31.5l-0.5,0.01l-0.02,0l-0.02,0L7.38,31.5
		l-0.02-0.01l-0.01-0.01l-0.01-0.01l-0.01-0.01l-0.01-0.02l-0.01-0.02L7.3,31.41l-0.01-0.04l0-0.03c0-0.02,0-0.04,0-0.06l0-0.01h0
		c0-0.14,0-0.28,0-0.41c0-0.02-0.01-0.04-0.01-0.06c0-0.02-0.01-0.05,0-0.07c0.01-0.02,0.06-0.04,0.06-0.06
		c0-0.01-0.01-0.02-0.02-0.03c-0.01-0.03-0.06-0.06-0.04-0.09c0.02-0.03,0.03-0.05,0.02-0.07l-0.01-0.5l0-0.02l0-0.02l0.01-0.02
		L7.3,29.9l0.01-0.01l0.01-0.01l0.01-0.01l0.02-0.01l0.02-0.01l0.02-0.01l0.04-0.01l0.03,0c0.02,0,0.04,0,0.06,0l0.01,0v0
		c0.14,0,0.28,0,0.41,0c0.25,0,0.5-0.01,0.76-0.01c0.31,0,0.62-0.01,0.93,0c0.25,0.01,0.51,0.06,0.76,0.06
		c0.11,0,0.25-0.01,0.38-0.02c0.37-0.01,0.72-0.06,1.11-0.04c0.35,0.02,0.66,0.03,0.97,0.02l0.5-0.01l0.02,0l0.02,0l0.02,0.01
		l0.02,0.01l0.01,0.01l0.01,0.01l0.01,0.01l0.01,0.02l0.01,0.02l0.01,0.02l0.01,0.04l0,0.03c0,0.02,0,0.04,0,0.06l0,0.01h0
		c0,0.14,0,0.28,0,0.41c0,0.02,0.01,0.04,0.01,0.06c0,0.02,0.01,0.05,0,0.07c-0.01,0.02-0.06,0.04-0.06,0.06
		c0,0.01,0.01,0.02,0.02,0.03c0.01,0.03,0.06,0.06,0.04,0.09c-0.02,0.03-0.03,0.05-0.02,0.07L13.51,31.35z"/>
	<path class="st0" d="M8.5,33.55c-0.03-0.02-0.06-0.04-0.09-0.06c-0.1-0.05-0.22-0.03-0.33-0.02c-0.04,0-0.09,0.01-0.13,0
		c-0.12-0.01-0.24-0.02-0.38-0.03c-0.07,0-0.14-0.01-0.21-0.01c-0.07,0-0.18-0.02-0.27-0.02c-0.14,0-0.45,0.07-0.53,0.23
		c-0.09,0.17-0.14,0.28-0.1,0.46c0.02,0.08,0.19,0.26,0.25,0.31c0.09,0.08,0.25,0.06,0.36,0.04c0.09-0.02,0.18-0.03,0.27-0.03
		c0.08,0,0.15,0,0.23,0c0.07,0,0.14,0,0.22,0c0.09,0,0.21,0.02,0.3,0.02c0.15,0,0.25,0.01,0.39-0.1c0.16-0.12,0.26-0.36,0.19-0.56
		C8.64,33.68,8.58,33.61,8.5,33.55z"/>
	<path class="st0" d="M11.43,33.55c-0.03-0.02-0.06-0.04-0.09-0.06c-0.1-0.05-0.22-0.03-0.33-0.02c-0.04,0-0.09,0.01-0.13,0
		c-0.12-0.01-0.24-0.02-0.38-0.03c-0.07,0-0.14-0.01-0.21-0.01c-0.07,0-0.18-0.02-0.27-0.02c-0.14,0-0.45,0.07-0.53,0.23
		c-0.09,0.17-0.14,0.28-0.1,0.46c0.02,0.08,0.19,0.26,0.25,0.31c0.09,0.08,0.25,0.06,0.36,0.04c0.09-0.02,0.18-0.03,0.27-0.03
		c0.08,0,0.15,0,0.23,0c0.07,0,0.14,0,0.22,0c0.09,0,0.21,0.02,0.3,0.02c0.15,0,0.25,0.01,0.39-0.1c0.16-0.12,0.26-0.36,0.19-0.56
		C11.57,33.68,11.51,33.61,11.43,33.55z"/>
	<path class="st0" d="M14.28,33.55c-0.03-0.02-0.06-0.04-0.09-0.06c-0.1-0.05-0.22-0.03-0.33-0.02c-0.04,0-0.09,0.01-0.13,0
		c-0.12-0.01-0.24-0.02-0.38-0.03c-0.07,0-0.14-0.01-0.21-0.01c-0.07,0-0.18-0.02-0.27-0.02c-0.14,0-0.45,0.07-0.53,0.23
		c-0.09,0.17-0.14,0.28-0.1,0.46c0.02,0.08,0.19,0.26,0.25,0.31c0.09,0.08,0.25,0.06,0.36,0.04c0.09-0.02,0.18-0.03,0.27-0.03
		c0.08,0,0.15,0,0.23,0c0.07,0,0.14,0,0.22,0c0.09,0,0.21,0.02,0.3,0.02c0.15,0,0.25,0.01,0.39-0.1c0.16-0.12,0.26-0.36,0.19-0.56
		C14.42,33.68,14.36,33.61,14.28,33.55z"/>
	<path class="st0" d="M8.5,35.2c-0.03-0.02-0.06-0.04-0.09-0.06c-0.1-0.05-0.22-0.03-0.33-0.02c-0.04,0-0.09,0.01-0.13,0
		c-0.12-0.01-0.24-0.02-0.38-0.03c-0.07,0-0.14-0.01-0.21-0.01c-0.07,0-0.18-0.02-0.27-0.02c-0.14,0-0.45,0.07-0.53,0.23
		c-0.09,0.17-0.14,0.28-0.1,0.46c0.02,0.08,0.19,0.26,0.25,0.31c0.09,0.08,0.25,0.06,0.36,0.04c0.09-0.02,0.18-0.03,0.27-0.03
		c0.08,0,0.15,0,0.23,0c0.07,0,0.14,0,0.22,0c0.09,0,0.21,0.02,0.3,0.02c0.15,0,0.25,0.01,0.39-0.1c0.16-0.12,0.26-0.36,0.19-0.56
		C8.64,35.34,8.58,35.26,8.5,35.2z"/>
	<path class="st0" d="M11.43,35.2c-0.03-0.02-0.06-0.04-0.09-0.06c-0.1-0.05-0.22-0.03-0.33-0.02c-0.04,0-0.09,0.01-0.13,0
		c-0.12-0.01-0.24-0.02-0.38-0.03c-0.07,0-0.14-0.01-0.21-0.01c-0.07,0-0.18-0.02-0.27-0.02c-0.14,0-0.45,0.07-0.53,0.23
		c-0.09,0.17-0.14,0.28-0.1,0.46c0.02,0.08,0.19,0.26,0.25,0.31c0.09,0.08,0.25,0.06,0.36,0.04c0.09-0.02,0.18-0.03,0.27-0.03
		c0.08,0,0.15,0,0.23,0c0.07,0,0.14,0,0.22,0c0.09,0,0.21,0.02,0.3,0.02c0.15,0,0.25,0.01,0.39-0.1c0.16-0.12,0.26-0.36,0.19-0.56
		C11.57,35.34,11.51,35.26,11.43,35.2z"/>
	<path class="st0" d="M14.28,35.2c-0.03-0.02-0.06-0.04-0.09-0.06c-0.1-0.05-0.22-0.03-0.33-0.02c-0.04,0-0.09,0.01-0.13,0
		c-0.12-0.01-0.24-0.02-0.38-0.03c-0.07,0-0.14-0.01-0.21-0.01c-0.07,0-0.18-0.02-0.27-0.02c-0.14,0-0.45,0.07-0.53,0.23
		c-0.09,0.17-0.14,0.28-0.1,0.46c0.02,0.08,0.19,0.26,0.25,0.31c0.09,0.08,0.25,0.06,0.36,0.04c0.09-0.02,0.18-0.03,0.27-0.03
		c0.08,0,0.15,0,0.23,0c0.07,0,0.14,0,0.22,0c0.09,0,0.21,0.02,0.3,0.02c0.15,0,0.25,0.01,0.39-0.1c0.16-0.12,0.26-0.36,0.19-0.56
		C14.42,35.34,14.36,35.26,14.28,35.2z"/>
	<path class="st0" d="M8.5,36.86c-0.03-0.02-0.06-0.04-0.09-0.06c-0.1-0.05-0.22-0.03-0.33-0.02c-0.04,0-0.09,0.01-0.13,0
		c-0.12-0.01-0.24-0.02-0.38-0.03c-0.07,0-0.14-0.01-0.21-0.01c-0.07,0-0.18-0.02-0.27-0.02c-0.14,0-0.45,0.07-0.53,0.23
		c-0.09,0.17-0.14,0.28-0.1,0.46c0.02,0.08,0.19,0.26,0.25,0.31c0.09,0.08,0.25,0.06,0.36,0.04c0.09-0.02,0.18-0.03,0.27-0.03
		c0.08,0,0.15,0,0.23,0c0.07,0,0.14,0,0.22,0c0.09,0,0.21,0.02,0.3,0.02c0.15,0,0.25,0.01,0.39-0.1c0.16-0.12,0.26-0.36,0.19-0.56
		C8.64,36.99,8.58,36.92,8.5,36.86z"/>
	<path class="st0" d="M11.43,36.86c-0.03-0.02-0.06-0.04-0.09-0.06c-0.1-0.05-0.22-0.03-0.33-0.02c-0.04,0-0.09,0.01-0.13,0
		c-0.12-0.01-0.24-0.02-0.38-0.03c-0.07,0-0.14-0.01-0.21-0.01c-0.07,0-0.18-0.02-0.27-0.02c-0.14,0-0.45,0.07-0.53,0.23
		c-0.09,0.17-0.14,0.28-0.1,0.46c0.02,0.08,0.19,0.26,0.25,0.31c0.09,0.08,0.25,0.06,0.36,0.04c0.09-0.02,0.18-0.03,0.27-0.03
		c0.08,0,0.15,0,0.23,0c0.07,0,0.14,0,0.22,0c0.09,0,0.21,0.02,0.3,0.02c0.15,0,0.25,0.01,0.39-0.1c0.16-0.12,0.26-0.36,0.19-0.56
		C11.57,36.99,11.51,36.92,11.43,36.86z"/>
	<path class="st0" d="M14.28,36.86c-0.03-0.02-0.06-0.04-0.09-0.06c-0.1-0.05-0.22-0.03-0.33-0.02c-0.04,0-0.09,0.01-0.13,0
		c-0.12-0.01-0.24-0.02-0.38-0.03c-0.07,0-0.14-0.01-0.21-0.01c-0.07,0-0.18-0.02-0.27-0.02c-0.14,0-0.45,0.07-0.53,0.23
		c-0.09,0.17-0.14,0.28-0.1,0.46c0.02,0.08,0.19,0.26,0.25,0.31c0.09,0.08,0.25,0.06,0.36,0.04c0.09-0.02,0.18-0.03,0.27-0.03
		c0.08,0,0.15,0,0.23,0c0.07,0,0.14,0,0.22,0c0.09,0,0.21,0.02,0.3,0.02c0.15,0,0.25,0.01,0.39-0.1c0.16-0.12,0.26-0.36,0.19-0.56
		C14.42,36.99,14.36,36.92,14.28,36.86z"/>
	<path class="st0" d="M26.47,23.57c-0.09,0.04-0.18,0.05-0.27,0.05c-0.08,0-0.15,0-0.23,0c-0.26,0.01-0.51,0.02-0.78,0.03
		c-0.32,0.01-0.64,0.03-0.95,0.01c-0.26-0.02-0.52-0.13-0.78-0.11c-0.11,0.01-0.26,0.03-0.39,0.05c-0.38,0.02-0.74,0.13-1.14,0.08
		c-0.36-0.05-0.68-0.05-0.99-0.04c-0.07,0-0.14,0-0.21,0.01c-0.09,0-0.2-0.04-0.3-0.04c-0.15,0.01-0.25-0.02-0.39,0.2
		c-0.16,0.24-0.26,0.72-0.19,1.12c0.03,0.2,0.1,0.35,0.17,0.47c0.03,0.04,0.06,0.08,0.09,0.11c0.1,0.11,0.22,0.06,0.33,0.04
		c0.04-0.01,0.09-0.02,0.13-0.01c0.12,0.02,0.24,0.05,0.37,0.07c0.13,0.02,0.28,0.03,0.45,0.03c0.32-0.01,0.97-0.15,1.29-0.14
		c0.22,0.01,0.44,0.09,0.66,0.11c0.03,0,0.06,0.01,0.09,0.01c0.52,0.07,1.04-0.11,1.56-0.13c0.42-0.01,0.67,0.07,0.99,0.12
		c0.07,0.01,0.13,0.02,0.21,0.02c0.07,0,0.18,0.04,0.27,0.04c0.14,0,0.44-0.15,0.52-0.46c0.09-0.34,0.14-0.56,0.1-0.92
		c-0.02-0.16-0.19-0.51-0.25-0.61C26.74,23.49,26.58,23.52,26.47,23.57z"/>
	<path class="st0" d="M39.22,15.48l0.13-0.16c0.78-0.93,1.15-2.13,1.41-3.28c0.22-0.93,0.33-1.5,0.41-2.25
		c0-0.31,0.01-0.64-0.04-1.04c-0.06-0.75-0.61-2.16-0.93-2.81c-0.19-0.47-0.39-0.94-0.65-1.38l-0.11-0.17
		c-0.65-1.03-1.67-1.74-2.68-2.35c-0.81-0.5-1.33-0.78-2.01-1.08c-0.28-0.12-0.61-0.2-1-0.29c-0.74-0.16-2.24-0.08-2.96,0.02
		c-0.25,0.03-0.51,0.05-0.76,0.06c-0.25,0.04-0.51,0.08-0.76,0.14c-0.07,0.01-0.14,0.02-0.2,0.04c-1.18,0.3-2.18,1.06-3.07,1.83
		c-0.7,0.64-1.17,1.01-1.64,1.59c-0.21,0.23-0.38,0.51-0.59,0.86c-0.39,0.64-0.78,2.11-0.91,2.82c-0.1,0.5-0.25,0.99-0.27,1.5
		c-0.01,0.07-0.02,0.14-0.02,0.21c-0.08,1.21,0.33,2.4,0.79,3.48c0.39,0.87,0.6,1.42,1,2.05c0.17,0.26,0.36,0.53,0.64,0.82
		c0.08,0.09,0.17,0.18,0.28,0.28c-0.71,0.01-2.11,0.15-2.8,0.13c-0.49-0.01-0.98-0.09-1.46-0.11c-0.07,0-0.13-0.01-0.2-0.01
		c-1.14-0.07-2.29,0.11-3.44,0.13c-0.92,0.01-1.48-0.07-2.19-0.12c-0.29-0.02-0.61-0.03-0.99-0.03c-0.7,0.01-2.14,0.15-2.84,0.14
		c-0.49-0.01-0.98-0.09-1.46-0.11c-0.07,0-0.13-0.01-0.2-0.01c-1.14-0.07-2.29,0.11-3.44,0.13c-0.92,0.01-1.48-0.07-2.19-0.12
		c-0.15-0.01-0.3-0.01-0.47-0.02c-0.17,0-0.34,0-0.53,0c-0.18,0.01-0.41,0.02-0.66,0.03c-0.23,0.02-0.49,0.03-0.74,0.05l-0.01,0
		l-0.01,0c-0.01,0-0.03,0-0.04,0l0,0l-0.02,0l-0.06,0.01l-0.06,0.01l-0.05,0.02L1.4,16.5l-0.05,0.02l-0.04,0.03l-0.04,0.03
		l-0.04,0.03l-0.03,0.03l-0.03,0.03l-0.05,0.07l-0.04,0.08l-0.03,0.08l-0.03,0.08L1,17.07l-0.01,0.08c-0.01,0.05-0.01,0.1-0.01,0.15
		c0,0.04,0,0.09,0,0.12c0,0.12,0,0.23,0,0.33c0,0.11,0,0.21-0.01,0.31c-0.01,0.11-0.01,0.21-0.02,0.31H0.85
		c-0.01,0.15-0.01,0.3-0.02,0.47c0,0.17,0,0.34,0,0.53c0.01,0.18,0.02,0.41,0.03,0.66c0.01,0.23,0.03,0.49,0.05,0.74l0,0.01l0,0.01
		c0,0.01,0,0.03,0,0.04l0,0l0,0.02l0.01,0.06l0.01,0.06l0.02,0.05l0.02,0.05l0.02,0.05l0.03,0.04l0.03,0.04l0.03,0.04l0.03,0.03
		l0.03,0.03l0.07,0.05l0.08,0.04l0.08,0.03l0.08,0.03l0.08,0.02l0.08,0.01c0.05,0.01,0.1,0.01,0.15,0.01c0.04,0,0.09,0,0.12,0
		c0.12,0,0.23,0,0.33,0c0.11,0,0.21,0,0.31,0.01c0.2,0.01,0.38,0.02,0.55,0.03c0.05,0,0.1,0.01,0.15,0.01
		c-0.01,0.1-0.01,0.2-0.02,0.29c-0.03,0.35-0.05,0.67-0.08,1.03c-0.02,0.4-0.03,0.84-0.03,1.36c0.01,0.97,0.15,2.94,0.14,3.9
		c-0.01,0.67-0.09,1.34-0.11,2.01c0,0.09-0.01,0.18-0.01,0.27c-0.07,1.57,0.11,3.15,0.13,4.73c0.01,1.27-0.07,2.04-0.12,3.01
		c-0.01,0.15-0.01,0.3-0.02,0.47c0,0.17,0,0.34,0,0.53c0.01,0.18,0.02,0.41,0.03,0.66c0.02,0.23,0.03,0.49,0.05,0.74l0,0.01l0,0.01
		c0,0.01,0,0.03,0,0.04l0,0l0,0.02l0.01,0.06l0.01,0.06l0.02,0.05l0.02,0.05l0.02,0.05l0.03,0.04l0.03,0.04L3.34,41l0.03,0.03
		l0.03,0.03l0.07,0.05l0.08,0.04l0.08,0.03l0.08,0.03l0.08,0.02l0.08,0.01c0.05,0,0.1,0.01,0.15,0.01c0.04,0,0.09,0,0.12,0
		c0.12,0,0.23,0,0.33,0c0.11,0,0.21,0,0.31,0.01c0.2,0.01,0.38,0.02,0.55,0.03c0.35,0.03,0.67,0.05,1.03,0.08
		c0.25,0.02,0.53,0.03,0.85,0.03c0.61-0.01,1.85-0.15,2.45-0.14c0.42,0.01,0.84,0.09,1.26,0.11c0.06,0,0.11,0.01,0.17,0.01
		c0.99,0.07,1.98-0.11,2.97-0.13c0.8-0.01,1.28,0.07,1.89,0.12c0.25,0.02,0.53,0.03,0.85,0.03c0.61-0.01,1.85-0.15,2.45-0.14
		c0.42,0.01,0.84,0.09,1.26,0.11c0.06,0,0.11,0.01,0.17,0.01c0.99,0.07,1.98-0.11,2.97-0.13c0.8-0.01,1.28,0.07,1.89,0.12
		c0.25,0.02,0.53,0.03,0.85,0.03c0.61-0.01,1.85-0.15,2.45-0.14c0.42,0.01,0.84,0.09,1.26,0.11c0.06,0,0.11,0.01,0.17,0.01
		c0.99,0.07,1.98-0.11,2.97-0.13c0.8-0.01,1.28,0.07,1.89,0.12c0.15,0.01,0.3,0.01,0.47,0.02c0.17,0,0.34,0,0.53,0
		c0.18-0.01,0.41-0.02,0.66-0.03c0.23-0.02,0.49-0.03,0.74-0.05l0.01,0l0.01,0c0.01,0,0.03,0,0.04,0l0,0l0.02,0l0.06-0.01l0.06-0.01
		l0.05-0.02l0.05-0.02l0.05-0.02l0.04-0.03l0.04-0.03l0.04-0.03l0.03-0.03l0.03-0.03l0.05-0.07l0.04-0.08l0.03-0.08l0.03-0.08
		l0.02-0.08l0.01-0.08c0-0.05,0.01-0.1,0.01-0.15c0-0.04,0-0.09,0-0.12c0-0.12,0-0.23,0-0.33c0-0.11,0-0.21,0.01-0.31
		c0.01-0.2,0.02-0.38,0.03-0.55c0.03-0.35,0.05-0.67,0.08-1.03c0.02-0.4,0.03-0.84,0.03-1.36c-0.01-0.97-0.15-2.94-0.14-3.9
		c0.01-0.67,0.09-1.34,0.11-2.01c0-0.09,0.01-0.18,0.01-0.27c0.07-1.57-0.11-3.15-0.13-4.73c-0.01-1.27,0.07-2.04,0.12-3.01
		c0.01-0.15,0.01-0.3,0.02-0.47c0-0.17,0-0.34,0-0.53c0-0.07-0.01-0.15-0.01-0.23c0,0,0,0,0.01,0c0.18-0.01,0.41-0.02,0.66-0.03
		c0.23-0.02,0.49-0.03,0.74-0.05l0.01,0l0.01,0c0.01,0,0.03,0,0.04,0l0,0l0.02,0l0.06-0.01l0.06-0.01l0.05-0.02l0.05-0.02l0.05-0.02
		l0.04-0.03l0.04-0.03l0.04-0.03l0.03-0.03l0.03-0.03l0.05-0.07l0.04-0.08l0.03-0.08l0.03-0.08l0.02-0.08l0.01-0.08
		c0-0.05,0.01-0.1,0.01-0.15c0-0.04,0-0.09,0-0.12c0-0.12,0-0.23,0-0.33c0-0.11,0-0.21,0.01-0.31c0.01-0.11,0.01-0.21,0.02-0.31
		h0.09c0.01-0.15,0.01-0.3,0.02-0.47c0-0.17,0-0.34,0-0.53c-0.01-0.18-0.02-0.41-0.03-0.66c-0.02-0.23-0.03-0.49-0.05-0.74l0-0.01
		l0-0.01c0-0.01,0-0.03,0-0.04l0,0l0-0.02l-0.01-0.06l-0.01-0.06l-0.02-0.05l-0.02-0.05l-0.02-0.05l-0.03-0.04l-0.03-0.04
		l-0.03-0.04l-0.03-0.03l-0.03-0.03l-0.07-0.05l-0.08-0.04l-0.08-0.03l-0.08-0.03l-0.08-0.02l-0.08-0.01c-0.05,0-0.1-0.01-0.15-0.01
		c-0.04,0-0.09,0-0.12,0c-0.12,0-0.23,0-0.33,0c-0.11,0-0.21,0-0.31-0.01c-0.2-0.01-0.38-0.02-0.55-0.03
		c-0.08-0.01-0.16-0.01-0.24-0.02C38.57,16.15,38.93,15.84,39.22,15.48z M15.78,34.72c-0.05,0.96-0.05,1.82-0.04,2.67
		c0,0.19,0,0.38,0.01,0.58c0,0.25-0.04,0.55-0.04,0.8c0.01,0.26,0,0.46,0.05,0.68c-0.42,0.01-0.84,0.02-1.27,0.02
		c-0.61,0.01-1.21,0.03-1.82,0.01c-0.49-0.02-0.99-0.13-1.48-0.11c-0.21,0.01-0.5,0.03-0.75,0.05c-0.73,0.02-1.4,0.13-2.17,0.08
		c-0.68-0.05-1.29-0.05-1.89-0.04l-1,0.02l-0.04,0l-0.04-0.01l-0.04-0.01l-0.03-0.01L5.19,39.4l-0.03-0.02l-0.02-0.03l-0.02-0.03
		l-0.02-0.03l-0.01-0.04l-0.01-0.04l-0.01-0.04c0-0.02,0-0.04,0-0.06c0-0.04,0-0.08,0-0.12l0-0.02c0,0,0,0,0,0c0-0.28,0-0.55,0-0.82
		c-0.01-0.78-0.02-1.56-0.03-2.36c-0.01-0.97-0.03-1.93-0.01-2.9c0.02-0.79,0.13-1.57,0.11-2.36c-0.01-0.33-0.03-0.79-0.05-1.19
		c-0.02-1.16-0.13-2.24-0.08-3.46c0.05-1.08,0.05-2.05,0.04-3.01l-0.02-1l0-0.04l0.01-0.04l0.01-0.04l0.01-0.03l0.02-0.03l0.02-0.03
		l0.03-0.02l0,0c0.3-0.01,0.71-0.03,1.14-0.06c0.02,0,0.04,0,0.06,0c0.49-0.01,0.98-0.02,1.49-0.03c0.21,0,0.41,0,0.62,0
		c0.3,0.03,0.61,0.06,0.91,0.07c0.07,0,0.13,0.01,0.2,0.01c0.38,0.02,0.76,0.02,1.14,0c0.14,0.01,0.29,0.03,0.43,0.03
		c0.21-0.01,0.5-0.03,0.75-0.05c0.73-0.02,1.4-0.13,2.17-0.08c0.07,0,0.12,0,0.19,0.01c0.32,0.02,0.62,0.05,0.95,0.08
		c0.16,0.01,0.33,0.02,0.51,0.02c-0.11,0.25-0.08,0.62-0.04,0.87c0.04,0.25,0.05,0.48,0.05,0.73c0,0.21,0,0.41,0,0.61
		c0.01,0.69,0.02,1.38,0.03,2.09c0.01,0.86,0.03,1.71,0.01,2.57c-0.02,0.7-0.13,1.4-0.11,2.09c0.01,0.29,0.03,0.7,0.05,1.06
		C15.72,32.68,15.83,33.64,15.78,34.72z M36.49,35.13c-0.05,1.08-0.05,2.05-0.04,3.01l0.02,1l0,0.04l-0.01,0.04l-0.01,0.04
		l-0.01,0.03l-0.02,0.03l-0.02,0.03l-0.03,0.02l-0.03,0.02l-0.03,0.02l-0.04,0.01l-0.04,0.01l-0.04,0.01c-0.02,0-0.04,0-0.06,0
		c-0.04,0-0.08,0-0.12,0l-0.02,0c0,0,0,0,0,0c-0.28,0-0.55,0-0.82,0c-0.49,0.01-0.98,0.02-1.49,0.03c-0.61,0.01-1.21,0.03-1.82,0.01
		c-0.49-0.02-0.99-0.13-1.48-0.11c-0.21,0.01-0.5,0.03-0.75,0.05c-0.73,0.02-1.4,0.13-2.17,0.08c-0.68-0.05-1.29-0.05-1.89-0.04
		c-0.49,0.01-0.98,0.02-1.49,0.03c-0.61,0.01-1.21,0.03-1.82,0.01c-0.49-0.02-0.99-0.13-1.48-0.11c-0.21,0.01-0.5,0.03-0.75,0.05
		c-0.73,0.02-1.4,0.13-2.17,0.08c-0.08-0.01-0.15-0.01-0.23-0.01c0.05-0.24,0.02-0.5,0-0.74c-0.01-0.11-0.02-0.23-0.01-0.35
		c0.02-0.33,0.05-0.65,0.07-1c0.02-0.36,0.03-0.74,0.03-1.2c-0.01-0.86-0.15-2.6-0.14-3.46c0.01-0.59,0.09-1.19,0.11-1.78
		c0-0.08,0.01-0.16,0.01-0.24c0.07-1.39-0.11-2.79-0.13-4.19c-0.01-1.12,0.07-1.8,0.12-2.67c0.01-0.18,0.02-0.36,0.02-0.56
		c0-0.2,0.04-0.49,0.04-0.72c0-0.25-0.07-0.68-0.2-1.01c0.11-0.01,0.22-0.01,0.33-0.02c0.47-0.01,0.93-0.02,1.4-0.01
		c0.49,0.02,0.99,0.13,1.48,0.11c0.11,0,0.24-0.01,0.37-0.02c0.78,0.01,1.57-0.06,2.35-0.11c0.07,0,0.13,0,0.2,0
		c0.68,0.05,1.29,0.05,1.89,0.04c0.07,0,0.13,0,0.2,0c0.18,0.02,0.36,0.03,0.56,0.04c0.29,0.02,0.61,0.03,0.99,0.03
		c0.4-0.01,1.05-0.06,1.65-0.09c0.46,0.03,0.93,0.12,1.39,0.11c0.21-0.01,0.5-0.03,0.75-0.05c0.09,0,0.17-0.01,0.25-0.01
		c0.09,0.01,0.17,0.02,0.26,0.02c0.07,0,0.13,0.01,0.2,0.01c0.73,0.05,1.46-0.01,2.19-0.06c0.4,0.01,0.79,0.02,1.16,0.01l1-0.02
		l0.04,0l0.04,0.01l0.04,0.01l0.03,0.01l0.03,0.02l0.03,0.02l0.02,0.03l0.02,0.03l0.02,0.03l0.01,0.04l0.01,0.04l0.01,0.04
		c0,0.02,0,0.04,0,0.06c0,0.04,0,0.08,0,0.12l0,0.02c0,0,0,0,0,0c0,0.28,0,0.55,0,0.82c0.01,0.78,0.02,1.56,0.03,2.36
		c0.01,0.97,0.03,1.93,0.01,2.9c-0.02,0.79-0.13,1.57-0.11,2.36c0.01,0.33,0.03,0.79,0.05,1.19C36.44,32.84,36.55,33.92,36.49,35.13
		z M38.43,18.32l0.04,0l0.04,0.01l0.04,0.01l0.03,0.01l0.03,0.02l0.03,0.02l0.02,0.03l0.02,0.03l0.02,0.03l0.01,0.04l0.01,0.04
		l0.01,0.04c0,0.02,0,0.04,0,0.06c0,0.04,0,0.08,0,0.12l0,0.02c0,0,0,0,0,0c0,0.22,0,0.45,0,0.67l0,0.01l-0.01,0.03l-0.02,0.03
		l-0.02,0.03l-0.03,0.02l-0.03,0.02l-0.03,0.02l-0.04,0.01l-0.04,0.01l-0.04,0.01c-0.02,0-0.04,0-0.06,0c-0.04,0-0.08,0-0.12,0
		l-0.02,0c0,0,0,0,0,0c-0.28,0-0.55,0-0.82,0c-0.49,0-0.97,0.02-1.47,0.02c-0.26-0.02-0.52-0.04-0.8-0.06
		c-0.25-0.02-0.53-0.03-0.85-0.03c-0.28,0-0.69,0.04-1.11,0.07c-0.44-0.04-0.87-0.09-1.31-0.08c-0.24,0.01-0.57,0.03-0.87,0.05
		c-0.08,0-0.16,0.01-0.24,0.01c-0.06-0.01-0.13-0.01-0.19-0.02c-0.06,0-0.11-0.01-0.17-0.01c-0.72-0.05-1.44,0.03-2.16,0.09
		c-0.68-0.03-1.32-0.04-1.94-0.03c-0.09,0-0.18,0-0.27,0c-0.16-0.02-0.32-0.03-0.49-0.04c-0.25-0.02-0.53-0.03-0.85-0.03
		c-0.36,0.01-0.96,0.06-1.5,0.1c-0.24,0-0.48,0.01-0.71,0c-0.57-0.02-1.15-0.13-1.71-0.11c-0.12,0-0.26,0.01-0.4,0.02
		c-0.55,0-1.1,0.05-1.65,0.09c-0.43,0.02-0.86,0.04-1.32,0.01c-0.3-0.02-0.58-0.02-0.87-0.03c-0.18-0.02-0.37-0.04-0.57-0.05
		c-0.25-0.02-0.53-0.03-0.85-0.03c-0.33,0.01-0.86,0.05-1.36,0.09c-0.09,0-0.17,0-0.26,0c-0.42,0.01-0.85,0-1.27,0.01
		c-0.27-0.03-0.55-0.06-0.82-0.07c-0.06,0-0.11-0.01-0.17-0.01c-0.34-0.03-0.68-0.02-1.02,0c-0.18-0.01-0.36-0.03-0.54-0.03
		c-0.24,0.01-0.57,0.03-0.87,0.05c-0.52,0.01-1.01,0.05-1.52,0.07c-0.31-0.03-0.59-0.06-0.91-0.08c-0.15-0.01-0.3-0.01-0.47-0.02
		c-0.17,0-0.34,0-0.53,0c-0.18,0.01-0.41,0.02-0.66,0.03c-0.18,0.01-0.38,0.02-0.57,0.04c-0.01,0-0.03,0-0.04,0l-1,0.02l-0.04,0
		l-0.04-0.01l-0.04-0.01l-0.03-0.01l-0.03-0.02L2.89,19.6l-0.02-0.03l-0.02-0.03l-0.02-0.03l-0.01-0.04l-0.01-0.04l-0.01-0.04
		c0-0.02,0-0.04,0-0.06c0-0.04,0-0.08,0-0.12l0-0.02c0,0,0,0,0,0c0-0.22,0-0.45,0-0.67l0-0.01l0.01-0.03l0.02-0.03l0.02-0.03
		l0.03-0.02l0.03-0.02l0.03-0.02l0.04-0.01l0.04-0.01l0.04-0.01c0.02,0,0.04,0,0.06,0c0.04,0,0.08,0,0.12,0l0.02,0c0,0,0,0,0,0
		c0.28,0,0.55,0,0.82,0c0.57-0.01,1.13-0.02,1.72-0.03c0.7-0.01,1.41-0.03,2.11-0.01c0.57,0.02,1.15,0.13,1.71,0.11
		c0.24-0.01,0.57-0.03,0.87-0.05c0.84-0.02,1.63-0.13,2.51-0.08c0.78,0.05,1.49,0.05,2.19,0.04c0.57-0.01,1.13-0.02,1.72-0.03
		c0.7-0.01,1.41-0.03,2.11-0.01c0.57,0.02,1.15,0.13,1.71,0.11c0.24-0.01,0.57-0.03,0.87-0.05c0.84-0.02,1.63-0.13,2.51-0.08
		c0.78,0.05,1.49,0.05,2.19,0.04c0.57-0.01,1.13-0.02,1.72-0.03c0.08,0,0.16,0,0.24,0c0.15,0.08,0.3,0.17,0.47,0.23
		c0.06,0.03,0.13,0.06,0.19,0.08c1.13,0.45,2.38,0.42,3.55,0.32c0.95-0.08,1.53-0.14,2.26-0.31c0.27-0.09,0.58-0.17,0.9-0.33
		c0.62,0.03,1.21,0.03,1.77,0.03L38.43,18.32z M37.75,14.05c-0.12,0.16-0.25,0.4-0.41,0.59c-0.43,0.54-0.89,1.04-1.54,1.4
		c-0.27,0.16-0.54,0.28-0.81,0.4c-0.29,0.12-0.57,0.23-0.85,0.34c-0.45,0.15-0.9,0.26-1.39,0.33c-0.29,0.05-0.58,0.05-0.88,0.07
		c-0.29-0.02-0.59-0.01-0.88-0.06c-0.48-0.07-0.91-0.29-1.36-0.41c-0.18-0.07-0.45-0.13-0.68-0.21c-0.01,0-0.02-0.01-0.04-0.01
		c-0.63-0.26-1.23-0.52-1.77-1.01c-0.46-0.47-0.87-0.89-1.21-1.36c-0.29-0.38-0.54-0.77-0.75-1.21c-0.26-0.52-0.45-1.08-0.56-1.66
		c-0.03-0.24-0.04-0.48-0.04-0.71c0.02-0.24,0.03-0.47,0.01-0.71c0-0.19-0.01-0.47-0.01-0.72c0.07-0.68,0.09-1.37,0.42-2.04
		c0.29-0.59,0.58-1.1,0.92-1.57c0.27-0.39,0.57-0.75,0.93-1.09c0.41-0.42,0.9-0.76,1.41-1.04c0.43-0.22,0.91-0.3,1.34-0.46
		c0.18-0.07,0.45-0.15,0.68-0.23c0.67-0.15,1.33-0.34,2.07-0.23c0.65,0.08,1.22,0.22,1.78,0.38c0.45,0.15,0.88,0.32,1.32,0.55
		c0.5,0.29,1.01,0.6,1.42,1.03c0.35,0.33,0.58,0.76,0.86,1.13c0.13,0.15,0.29,0.37,0.43,0.57c0.36,0.58,0.73,1.16,0.86,1.89
		c0.13,0.64,0.16,1.23,0.19,1.81l-0.02,0.71c-0.03,0.24-0.06,0.47-0.09,0.71c-0.11,0.57-0.26,1.15-0.54,1.66
		C38.36,13.32,38.02,13.67,37.75,14.05z"/>
	<path class="st0" d="M36.71,8.74c-0.01,0-0.02,0-0.03-0.01c-0.02-0.02-0.04-0.04-0.07-0.06c-0.03-0.02-0.06-0.04-0.09-0.05
		c-0.07-0.02-0.24-0.02-0.31-0.05c-0.05-0.03-0.08-0.08-0.13-0.11c-0.01,0-0.01-0.01-0.02-0.01c-0.1-0.08-0.25-0.04-0.37-0.08
		c-0.05-0.02-0.09-0.05-0.12-0.07c0.05-0.02,0.09-0.05,0.14-0.07c0.1-0.05,0.24-0.12,0.35-0.18c0.18-0.11,0.54-0.39,0.56-0.59
		c0.03-0.21,0.04-0.35-0.1-0.48c-0.06-0.06-0.37-0.08-0.47-0.08c-0.15,0-0.35,0.14-0.48,0.23c-0.11,0.08-0.22,0.16-0.34,0.23
		c-0.04,0.02-0.07,0.04-0.11,0.06c-0.01-0.08-0.04-0.21-0.02-0.27c0.01-0.05,0.06-0.1,0.08-0.15c0-0.01,0.01-0.01,0.01-0.02
		c0.05-0.12-0.02-0.25-0.01-0.38c0.01-0.1,0.06-0.15,0.09-0.23c0.01-0.02,0.01-0.03,0.02-0.05s0.03-0.04,0.03-0.06
		c0-0.03-0.06-0.12-0.21-0.16C34.95,6.04,34.84,6.02,34.66,6c-0.08-0.01-0.26,0.01-0.31,0.02c-0.08,0.01-0.07,0.05-0.05,0.08
		c0.01,0.02,0.02,0.05,0.02,0.07c0,0.02,0,0.04-0.01,0.05C34.3,6.28,34.3,6.34,34.29,6.4c-0.01,0.08-0.01,0.15-0.03,0.23
		c-0.02,0.06-0.08,0.11-0.08,0.18c0,0.03,0.01,0.06,0.01,0.1c0,0.09,0.04,0.18,0,0.28c-0.03,0.08-0.05,0.16-0.05,0.23
		c-0.02,0.21-0.05,0.41-0.07,0.62c-0.04,0.02-0.08,0.05-0.12,0.07c-0.41,0.24-0.81,0.49-1.23,0.72c-0.09,0.05-0.19,0.1-0.29,0.14
		C32.41,8.48,32.38,8,32.37,7.53c0-0.19,0-0.36,0.01-0.51c0.06-0.04,0.11-0.07,0.16-0.11c0.12-0.07,0.22-0.14,0.34-0.21
		c0.03-0.01,0.06-0.03,0.09-0.06c0.06-0.05,0.14-0.2,0.2-0.24c0.05-0.03,0.11-0.03,0.16-0.06c0.01,0,0.01-0.01,0.02-0.01
		c0.12-0.05,0.16-0.2,0.25-0.28c0.07-0.07,0.15-0.07,0.22-0.1c0.02-0.01,0.03-0.01,0.05-0.02c0.02-0.01,0.05-0.01,0.06-0.02
		c0.03-0.02,0.04-0.12-0.04-0.26c-0.09-0.15-0.14-0.24-0.26-0.38c-0.05-0.06-0.19-0.17-0.23-0.21c-0.06-0.05-0.08-0.01-0.09,0.02
		c-0.01,0.03-0.02,0.05-0.03,0.06c-0.01,0.01-0.03,0.02-0.04,0.03c-0.05,0.04-0.09,0.08-0.14,0.13c-0.06,0.05-0.11,0.11-0.18,0.14
		c-0.05,0.03-0.14,0.03-0.18,0.07c-0.02,0.02-0.04,0.05-0.06,0.08c-0.07,0.06-0.1,0.16-0.19,0.2c-0.02,0.01-0.02,0.02-0.04,0.03
		c0-0.03,0-0.05,0-0.08c0-0.11,0.02-0.27,0.02-0.4c0-0.21-0.07-0.66-0.23-0.78c-0.17-0.13-0.28-0.21-0.46-0.15
		c-0.08,0.03-0.26,0.28-0.31,0.37c-0.08,0.13-0.06,0.37-0.04,0.53c0.02,0.14,0.03,0.27,0.03,0.4c0,0.07,0,0.13,0,0.19
		c-0.04-0.03-0.08-0.05-0.13-0.08c-0.06-0.04-0.13-0.08-0.18-0.14c-0.04-0.04-0.06-0.13-0.11-0.16c-0.02-0.01-0.06-0.03-0.09-0.04
		c-0.08-0.05-0.18-0.06-0.24-0.14c-0.05-0.07-0.11-0.12-0.17-0.16c-0.01-0.01-0.03-0.02-0.04-0.03c-0.02-0.01-0.03-0.05-0.04-0.06
		c-0.03-0.02-0.04-0.04-0.13,0.02c-0.1,0.07-0.27,0.25-0.38,0.41c-0.05,0.08-0.09,0.15-0.11,0.21c-0.01,0.02-0.01,0.04-0.02,0.06
		c-0.01,0.06,0.02,0.06,0.05,0.06c0.01,0,0.02,0.01,0.03,0.02c0.02,0.03,0.03,0.05,0.05,0.08c0.02,0.03,0.04,0.05,0.08,0.08
		c0.06,0.04,0.23,0.08,0.28,0.14c0.04,0.04,0.06,0.1,0.09,0.14c0,0.01,0.01,0.01,0.01,0.02c0.08,0.11,0.23,0.11,0.33,0.18
		c0.08,0.06,0.1,0.13,0.15,0.19c0.04,0.04,0.09,0.08,0.14,0.12c0.05,0.04,0.1,0.08,0.16,0.13c0.06,0.04,0.13,0.09,0.21,0.15
		c0.02,0.02,0.05,0.03,0.07,0.05c0,0.02,0,0.05,0,0.07c0,0.47,0.01,0.95,0,1.42c0,0.11-0.01,0.21-0.02,0.32
		c-0.42-0.22-0.85-0.44-1.27-0.67c-0.2-0.11-0.36-0.21-0.52-0.31c0-0.06-0.01-0.11-0.01-0.16c-0.01-0.14-0.01-0.26-0.02-0.4
		c0-0.03,0.01-0.07,0-0.11c-0.02-0.07-0.11-0.22-0.11-0.3c0-0.05,0.03-0.11,0.03-0.16c0-0.01,0-0.01,0-0.02
		c0.02-0.13-0.09-0.24-0.12-0.36c-0.02-0.1,0.01-0.16,0.03-0.24c0-0.02,0-0.03,0-0.05c0-0.02,0.01-0.05,0.01-0.07
		C29.48,6.06,29.4,6,29.25,6c-0.17,0-0.28,0-0.46,0.04c-0.08,0.02-0.25,0.08-0.29,0.1c-0.07,0.03-0.05,0.07-0.03,0.09
		c0.02,0.02,0.03,0.04,0.04,0.06c0,0.02,0.01,0.04,0.01,0.05c0.01,0.06,0.03,0.12,0.04,0.18c0.02,0.07,0.04,0.15,0.04,0.23
		c0,0.06-0.05,0.13-0.03,0.19c0.01,0.03,0.02,0.06,0.04,0.09c0.02,0.09,0.09,0.17,0.08,0.27c0,0.01,0,0.01,0,0.02
		c-0.09-0.06-0.22-0.15-0.33-0.21c-0.19-0.11-0.61-0.27-0.79-0.19C27.35,7,27.22,7.06,27.18,7.24c-0.02,0.08,0.11,0.36,0.16,0.45
		c0.08,0.13,0.29,0.24,0.44,0.3c0.13,0.05,0.25,0.11,0.36,0.18c0.04,0.02,0.08,0.04,0.12,0.07c-0.05,0.02-0.1,0.05-0.16,0.08
		c-0.07,0.03-0.14,0.07-0.21,0.09c-0.06,0.02-0.14-0.01-0.19,0.02c-0.02,0.01-0.05,0.04-0.08,0.06c-0.08,0.04-0.14,0.13-0.24,0.14
		c-0.09,0.01-0.16,0.04-0.23,0.07c-0.02,0.01-0.03,0.01-0.05,0.02c-0.02,0.01-0.05,0-0.07,0.01c-0.03,0.02-0.06,0.01-0.05,0.13
		C27,8.97,27.07,9.2,27.16,9.38c0.04,0.09,0.09,0.15,0.13,0.2c0.01,0.02,0.03,0.03,0.04,0.04c0.04,0.04,0.06,0.01,0.08-0.01
		c0.01-0.01,0.02-0.01,0.03-0.02c0.03,0,0.06,0,0.1,0c0.03,0,0.07-0.01,0.1-0.03c0.07-0.03,0.19-0.16,0.26-0.18
		c0.05-0.01,0.12,0,0.17-0.01c0.01,0,0.02,0,0.02,0c0.13-0.01,0.21-0.14,0.32-0.2c0.09-0.04,0.16-0.03,0.24-0.03
		c0.05-0.02,0.11-0.04,0.17-0.06c0.06-0.02,0.12-0.05,0.19-0.08c0.06-0.03,0.14-0.07,0.23-0.11c0.03-0.02,0.07-0.03,0.1-0.05
		c0.04,0.02,0.07,0.04,0.11,0.06c0.41,0.23,0.83,0.46,1.23,0.71c0.09,0.06,0.18,0.12,0.28,0.18c-0.4,0.25-0.78,0.51-1.23,0.74
		c-0.19,0.1-0.36,0.19-0.53,0.29c-0.06-0.03-0.12-0.06-0.18-0.08c-0.13-0.05-0.26-0.11-0.39-0.16c-0.06-0.02-0.12-0.04-0.18-0.06
		c-0.07-0.02-0.15-0.04-0.21-0.08c-0.05-0.03-0.09-0.11-0.15-0.12c-0.03-0.01-0.06-0.01-0.1-0.01c-0.09-0.03-0.19-0.01-0.27-0.07
		c-0.07-0.05-0.14-0.08-0.21-0.11c-0.02-0.01-0.03-0.01-0.05-0.02c-0.02-0.01-0.04-0.04-0.06-0.04c-0.03-0.01-0.05-0.03-0.12,0.06
		c-0.08,0.1-0.19,0.31-0.25,0.5c-0.03,0.09-0.04,0.17-0.05,0.23c0,0.02,0,0.04,0,0.06c0,0.06,0.04,0.05,0.07,0.05
		c0.01,0,0.02,0,0.03,0.01c0.02,0.02,0.04,0.04,0.07,0.06c0.03,0.02,0.06,0.04,0.09,0.05c0.07,0.02,0.24,0.02,0.31,0.05
		c0.05,0.03,0.08,0.08,0.13,0.11c0.01,0,0.01,0.01,0.02,0.01c0.1,0.08,0.25,0.04,0.37,0.08c0.05,0.02,0.08,0.04,0.11,0.06
		c0,0-0.01,0-0.01,0.01c-0.12,0.07-0.27,0.13-0.39,0.2c-0.19,0.11-0.33,0.18-0.45,0.37c-0.14,0.22-0.15,0.5,0.04,0.62
		c0.09,0.06,0.21,0.08,0.34,0.07c0.05,0,0.09-0.01,0.14-0.02c0.16-0.03,0.3-0.14,0.43-0.23c0.05-0.04,0.11-0.07,0.16-0.1
		c0.06-0.03,0.13-0.07,0.19-0.1c0,0,0,0,0,0.01c-0.01,0.08,0.04,0.24,0.02,0.31c-0.01,0.05-0.06,0.1-0.08,0.15
		c0,0.01-0.01,0.01-0.01,0.02c-0.05,0.12,0.02,0.25,0.01,0.38c-0.01,0.1-0.06,0.15-0.09,0.23c-0.01,0.02-0.01,0.03-0.02,0.05
		s-0.03,0.04-0.03,0.06c0,0.03,0.06,0.12,0.21,0.16c0.16,0.04,0.27,0.07,0.45,0.09c0.08,0.01,0.26-0.01,0.31-0.02
		c0.08-0.01,0.07-0.05,0.05-0.08c-0.01-0.02-0.02-0.05-0.02-0.07c0-0.02,0-0.04,0.01-0.05c0.01-0.06,0.01-0.12,0.01-0.19
		c0.01-0.08,0.01-0.15,0.03-0.23c0.02-0.06,0.08-0.11,0.08-0.18c0-0.03-0.01-0.06-0.01-0.1c0-0.09-0.04-0.18,0-0.28
		c0.03-0.08,0.05-0.16,0.05-0.23c0.02-0.21,0.05-0.41,0.07-0.63c0.43-0.27,1.08-0.7,1.45-0.91c0.1-0.05,0.2-0.1,0.3-0.15
		c0.02,0.48,0.05,0.94,0.03,1.46c-0.01,0.2-0.01,0.38-0.02,0.56c-0.02,0.01-0.04,0.03-0.06,0.05c-0.06,0.04-0.12,0.08-0.18,0.12
		c-0.12,0.07-0.22,0.14-0.34,0.21c-0.03,0.01-0.06,0.03-0.09,0.06c-0.06,0.05-0.14,0.2-0.2,0.24c-0.05,0.03-0.11,0.03-0.16,0.05
		c-0.01,0-0.01,0.01-0.02,0.01c-0.12,0.05-0.16,0.2-0.25,0.28c-0.07,0.07-0.15,0.07-0.22,0.1c-0.02,0.01-0.03,0.01-0.05,0.02
		c-0.02,0.01-0.05,0.01-0.06,0.02c-0.03,0.02-0.04,0.12,0.04,0.26c0.09,0.15,0.14,0.24,0.26,0.38c0.05,0.06,0.19,0.17,0.23,0.21
		c0.06,0.05,0.08,0.01,0.09-0.02c0.01-0.03,0.02-0.05,0.03-0.06c0.01-0.01,0.03-0.02,0.04-0.03c0.05-0.04,0.09-0.08,0.14-0.13
		c0.06-0.05,0.11-0.11,0.18-0.14c0.05-0.03,0.14-0.03,0.18-0.07c0.02-0.02,0.04-0.05,0.06-0.08c0.07-0.06,0.1-0.16,0.19-0.2
		c0.07-0.03,0.12-0.07,0.17-0.11c0,0.02,0,0.04,0,0.07c0,0.14-0.02,0.3-0.02,0.44c0,0.22-0.01,0.37,0.1,0.58
		c0.12,0.23,0.36,0.38,0.56,0.28c0.1-0.05,0.17-0.15,0.23-0.26c0.02-0.04,0.04-0.09,0.06-0.13c0.05-0.15,0.03-0.33,0.02-0.49
		c0-0.06-0.01-0.13,0-0.19c0-0.08,0.01-0.15,0.01-0.23c0.01,0,0.01,0.01,0.02,0.01c0.06,0.04,0.13,0.08,0.18,0.14
		c0.04,0.04,0.06,0.13,0.11,0.16c0.02,0.01,0.06,0.03,0.09,0.04c0.08,0.05,0.18,0.06,0.24,0.14c0.05,0.07,0.11,0.12,0.17,0.16
		c0.01,0.01,0.03,0.02,0.04,0.03c0.02,0.01,0.03,0.05,0.04,0.06c0.03,0.02,0.04,0.04,0.13-0.02c0.1-0.07,0.27-0.25,0.38-0.41
		c0.05-0.08,0.09-0.15,0.11-0.21c0.01-0.02,0.01-0.04,0.02-0.06c0.01-0.06-0.02-0.06-0.05-0.06c-0.01,0-0.02-0.01-0.03-0.02
		c-0.02-0.03-0.03-0.05-0.05-0.08c-0.02-0.03-0.04-0.05-0.08-0.08c-0.06-0.04-0.23-0.08-0.28-0.14c-0.04-0.04-0.06-0.1-0.09-0.14
		c0-0.01-0.01-0.01-0.01-0.02c-0.08-0.11-0.23-0.11-0.33-0.18c-0.08-0.06-0.1-0.13-0.15-0.19c-0.04-0.04-0.09-0.08-0.14-0.12
		c-0.05-0.04-0.1-0.08-0.16-0.13c-0.04-0.03-0.09-0.06-0.14-0.1c-0.02-0.51-0.07-1.29-0.06-1.7c0-0.11,0.01-0.23,0.02-0.34
		c0.42,0.23,0.84,0.43,1.28,0.7c0.14,0.09,0.27,0.17,0.4,0.25c0,0.03,0.01,0.07,0.01,0.1c0.01,0.08,0.01,0.15,0.01,0.21
		c0.01,0.14,0.01,0.26,0.02,0.4c0,0.03-0.01,0.07,0,0.11c0.02,0.07,0.11,0.22,0.11,0.3c0,0.05-0.03,0.11-0.03,0.16
		c0,0.01,0,0.01,0,0.02c-0.02,0.13,0.09,0.24,0.12,0.36c0.02,0.1-0.01,0.16-0.03,0.24c0,0.02,0,0.03,0,0.05
		c0,0.02-0.01,0.05-0.01,0.07c0.01,0.03,0.09,0.1,0.24,0.09c0.17,0,0.28,0,0.46-0.04c0.08-0.02,0.25-0.08,0.29-0.1
		c0.07-0.03,0.05-0.07,0.03-0.09c-0.02-0.02-0.03-0.04-0.04-0.06c0-0.02-0.01-0.04-0.01-0.05c-0.01-0.06-0.03-0.12-0.04-0.18
		c-0.02-0.07-0.04-0.15-0.04-0.23c0-0.06,0.05-0.13,0.03-0.19c-0.01-0.03-0.02-0.06-0.04-0.09c-0.02-0.09-0.09-0.17-0.08-0.27
		c0.01-0.08,0-0.16-0.01-0.23c0.04,0.02,0.09,0.05,0.13,0.07c0.12,0.07,0.25,0.17,0.37,0.24c0.19,0.11,0.32,0.19,0.55,0.21
		c0.26,0.01,0.51-0.12,0.52-0.34c0.01-0.11-0.04-0.22-0.11-0.33c-0.03-0.04-0.05-0.08-0.08-0.11c-0.1-0.12-0.27-0.19-0.41-0.26
		c-0.06-0.03-0.11-0.06-0.17-0.09c-0.08-0.05-0.16-0.11-0.24-0.16c0.07-0.03,0.13-0.07,0.21-0.09c0.06-0.02,0.14,0.01,0.19-0.02
		c0.02-0.01,0.05-0.04,0.08-0.06c0.08-0.04,0.14-0.13,0.24-0.14c0.09-0.01,0.16-0.04,0.23-0.07c0.02-0.01,0.03-0.01,0.05-0.02
		c0.02-0.01,0.05,0,0.07-0.01c0.03-0.02,0.06-0.01,0.05-0.13c-0.01-0.13-0.08-0.36-0.17-0.53c-0.04-0.09-0.09-0.15-0.13-0.2
		c-0.01-0.02-0.03-0.03-0.04-0.04c-0.04-0.04-0.06-0.01-0.08,0.01c-0.01,0.01-0.02,0.01-0.03,0.02c-0.03,0-0.06,0-0.1,0
		c-0.03,0-0.07,0.01-0.1,0.03c-0.07,0.03-0.19,0.16-0.26,0.18c-0.05,0.01-0.12,0-0.17,0.01c-0.01,0-0.02,0-0.02,0
		c-0.13,0.01-0.21,0.14-0.32,0.2c-0.09,0.04-0.16,0.03-0.24,0.03c-0.05,0.02-0.11,0.04-0.17,0.06c-0.06,0.02-0.12,0.05-0.19,0.08
		c-0.04,0.02-0.09,0.04-0.14,0.06c-0.45-0.24-1.11-0.56-1.45-0.77c-0.09-0.06-0.19-0.12-0.28-0.18c0.41-0.26,0.82-0.53,1.23-0.77
		c0.13-0.08,0.24-0.14,0.35-0.2c0.09,0.04,0.18,0.08,0.26,0.12c0.13,0.05,0.26,0.11,0.39,0.16c0.06,0.02,0.12,0.04,0.18,0.06
		c0.07,0.02,0.15,0.04,0.21,0.08c0.05,0.03,0.09,0.11,0.15,0.12c0.03,0.01,0.06,0.01,0.1,0.01c0.09,0.03,0.19,0.01,0.27,0.07
		c0.07,0.05,0.14,0.08,0.21,0.11c0.02,0.01,0.03,0.01,0.05,0.02c0.02,0.01,0.04,0.04,0.06,0.04c0.03,0.01,0.05,0.03,0.12-0.06
		c0.08-0.1,0.19-0.31,0.25-0.5c0.03-0.09,0.04-0.17,0.05-0.23c0-0.02,0-0.04,0-0.06C36.78,8.73,36.74,8.74,36.71,8.74z"/>
</g>
</svg>
