<?xml version="1.0" encoding="utf-8"?>
<!-- Generator: Adobe Illustrator 24.0.2, SVG Export Plug-In . SVG Version: 6.00 Build 0)  -->
<svg version="1.1" id="레이어_1" xmlns="http://www.w3.org/2000/svg" xmlns:xlink="http://www.w3.org/1999/xlink" x="0px"
	 y="0px" viewBox="0 0 42 42" style="enable-background:new 0 0 42 42;" xml:space="preserve">
<style type="text/css">
	.st0{fill:#202020;}
</style>
<g id="그룹_15774" transform="translate(236.026 -3.974)">
	<path id="패스_11965" class="st0" d="M-202.23,32.02c-0.36-0.13-0.74-0.18-1.12-0.13c-0.16,0.02-0.32,0.06-0.47,0.12
		c-0.04,0.02-0.08,0.04-0.11,0.06c-0.11,0.07-0.06,0.16-0.04,0.23c0.01,0.03,0.01,0.06,0.01,0.09c-0.02,0.09-0.05,0.17-0.07,0.26
		l-0.02,0.47c0,0.16,0,0.34,0,0.53l0,0v0.01v0.1v0.03l-0.01,0.04l-0.01,0.03l-0.02,0.03l-0.02,0.02l-0.02,0.02l-0.02,0.02
		l-0.03,0.01l-0.03,0.01l-0.03,0.01l-0.06,0.01h-0.07l-0.91-0.07c-0.26-0.02-0.53-0.03-0.87-0.03c-0.62,0.01-1.88,0.15-2.49,0.13
		c-0.43-0.01-0.86-0.09-1.28-0.11l-0.17-0.01c-1-0.07-2.01,0.11-3.02,0.13c-0.64,0-1.29-0.04-1.92-0.12
		c-0.26-0.02-0.53-0.03-0.87-0.03c-0.62,0.01-1.88,0.15-2.49,0.13c-0.43-0.01-0.86-0.09-1.28-0.11l-0.17-0.01
		c-1-0.07-2.01,0.11-3.02,0.13c-0.64,0-1.28-0.04-1.92-0.12l-0.47-0.02h-0.52h-0.01h-0.1h-0.03l-0.04-0.01l-0.03-0.01l-0.03-0.02
		l-0.02-0.02l-0.02-0.02l-0.02-0.02l-0.01-0.03l-0.01-0.03l-0.01-0.03l-0.01-0.06v-0.06l0.07-0.91c0.01-0.05,0.02-0.1,0.02-0.15
		c0.02-0.06,0.03-0.12,0.04-0.19c-0.06-0.21-0.24-0.35-0.46-0.37c-0.3-0.07-0.61-0.09-0.93-0.07c-0.21,0.04-0.41,0.09-0.61,0.17
		c-0.15,0.06-0.12,0.18-0.08,0.25c0.03,0.06,0.05,0.12,0.05,0.19c0,0.05,0,0.11,0,0.16c0.01,0.58,0.02,1.15,0.03,1.74l0.01,0.18
		l0.01,0.18l0.02,0.18l0.03,0.17l0.04,0.16l0.02,0.07l0.03,0.07l0.03,0.06l0.03,0.05l0.04,0.04l0.02,0.02l0.02,0.02l0.08,0.06
		l0.09,0.04l0.09,0.03l0,0l0.01,0.01l0.07,0.03l0.13,0.03l0.11,0.02l0.08,0.01l0.58,0.03l0.56,0.01h1.07
		c0.5-0.01,0.99-0.02,1.51-0.03c0.62-0.01,1.23-0.03,1.85-0.01c0.5,0.01,1.01,0.13,1.51,0.11c0.21,0,0.5-0.03,0.76-0.05
		c0.74-0.02,1.43-0.13,2.21-0.08c0.69,0.05,1.31,0.05,1.92,0.04c0.5-0.01,0.99-0.02,1.51-0.03c0.62-0.01,1.23-0.03,1.85-0.01
		c0.5,0.01,1.01,0.13,1.51,0.11c0.21,0,0.5-0.03,0.76-0.05c0.74-0.02,1.43-0.13,2.21-0.08c0.69,0.05,1.31,0.05,1.92,0.04l1.74-0.03
		l0.18-0.01l0.18-0.01l0.18-0.02l0.17-0.03l0.16-0.04l0.07-0.02l0.07-0.03l0.06-0.03l0.05-0.03l0.04-0.04l0.02-0.02l0.02-0.02
		l0.05-0.08l0.04-0.08l0.03-0.09l0,0v-0.01l0.02-0.07l0.03-0.13l0.02-0.11l0.01-0.08c0.01-0.2,0.02-0.39,0.03-0.58l0.01-0.56v-1.08
		c0-0.05,0-0.1-0.01-0.15c-0.01-0.05,0.04-0.14,0.04-0.21C-202.04,32.2-202.02,32.12-202.23,32.02z"/>
	<path id="패스_11966" class="st0" d="M-228.52,12.53c0.67,0.44,1.52,0.54,2.27,0.26c0.51-0.18,0.95-0.51,1.26-0.94
		c0.28-0.38,0.45-0.84,0.47-1.32c0.02-0.48-0.11-0.95-0.36-1.35c-0.38-0.57-0.97-0.95-1.64-1.06c-0.65-0.1-1.31,0.05-1.86,0.41
		c-0.59,0.36-1,0.94-1.14,1.62c-0.02,0.09-0.03,0.18-0.04,0.28C-229.62,11.27-229.22,12.07-228.52,12.53z M-227.5,10.28
		c0.08-0.27,0.35-0.42,0.62-0.34c0.02,0,0.03,0.01,0.05,0.02c0.21,0.11,0.35,0.33,0.36,0.57c0.01,0.19-0.08,0.37-0.23,0.49
		c-0.19,0.15-0.46,0.15-0.66,0.01c-0.12-0.13-0.17-0.31-0.15-0.49C-227.52,10.45-227.52,10.37-227.5,10.28z"/>
	<path id="패스_11967" class="st0" d="M-204.51,12.53c0.67,0.44,1.52,0.54,2.27,0.26c0.51-0.18,0.95-0.51,1.26-0.94
		c0.28-0.38,0.45-0.84,0.47-1.32c0.02-0.48-0.11-0.95-0.36-1.35c-0.38-0.57-0.97-0.95-1.64-1.06c-0.65-0.1-1.31,0.05-1.86,0.41
		c-0.59,0.36-1,0.94-1.14,1.62c-0.02,0.09-0.03,0.18-0.04,0.28C-205.61,11.27-205.21,12.07-204.51,12.53z M-203.49,10.28
		c0.08-0.27,0.35-0.42,0.62-0.34c0.02,0,0.03,0.01,0.05,0.02c0.21,0.11,0.35,0.33,0.36,0.57c0.01,0.19-0.08,0.37-0.23,0.49
		c-0.19,0.15-0.46,0.15-0.66,0.01c-0.12-0.13-0.17-0.31-0.15-0.49C-203.51,10.45-203.51,10.37-203.49,10.28z"/>
	<path id="패스_11968" class="st0" d="M-220.77,11.32c0.05,0.04,0.09,0.08,0.15,0.11c0.17,0.08,0.36,0.09,0.54,0.04
		c0.07-0.01,0.14-0.01,0.21-0.01c0.21,0.02,0.41,0.05,0.62,0.07c0.25,0.02,0.5,0.03,0.75,0.02c0.53-0.01,1.62-0.15,2.15-0.14
		c0.37,0.01,0.74,0.09,1.11,0.11l0.15,0.01c0.87,0,1.74-0.04,2.61-0.13c0.56,0,1.11,0.04,1.66,0.12c0.11,0.01,0.23,0.02,0.35,0.02
		s0.3,0.04,0.45,0.04c0.35,0,0.68-0.17,0.87-0.46c0.16-0.28,0.22-0.61,0.17-0.93c-0.1-0.23-0.24-0.43-0.41-0.61
		c-0.18-0.12-0.4-0.15-0.6-0.08c-0.15,0.04-0.3,0.05-0.45,0.06h-0.38c-0.43,0.01-0.86,0.02-1.3,0.03c-0.53,0.01-1.07,0.03-1.6,0.01
		c-0.43-0.02-0.87-0.13-1.3-0.11c-0.18,0.01-0.43,0.03-0.66,0.05c-0.63,0.06-1.27,0.09-1.91,0.07c-0.6-0.05-1.13-0.05-1.66-0.05
		l-0.36,0.01c-0.15,0-0.34-0.04-0.49-0.04c-0.24-0.04-0.48,0.04-0.65,0.19c-0.29,0.29-0.41,0.72-0.32,1.12
		C-221.01,11.03-220.91,11.19-220.77,11.32z"/>
	<path id="패스_11969" class="st0" d="M-195,17.53c-0.01-0.65-0.15-1.97-0.13-2.61c0.01-0.45,0.09-0.9,0.11-1.34
		c0-0.06,0.01-0.12,0.01-0.18c0.07-1.05-0.11-2.11-0.13-3.16c0-0.67,0.04-1.34,0.12-2.01l0.02-0.47V7.23l-0.03-0.66
		c-0.01-0.23-0.03-0.49-0.05-0.74V5.81V5.77l0,0V5.75l-0.01-0.06l-0.01-0.06l-0.02-0.05l-0.02-0.05l-0.02-0.05l-0.03-0.04
		l-0.03-0.04l-0.03-0.04l-0.03-0.03l-0.03-0.03l-0.07-0.05l-0.08-0.04l-0.08-0.03l-0.08-0.03l-0.08-0.02l-0.08-0.01l-0.15-0.01
		h-0.45l-0.31-0.01l-0.55-0.03l-1.03-0.08c-0.29-0.02-0.61-0.03-0.99-0.03c-0.71,0.01-2.15,0.15-2.85,0.14
		c-0.49-0.01-0.98-0.09-1.47-0.11l-0.2-0.01c-1.15-0.07-2.3,0.11-3.45,0.13c-0.93,0.01-1.49-0.07-2.2-0.12
		c-0.29-0.02-0.61-0.03-0.99-0.03c-0.71,0.01-2.15,0.15-2.85,0.14c-0.49-0.01-0.98-0.09-1.47-0.11l-0.2-0.01
		c-1.15-0.07-2.3,0.11-3.45,0.13c-0.93,0.01-1.49-0.07-2.2-0.12c-0.29-0.02-0.61-0.03-0.99-0.03c-0.71,0.01-2.15,0.15-2.85,0.14
		c-0.49-0.01-0.98-0.09-1.47-0.11l-0.2-0.01c-1.15-0.07-2.3,0.11-3.46,0.13c-0.93,0.01-1.49-0.07-2.2-0.12l-0.47-0.02h-0.53
		l-0.66,0.03l-0.74,0.05h-0.01h-0.04l0,0h-0.02l-0.06,0.01l-0.06,0.01l-0.05,0.02l-0.05,0.02l-0.05,0.02l-0.04,0.03l-0.04,0.03
		l-0.04,0.03l-0.03,0.03l-0.03,0.03l-0.05,0.07l-0.04,0.08l-0.04,0.08l-0.03,0.08l-0.02,0.08l-0.01,0.08l-0.01,0.15v0.45l-0.01,0.31
		l-0.03,0.55l-0.08,1.03c-0.02,0.27-0.03,0.56-0.02,0.91c0.01,0.64,0.15,1.97,0.13,2.61c-0.01,0.45-0.09,0.9-0.11,1.34
		c0,0.06-0.01,0.12-0.01,0.18c-0.07,1.05,0.11,2.11,0.13,3.16c0,0.67-0.04,1.34-0.12,2.01c-0.02,0.27-0.03,0.56-0.02,0.91
		c0.01,0.65,0.15,1.96,0.13,2.61c-0.01,0.45-0.09,0.9-0.11,1.34c0,0.06-0.01,0.12-0.01,0.18c-0.07,1.05,0.11,2.11,0.13,3.16
		c0,0.67-0.04,1.34-0.12,2.01c-0.02,0.27-0.03,0.56-0.02,0.91c0.01,0.65,0.15,1.97,0.13,2.61c-0.01,0.45-0.09,0.9-0.11,1.34
		c0,0.06-0.01,0.12-0.01,0.18c-0.07,1.05,0.11,2.11,0.13,3.16c0,0.67-0.04,1.34-0.12,2.01l-0.02,0.47v0.53l0.03,0.66
		c0.01,0.23,0.03,0.49,0.05,0.74v0.01v0.04l0,0v0.02l0.01,0.06l0.01,0.06l0.02,0.05l0.02,0.05l0.02,0.05l0.03,0.04l0.03,0.04
		l0.03,0.04l0.03,0.03l0.03,0.03l0.07,0.05l0.08,0.04l0.08,0.03l0.08,0.03l0.08,0.02l0.08,0.01l0.15,0.01h0.12h0.33l0.31,0.01
		l0.55,0.03l1.03,0.08c0.12,0.01,0.24,0.01,0.37,0.02v0.06v0.53l0.03,0.62v0.02l0,0v0.02c0.01,0.23,0.03,0.49,0.05,0.74v0.01v0.04
		l0,0v0.02l0.01,0.06l0.01,0.06l0.02,0.05l0.02,0.05l0.02,0.05l0.02,0.04l0.03,0.04l0.03,0.04l0.03,0.03l0.03,0.03l0.07,0.05
		l0.08,0.04l0.08,0.03l0.08,0.03l0.08,0.02l0.08,0.01l0.15,0.01h0.45l0.31,0.01l0.55,0.03l0.64,0.05v0.03l0.47,0.02h0.53l0.66-0.03
		l0.74-0.05h0.01h0.04l0,0h0.02l0.06-0.01l0.06-0.01l0.05-0.02l0.05-0.02l0.05-0.02l0.04-0.03l0.04-0.03l0.04-0.03l0.03-0.03
		l0.03-0.03l0.05-0.07l0.04-0.08l0.04-0.08l0.03-0.08l0.02-0.08l0.01-0.08l0.01-0.15v-0.45l0.01-0.24h0.11l0.02-0.47v-0.53
		l-0.01-0.23c0.82-0.03,1.63-0.12,2.45-0.13c0.93-0.01,1.49,0.07,2.2,0.12c0.29,0.02,0.61,0.03,0.99,0.03
		c0.71-0.01,2.15-0.15,2.85-0.13c0.49,0.01,0.98,0.09,1.47,0.11l0.2,0.01c1.15,0.07,2.3-0.11,3.45-0.13
		c0.93-0.01,1.49,0.07,2.2,0.12c0.29,0.02,0.61,0.03,0.99,0.03c0.71-0.01,2.15-0.15,2.85-0.13c0.47,0.01,0.93,0.08,1.4,0.1v0.08
		v0.53l0.03,0.62v0.02l0,0v0.02c0.01,0.23,0.03,0.49,0.05,0.74v0.01v0.04l0,0v0.02l0.01,0.06l0.01,0.06l0.02,0.05l0.02,0.05
		l0.02,0.05l0.03,0.04l0.03,0.04l0.03,0.04l0.03,0.03l0.03,0.03l0.07,0.05l0.08,0.04l0.08,0.03l0.08,0.03l0.08,0.02l0.08,0.01
		l0.15,0.01h0.45l0.3,0.01l0.55,0.03l0.64,0.05v0.03l0.47,0.02h0.53l0.66-0.03l0.74-0.05h0.01h0.04l0,0h0.02l0.06-0.01l0.06-0.01
		l0.05-0.02l0.05-0.02l0.05-0.02l0.04-0.03l0.04-0.03l0.04-0.03l0.03-0.03l0.03-0.03l0.05-0.07l0.04-0.08l0.04-0.08l0.03-0.08
		l0.02-0.08l0.01-0.08l0.01-0.15v-0.12v-0.33l0.01-0.24h0.11l0.02-0.47v-0.53l-0.01-0.24l0.25,0.01h0.53l0.66-0.03l0.74-0.05h0.01
		h0.04l0,0h0.02l0.06-0.01l0.06-0.01l0.05-0.02l0.05-0.02l0.05-0.02l0.04-0.03l0.04-0.03l0.04-0.03l0.03-0.03l0.03-0.03l0.05-0.07
		l0.04-0.08l0.04-0.08l0.03-0.08l0.02-0.08l0.01-0.08l0.01-0.15v-0.45l0.01-0.31l0.03-0.55l0.08-1.03c0.02-0.27,0.03-0.56,0.02-0.91
		c-0.01-0.65-0.15-1.97-0.13-2.61c0.01-0.45,0.09-0.9,0.11-1.34c0-0.06,0.01-0.12,0.01-0.18c0.07-1.05-0.11-2.11-0.13-3.16
		c0.01-0.68,0.05-1.35,0.13-2.02c0.02-0.27,0.03-0.56,0.02-0.91c-0.01-0.65-0.15-1.97-0.13-2.61c0.01-0.45,0.09-0.9,0.11-1.34
		c0-0.06,0.01-0.12,0.01-0.18c0.07-1.05-0.11-2.11-0.13-3.16c0-0.67,0.04-1.34,0.12-2.01C-195.01,18.18-195,17.88-195,17.53z
		 M-233.08,7.23V7.18l0.01-0.04l0.01-0.04l0.01-0.03l0.02-0.03l0.02-0.03l0.03-0.02l0.03-0.02l0.03-0.02l0.04-0.01l0.04-0.01
		l0.04-0.01h0.06h0.96c0.57-0.01,1.14-0.02,1.73-0.03c0.71-0.01,1.41-0.03,2.12-0.01c0.57,0.01,1.15,0.13,1.72,0.11
		c0.24,0,0.58-0.03,0.87-0.05c0.85-0.02,1.63-0.13,2.52-0.07c0.79,0.05,1.5,0.05,2.2,0.04c0.57-0.01,1.14-0.02,1.73-0.03
		c0.71-0.01,1.41-0.03,2.12-0.01c0.58,0.01,1.15,0.13,1.72,0.11c0.24,0,0.58-0.03,0.87-0.05c0.85-0.02,1.63-0.13,2.53-0.07
		c0.79,0.05,1.5,0.05,2.2,0.04c0.57-0.01,1.14-0.02,1.73-0.03c0.71-0.01,1.41-0.03,2.12-0.01c0.58,0.01,1.15,0.13,1.72,0.11
		c0.24,0,0.58-0.03,0.87-0.05c0.85-0.02,1.63-0.13,2.53-0.07c0.79,0.05,1.5,0.05,2.2,0.04l1-0.01h0.04l0.04,0.01l0.04,0.01
		l0.03,0.01l0.03,0.02l0.02,0.02l0.02,0.03l0.02,0.03l0.02,0.03l0.01,0.04l0.01,0.04l0.01,0.04v0.06v0.14l0,0v0.82
		c0,0.52,0.02,1.04,0.03,1.58c0.01,0.64,0.03,1.29,0.01,1.94c-0.01,0.53-0.13,1.05-0.11,1.58c0,0.22,0.03,0.53,0.05,0.8
		c0,0.09,0.01,0.18,0.01,0.27c-0.13,0-0.26,0.02-0.38,0.03c-0.09,0.01-0.19,0.01-0.28,0.01c-0.27-0.02-0.53-0.05-0.82-0.07
		s-0.6-0.03-0.98-0.02c-0.7,0.01-2.12,0.15-2.82,0.14c-0.49-0.01-0.97-0.09-1.45-0.11l-0.19-0.01c-1.14-0.07-2.27,0.11-3.41,0.13
		c-0.92,0.01-1.47-0.07-2.17-0.12c-0.29-0.02-0.6-0.03-0.98-0.02c-0.7,0.01-2.12,0.15-2.82,0.14c-0.49-0.01-0.97-0.09-1.45-0.11
		l-0.19-0.01c-1.14-0.07-2.27,0.11-3.41,0.13c-0.92,0.01-1.47-0.07-2.17-0.12c-0.29-0.02-0.6-0.03-0.98-0.02
		c-0.7,0.01-2.12,0.15-2.82,0.14c-0.49-0.01-0.97-0.09-1.45-0.11l-0.2-0.01c-1.14-0.07-2.27,0.11-3.41,0.13
		c-0.92,0.01-1.47-0.07-2.17-0.12c-0.15-0.01-0.3-0.02-0.46-0.02s-0.4-0.04-0.58-0.04c-0.15,0.01-0.3,0.03-0.44,0.07
		c0.04-0.34,0.07-0.68,0.07-1.02c0-0.22-0.03-0.53-0.05-0.8c-0.02-0.77-0.13-1.49-0.07-2.31c0.05-0.72,0.05-1.37,0.04-2.01
		L-233.08,7.23z M-228.14,43.02h-0.39v0.01l-0.61,0.01h-0.04l-0.04-0.01l-0.04-0.01l-0.03-0.01l-0.03-0.02l-0.02-0.02l-0.02-0.03
		l-0.02-0.03l-0.01-0.03l-0.01-0.04l-0.01-0.04l-0.01-0.04v-0.06v-0.14l0,0v-0.28v-0.01l0.01-0.03l0.02-0.03l0.02-0.03l0.03-0.02
		l0.03-0.02l0.03-0.02l0.04-0.01l0.04-0.01l0.04-0.01h0.06h0.96v-0.01l0.61-0.01h0.04l0.04,0.01l0.04,0.01l0.03,0.01l0.03,0.02
		l0.02,0.02l0.02,0.03l0.02,0.03l0.02,0.03l0.01,0.04l0.01,0.04l0.01,0.04v0.06v0.14l0,0v0.28v0.01l-0.01,0.03l-0.02,0.03
		l-0.02,0.03l-0.03,0.02l-0.03,0.02l-0.03,0.02l-0.04,0.01l-0.04,0.01l-0.04,0.01h-0.06L-228.14,43.02L-228.14,43.02z
		 M-200.94,43.02h-0.39v0.01l-0.61,0.01h-0.04l-0.04-0.01l-0.04-0.01l-0.03-0.01l-0.03-0.02l-0.02-0.02l-0.02-0.03l-0.02-0.03
		l-0.01-0.03l-0.01-0.04l-0.01-0.04l-0.01-0.04v-0.06v-0.14l0,0v-0.28v-0.01l0.01-0.03l0.02-0.03l0.02-0.03l0.03-0.02l0.03-0.02
		l0.03-0.02l0.04-0.01l0.04-0.01h0.03l0.09-0.01h0.95v-0.01l0.61-0.01h0.04l0.04,0.01l0.04,0.01l0.03,0.01l0.03,0.02l0.02,0.02
		l0.02,0.03l0.02,0.03l0.02,0.03l0.01,0.04l0.01,0.04l0.01,0.04v0.06v0.14l0,0v0.28v0.01l-0.01,0.03l-0.02,0.03l-0.02,0.03
		l-0.03,0.02l-0.03,0.02l-0.03,0.02l-0.04,0.01l-0.04,0.01l-0.04,0.01h-0.06L-200.94,43.02L-200.94,43.02z M-196.96,20.02
		c0.01,0.65,0.03,1.29,0.01,1.94c-0.01,0.53-0.13,1.05-0.11,1.58c0,0.22,0.03,0.53,0.05,0.8c0.02,0.77,0.13,1.5,0.07,2.31
		c-0.05,0.72-0.05,1.37-0.04,2.01c0,0.52,0.02,1.04,0.03,1.58c0.01,0.65,0.03,1.29,0.01,1.94c-0.01,0.53-0.13,1.05-0.11,1.58
		c0,0.22,0.03,0.53,0.05,0.8c0.02,0.77,0.13,1.5,0.07,2.31c-0.05,0.72-0.05,1.37-0.04,2.01l0.01,1v0.04l-0.01,0.04l-0.01,0.04
		l-0.01,0.03l-0.02,0.03l-0.02,0.03l-0.03,0.02l-0.03,0.02l-0.03,0.01l-0.04,0.01l-0.04,0.01l-0.04,0.01h-0.06h-0.14h-0.82
		c-0.57,0.01-1.14,0.02-1.73,0.03c-0.15,0-0.29,0-0.44,0l-0.49-0.04v-0.03l-0.47-0.02h-0.53l-0.66,0.03l-0.26,0.02
		c-0.33-0.04-0.67-0.06-1-0.06c-0.24,0.01-0.58,0.03-0.87,0.05c-0.85,0.02-1.63,0.13-2.52,0.08c-0.79-0.05-1.5-0.05-2.2-0.04
		c-0.57,0.01-1.14,0.02-1.73,0.03c-0.71,0.01-1.41,0.03-2.12,0.01c-0.58-0.02-1.15-0.13-1.72-0.12c-0.24,0.01-0.58,0.03-0.87,0.05
		c-0.85,0.02-1.63,0.13-2.53,0.08c-0.79-0.05-1.5-0.05-2.2-0.04c-0.57,0.01-1.14,0.02-1.73,0.03c-0.71,0.01-1.41,0.03-2.12,0.01
		c-0.58-0.02-1.15-0.13-1.72-0.12c-0.24,0.01-0.58,0.03-0.87,0.05s-0.57,0.02-0.85,0.04l-0.23-0.02v-0.03l-0.47-0.02h-0.53
		l-0.66,0.03l-0.72,0.05c-0.43-0.01-0.85-0.01-1.26-0.01l-1,0.01h-0.04l-0.04-0.01l-0.04-0.01l-0.03-0.01l-0.03-0.02l-0.02-0.02
		l-0.02-0.03l-0.02-0.03l-0.02-0.03l-0.01-0.04l-0.01-0.04l-0.01-0.04v-0.06V39.7l0,0v-0.82c0-0.52-0.02-1.04-0.03-1.58
		c-0.01-0.65-0.03-1.29-0.01-1.94c0.01-0.53,0.13-1.05,0.11-1.58c0-0.22-0.03-0.53-0.05-0.8c-0.02-0.77-0.13-1.5-0.07-2.31
		c0.05-0.72,0.05-1.37,0.04-2.01c0-0.52-0.02-1.04-0.03-1.58c-0.01-0.65-0.03-1.29-0.01-1.94c0.01-0.53,0.13-1.05,0.11-1.58
		c0-0.22-0.03-0.53-0.05-0.8c-0.02-0.77-0.13-1.5-0.07-2.31c0.05-0.72,0.05-1.37,0.04-2.01c0-0.52-0.02-1.04-0.03-1.58
		c0-0.15,0-0.3,0-0.45c0.14,0.01,0.29,0,0.43-0.03c0.2-0.04,0.39-0.05,0.59-0.06c0.17,0,0.33,0,0.5,0c0.57-0.01,1.12-0.02,1.71-0.03
		c0.7-0.01,1.4-0.03,2.09-0.01c0.57,0.02,1.14,0.13,1.7,0.11c0.24,0,0.57-0.03,0.86-0.05c0.84-0.02,1.62-0.13,2.49-0.08
		c0.78,0.05,1.48,0.05,2.17,0.04c0.57-0.01,1.12-0.02,1.71-0.03c0.7-0.01,1.4-0.03,2.09-0.01c0.57,0.02,1.14,0.13,1.7,0.11
		c0.24,0,0.57-0.03,0.86-0.05c0.84-0.02,1.62-0.13,2.49-0.08c0.78,0.05,1.48,0.05,2.17,0.04c0.57-0.01,1.13-0.02,1.71-0.03
		c0.7-0.01,1.4-0.03,2.09-0.01c0.57,0.02,1.14,0.13,1.7,0.11c0.24,0,0.57-0.03,0.86-0.05c0.84-0.02,1.62-0.13,2.49-0.08
		c0.78,0.05,1.48,0.05,2.17,0.04c0.16,0,0.31,0,0.47-0.01c0.2,0,0.45,0.04,0.65,0.04c0.14,0,0.28,0,0.42-0.02c0,0.03,0,0.06,0,0.1
		c-0.05,0.72-0.05,1.37-0.04,2.01C-196.98,18.97-196.96,19.48-196.96,20.02L-196.96,20.02z"/>
	<path id="패스_11970" class="st0" d="M-210.98,30.78l0.01,0.18l0.02,0.18l0.03,0.17l0.04,0.16l0.02,0.07l0.03,0.07l0.03,0.06
		l0.03,0.05l0.04,0.04l0.02,0.02l0.02,0.02l0.08,0.06l0.08,0.04l0.09,0.03l0,0l0.01,0.01l0.07,0.02l0.13,0.03l0.11,0.02l0.08,0.01
		l0.58,0.03l0.56,0.01h1.07v-0.01l1.15-0.02h0.18l0.18-0.01l0.18-0.02l0.17-0.03l0.16-0.04l0.07-0.02l0.07-0.03l0.06-0.03l0.05-0.03
		l0.04-0.03l0.02-0.02l0.02-0.02l0.05-0.08l0.04-0.08l0.03-0.09l0,0l0.01-0.01l0.02-0.07l0.03-0.13l0.02-0.11l0.01-0.08l0.03-0.58
		l0.01-0.56v-1.07c-0.01-0.58-0.02-1.16-0.03-1.76l-0.01-0.54V26.3c0-0.09-0.01-0.25-0.02-0.37c-0.06-0.53-0.27-1.03-0.59-1.45
		c-0.31-0.42-0.73-0.76-1.21-0.97c0-0.09-0.01-0.19-0.03-0.28c-0.04-0.15-0.05-0.31-0.05-0.47c0-0.13,0-0.26,0-0.39
		s0-0.25-0.01-0.37c0-0.16,0.04-0.35,0.04-0.51c0-0.05,0-0.1,0-0.15c0.07-0.01,0.13-0.02,0.2-0.02c0.26,0,0.52,0.04,0.77,0.12
		c0.05,0.01,0.11,0.02,0.16,0.02c0.07,0.02,0.14,0.03,0.21,0.04c0.22-0.05,0.38-0.24,0.41-0.46c0.08-0.3,0.1-0.61,0.08-0.92
		c-0.04-0.21-0.1-0.42-0.19-0.61c-0.07-0.15-0.2-0.12-0.28-0.08c-0.07,0.03-0.14,0.05-0.21,0.06c-0.06,0-0.12,0-0.18,0
		c-0.2,0.01-0.4,0.02-0.61,0.03c-0.25,0.02-0.5,0.02-0.74,0.01c-0.2-0.05-0.4-0.09-0.61-0.11c-0.09,0.01-0.2,0.03-0.31,0.05
		c-0.29,0.06-0.59,0.09-0.89,0.08c-0.26-0.04-0.52-0.05-0.77-0.04l-0.17,0.01c-0.07,0-0.16-0.04-0.23-0.04
		c-0.12,0.01-0.19-0.02-0.3,0.19c-0.14,0.35-0.2,0.74-0.15,1.12c0.02,0.16,0.06,0.32,0.14,0.47c0.02,0.04,0.04,0.08,0.07,0.11
		c0.08,0.11,0.17,0.06,0.25,0.04c0.03-0.01,0.07-0.01,0.1-0.01c0.1,0.02,0.19,0.05,0.29,0.07c0.11,0.02,0.23,0.03,0.35,0.03
		c0.16-0.01,0.42-0.07,0.66-0.1c0.01,0.05,0.01,0.1,0.02,0.15c0.01,0.07,0.01,0.15,0.01,0.22c-0.02,0.21-0.05,0.42-0.07,0.64
		c-0.01,0.11-0.02,0.23-0.02,0.36s-0.04,0.31-0.04,0.46c0.01,0.1,0.02,0.21,0.05,0.31c-0.09,0.04-0.19,0.06-0.27,0.1
		c-0.57,0.29-1.02,0.76-1.29,1.33c-0.13,0.28-0.22,0.59-0.26,0.9c-0.02,0.15-0.03,0.3-0.03,0.46l-0.01,0.34
		c-0.05,0.8-0.05,1.53-0.04,2.24c0.01,0.58,0.02,1.15,0.03,1.74L-210.98,30.78z M-209.11,26.4c-0.01-0.16-0.01-0.22-0.01-0.29
		c0-0.07,0.01-0.13,0.03-0.2c0.03-0.12,0.08-0.22,0.16-0.32c0.18-0.19,0.44-0.29,0.7-0.29c0.03,0,0.07,0,0.1,0
		c0.28,0.01,0.56,0.12,0.77,0.31c0.11,0.1,0.2,0.23,0.26,0.37c0.03,0.07,0.05,0.15,0.06,0.23c0.01,0.09,0.01,0.28,0.02,0.41
		c0.01,0.94-0.07,1.51-0.12,2.24l-0.02,0.47v0.53l0,0v0.01v0.1v0.03l-0.01,0.04l-0.01,0.03l-0.02,0.03l-0.02,0.02l-0.02,0.02
		l-0.02,0.02l-0.03,0.01l-0.03,0.01l-0.03,0.01l-0.06,0.01h-0.07l-0.32-0.02v-0.05l-0.47-0.02h-0.53h-0.01l-0.1,0h-0.03l-0.04-0.01
		l-0.03-0.01l-0.03-0.02l-0.02-0.02l-0.02-0.02l-0.02-0.04l-0.01-0.03l-0.01-0.03l-0.01-0.03l-0.01-0.06v-0.06l0.07-0.91
		c0.02-0.3,0.03-0.62,0.03-1.01C-209.04,27.49-209.08,26.94-209.11,26.4L-209.11,26.4z"/>
	<path id="패스_11971" class="st0" d="M-222.61,31.25c0.33,0.22,0.69,0.39,1.06,0.51c0.54,0.17,1.1,0.26,1.67,0.26
		c0.56,0,1.11-0.05,1.66-0.15c0.57-0.08,1.13-0.24,1.66-0.47c0.07-0.03,0.14-0.06,0.21-0.1c1.2-0.67,2.12-1.75,2.6-3.04
		c0.35-0.79,0.57-1.63,0.64-2.49c0.01-0.39-0.01-0.79-0.09-1.18c-0.12-0.55-0.32-1.09-0.61-1.58c-0.28-0.48-0.6-0.94-0.97-1.35
		c-0.35-0.46-0.77-0.86-1.23-1.21l-0.19-0.13c-1.18-0.71-2.58-0.97-3.93-0.73c-0.86,0.09-1.7,0.33-2.48,0.69
		c-0.35,0.18-0.68,0.4-0.98,0.66c-0.42,0.38-0.77,0.82-1.07,1.31c-0.28,0.49-0.51,1-0.69,1.52c-0.22,0.54-0.36,1.1-0.43,1.67
		l-0.02,0.23c-0.02,1.38,0.45,2.72,1.34,3.77C-223.94,30.15-223.32,30.76-222.61,31.25z M-223.73,25.07c0.04-0.7,0.3-1.37,0.73-1.92
		c0.39-0.46,0.85-0.86,1.37-1.17c0.41-0.24,0.85-0.42,1.31-0.53c0.57-0.13,1.17-0.14,1.74-0.01c0.45,0.15,0.87,0.35,1.27,0.6
		c0.21,0.11,0.41,0.23,0.61,0.36c0.58,0.4,1.03,0.95,1.3,1.6c0.21,0.57,0.32,1.17,0.33,1.77c0,0.47-0.06,0.95-0.2,1.4
		c-0.17,0.56-0.47,1.08-0.86,1.51c-0.34,0.32-0.73,0.59-1.15,0.8c-0.2,0.13-0.4,0.25-0.62,0.34c-0.63,0.3-1.34,0.42-2.03,0.33
		c-0.6-0.1-1.17-0.31-1.7-0.6c-0.42-0.23-0.79-0.52-1.11-0.88c-0.4-0.43-0.7-0.94-0.88-1.5c-0.1-0.46-0.14-0.93-0.12-1.4
		C-223.76,25.54-223.75,25.31-223.73,25.07z"/>
	<path id="패스_11972" class="st0" d="M-222.71,25.49c0.25,0.22,0.59,0.31,0.91,0.25c0.16-0.04,0.53-0.25,0.64-0.29
		c0.17-0.08,0.18-0.25,0.2-0.38c0.01-0.11,0.05-0.21,0.11-0.3c0.05-0.07,0.11-0.15,0.18-0.21c0.06-0.06,0.13-0.12,0.19-0.17
		c0.1-0.06,0.21-0.11,0.32-0.15c0.17-0.05,0.32-0.17,0.41-0.32c0.23-0.33,0.31-0.75,0.23-1.14c-0.08-0.2-0.24-0.35-0.43-0.43
		c-0.08-0.03-0.15-0.06-0.23-0.08c-0.28-0.02-0.56,0.06-0.79,0.23l-0.29,0.16c-0.29,0.14-0.55,0.31-0.79,0.52
		c-0.13,0.12-0.26,0.26-0.37,0.4c-0.15,0.17-0.29,0.37-0.39,0.57C-222.99,24.48-223.03,25.3-222.71,25.49z"/>
</g>
</svg>
