<?xml version="1.0" encoding="utf-8"?>
<!-- Generator: Adobe Illustrator 24.0.2, SVG Export Plug-In . SVG Version: 6.00 Build 0)  -->
<svg version="1.1" id="레이어_1" xmlns="http://www.w3.org/2000/svg" xmlns:xlink="http://www.w3.org/1999/xlink" x="0px"
	 y="0px" viewBox="0 0 132.09 124.37" style="enable-background:new 0 0 132.09 124.37;" xml:space="preserve">
<style type="text/css">
	.st0{fill:#202020;}
	.st1{fill:#DDDDDD;}
</style>
<path id="패스_12159" class="st0" d="M131.86,94.01c0.07-0.11,0.09-0.23,0.08-0.36c-0.02-1.01-0.03-2-0.05-3.04l-0.01-0.31
	l-0.02-0.32l-0.02-0.16l-0.02-0.16l-0.02-0.15l-0.03-0.15l-0.03-0.14l-0.04-0.14l-0.04-0.13l-0.04-0.12l-0.03-0.05l-0.03-0.05
	l-0.03-0.05l-0.03-0.04l-0.03-0.04l-0.03-0.04l-0.03-0.03l-0.03-0.03l-0.07-0.05l-0.07-0.04l-0.07-0.04l-0.07-0.03l-0.08-0.03
	l-0.08-0.03h-0.01l-0.02-0.01l-0.13-0.04l-0.12-0.03l-0.11-0.03l-0.1-0.02l-0.09-0.01l-0.15-0.01l-1.02-0.05l-0.98-0.03l-0.95-0.01
	h-0.93c-1.03,0.01-2.05,0.03-3.11,0.05l-0.68,0.01c-0.01-0.18-0.03-0.37-0.05-0.54c-0.02-0.15-0.02-0.3-0.01-0.45
	c0.04-0.43,0.08-0.85,0.12-1.3s0.05-0.96,0.04-1.57c-0.02-1.11-0.27-3.39-0.24-4.5c0.02-0.77,0.16-1.55,0.19-2.32
	c0.01-0.1,0.02-0.21,0.02-0.31c0.13-1.81-0.19-3.63-0.23-5.45c0.01-1.16,0.07-2.32,0.2-3.47c0.03-0.46,0.05-0.96,0.04-1.57
	c-0.02-1.11-0.27-3.39-0.24-4.5c0.02-0.77,0.16-1.55,0.19-2.32c0.01-0.1,0.02-0.21,0.02-0.31c0.13-1.81-0.19-3.63-0.23-5.45
	c0.01-1.16,0.07-2.32,0.2-3.47c0.03-0.46,0.05-0.96,0.04-1.57c-0.02-1.11-0.27-3.39-0.24-4.5c0.02-0.77,0.16-1.55,0.19-2.32
	c0.01-0.1,0.02-0.21,0.02-0.31c0.13-1.81-0.19-3.63-0.23-5.45c0.01-1.16,0.07-2.32,0.2-3.47c0.03-0.46,0.05-0.96,0.04-1.57
	c-0.02-1.11-0.27-3.39-0.24-4.5c0.02-0.77,0.16-1.55,0.19-2.32c0.01-0.1,0.02-0.21,0.02-0.31c0.13-1.81-0.19-3.63-0.23-5.45
	c0.01-1.16,0.07-2.32,0.2-3.47c0.02-0.23,0.03-0.47,0.04-0.73s0.07-0.63,0.07-0.93c-0.01-0.22-0.04-0.43-0.09-0.64
	c1.33,0.07,2.55,0.08,3.74,0.07l3.04-0.05l0.31-0.01l0.32-0.02l0.16-0.02l0.16-0.02l0.15-0.02l0.15-0.03l0.14-0.03l0.14-0.04
	l0.13-0.04l0.12-0.05l0.05-0.02l0.05-0.03l0.05-0.03l0.04-0.03l0.04-0.03l0.04-0.03l0.03-0.03l0.03-0.03l0.05-0.07l0.04-0.07
	l0.04-0.07l0.03-0.07l0.03-0.08l0.03-0.08v-0.01l0.01-0.02l0.04-0.13l0.03-0.12l0.03-0.11l0.02-0.1l0.01-0.09l0.01-0.15
	c0.02-0.35,0.03-0.68,0.05-1.02s0.02-0.66,0.03-0.98s0.01-0.64,0.01-0.95s0-0.62,0-0.93c-0.01-0.09-0.03-0.18-0.05-0.28
	c-0.03-0.11-0.04-0.23-0.02-0.34c0.03-0.09,0.22-0.19,0.2-0.28c-0.02-0.05-0.05-0.1-0.08-0.14c-0.03-0.14-0.22-0.27-0.13-0.41
	c0.07-0.11,0.09-0.23,0.08-0.36c-0.02-1.01-0.03-2-0.05-3.04l-0.01-0.31l-0.02-0.32l-0.02-0.16l-0.02-0.16l-0.02-0.15l-0.03-0.15
	l-0.03-0.14l-0.04-0.14l-0.04-0.13l-0.04-0.12l-0.03-0.05l-0.03-0.05l-0.03-0.05l-0.03-0.05l-0.03-0.04l-0.03-0.04l-0.03-0.03
	l-0.03-0.03l-0.07-0.05l-0.07-0.05l-0.07-0.04l-0.07-0.04l-0.08-0.03l-0.08-0.02h-0.01l-0.02-0.01l-0.13-0.04l-0.12-0.03l-0.11-0.02
	l-0.1-0.02l-0.09-0.01l-0.15-0.01l-1.02-0.05l-0.98-0.03l-0.95-0.01h-0.93c-1.03,0.01-2.05,0.03-3.11,0.05
	c-1.27,0.02-2.54,0.05-3.81,0.02c-1.04-0.03-2.07-0.22-3.1-0.2c-0.43,0.01-1.04,0.05-1.57,0.08c-1.52,0.03-2.94,0.22-4.55,0.13
	c-1.42-0.08-2.7-0.09-3.96-0.08c-1.03,0.01-2.05,0.03-3.11,0.05c-1.27,0.02-2.54,0.05-3.81,0.02c-1.04-0.03-2.07-0.22-3.1-0.2
	c-0.44,0.01-1.04,0.05-1.57,0.08c-1.52,0.03-2.94,0.22-4.55,0.13c-1.42-0.08-2.7-0.09-3.96-0.08c-1.03,0.01-2.05,0.03-3.11,0.05
	c-1.27,0.02-2.54,0.05-3.81,0.02c-1.04-0.03-2.07-0.22-3.1-0.2c-0.44,0.01-1.04,0.05-1.57,0.08c-1.52,0.03-2.94,0.22-4.55,0.13
	c-1.42-0.08-2.7-0.09-3.96-0.08C65.01,0.15,64,0.17,62.93,0.19c-1.27,0.02-2.54,0.05-3.81,0.02c-1.04-0.03-2.07-0.22-3.1-0.2
	c-0.44,0.01-1.04,0.05-1.57,0.08c-1.52,0.03-2.94,0.22-4.55,0.13c-1.42-0.08-2.7-0.09-3.96-0.08c-1.03,0.01-2.05,0.03-3.11,0.05
	c-1.27,0.02-2.54,0.05-3.81,0.02c-1.04-0.03-2.07-0.22-3.1-0.2c-0.44,0.01-1.04,0.05-1.57,0.08c-1.52,0.03-2.94,0.22-4.55,0.13
	c-1.42-0.08-2.7-0.09-3.96-0.08c-1.03,0.01-2.05,0.03-3.11,0.05c-1.27,0.02-2.54,0.05-3.81,0.02c-1.04-0.03-2.07-0.22-3.1-0.2
	c-0.44,0.01-1.04,0.05-1.57,0.08C12.73,0.11,11.31,0.3,9.7,0.21C8.28,0.13,7,0.12,5.74,0.14L2.7,0.19L2.39,0.2L2.08,0.22L1.92,0.23
	L1.76,0.25L1.61,0.27L1.46,0.3L1.32,0.33L1.18,0.37L1.05,0.41L0.94,0.46L0.88,0.48L0.83,0.51L0.78,0.53L0.74,0.56L0.7,0.59
	L0.66,0.62L0.63,0.66L0.6,0.69L0.55,0.76L0.5,0.83L0.46,0.91L0.43,0.98L0.4,1.06L0.37,1.13v0.01L0.36,1.16L0.32,1.29L0.29,1.41
	L0.26,1.52l-0.02,0.1L0.23,1.71L0.22,1.86C0.2,2.21,0.19,2.55,0.17,2.88S0.15,3.54,0.15,3.86S0.14,4.49,0.14,4.8s0,0.62,0,0.93
	c0.01,0.09,0.03,0.18,0.05,0.28C0.22,6.13,0.22,6.24,0.2,6.36C0.17,6.45-0.02,6.54,0,6.64c0.02,0.05,0.05,0.1,0.08,0.14
	c0.03,0.14,0.22,0.27,0.13,0.41C0.15,7.29,0.12,7.42,0.14,7.54c0.02,1.01,0.03,2,0.05,3.04c0,0.1,0.01,0.2,0.01,0.31
	s0.01,0.21,0.02,0.32l0.02,0.16l0.02,0.16l0.02,0.15l0.03,0.15l0.03,0.14l0.04,0.14l0.04,0.13l0.05,0.12l0.02,0.05l0.03,0.05
	l0.03,0.05l0.03,0.04l0.03,0.04l0.03,0.04l0.03,0.03l0.03,0.03l0.07,0.05l0.07,0.05l0.07,0.04l0.07,0.03l0.08,0.03l0.08,0.02h0.01
	l0.02,0.01l0.13,0.04L1.41,13l0.11,0.02l0.1,0.02l0.09,0.01l0.15,0.01l1.02,0.05l0.98,0.03l0.95,0.01h0.93
	c1.03-0.01,2.05-0.03,3.11-0.05l0.68-0.01c0.01,0.18,0.03,0.37,0.05,0.54c0.02,0.15,0.02,0.3,0.01,0.45
	c-0.04,0.43-0.08,0.85-0.11,1.3s-0.05,0.96-0.04,1.57c0.02,1.11,0.27,3.39,0.24,4.5c-0.02,0.77-0.16,1.55-0.19,2.32
	c-0.01,0.1-0.02,0.21-0.02,0.31c-0.13,1.81,0.19,3.63,0.23,5.45c0,1.16-0.07,2.32-0.2,3.47c-0.03,0.46-0.05,0.96-0.04,1.57
	c0.02,1.11,0.27,3.39,0.24,4.5c-0.02,0.77-0.16,1.55-0.19,2.32c-0.01,0.1-0.02,0.21-0.02,0.31c-0.13,1.81,0.19,3.63,0.23,5.45
	c0,1.16-0.07,2.32-0.2,3.47c-0.03,0.46-0.05,0.96-0.04,1.57c0.02,1.11,0.27,3.39,0.24,4.5c-0.02,0.77-0.16,1.55-0.19,2.32
	c-0.01,0.1-0.02,0.21-0.02,0.31c-0.13,1.81,0.19,3.63,0.23,5.45c0,1.16-0.07,2.32-0.2,3.47c-0.03,0.46-0.05,0.96-0.04,1.57
	c0.02,1.11,0.27,3.39,0.24,4.5c-0.02,0.77-0.16,1.55-0.19,2.32c-0.01,0.1-0.02,0.21-0.02,0.31c-0.13,1.81,0.19,3.63,0.23,5.45
	c0,1.16-0.07,2.32-0.2,3.47c-0.02,0.23-0.03,0.47-0.04,0.73s-0.07,0.63-0.07,0.93c0.01,0.22,0.04,0.43,0.09,0.64
	c-1.33-0.07-2.55-0.08-3.74-0.07L2.71,88.1l-0.31,0.01l-0.32,0.02l-0.16,0.02l-0.16,0.02l-0.15,0.02l-0.15,0.03l-0.14,0.03
	l-0.14,0.04l-0.13,0.04l-0.12,0.05l-0.05,0.02l-0.05,0.03l-0.05,0.03l-0.04,0.03L0.71,88.5l-0.04,0.03l-0.03,0.03L0.61,88.6
	l-0.05,0.07l-0.05,0.07l-0.04,0.07L0.44,88.9l-0.03,0.08l-0.03,0.08v0.01l-0.01,0.02L0.33,89.2L0.3,89.32l-0.02,0.11l-0.02,0.1
	l-0.01,0.09l-0.01,0.15c-0.02,0.35-0.03,0.68-0.05,1.02s-0.02,0.66-0.03,0.98s-0.01,0.64-0.01,0.95s0,0.62,0,0.93
	c0.01,0.09,0.03,0.18,0.05,0.28c0.03,0.11,0.04,0.23,0.02,0.34c-0.03,0.09-0.22,0.19-0.2,0.28c0.02,0.05,0.05,0.1,0.08,0.14
	c0.03,0.14,0.22,0.27,0.13,0.41c-0.07,0.11-0.09,0.23-0.08,0.36c0.02,1.01,0.03,2,0.05,3.04c0,0.1,0.01,0.2,0.01,0.31
	s0.01,0.21,0.02,0.32l0.02,0.16l0.02,0.16l0.02,0.15l0.03,0.15l0.03,0.14l0.04,0.14l0.04,0.13l0.05,0.12l0.02,0.05l0.03,0.05
	l0.03,0.05l0.03,0.04l0.03,0.04l0.03,0.04l0.03,0.03l0.03,0.03l0.07,0.05l0.07,0.04l0.07,0.04L1,100.77l0.08,0.03l0.08,0.03h0.01
	l0.02,0.01l0.13,0.04l0.12,0.03l0.11,0.03l0.1,0.02l0.09,0.01l0.15,0.01l1.02,0.05l0.98,0.03l0.95,0.01h0.93
	c1.03-0.01,2.05-0.03,3.11-0.05c1.27-0.02,2.54-0.05,3.81-0.02c1.04,0.03,2.07,0.22,3.1,0.2c0.44-0.01,1.04-0.05,1.57-0.08
	c1.52-0.03,2.94-0.22,4.55-0.13c1.42,0.08,2.7,0.09,3.96,0.08c1.03-0.01,2.05-0.03,3.11-0.05c1.27-0.02,2.54-0.05,3.81-0.02
	c1.04,0.03,2.07,0.22,3.1,0.2c0.43-0.01,1.04-0.05,1.57-0.08c1.52-0.03,2.94-0.22,4.55-0.13c1.42,0.08,2.7,0.09,3.96,0.08
	c1.03-0.01,2.05-0.03,3.11-0.05c1.27-0.02,2.54-0.05,3.81-0.02c1.04,0.03,2.07,0.22,3.1,0.2c0.44-0.01,1.04-0.05,1.57-0.08
	c1.52-0.03,2.94-0.22,4.55-0.13c0.81,0.04,1.57,0.07,2.31,0.08c0,0.01,0,0.03,0,0.04c0.01,0.32,0.03,0.63,0.04,0.96
	c0.03,0.39,0.03,0.78,0.01,1.17c-0.09,0.31-0.16,0.63-0.21,0.95c0.01,0.13,0.05,0.32,0.08,0.48c0.1,0.46,0.14,0.93,0.12,1.4
	c-0.06,0.32-0.09,0.65-0.09,0.98c-0.77,0.17-1.51,0.45-2.2,0.84c-1.21,0.7-2.24,1.66-3.03,2.82c-0.54,0.78-0.97,1.62-1.29,2.51
	c-0.28,0.78-0.44,1.6-0.49,2.42c-0.03,0.81,0.07,1.63,0.3,2.41c0.35,1.11,0.94,2.14,1.72,3.01c0.77,0.85,1.68,1.56,2.69,2.1
	c1.02,0.61,2.16,1,3.35,1.16l0.48,0.05c1.42,0.08,2.84-0.26,4.07-0.97c1.21-0.7,2.24-1.66,3.03-2.82c0.54-0.78,0.97-1.62,1.29-2.51
	c0.28-0.78,0.44-1.6,0.49-2.42c0.03-0.81-0.07-1.63-0.3-2.41c-0.35-1.11-0.94-2.14-1.72-3.01c-0.77-0.85-1.68-1.56-2.69-2.1
	c-0.71-0.41-1.47-0.73-2.26-0.95c0.02-0.13,0.03-0.27,0.03-0.41c-0.01-0.39-0.26-1.19-0.23-1.58c0.02-0.27,0.16-0.54,0.19-0.81
	c0.01-0.04,0.02-0.07,0.02-0.11c0.01-0.64-0.06-1.29-0.21-1.91c0.01-0.41,0.08-0.82,0.21-1.22c0.01-0.03,0.01-0.06,0.01-0.09
	c0.44-0.01,0.88-0.02,1.33-0.02c1.27-0.02,2.54-0.05,3.81-0.02c1.04,0.03,2.07,0.22,3.1,0.2c0.43-0.01,1.04-0.05,1.57-0.08
	c1.52-0.03,2.94-0.22,4.55-0.13c1.42,0.08,2.7,0.09,3.96,0.08c1.03-0.01,2.05-0.03,3.11-0.05c1.27-0.02,2.54-0.05,3.81-0.02
	c1.04,0.03,2.07,0.22,3.1,0.2c0.44-0.01,1.04-0.05,1.57-0.08c1.52-0.03,2.94-0.22,4.55-0.13c1.42,0.08,2.7,0.09,3.96,0.08
	c1.03-0.01,2.05-0.03,3.11-0.05c1.27-0.02,2.54-0.05,3.81-0.02c1.04,0.03,2.07,0.22,3.1,0.2c0.43-0.01,1.04-0.05,1.57-0.08
	c1.52-0.03,2.94-0.22,4.55-0.13c1.42,0.08,2.7,0.09,3.96,0.08l3.04-0.05l0.31-0.01l0.32-0.02l0.16-0.02l0.16-0.02l0.15-0.02
	l0.15-0.03l0.14-0.03l0.14-0.04l0.13-0.04l0.12-0.04l0.05-0.03l0.05-0.03l0.05-0.03l0.04-0.03l0.04-0.03l0.04-0.03l0.03-0.03
	l0.03-0.03l0.05-0.07l0.04-0.07l0.04-0.07l0.03-0.07l0.03-0.08l0.03-0.08v-0.01l0.01-0.02l0.04-0.13l0.03-0.12l0.03-0.11l0.02-0.1
	l0.01-0.09l0.01-0.15c0.02-0.35,0.03-0.69,0.05-1.02s0.02-0.66,0.03-0.98s0.01-0.64,0.01-0.95s0-0.62,0-0.93
	c-0.01-0.09-0.03-0.18-0.05-0.28c-0.03-0.11-0.04-0.23-0.02-0.34c0.03-0.09,0.22-0.19,0.2-0.28c-0.02-0.05-0.05-0.1-0.08-0.14
	C131.96,94.28,131.77,94.16,131.86,94.01z M70.4,112.52c0.29,0.48,0.53,1,0.69,1.54c0.14,0.51,0.21,1.04,0.23,1.57
	c0.01,0.86-0.19,1.72-0.57,2.49c-0.25,0.47-0.56,0.91-0.92,1.3c-0.38,0.38-0.81,0.69-1.29,0.94c-0.79,0.31-1.64,0.46-2.49,0.43
	h-0.61c-0.22-0.01-0.44-0.04-0.66-0.07c-0.61-0.12-1.19-0.34-1.73-0.64c-0.56-0.32-1.04-0.78-1.39-1.33c-0.29-0.48-0.53-1-0.69-1.54
	c-0.14-0.51-0.21-1.04-0.23-1.57c-0.01-0.86,0.19-1.72,0.57-2.49c0.25-0.47,0.56-0.91,0.92-1.3c0.38-0.38,0.81-0.69,1.29-0.94
	c0.79-0.31,1.64-0.46,2.49-0.43h0.61c0.22,0.01,0.44,0.04,0.66,0.07c0.61,0.12,1.19,0.34,1.73,0.64
	C69.57,111.52,70.05,111.97,70.4,112.52L70.4,112.52z M5.71,9.74l-0.4-0.02L4.89,9.7L4.44,9.69H3.97H3.96L3.76,9.7H3.74L3.7,9.69
	L3.67,9.68L3.64,9.67L3.62,9.66L3.59,9.65L3.57,9.64L3.55,9.62L3.53,9.6L3.51,9.58L3.49,9.56L3.48,9.54L3.46,9.52L3.45,9.5
	L3.44,9.47L3.42,9.43L3.41,9.37L3.4,9.32V9.26V9.21V9.15c0.02-0.27,0.04-0.53,0.07-0.79S3.5,7.84,3.53,7.56
	c0.04-0.05,0.05-0.1,0.05-0.16C3.55,7.28,3.3,7.05,3.33,6.93C3.36,6.85,3.49,6.77,3.52,6.7l0.02-0.03C3.67,6.48,3.35,6.29,3.32,6.1
	C3.3,5.95,3.45,5.86,3.52,5.75c0.01-0.13,0.01-0.26,0.02-0.4c0.01-0.14,0.01-0.27,0.02-0.42l0.01-0.45c0-0.15,0-0.31,0-0.47l0,0V4
	L3.56,3.8V3.77l0.01-0.03l0.01-0.03l0.01-0.03L3.6,3.65l0.01-0.02L3.62,3.6l0.02-0.02l0.02-0.02l0.02-0.02L3.7,3.52l0.02-0.02
	l0.02-0.01l0.02-0.01l0.02-0.01l0.05-0.02l0.05-0.01l0.05-0.01H4h0.06h0.06L4.9,3.5L5.7,3.56C6.23,3.59,6.8,3.61,7.49,3.6
	c1.27-0.02,3.87-0.27,5.14-0.24c0.88,0.02,1.77,0.16,2.65,0.19l0.35,0.02c2.07,0.13,4.15-0.19,6.22-0.23
	c1.67-0.02,2.68,0.13,3.96,0.2c0.53,0.03,1.1,0.05,1.79,0.04c1.27-0.02,3.87-0.27,5.14-0.24c0.88,0.02,1.77,0.16,2.64,0.19
	l0.35,0.02c2.07,0.13,4.15-0.19,6.22-0.23c1.67-0.02,2.68,0.13,3.96,0.2c0.53,0.03,1.1,0.05,1.79,0.04
	c1.27-0.02,3.87-0.27,5.14-0.24c0.88,0.02,1.77,0.16,2.65,0.19l0.35,0.02c2.07,0.13,4.15-0.19,6.22-0.23
	c1.67-0.02,2.68,0.13,3.96,0.2c0.53,0.03,1.1,0.05,1.79,0.04c1.27-0.02,3.87-0.27,5.14-0.24c0.88,0.02,1.77,0.16,2.64,0.19
	l0.35,0.02c2.07,0.13,4.15-0.19,6.22-0.23c1.67-0.02,2.68,0.13,3.96,0.2c0.53,0.03,1.1,0.05,1.79,0.04
	c1.27-0.02,3.87-0.27,5.14-0.24c0.88,0.02,1.77,0.16,2.65,0.19l0.35,0.02c2.07,0.13,4.15-0.19,6.22-0.23
	c1.67-0.02,2.68,0.13,3.96,0.2c0.53,0.03,1.1,0.05,1.79,0.04c1.27-0.02,3.87-0.27,5.14-0.24c0.88,0.02,1.77,0.16,2.64,0.19
	l0.36,0.02c2.07,0.13,4.15-0.19,6.22-0.23c1.67-0.02,2.68,0.13,3.96,0.2l0.4,0.02l0.42,0.02l0.45,0.01h0.47h0.01l0.2-0.01h0.03
	l0.03,0.01l0.03,0.01l0.03,0.01l0.03,0.01l0.02,0.01l0.02,0.02l0.02,0.02l0.02,0.02l0.02,0.02l0.02,0.02l0.02,0.02l0.01,0.02
	l0.01,0.02l0.01,0.02l0.02,0.05l0.01,0.05l0.01,0.05v0.05v0.06v0.06c-0.02,0.27-0.04,0.53-0.07,0.79s-0.04,0.53-0.06,0.81
	c-0.04,0.05-0.05,0.1-0.05,0.16c0.02,0.11,0.27,0.35,0.24,0.46c-0.02,0.08-0.16,0.16-0.19,0.24l-0.02,0.03
	c-0.13,0.19,0.19,0.37,0.23,0.56c0.02,0.15-0.13,0.24-0.2,0.36c-0.01,0.13-0.01,0.26-0.02,0.4l-0.02,0.42c0,0.14,0,0.29-0.01,0.45
	v0.47l0,0V9.3l0.01,0.2v0.03l-0.01,0.03l-0.01,0.03l-0.01,0.03l-0.01,0.03l-0.01,0.02l-0.01,0.02l-0.02,0.02l-0.02,0.02l-0.02,0.02
	l-0.02,0.02l-0.02,0.02L128.3,9.8l-0.02,0.01l-0.02,0.01l-0.05,0.02l-0.05,0.01l-0.05,0.01h-0.06h-0.06h-0.06l-0.79-0.07l-0.81-0.06
	c-0.53-0.03-1.1-0.05-1.79-0.04c-1.27,0.02-3.87,0.27-5.14,0.24c-0.88-0.02-1.77-0.16-2.64-0.19l-0.36-0.02
	c-2.07-0.13-4.15,0.19-6.22,0.23c-1.67,0.02-2.68-0.13-3.96-0.2c-0.53-0.03-1.1-0.05-1.79-0.04c-1.27,0.02-3.87,0.27-5.14,0.24
	c-0.88-0.02-1.77-0.16-2.65-0.19L96.3,9.72c-2.07-0.13-4.15,0.19-6.22,0.23c-1.67,0.02-2.68-0.13-3.96-0.2
	c-0.53-0.03-1.1-0.05-1.79-0.04c-1.27,0.02-3.87,0.27-5.14,0.24c-0.88-0.02-1.77-0.16-2.64-0.19L76.2,9.72
	c-2.07-0.13-4.15,0.19-6.22,0.23c-1.67,0.02-2.68-0.13-3.96-0.2c-0.53-0.03-1.1-0.05-1.79-0.04c-1.27,0.02-3.87,0.27-5.14,0.24
	c-0.88-0.02-1.77-0.16-2.65-0.19l-0.36-0.02c-2.07-0.13-4.15,0.19-6.22,0.23c-1.67,0.02-2.68-0.13-3.96-0.2
	c-0.53-0.03-1.1-0.05-1.79-0.04c-1.27,0.02-3.87,0.27-5.14,0.24c-0.88-0.02-1.77-0.16-2.65-0.19l-0.35-0.02
	c-2.07-0.13-4.15,0.19-6.22,0.23c-1.67,0.02-2.68-0.13-3.96-0.2c-0.53-0.03-1.1-0.05-1.79-0.04c-1.27,0.02-3.87,0.27-5.14,0.24
	C18,9.91,17.12,9.77,16.24,9.74l-0.35-0.02c-2.07-0.13-4.15,0.19-6.22,0.23C8,9.97,6.99,9.82,5.71,9.74z M12.82,83.09
	c-0.02-1.11-0.05-2.23-0.02-3.34c0.03-0.91,0.22-1.82,0.2-2.72c-0.01-0.38-0.05-0.91-0.08-1.37c-0.03-1.33-0.22-2.58-0.13-3.98
	c0.08-1.24,0.09-2.37,0.08-3.47c-0.01-0.9-0.03-1.79-0.05-2.72c-0.02-1.11-0.05-2.23-0.02-3.34c0.03-0.91,0.22-1.82,0.2-2.72
	c-0.01-0.38-0.05-0.91-0.08-1.37c-0.03-1.33-0.22-2.58-0.13-3.98c0.08-1.24,0.09-2.37,0.08-3.47c-0.01-0.9-0.03-1.79-0.05-2.72
	c-0.02-1.11-0.05-2.23-0.02-3.34c0.03-0.91,0.22-1.82,0.2-2.72c-0.01-0.38-0.05-0.91-0.08-1.37c-0.03-1.33-0.22-2.58-0.13-3.98
	c0.08-1.24,0.09-2.37,0.08-3.47c-0.01-0.9-0.03-1.8-0.05-2.73c-0.02-1.11-0.05-2.23-0.02-3.34c0.03-0.91,0.22-1.81,0.2-2.72
	c-0.01-0.38-0.05-0.91-0.08-1.37c-0.03-1.33-0.22-2.58-0.13-3.98c0.08-1.24,0.09-2.37,0.08-3.47c0-0.25,0-0.5-0.01-0.75
	c-0.01-0.32,0.07-0.71,0.07-1.04c0-0.18,0-0.35-0.01-0.5c0.94,0.05,1.89,0.2,2.82,0.18c0.44-0.01,1.04-0.05,1.57-0.08
	c1.52-0.03,2.94-0.22,4.55-0.13c1.42,0.08,2.7,0.09,3.96,0.08c1.03-0.01,2.05-0.03,3.11-0.05c1.27-0.02,2.54-0.05,3.81-0.02
	c1.04,0.03,2.07,0.22,3.1,0.2c0.43-0.01,1.04-0.05,1.57-0.08c1.52-0.03,2.94-0.22,4.55-0.13c1.42,0.08,2.7,0.09,3.96,0.08
	c1.03-0.01,2.05-0.03,3.11-0.05c1.27-0.02,2.54-0.05,3.81-0.02c1.04,0.03,2.07,0.22,3.1,0.2c0.44-0.01,1.04-0.05,1.57-0.08
	c1.52-0.03,2.94-0.22,4.55-0.13c1.42,0.08,2.7,0.09,3.96,0.08c1.03-0.01,2.05-0.03,3.11-0.05c1.27-0.02,2.54-0.05,3.81-0.02
	c1.04,0.03,2.07,0.22,3.1,0.2c0.43-0.01,1.04-0.05,1.57-0.08c1.52-0.03,2.94-0.22,4.55-0.13c1.42,0.08,2.7,0.09,3.96,0.08
	c1.03-0.01,2.05-0.03,3.11-0.05c1.27-0.02,2.54-0.05,3.81-0.02c1.04,0.03,2.07,0.22,3.1,0.2c0.44-0.01,1.04-0.05,1.57-0.08
	c1.52-0.03,2.94-0.22,4.55-0.13c1.42,0.08,2.7,0.09,3.96,0.08c1.03-0.01,2.05-0.03,3.11-0.05c1.27-0.02,2.54-0.05,3.81-0.02
	c1.04,0.03,2.07,0.22,3.1,0.2c0.43-0.01,1.04-0.05,1.57-0.08c0.4-0.01,0.8-0.03,1.19-0.05c0.01,0.16,0.03,0.33,0.06,0.49
	c0.06,0.31,0.1,0.63,0.1,0.95c0,0.27,0,0.53,0,0.8c0.01,0.9,0.03,1.8,0.05,2.73c0.02,1.11,0.05,2.23,0.02,3.34
	c-0.03,0.91-0.22,1.82-0.2,2.72c0.01,0.38,0.05,0.91,0.08,1.37c0.03,1.33,0.22,2.58,0.13,3.98c-0.08,1.24-0.09,2.37-0.08,3.47
	c0.01,0.9,0.03,1.8,0.05,2.73c0.02,1.11,0.05,2.23,0.02,3.34c-0.03,0.91-0.22,1.81-0.2,2.72c0.01,0.38,0.05,0.91,0.08,1.37
	c0.03,1.33,0.22,2.58,0.13,3.98c-0.08,1.24-0.09,2.37-0.08,3.47c0.01,0.9,0.03,1.79,0.05,2.72c0.02,1.11,0.05,2.23,0.02,3.34
	c-0.03,0.91-0.22,1.82-0.2,2.72c0.01,0.38,0.05,0.91,0.08,1.37c0.03,1.33,0.22,2.58,0.13,3.98c-0.08,1.24-0.09,2.37-0.08,3.47
	c0.01,0.9,0.03,1.79,0.05,2.72c0.02,1.11,0.05,2.23,0.02,3.34c-0.03,0.91-0.22,1.82-0.2,2.72c0.01,0.38,0.05,0.91,0.08,1.37
	c0.03,1.33,0.22,2.58,0.13,3.98c-0.08,1.24-0.09,2.37-0.08,3.47c0,0.25,0,0.5,0.01,0.75c0.01,0.32-0.08,0.72-0.07,1.03
	c0,0.18,0,0.35,0.01,0.5c-0.94-0.05-1.89-0.2-2.82-0.18c-0.43,0.01-1.04,0.05-1.57,0.08c-1.52,0.03-2.94,0.22-4.55,0.13
	c-1.42-0.08-2.7-0.09-3.96-0.08c-1.03,0.01-2.05,0.03-3.11,0.05c-1.27,0.02-2.54,0.05-3.81,0.02c-1.04-0.03-2.07-0.22-3.1-0.2
	c-0.44,0.01-1.04,0.05-1.57,0.08c-1.52,0.03-2.94,0.22-4.55,0.13c-1.42-0.08-2.7-0.09-3.96-0.08c-1.03,0.01-2.05,0.03-3.11,0.05
	c-1.27,0.02-2.54,0.05-3.81,0.02c-1.04-0.03-2.07-0.22-3.1-0.2c-0.44,0.01-1.04,0.05-1.57,0.08c-1.52,0.03-2.94,0.22-4.55,0.13
	c-1.42-0.08-2.7-0.09-3.96-0.08c-1.03,0.01-2.05,0.03-3.11,0.05c-1.27,0.02-2.54,0.05-3.81,0.02c-1.04-0.03-2.07-0.22-3.1-0.2
	c-0.44,0.01-1.04,0.05-1.57,0.08c-1.52,0.03-2.94,0.22-4.55,0.13c-1.42-0.08-2.7-0.09-3.96-0.08c-1.03,0.01-2.05,0.03-3.11,0.05
	c-1.27,0.02-2.54,0.05-3.81,0.02c-1.04-0.03-2.07-0.22-3.1-0.2c-0.44,0.01-1.04,0.05-1.57,0.08c-1.52,0.03-2.94,0.22-4.55,0.13
	c-1.42-0.08-2.7-0.09-3.96-0.08c-1.03,0.01-2.05,0.03-3.11,0.05c-1.27,0.02-2.54,0.05-3.81,0.02c-1.04-0.03-2.07-0.22-3.1-0.2
	c-0.44,0.01-1.04,0.05-1.57,0.08c-0.4,0.01-0.8,0.03-1.19,0.05c-0.01-0.16-0.03-0.33-0.06-0.49c-0.06-0.31-0.1-0.63-0.1-0.95
	c0-0.27,0-0.53,0-0.8C12.86,84.91,12.84,84.02,12.82,83.09L12.82,83.09z M128.5,95.86l-0.02,0.42c0,0.14,0,0.29-0.01,0.45v0.47l0,0
	v0.01l0.01,0.2v0.03l-0.01,0.03l-0.01,0.03l-0.01,0.03l-0.01,0.03l-0.01,0.03l-0.01,0.02l-0.02,0.02l-0.02,0.02l-0.02,0.02
	l-0.02,0.02l-0.02,0.02l-0.02,0.01l-0.02,0.01l-0.02,0.01l-0.05,0.02l-0.05,0.01l-0.05,0.01h-0.06h-0.06h-0.06l-0.79-0.07
	l-0.81-0.06c-0.53-0.03-1.1-0.05-1.79-0.04c-1.27,0.02-3.87,0.27-5.14,0.24c-0.88-0.02-1.77-0.16-2.64-0.19l-0.36-0.02
	c-2.07-0.13-4.15,0.19-6.22,0.22c-1.67,0.03-2.68-0.13-3.96-0.2c-0.53-0.03-1.1-0.05-1.79-0.04c-1.27,0.02-3.87,0.27-5.14,0.24
	c-0.88-0.02-1.77-0.16-2.65-0.19l-0.35-0.02c-2.07-0.13-4.15,0.19-6.22,0.22c-1.67,0.03-2.68-0.13-3.96-0.2
	c-0.53-0.03-1.1-0.05-1.79-0.04c-1.27,0.02-3.87,0.27-5.14,0.24c-0.88-0.02-1.77-0.16-2.64-0.19l-0.36-0.02
	c-2.07-0.13-4.15,0.19-6.22,0.22c-1.67,0.03-2.68-0.13-3.96-0.2c-0.53-0.03-1.1-0.05-1.79-0.04c-1.27,0.02-3.87,0.27-5.14,0.24
	c-0.88-0.02-1.77-0.16-2.65-0.19l-0.36-0.02c-2.07-0.13-4.15,0.19-6.22,0.22c-1.67,0.03-2.68-0.13-3.96-0.2
	c-0.53-0.03-1.1-0.05-1.79-0.04c-1.27,0.02-3.87,0.27-5.14,0.24c-0.88-0.02-1.77-0.16-2.65-0.19l-0.35-0.02
	c-2.07-0.13-4.15,0.19-6.22,0.22c-1.67,0.03-2.68-0.13-3.96-0.2c-0.53-0.03-1.1-0.05-1.79-0.04c-1.27,0.02-3.87,0.27-5.14,0.24
	c-0.88-0.02-1.77-0.16-2.65-0.19l-0.35-0.02c-2.07-0.13-4.15,0.19-6.22,0.22C8,97.9,6.99,97.75,5.71,97.68l-0.4-0.02l-0.42-0.02
	l-0.45-0.01H3.96l-0.2,0.01H3.74L3.7,97.63l-0.03-0.01l-0.03-0.01L3.62,97.6l-0.02-0.01l-0.02-0.01l-0.02-0.02l-0.02-0.02
	l-0.02-0.02L3.49,97.5l-0.02-0.02l-0.01-0.02l-0.01-0.02l-0.01-0.02l-0.02-0.05l-0.01-0.05L3.4,97.25V97.2v-0.06v-0.06
	c0.02-0.27,0.04-0.53,0.07-0.79s0.04-0.53,0.06-0.81c0.04-0.05,0.05-0.1,0.05-0.16c-0.02-0.11-0.27-0.35-0.24-0.46
	c0.02-0.08,0.16-0.16,0.19-0.24c0.01-0.01,0.02-0.02,0.02-0.03c0.13-0.19-0.19-0.37-0.23-0.56c-0.03-0.15,0.13-0.24,0.2-0.36
	c0.01-0.13,0.02-0.26,0.02-0.4s0.01-0.28,0.02-0.42l0.01-0.45c0-0.15,0-0.31,0-0.47l0,0v-0.01l-0.01-0.2V91.7l0.01-0.03l0.01-0.03
	l0.01-0.03l0.01-0.03l0.01-0.03l0.01-0.02l0.02-0.02l0.02-0.02l0.02-0.02l0.02-0.02l0.02-0.02l0.02-0.01l0.02-0.01l0.02-0.01
	l0.05-0.02l0.05-0.01l0.05-0.01H4h0.06h0.06l0.79,0.07l0.81,0.06c0.53,0.03,1.1,0.05,1.79,0.04c1.27-0.02,3.87-0.27,5.14-0.24
	c0.88,0.02,1.77,0.16,2.65,0.19l0.35,0.02c2.07,0.13,4.15-0.19,6.22-0.22c1.67-0.03,2.68,0.13,3.96,0.21
	c0.53,0.03,1.1,0.05,1.79,0.04c1.27-0.02,3.87-0.27,5.14-0.24c0.88,0.02,1.77,0.16,2.64,0.19l0.35,0.02
	c2.07,0.13,4.15-0.19,6.22-0.22c1.67-0.03,2.68,0.13,3.96,0.21c0.53,0.03,1.1,0.05,1.79,0.04c1.27-0.02,3.87-0.27,5.14-0.24
	c0.88,0.02,1.77,0.16,2.65,0.19l0.35,0.02c2.07,0.13,4.15-0.19,6.22-0.22c1.67-0.03,2.68,0.13,3.96,0.21
	c0.53,0.03,1.1,0.05,1.79,0.04c1.27-0.02,3.87-0.27,5.14-0.24c0.88,0.02,1.77,0.16,2.64,0.19l0.35,0.02
	c2.07,0.13,4.15-0.19,6.22-0.22c1.67-0.03,2.68,0.13,3.96,0.21c0.53,0.03,1.1,0.05,1.79,0.04c1.27-0.02,3.87-0.27,5.14-0.24
	c0.88,0.02,1.77,0.16,2.65,0.19l0.35,0.02c2.07,0.13,4.15-0.19,6.22-0.22c1.67-0.03,2.68,0.13,3.96,0.21
	c0.53,0.03,1.1,0.05,1.79,0.04c1.27-0.02,3.87-0.27,5.14-0.24c0.88,0.02,1.77,0.16,2.64,0.19l0.36,0.02
	c2.07,0.13,4.15-0.19,6.22-0.22c1.67-0.03,2.68,0.13,3.96,0.21l0.4,0.02l0.42,0.02l0.45,0.01h0.48l0.2-0.01h0.03l0.03,0.01
	l0.03,0.01l0.03,0.01l0.03,0.01l0.02,0.01l0.02,0.02l0.02,0.02l0.02,0.02l0.02,0.02l0.02,0.02l0.02,0.02l0.01,0.02l0.01,0.02
	l0.01,0.02l0.02,0.05l0.01,0.05l0.01,0.05v0.05v0.06v0.06c-0.02,0.27-0.04,0.53-0.07,0.79s-0.04,0.53-0.06,0.81
	c-0.04,0.05-0.05,0.1-0.05,0.16c0.02,0.11,0.27,0.35,0.24,0.46c-0.02,0.08-0.16,0.16-0.19,0.24l-0.02,0.03
	c-0.13,0.19,0.19,0.37,0.23,0.56c0.02,0.15-0.13,0.24-0.2,0.36C128.51,95.59,128.51,95.73,128.5,95.86L128.5,95.86z"/>
<g id="그룹_15871" transform="translate(186.692 602.498) rotate(180)">
	<path id="패스_12163" class="st1" d="M78.06,536.26c0.05,0.12,0.11,0.25,0.17,0.38c0.3,0.65,0.68,1.27,1.13,1.82l0.37,0.47
		l0.39,0.41l0.35,0.38c0.12,0.11,0.22,0.21,0.32,0.3c0.13,0.13,0.25,0.26,0.38,0.4l0.4,0.38c0.14,0.12,0.26,0.26,0.41,0.37
		c0.15,0.11,0.29,0.22,0.45,0.32l0.24,0.18c0.18,0.12,0.37,0.23,0.56,0.33c0.19,0.11,0.39,0.2,0.59,0.28
		c0.4,0.16,0.82,0.29,1.24,0.38c0.21,0.05,0.42,0.09,0.64,0.13l0.64,0.08l0.32,0.04l0.32,0.02l0.64,0.04c0.69,0,1.24,0.02,1.75-0.02
		c0.51-0.02,1.02-0.07,1.52-0.16c0.21-0.06,0.43-0.12,0.68-0.18l0.37-0.11c0.12-0.05,0.25-0.11,0.38-0.17
		c0.65-0.3,1.27-0.68,1.82-1.13l0.47-0.37l0.41-0.39l0.38-0.35c0.11-0.12,0.21-0.22,0.3-0.32c0.13-0.13,0.26-0.25,0.4-0.38l0.38-0.4
		c0.12-0.14,0.26-0.26,0.37-0.41c0.11-0.15,0.22-0.29,0.33-0.45l0.18-0.24c0.12-0.18,0.23-0.37,0.33-0.56
		c0.11-0.19,0.2-0.39,0.28-0.59c0.16-0.4,0.29-0.82,0.38-1.24c0.05-0.21,0.09-0.42,0.13-0.63l0.08-0.64l0.04-0.32l0.02-0.32
		l0.04-0.64c0-0.69,0.02-1.24-0.02-1.76c-0.02-0.51-0.07-1.02-0.16-1.52c-0.06-0.21-0.12-0.43-0.18-0.68
		c-0.04-0.12-0.07-0.24-0.11-0.37c-0.05-0.12-0.11-0.25-0.17-0.38c-0.3-0.65-0.68-1.27-1.13-1.82l-0.37-0.47l-0.39-0.41l-0.35-0.38
		c-0.12-0.11-0.22-0.21-0.32-0.3c-0.13-0.13-0.25-0.26-0.38-0.4l-0.4-0.38c-0.14-0.12-0.26-0.26-0.41-0.37
		c-0.15-0.11-0.29-0.22-0.45-0.32l-0.24-0.18c-0.18-0.12-0.37-0.23-0.56-0.33c-0.19-0.11-0.39-0.2-0.59-0.28
		c-0.4-0.16-0.82-0.29-1.24-0.39c-0.21-0.05-0.42-0.09-0.63-0.13L89.89,522l-0.32-0.04l-0.32-0.02l-0.64-0.04
		c-0.69,0-1.24-0.02-1.75,0.02c-0.51,0.02-1.02,0.07-1.52,0.16c-0.21,0.06-0.44,0.12-0.68,0.18l-0.37,0.11
		c-0.12,0.05-0.25,0.11-0.38,0.17c-0.65,0.3-1.27,0.68-1.82,1.13l-0.47,0.37l-0.41,0.39l-0.38,0.35c-0.11,0.12-0.21,0.22-0.3,0.32
		c-0.13,0.13-0.26,0.25-0.4,0.38l-0.38,0.4c-0.12,0.14-0.26,0.26-0.37,0.41c-0.11,0.15-0.22,0.29-0.33,0.45l-0.18,0.24
		c-0.12,0.18-0.23,0.37-0.33,0.56c-0.11,0.19-0.2,0.39-0.28,0.59c-0.16,0.4-0.29,0.82-0.39,1.24c-0.05,0.21-0.09,0.42-0.13,0.63
		l-0.08,0.64l-0.04,0.32l-0.02,0.32l-0.04,0.64c0,0.69-0.02,1.24,0.02,1.75c0.02,0.51,0.07,1.02,0.16,1.52
		c0.06,0.21,0.12,0.43,0.18,0.68L78.06,536.26z M85.93,540.06c-0.17-0.05-0.34-0.12-0.5-0.2c0.1-0.13,0.19-0.26,0.27-0.4
		c0.19-0.36,0.43-1.18,0.66-1.51c0.16-0.23,0.4-0.42,0.56-0.65l0.07-0.09c0.29-0.43,0.52-0.9,0.66-1.39
		c0.06,0.14,0.11,0.28,0.14,0.43c0.06,0.28,0.02,0.58,0.07,0.86c0,0.04,0.01,0.08,0.01,0.12c0.17,0.65,0.4,1.28,0.7,1.88
		c0.11,0.4,0.16,0.81,0.16,1.22c-0.16,0.02-0.32,0.03-0.48,0.03C87.47,540.4,86.68,540.3,85.93,540.06L85.93,540.06z M83.81,525.76
		c0.72-0.38,1.48-0.69,2.26-0.93c0.31-0.06,0.62-0.16,0.93-0.2c0.32-0.05,0.64-0.09,0.96-0.1c0.79-0.05,1.58,0.05,2.33,0.29
		c0.59,0.25,1.15,0.54,1.69,0.88c0.11,0.07,0.25,0.15,0.4,0.22c0.15,0.07,0.3,0.16,0.43,0.25c0.81,0.49,1.48,1.16,1.98,1.96
		c0.38,0.72,0.69,1.48,0.93,2.26c0.06,0.31,0.16,0.62,0.2,0.93c0.05,0.32,0.09,0.64,0.1,0.96c0.05,0.79-0.05,1.58-0.29,2.33
		c-0.25,0.59-0.54,1.15-0.88,1.69c-0.07,0.11-0.15,0.25-0.22,0.4c-0.07,0.15-0.16,0.3-0.25,0.43c-0.49,0.81-1.16,1.48-1.96,1.98
		c-0.32,0.17-0.64,0.32-0.95,0.45c-0.09-0.29-0.18-0.58-0.28-0.88c-0.13-0.39-0.24-0.78-0.33-1.18c-0.01-0.34-0.05-0.67-0.1-1.01
		c-0.04-0.13-0.13-0.31-0.2-0.47c-0.21-0.44-0.37-0.91-0.48-1.39c-0.05-0.42-0.14-0.84-0.27-1.25c-0.1-0.33-0.21-0.67-0.31-1.01
		l-0.01-0.05l-0.02-0.05l-0.02-0.05l-0.02-0.05l-0.03-0.05l-0.03-0.05l-0.03-0.05L89.28,532l-0.04-0.04l-0.04-0.04l-0.04-0.03
		l-0.05-0.03l-0.02-0.01l-0.03-0.01l-0.03-0.01L89,531.81l-0.03-0.01l-0.03-0.01l-0.02,0l0-0.01l0-0.03l0-0.05l0-0.04l-0.01-0.04
		l-0.01-0.04l-0.01-0.03l-0.01-0.03l0-0.01l-0.02-0.05l-0.02-0.04l-0.02-0.04l-0.02-0.03l-0.02-0.02l-0.02-0.02l-0.02-0.01
		l-0.14-0.11l-0.14-0.1l-0.14-0.1l-0.14-0.09l-0.28-0.17l-0.28-0.16l-0.84,1.48l0,0l0.84-1.48c-0.29-0.16-0.59-0.3-0.89-0.46
		c-0.37-0.18-0.73-0.38-1.07-0.59c-0.25-0.23-0.52-0.44-0.79-0.63c-0.13-0.06-0.31-0.12-0.47-0.19c-0.46-0.16-0.91-0.37-1.33-0.63
		c-0.31-0.24-0.64-0.45-0.98-0.63C82.51,526.74,83.11,526.17,83.81,525.76z M80.29,533.55c-0.05-0.32-0.09-0.64-0.1-0.96
		c-0.05-0.79,0.05-1.58,0.29-2.33c0.04-0.13,0.09-0.26,0.15-0.38c0.13,0.1,0.28,0.2,0.43,0.27c0.36,0.19,1.19,0.42,1.53,0.64
		c0.24,0.16,0.43,0.4,0.67,0.55l0.09,0.07c0.58,0.33,1.2,0.61,1.83,0.82c0.36,0.21,0.69,0.46,0.99,0.75
		c-0.15,0.28-0.3,0.56-0.45,0.85c-0.18,0.36-0.39,0.71-0.61,1.05c-0.23,0.24-0.45,0.5-0.64,0.77c-0.06,0.12-0.13,0.31-0.19,0.47
		c-0.17,0.46-0.39,0.9-0.65,1.31c-0.24,0.3-0.45,0.63-0.64,0.96c-0.64-0.43-1.18-1-1.57-1.66c-0.38-0.72-0.69-1.48-0.93-2.26
		C80.43,534.17,80.33,533.87,80.29,533.55L80.29,533.55z"/>
	<path id="패스_12164" class="st1" d="M122.66,528.21c-0.09-0.27-0.26-0.5-0.48-0.67c-0.08-0.06-0.16-0.12-0.24-0.16
		c-0.29-0.11-0.6-0.13-0.9-0.05c-0.12,0.02-0.24,0.02-0.36,0.01c-0.34-0.03-0.67-0.07-1.03-0.1s-0.76-0.04-1.24-0.04
		c-0.88,0.01-2.68,0.22-3.56,0.2c-0.61-0.02-1.22-0.13-1.83-0.16l-0.25-0.02c-1.44-0.11-2.87,0.16-4.31,0.19
		c-0.92,0-1.83-0.06-2.75-0.17c-0.18-0.01-0.37-0.03-0.58-0.03s-0.5-0.06-0.74-0.05c-0.4,0.01-1.23,0.21-1.45,0.66
		c-0.26,0.39-0.36,0.87-0.29,1.34c0.17,0.34,0.4,0.64,0.68,0.89c0.3,0.18,0.66,0.22,0.99,0.11c0.25-0.05,0.5-0.08,0.75-0.08
		c0.21,0,0.42,0,0.63,0c0.72-0.01,1.42-0.03,2.16-0.04c0.88-0.01,1.76-0.04,2.64-0.01c0.72,0.02,1.44,0.18,2.15,0.17
		c0.3-0.01,0.72-0.04,1.09-0.07c1.05-0.03,2.04-0.18,3.15-0.11c0.99,0.07,1.87,0.07,2.75,0.06l0.59-0.01c0.25,0,0.57,0.06,0.82,0.05
		c0.38,0.05,0.77-0.05,1.08-0.28C122.61,529.44,122.82,528.81,122.66,528.21z"/>
	<path id="패스_12165" class="st1" d="M118.65,534.95c-0.06-0.06-0.13-0.11-0.2-0.16c-0.23-0.11-0.49-0.13-0.74-0.05
		c-0.1,0.02-0.19,0.02-0.29,0.01c-0.28-0.03-0.55-0.07-0.85-0.1c-0.34-0.03-0.68-0.04-1.02-0.04c-0.72,0.01-2.2,0.22-2.92,0.2
		c-0.5-0.02-1-0.13-1.5-0.16l-0.2-0.02c-1.18,0-2.36,0.06-3.53,0.19c-0.75,0-1.51-0.06-2.25-0.17c-0.15-0.01-0.31-0.03-0.47-0.03
		s-0.41-0.06-0.6-0.05c-0.48,0-0.93,0.25-1.18,0.66c-0.22,0.41-0.3,0.88-0.24,1.34c0.13,0.33,0.32,0.63,0.56,0.89
		c0.23,0.18,0.54,0.22,0.81,0.11c0.2-0.05,0.41-0.08,0.61-0.08c0.17,0,0.35,0,0.52,0c0.59-0.01,1.16-0.03,1.77-0.04
		c0.72-0.01,1.45-0.04,2.17-0.01c0.59,0.02,1.18,0.18,1.76,0.17c0.25-0.01,0.59-0.04,0.89-0.07c0.86-0.09,1.72-0.12,2.58-0.11
		c0.81,0.07,1.54,0.07,2.25,0.06l0.49-0.01c0.21,0,0.46,0.06,0.67,0.05c0.32,0.05,0.65-0.05,0.88-0.28c0.4-0.44,0.56-1.04,0.43-1.61
		C118.98,535.37,118.85,535.14,118.65,534.95z"/>
</g>
</svg>
